Time,Legal,wasIllegal,LOLs,Valid,Slides,N reset,Temp,ambient T,N,Mean [s],Range [s],StdD [s],N C,Mean C,Range C,StdD C,N fo,Mean fo,Range fo,StdD fo,ddmtd,range dd,stdD dd,timeTook (100k),txpi_steps,desired_shift,step_done,ali_done,undo_step,undo
2023-07-21 13:37:16.981397,1,True,0,1,38,0,629,28.13,1.11972E+05,1.3181136E-09,7.239e-11,9.3469E-12,1.11972E+05,1.556924E-10,1.1399999999999981e-11,1.5076E-12,1.11896E+05,1.7601003E-09,2.500065e-08,2.0765342E-09,0.0,0.0,0.0,4.893236,0,0,0,0,0,0
2023-07-21 13:37:36.346347,1,True,0,1,38,0,629,28.12,1.11972E+05,1.3184807E-09,7.411999999999995e-11,9.4343E-12,1.11972E+05,1.553516E-10,1.0990000000000005e-11,1.3977E-12,1.11872E+05,1.8347928E-09,2.496076e-08,2.2207639E-09,0.0,0.0,0.0,4.858528,0,0,0,0,0,0
2023-07-21 13:37:55.757313,1,True,0,1,38,0,629,28.13,1.11972E+05,1.3177950E-09,6.741000000000008e-11,9.3412E-12,1.11972E+05,1.556999E-10,1.2160000000000013e-11,1.4870E-12,1.11908E+05,1.7750937E-09,2.4984710000000002e-08,2.1179754E-09,0.0,0.0,0.0,4.855882,0,0,0,0,0,0
2023-07-21 13:38:15.098127,1,True,0,1,38,0,629,28.16,1.11972E+05,1.3175868E-09,6.837000000000004e-11,9.4005E-12,1.11972E+05,1.550019E-10,1.161e-11,1.6230E-12,1.11876E+05,1.8336298E-09,2.485331e-08,2.1938676E-09,0.0,0.0,0.0,4.798805,0,0,0,0,0,0
2023-07-21 13:38:34.528401,1,True,0,1,38,0,629,28.16,1.11972E+05,1.3179166E-09,6.81e-11,9.3683E-12,1.11972E+05,1.559226E-10,1.1439999999999988e-11,1.6047E-12,1.11898E+05,1.8046159E-09,2.490045e-08,2.1558318E-09,0.0,0.0,0.0,4.921124,0,0,0,0,0,0
2023-07-21 13:38:53.854655,1,True,0,1,38,0,629,28.13,1.11972E+05,1.3189234E-09,7.321999999999988e-11,9.6137E-12,1.11972E+05,1.555157E-10,1.0369999999999986e-11,1.3596E-12,1.11821E+05,1.9071566E-09,2.4787030000000002e-08,2.3443324E-09,0.0,0.0,0.0,4.891979,0,0,0,0,0,0
2023-07-21 13:39:13.064251,1,True,0,1,38,0,629,28.1,1.11972E+05,1.3181243E-09,7.060999999999982e-11,9.4172E-12,1.11972E+05,1.554430E-10,1.2900000000000002e-11,1.6573E-12,1.07881E+05,1.9437808E-09,2.498115e-08,2.3480995E-09,0.0,0.0,0.0,5.033673,0,0,0,0,0,0
2023-07-21 13:39:32.310202,1,True,0,1,38,0,629,28.08,1.11972E+05,1.3182486E-09,6.786999999999989e-11,9.2968E-12,1.11972E+05,1.558460E-10,1.368999999999998e-11,1.6877E-12,1.11751E+05,1.9265555E-09,2.492846e-08,2.3966407E-09,0.0,0.0,0.0,4.891661,0,0,0,0,0,0
2023-07-21 13:39:51.004176,1,True,0,1,38,0,629,28.08,1.07973E+05,1.3176733E-09,6.763000000000011e-11,9.3346E-12,1.07973E+05,1.554330E-10,1.2229999999999993e-11,1.6143E-12,1.07848E+05,1.8810402E-09,2.497574e-08,2.2589830E-09,0.0,0.0,0.0,4.912561,0,0,0,0,0,0
2023-07-21 13:40:10.337669,1,True,0,1,38,0,629,28.0,1.11972E+05,1.3184705E-09,7.061000000000003e-11,9.3946E-12,1.11972E+05,1.554583E-10,1.1490000000000004e-11,1.4973E-12,1.11801E+05,1.9392148E-09,2.487695e-08,2.3646951E-09,0.0,0.0,0.0,4.836175,0,0,0,0,0,0
2023-07-21 13:40:29.622019,1,True,0,1,38,0,628,28.03,1.11972E+05,1.3170478E-09,6.888999999999996e-11,9.2113E-12,1.11972E+05,1.551635E-10,1.1300000000000002e-11,1.6144E-12,1.11670E+05,2.0172984E-09,2.491186e-08,2.5496384E-09,0.0,0.0,0.0,4.885994,0,0,0,0,0,0
2023-07-21 13:40:48.995249,1,True,0,1,38,0,629,28.08,1.11972E+05,1.3178438E-09,6.619999999999983e-11,9.4353E-12,1.11972E+05,1.551645E-10,1.2139999999999996e-11,1.5439E-12,1.11850E+05,1.8378682E-09,2.485124e-08,2.2238580E-09,0.0,0.0,0.0,4.940102,0,0,0,0,0,0
2023-07-21 13:41:08.249911,1,True,0,1,38,0,629,28.0,1.11972E+05,1.3179635E-09,7.107000000000005e-11,9.3088E-12,1.11972E+05,1.550747E-10,1.249e-11,1.6063E-12,1.11833E+05,1.9116245E-09,2.499209e-08,2.3374665E-09,0.0,0.0,0.0,4.895615,0,0,0,0,0,0
2023-07-21 13:41:27.631386,1,True,0,1,38,0,629,28.03,1.11972E+05,1.3179608E-09,6.804999999999999e-11,9.2410E-12,1.11972E+05,1.552126E-10,1.3530000000000004e-11,1.8113E-12,1.11836E+05,1.9041830E-09,2.498964e-08,2.3329818E-09,0.0,0.0,0.0,4.818692,0,0,0,0,0,0
2023-07-21 13:41:46.314116,1,True,0,1,38,0,628,27.97,1.11972E+05,1.3179729E-09,7.122999999999997e-11,9.3677E-12,1.11972E+05,1.556497E-10,1.3000000000000007e-11,1.5690E-12,1.11805E+05,1.9110586E-09,2.494352e-08,2.3835628E-09,0.0,0.0,0.0,4.828317,0,0,0,0,0,0
2023-07-21 13:42:05.052252,1,True,0,1,38,0,628,27.99,1.07973E+05,1.3183188E-09,7.399000000000007e-11,9.3969E-12,1.07973E+05,1.549668E-10,1.1050000000000003e-11,1.4103E-12,1.07854E+05,1.8503114E-09,2.498444e-08,2.2667312E-09,0.0,0.0,0.0,4.884639,0,0,0,0,0,0
2023-07-21 13:42:24.402277,1,True,0,1,38,0,628,28.03,1.11972E+05,1.3166050E-09,7.392999999999997e-11,9.5579E-12,1.11972E+05,1.556451E-10,1.1719999999999986e-11,1.5940E-12,1.11796E+05,1.9241071E-09,2.499894e-08,2.3903531E-09,0.0,0.0,0.0,4.875695,0,0,0,0,0,0
2023-07-21 13:42:43.775377,1,True,0,1,38,0,629,28.02,1.11972E+05,1.3174181E-09,6.792999999999999e-11,9.3341E-12,1.11972E+05,1.553090E-10,1.173000000000002e-11,1.4323E-12,1.11860E+05,1.8665432E-09,2.494774e-08,2.2453584E-09,0.0,0.0,0.0,4.901334,0,0,0,0,0,0
2023-07-21 13:43:02.454558,1,True,0,1,38,0,629,27.97,1.07973E+05,1.3187705E-09,7.508000000000012e-11,9.6153E-12,1.07973E+05,1.557704E-10,2.4279999999999993e-11,3.1774E-12,1.07849E+05,1.8511166E-09,2.491894e-08,2.2359949E-09,0.0,0.0,0.0,4.910904,0,0,0,0,0,0
2023-07-21 13:43:21.770589,1,True,0,1,38,0,629,27.97,1.11972E+05,1.3190094E-09,7.364999999999984e-11,9.3153E-12,1.11972E+05,1.558216E-10,2.3010000000000006e-11,2.9362E-12,1.11829E+05,1.8782877E-09,2.488046e-08,2.3067559E-09,0.0,0.0,0.0,4.874627,0,0,0,0,0,0
2023-07-21 13:43:40.422278,1,True,0,1,38,0,629,28.0,1.07973E+05,1.3199957E-09,7.591e-11,9.4160E-12,1.07973E+05,1.553888E-10,1.1909999999999988e-11,1.4568E-12,1.07797E+05,1.9282992E-09,2.498628e-08,2.4035514E-09,0.0,0.0,0.0,4.932171,0,0,0,0,0,0
2023-07-21 13:43:59.866865,1,True,0,1,38,0,629,27.99,1.11972E+05,1.3184138E-09,7.293999999999996e-11,9.2735E-12,1.11972E+05,1.551724E-10,1.162999999999999e-11,1.5654E-12,1.11870E+05,1.8153364E-09,2.499554e-08,2.1973189E-09,0.0,0.0,0.0,4.891233,0,0,0,0,0,0
2023-07-21 13:44:19.300303,1,True,0,1,38,0,629,28.06,1.11972E+05,1.3179142E-09,7.289000000000015e-11,9.7127E-12,1.11972E+05,1.550426E-10,1.2840000000000004e-11,1.6705E-12,1.11874E+05,1.7704356E-09,2.496286e-08,2.1515846E-09,0.0,0.0,0.0,4.888101,0,0,0,0,0,0
2023-07-21 13:44:38.591350,1,True,0,1,38,0,629,28.13,1.11972E+05,1.3182646E-09,7.257000000000009e-11,9.6340E-12,1.11972E+05,1.552902E-10,1.0420000000000001e-11,1.1558E-12,1.11847E+05,1.9260304E-09,2.499866e-08,2.2844695E-09,0.0,0.0,0.0,4.861506,0,0,0,0,0,0
2023-07-21 13:44:57.815049,1,True,0,1,38,0,629,28.1,1.11972E+05,1.3176929E-09,6.654999999999994e-11,9.3775E-12,1.11972E+05,1.551149E-10,1.1759999999999994e-11,1.5196E-12,1.11821E+05,1.9764952E-09,2.497728e-08,2.3803902E-09,0.0,0.0,0.0,4.834088,0,0,0,0,0,0
2023-07-21 13:45:17.069684,1,True,0,1,38,0,629,28.03,1.11972E+05,1.3175987E-09,7.013000000000005e-11,9.5907E-12,1.11972E+05,1.554613E-10,1.3000000000000007e-11,1.8080E-12,1.11851E+05,1.9273774E-09,2.49026e-08,2.3323893E-09,0.0,0.0,0.0,4.892435,0,0,0,0,0,0
2023-07-21 13:45:36.390340,1,True,0,1,38,0,629,28.0,1.11972E+05,1.3188195E-09,7.755e-11,9.7244E-12,1.11972E+05,1.558561E-10,2.2580000000000014e-11,2.9722E-12,1.11789E+05,1.9018530E-09,2.495074e-08,2.3504869E-09,0.0,0.0,0.0,4.835925,0,0,0,0,0,0
2023-07-21 13:45:55.075017,1,True,0,1,38,0,629,27.94,1.07973E+05,1.3171980E-09,7.391e-11,9.3794E-12,1.07973E+05,1.551100E-10,1.2130000000000014e-11,1.6874E-12,1.07745E+05,1.9080203E-09,2.49464e-08,2.4316350E-09,0.0,0.0,0.0,4.874674,0,0,0,0,0,0
2023-07-21 13:46:14.486312,1,True,0,1,38,0,629,27.88,1.11972E+05,1.3197601E-09,7.124999999999993e-11,9.6706E-12,1.11972E+05,1.554475E-10,1.1089999999999984e-11,1.6172E-12,1.11864E+05,1.8307096E-09,2.4941210000000002e-08,2.2156090E-09,0.0,0.0,0.0,4.818071,0,0,0,0,0,0
2023-07-21 13:46:33.874774,1,True,0,1,38,0,629,27.84,1.11972E+05,1.3185400E-09,7.276000000000007e-11,9.5659E-12,1.11972E+05,1.555106E-10,1.2149999999999979e-11,1.4533E-12,1.11845E+05,1.8299486E-09,2.493491e-08,2.2096453E-09,0.0,0.0,0.0,4.921863,0,0,0,0,0,0
2023-07-21 13:46:53.192511,1,True,0,1,38,0,629,27.91,1.11972E+05,1.3189208E-09,7.250999999999999e-11,9.3673E-12,1.11972E+05,1.553521E-10,1.231999999999999e-11,1.6687E-12,1.11903E+05,1.8007035E-09,2.489204e-08,2.1374008E-09,0.0,0.0,0.0,4.859702,0,0,0,0,0,0
2023-07-21 13:47:12.508506,1,True,0,1,38,0,629,27.92,1.11972E+05,1.3192518E-09,7.100999999999994e-11,9.4692E-12,1.11972E+05,1.554800E-10,1.335000000000001e-11,1.6287E-12,1.11901E+05,1.8262122E-09,2.496659e-08,2.1328009E-09,0.0,0.0,0.0,4.857686,0,0,0,0,0,0
2023-07-21 13:47:31.806713,1,True,0,1,38,0,629,27.97,1.11972E+05,1.3182183E-09,7.11499999999999e-11,9.4457E-12,1.11972E+05,1.554147E-10,1.2079999999999999e-11,1.7623E-12,1.11857E+05,1.9046490E-09,2.492044e-08,2.2728185E-09,0.0,0.0,0.0,4.907071,0,0,0,0,0,0
2023-07-21 13:47:51.094651,1,True,0,1,38,0,629,28.0,1.11972E+05,1.3177016E-09,7.081000000000009e-11,9.5927E-12,1.11972E+05,1.560233E-10,2.3359999999999984e-11,3.0197E-12,1.07916E+05,1.8864499E-09,2.495131e-08,2.2779330E-09,0.0,0.0,0.0,4.866773,0,0,0,0,0,0
2023-07-21 13:48:09.944528,1,True,0,1,38,0,629,27.99,1.07973E+05,1.3177140E-09,6.495999999999995e-11,9.3766E-12,1.07973E+05,1.554874E-10,1.1839999999999982e-11,1.6337E-12,1.07908E+05,1.7643577E-09,2.477554e-08,2.0927879E-09,0.0,0.0,0.0,4.814913,0,0,0,0,0,0
2023-07-21 13:48:29.238541,1,True,0,1,38,0,629,27.99,1.11972E+05,1.3173926E-09,7.289000000000015e-11,9.7571E-12,1.11972E+05,1.551290E-10,1.3590000000000002e-11,1.8552E-12,1.11705E+05,1.9488440E-09,2.498963e-08,2.4919240E-09,0.0,0.0,0.0,4.846066,0,0,0,0,0,0
2023-07-21 13:48:47.891742,1,True,0,1,38,0,629,27.94,1.07973E+05,1.3180216E-09,7.369000000000019e-11,9.3198E-12,1.07973E+05,1.551406E-10,1.1680000000000005e-11,1.4825E-12,1.07779E+05,1.9559864E-09,2.496049e-08,2.4020273E-09,0.0,0.0,0.0,4.842584,0,0,0,0,0,0
2023-07-21 13:49:07.281074,1,True,0,1,38,0,629,27.95,1.11972E+05,1.3179185E-09,6.483000000000007e-11,9.6985E-12,1.11972E+05,1.548017E-10,1.1669999999999997e-11,1.4403E-12,1.11867E+05,1.8453991E-09,2.495728e-08,2.2365670E-09,0.0,0.0,0.0,4.959049,0,0,0,0,0,0
2023-07-21 13:49:26.684832,1,True,0,1,38,0,629,27.87,1.11972E+05,1.3172363E-09,8.096999999999998e-11,9.9111E-12,1.11972E+05,1.560516E-10,2.2579999999999988e-11,2.7992E-12,1.11858E+05,1.8089448E-09,2.493598e-08,2.1920012E-09,0.0,0.0,0.0,4.848561,0,0,0,0,0,0
2023-07-21 13:49:45.970382,1,True,0,1,38,0,629,27.9,1.11972E+05,1.3183420E-09,7.237000000000003e-11,9.4299E-12,1.11972E+05,1.552050E-10,1.2799999999999997e-11,1.6117E-12,1.11850E+05,1.9093440E-09,2.49583e-08,2.2989723E-09,0.0,0.0,0.0,4.926447,0,0,0,0,0,0
2023-07-21 13:50:05.291742,1,True,0,1,38,0,629,27.78,1.11972E+05,1.3186764E-09,7.657000000000008e-11,9.7794E-12,1.11972E+05,1.565706E-10,2.386999999999999e-11,3.2807E-12,1.11844E+05,1.8451400E-09,2.494416e-08,2.2588709E-09,0.0,0.0,0.0,4.855975,0,0,0,0,0,0
2023-07-21 13:50:24.723361,1,True,0,1,38,0,629,27.78,1.11972E+05,1.3176759E-09,7.55e-11,9.6042E-12,1.11972E+05,1.547765E-10,1.3150000000000001e-11,1.6468E-12,1.11827E+05,1.8588914E-09,2.498268e-08,2.3152796E-09,0.0,0.0,0.0,4.849339,0,0,0,0,0,0
2023-07-21 13:50:43.962585,1,True,0,1,38,0,629,27.8,1.11972E+05,1.3181708E-09,7.174e-11,9.4144E-12,1.11972E+05,1.547357E-10,1.2150000000000005e-11,1.4422E-12,1.11826E+05,1.9232976E-09,2.497121e-08,2.3400530E-09,0.0,0.0,0.0,4.873058,0,0,0,0,0,0
2023-07-21 13:51:03.308710,1,True,0,1,38,0,629,27.77,1.11972E+05,1.3172940E-09,6.986999999999988e-11,9.4628E-12,1.11972E+05,1.549295E-10,1.2630000000000012e-11,1.5957E-12,1.11885E+05,1.8146068E-09,2.48801e-08,2.1413534E-09,0.0,0.0,0.0,4.909869,0,0,0,0,0,0
2023-07-21 13:51:21.960690,1,True,0,1,38,0,629,27.81,1.07973E+05,1.3196751E-09,7.548000000000003e-11,9.4265E-12,1.07973E+05,1.550009E-10,1.1619999999999982e-11,1.5711E-12,1.07827E+05,1.9656907E-09,2.498639e-08,2.3886299E-09,0.0,0.0,0.0,4.816162,0,0,0,0,0,0
2023-07-21 13:51:41.319880,1,True,0,1,38,0,629,27.91,1.11972E+05,1.3177784E-09,7.057999999999998e-11,9.4468E-12,1.11972E+05,1.549254E-10,1.2040000000000017e-11,1.6657E-12,1.11886E+05,1.8318981E-09,2.493842e-08,2.1712851E-09,0.0,0.0,0.0,4.800596,0,0,0,0,0,0
2023-07-21 13:52:00.781992,1,True,0,1,38,0,629,27.93,1.11972E+05,1.3173803E-09,7.024999999999983e-11,9.3515E-12,1.11972E+05,1.547552E-10,1.3089999999999978e-11,1.5730E-12,1.11863E+05,1.8393695E-09,2.493568e-08,2.2287680E-09,0.0,0.0,0.0,4.835712,0,0,0,0,0,0
2023-07-21 13:52:19.497513,1,True,0,1,38,0,629,27.91,1.07973E+05,1.3188480E-09,7.317999999999995e-11,9.4775E-12,1.07973E+05,1.553286E-10,1.1740000000000003e-11,1.5288E-12,1.07850E+05,1.8597671E-09,2.496396e-08,2.2417814E-09,0.0,0.0,0.0,4.885519,0,0,0,0,0,0
2023-07-21 13:52:38.827673,1,True,0,1,38,0,629,27.88,1.11972E+05,1.3181465E-09,7.532999999999999e-11,9.9747E-12,1.11972E+05,1.557569E-10,2.1830000000000017e-11,2.8378E-12,1.11882E+05,1.8588035E-09,2.4969130000000002e-08,2.2284417E-09,0.0,0.0,0.0,5.03195,0,0,0,0,0,0
2023-07-21 13:52:58.209581,1,True,0,1,38,0,629,27.94,1.11972E+05,1.3178313E-09,7.249000000000003e-11,9.4833E-12,1.11972E+05,1.555612E-10,2.228e-11,2.7866E-12,1.11798E+05,1.9390051E-09,2.497485e-08,2.4057209E-09,0.0,0.0,0.0,4.919105,0,0,0,0,0,0
2023-07-21 13:53:17.630488,1,True,0,1,38,0,629,27.94,1.11972E+05,1.3179194E-09,6.384000000000006e-11,9.3009E-12,1.11972E+05,1.552591E-10,1.231999999999999e-11,1.7838E-12,1.11843E+05,1.8283169E-09,2.495308e-08,2.1813606E-09,0.0,0.0,0.0,4.820256,0,0,0,0,0,0
2023-07-21 13:53:37.095627,1,True,0,1,38,0,629,27.94,1.11972E+05,1.3178389E-09,6.690000000000005e-11,9.4070E-12,1.11972E+05,1.554274E-10,1.184999999999999e-11,1.4734E-12,1.11866E+05,1.7415793E-09,2.495947e-08,2.1572138E-09,0.0,0.0,0.0,4.857439,0,0,0,0,0,0
2023-07-21 13:53:56.500043,1,True,0,1,38,0,629,27.92,1.11972E+05,1.3174083E-09,6.989000000000006e-11,9.6096E-12,1.11972E+05,1.550668E-10,1.2199999999999994e-11,1.3815E-12,1.11891E+05,1.8066937E-09,2.496488e-08,2.1778148E-09,0.0,0.0,0.0,4.885949,0,0,0,0,0,0
2023-07-21 13:54:15.783521,1,True,0,1,38,0,629,27.85,1.11972E+05,1.3187047E-09,7.724999999999991e-11,9.6124E-12,1.11972E+05,1.554240E-10,1.3290000000000013e-11,1.7619E-12,1.11800E+05,1.8683729E-09,2.497024e-08,2.2361616E-09,0.0,0.0,0.0,4.870853,0,0,0,0,0,0
2023-07-21 13:54:35.019731,1,True,0,1,38,0,629,27.94,1.11972E+05,1.3180256E-09,7.249000000000003e-11,9.6162E-12,1.11972E+05,1.551856E-10,1.1879999999999989e-11,1.5647E-12,1.11837E+05,1.8729979E-09,2.495804e-08,2.3018483E-09,0.0,0.0,0.0,4.936784,0,0,0,0,0,0
2023-07-21 13:54:54.397666,1,True,0,1,38,0,629,28.0,1.11972E+05,1.3172923E-09,7.326000000000001e-11,9.5368E-12,1.11972E+05,1.553860E-10,1.1169999999999999e-11,1.4061E-12,1.11896E+05,1.8239633E-09,2.493749e-08,2.1585865E-09,0.0,0.0,0.0,4.829076,0,0,0,0,0,0
2023-07-21 13:55:13.727014,1,True,0,1,38,0,629,28.01,1.11972E+05,1.3182832E-09,6.838000000000013e-11,9.3076E-12,1.11972E+05,1.558303E-10,1.1509999999999994e-11,1.5538E-12,1.11738E+05,1.9150625E-09,2.49137e-08,2.4166825E-09,0.0,0.0,0.0,4.851658,0,0,0,0,0,0
2023-07-21 13:55:33.026000,1,True,0,1,38,0,629,28.06,1.11972E+05,1.3180480E-09,6.628999999999999e-11,9.3050E-12,1.11972E+05,1.555696E-10,1.1219999999999988e-11,1.5037E-12,1.11859E+05,1.8562014E-09,2.498263e-08,2.2491066E-09,0.0,0.0,0.0,4.858346,0,0,0,0,0,0
2023-07-21 13:55:52.384189,1,True,0,1,38,0,629,28.13,1.11972E+05,1.3186518E-09,7.023999999999996e-11,9.5482E-12,1.11972E+05,1.558514E-10,1.4329999999999991e-11,1.6937E-12,1.11829E+05,1.9392235E-09,2.497642e-08,2.3721394E-09,0.0,0.0,0.0,4.846215,0,0,0,0,0,0
2023-07-21 13:56:11.750554,1,True,0,1,38,0,629,28.13,1.11972E+05,1.3174225E-09,6.733000000000001e-11,9.3675E-12,1.11972E+05,1.560428E-10,1.2609999999999996e-11,1.5532E-12,1.11889E+05,1.7867816E-09,2.491296e-08,2.1419651E-09,0.0,0.0,0.0,4.993239,0,0,0,0,0,0
2023-07-21 13:56:30.925540,1,True,0,1,38,0,629,28.03,1.11972E+05,1.3177708E-09,6.791000000000003e-11,9.3233E-12,1.11972E+05,1.556138E-10,1.3150000000000001e-11,1.5898E-12,1.11873E+05,1.8881619E-09,2.498606e-08,2.2846400E-09,0.0,0.0,0.0,4.884085,0,0,0,0,0,0
2023-07-21 13:56:50.295084,1,True,0,1,38,0,629,28.07,1.11972E+05,1.3183766E-09,7.426000000000011e-11,9.5225E-12,1.11972E+05,1.559728E-10,1.2009999999999993e-11,1.5641E-12,1.11875E+05,1.7953689E-09,2.499388e-08,2.1638945E-09,0.0,0.0,0.0,4.81158,0,0,0,0,0,0
2023-07-21 13:57:09.620162,1,True,0,1,38,0,629,28.03,1.11972E+05,1.3187346E-09,7.021000000000011e-11,9.4119E-12,1.11972E+05,1.561639E-10,1.1520000000000003e-11,1.5093E-12,1.11833E+05,1.8542978E-09,2.487489e-08,2.2369079E-09,0.0,0.0,0.0,4.857675,0,0,0,0,0,0
2023-07-21 13:57:28.971313,1,True,0,1,38,0,629,28.03,1.11972E+05,1.3182794E-09,6.665999999999985e-11,9.4602E-12,1.11972E+05,1.555248E-10,1.2629999999999986e-11,1.7690E-12,1.11857E+05,1.8386311E-09,2.499331e-08,2.3205143E-09,0.0,0.0,0.0,4.82557,0,0,0,0,0,0
2023-07-21 13:57:48.131161,1,True,0,1,38,0,629,28.06,1.11972E+05,1.3172740E-09,6.980999999999999e-11,9.4616E-12,1.11972E+05,1.553462E-10,1.2290000000000016e-11,1.5397E-12,1.11752E+05,1.9803551E-09,2.498896e-08,2.4293008E-09,0.0,0.0,0.0,4.901525,0,0,0,0,0,0
2023-07-21 13:58:07.291637,1,True,0,1,38,0,629,28.02,1.11972E+05,1.3168902E-09,6.842999999999994e-11,9.4444E-12,1.11972E+05,1.554157E-10,1.1770000000000002e-11,1.6751E-12,1.11711E+05,2.0685939E-09,2.499805e-08,2.5323827E-09,0.0,0.0,0.0,4.9633,0,0,0,0,0,0
2023-07-21 13:58:25.977514,1,True,0,1,38,0,629,27.96,1.07973E+05,1.3175105E-09,6.682999999999986e-11,9.3354E-12,1.07973E+05,1.559910E-10,1.1669999999999997e-11,1.5635E-12,1.07838E+05,1.9623785E-09,2.494977e-08,2.4102354E-09,0.0,0.0,0.0,4.893102,0,0,0,0,0,0
2023-07-21 13:58:44.742126,1,True,0,1,38,0,629,27.92,1.07973E+05,1.3180242E-09,6.728999999999988e-11,9.2662E-12,1.07973E+05,1.560327E-10,1.3159999999999984e-11,1.7958E-12,1.07875E+05,1.8511423E-09,2.492584e-08,2.2286505E-09,0.0,0.0,0.0,4.794936,0,0,0,0,0,0
2023-07-21 13:59:04.148313,1,True,0,1,38,0,629,27.95,1.11972E+05,1.3181478E-09,6.939999999999999e-11,9.2669E-12,1.11972E+05,1.558589E-10,1.267000000000002e-11,1.7464E-12,1.11851E+05,1.7973498E-09,2.498908e-08,2.2414618E-09,0.0,0.0,0.0,4.82314,0,0,0,0,0,0
2023-07-21 13:59:23.617415,1,True,0,1,38,0,629,28.08,1.11972E+05,1.3178960E-09,6.804999999999999e-11,9.3247E-12,1.11972E+05,1.555897E-10,1.1639999999999998e-11,1.5181E-12,1.11864E+05,1.8260292E-09,2.493075e-08,2.1633496E-09,0.0,0.0,0.0,4.878718,0,0,0,0,0,0
2023-07-21 13:59:42.954432,1,True,0,1,38,0,629,28.07,1.11972E+05,1.3175268E-09,7.34399999999999e-11,9.2115E-12,1.11972E+05,1.556911E-10,1.3639999999999991e-11,1.6540E-12,1.11852E+05,1.8741286E-09,2.498093e-08,2.2289998E-09,0.0,0.0,0.0,4.924636,0,0,0,0,0,0
2023-07-21 14:00:02.415565,1,True,0,1,38,0,629,28.1,1.11972E+05,1.3174644E-09,6.487e-11,9.3126E-12,1.11972E+05,1.553327E-10,1.2549999999999998e-11,1.4008E-12,1.11898E+05,1.7541713E-09,2.497633e-08,2.1110045E-09,0.0,0.0,0.0,4.843196,0,0,0,0,0,0
2023-07-21 14:00:21.701415,1,True,0,1,38,0,629,28.09,1.11972E+05,1.3195071E-09,7.481999999999995e-11,9.6235E-12,1.11972E+05,1.558237E-10,1.3480000000000014e-11,1.6000E-12,1.11825E+05,1.9402531E-09,2.493651e-08,2.3615130E-09,0.0,0.0,0.0,4.896972,0,0,0,0,0,0
2023-07-21 14:00:41.076455,1,True,0,1,38,0,629,28.11,1.11972E+05,1.3177968E-09,6.88100000000001e-11,9.3683E-12,1.11972E+05,1.554531E-10,1.1129999999999992e-11,1.5151E-12,1.11870E+05,1.8918860E-09,2.4855e-08,2.2504240E-09,0.0,0.0,0.0,4.845712,0,0,0,0,0,0
2023-07-21 14:01:00.312504,1,True,0,1,38,0,628,28.1,1.11972E+05,1.3174268E-09,7.719000000000002e-11,9.6596E-12,1.11972E+05,1.554174E-10,1.227e-11,1.5025E-12,1.11823E+05,1.9403018E-09,2.495509e-08,2.3590436E-09,0.0,0.0,0.0,4.910335,0,0,0,0,0,0
2023-07-21 14:01:19.062480,1,True,0,1,38,0,629,28.14,1.11972E+05,1.3186173E-09,7.321e-11,9.6063E-12,1.11972E+05,1.551918E-10,2.116999999999999e-11,2.7481E-12,1.11881E+05,1.8444739E-09,2.492752e-08,2.1967556E-09,0.0,0.0,0.0,4.948569,0,0,0,0,0,0
2023-07-21 14:01:37.845550,1,True,0,1,38,0,628,28.1,1.07973E+05,1.3173441E-09,6.273000000000005e-11,9.3057E-12,1.07973E+05,1.552911E-10,1.274e-11,1.7715E-12,1.07862E+05,1.8667938E-09,2.499906e-08,2.2996851E-09,0.0,0.0,0.0,4.9089,0,0,0,0,0,0
2023-07-21 14:01:57.166783,1,True,0,1,38,0,629,28.1,1.11972E+05,1.3168616E-09,6.313999999999985e-11,9.3404E-12,1.11972E+05,1.554233E-10,1.2849999999999987e-11,1.6425E-12,1.11835E+05,1.8790808E-09,2.499188e-08,2.2784905E-09,0.0,0.0,0.0,4.910088,0,0,0,0,0,0
2023-07-21 14:02:16.615427,1,True,0,1,38,0,628,28.1,1.11972E+05,1.3181409E-09,6.832000000000003e-11,9.3613E-12,1.11972E+05,1.555733E-10,1.4209999999999995e-11,1.7855E-12,1.11879E+05,1.8154492E-09,2.492618e-08,2.1484146E-09,0.0,0.0,0.0,4.827633,0,0,0,0,0,0
2023-07-21 14:02:35.971313,1,True,0,1,38,0,629,28.11,1.11972E+05,1.3169030E-09,7.107000000000005e-11,9.3861E-12,1.11972E+05,1.555206E-10,1.162999999999999e-11,1.5324E-12,1.11810E+05,1.9016854E-09,2.499953e-08,2.2943262E-09,0.0,0.0,0.0,4.960687,0,0,0,0,0,0
2023-07-21 14:02:55.348933,1,True,0,1,38,0,629,28.13,1.11972E+05,1.3171160E-09,6.89799999999999e-11,9.4329E-12,1.11972E+05,1.553972E-10,1.1319999999999993e-11,1.5691E-12,1.11861E+05,1.8556503E-09,2.495883e-08,2.2443385E-09,0.0,0.0,0.0,4.897098,0,0,0,0,0,0
2023-07-21 14:03:14.594313,1,True,0,1,38,0,629,28.07,1.11972E+05,1.3174534E-09,6.74600000000001e-11,9.4145E-12,1.11972E+05,1.553316E-10,1.2760000000000016e-11,1.5037E-12,1.11861E+05,1.8921847E-09,2.496276e-08,2.2554001E-09,0.0,0.0,0.0,4.971302,0,0,0,0,0,0
2023-07-21 14:03:33.239126,1,True,0,1,38,0,629,28.04,1.11972E+05,1.3169540E-09,7.285000000000001e-11,9.4886E-12,1.11972E+05,1.556126E-10,1.1639999999999998e-11,1.5796E-12,1.11852E+05,1.8651030E-09,2.498537e-08,2.2553970E-09,0.0,0.0,0.0,4.825255,0,0,0,0,0,0
2023-07-21 14:03:52.633421,1,True,0,1,38,0,629,28.03,1.11972E+05,1.3164052E-09,6.362999999999991e-11,9.3078E-12,1.11972E+05,1.556514E-10,1.136e-11,1.5722E-12,1.11902E+05,1.8147479E-09,2.492104e-08,2.1318116E-09,0.0,0.0,0.0,4.833062,0,0,0,0,0,0
2023-07-21 14:04:11.894937,1,True,0,1,38,0,629,28.02,1.11972E+05,1.3168278E-09,7.061000000000003e-11,9.3925E-12,1.11972E+05,1.548614E-10,1.1729999999999995e-11,1.5495E-12,1.11868E+05,1.8309498E-09,2.494662e-08,2.2345026E-09,0.0,0.0,0.0,4.902113,0,0,0,0,0,0
2023-07-21 14:04:31.227404,1,True,0,1,38,0,629,27.96,1.11972E+05,1.3167089E-09,7.564000000000016e-11,9.8805E-12,1.11972E+05,1.556955E-10,1.2629999999999986e-11,1.5991E-12,1.11776E+05,1.8972589E-09,2.498251e-08,2.3437751E-09,0.0,0.0,0.0,4.816689,0,0,0,0,0,0
2023-07-21 14:04:50.688394,1,True,0,1,38,0,629,27.87,1.11972E+05,1.3180971E-09,6.567000000000004e-11,9.4227E-12,1.11972E+05,1.555085E-10,1.2430000000000003e-11,1.6092E-12,1.11883E+05,1.8295636E-09,2.494518e-08,2.1947962E-09,0.0,0.0,0.0,4.878208,0,0,0,0,0,0
2023-07-21 14:05:09.990474,1,True,0,1,38,0,629,27.91,1.11972E+05,1.3178322E-09,6.725000000000016e-11,9.3746E-12,1.11972E+05,1.555083E-10,1.1819999999999991e-11,1.6621E-12,1.11874E+05,1.8696502E-09,2.49606e-08,2.2346271E-09,0.0,0.0,0.0,4.858889,0,0,0,0,0,0
2023-07-21 14:05:29.379262,1,True,0,1,38,0,629,27.87,1.11972E+05,1.3180441E-09,7.252000000000008e-11,9.7788E-12,1.11972E+05,1.558586E-10,1.1710000000000004e-11,1.5616E-12,1.11877E+05,1.8635930E-09,2.494613e-08,2.2042963E-09,0.0,0.0,0.0,4.905485,0,0,0,0,0,0
2023-07-21 14:05:48.762581,1,True,0,1,38,0,629,27.85,1.11972E+05,1.3180951E-09,6.548999999999995e-11,9.2725E-12,1.11972E+05,1.548948E-10,1.1949999999999995e-11,1.6100E-12,1.11840E+05,1.9233822E-09,2.498843e-08,2.3171097E-09,0.0,0.0,0.0,4.778377,0,0,0,0,0,0
2023-07-21 14:06:08.120242,1,True,0,1,38,0,629,27.9,1.11972E+05,1.3171575E-09,6.813999999999993e-11,9.5653E-12,1.11972E+05,1.553572E-10,1.205e-11,1.5732E-12,1.11847E+05,1.8591851E-09,2.500034e-08,2.3059061E-09,0.0,0.0,0.0,4.913584,0,0,0,0,0,0
2023-07-21 14:06:27.417476,1,True,0,1,38,0,629,27.91,1.11972E+05,1.3170492E-09,6.765000000000007e-11,9.6332E-12,1.11972E+05,1.553713E-10,1.3219999999999981e-11,1.6610E-12,1.11892E+05,1.8561327E-09,2.498315e-08,2.2121222E-09,0.0,0.0,0.0,4.918078,0,0,0,0,0,0
2023-07-21 14:06:46.786996,1,True,0,1,38,0,629,27.97,1.11972E+05,1.3170165E-09,7.186e-11,9.4557E-12,1.11972E+05,1.555337E-10,1.2060000000000008e-11,1.5520E-12,1.11879E+05,1.8176942E-09,2.496946e-08,2.1415760E-09,0.0,0.0,0.0,4.84397,0,0,0,0,0,0
2023-07-21 14:07:06.005955,1,True,0,1,38,0,629,27.89,1.11972E+05,1.3170508E-09,6.973000000000013e-11,9.6084E-12,1.11972E+05,1.552452E-10,1.4319999999999983e-11,1.7803E-12,1.11805E+05,1.9300622E-09,2.492685e-08,2.3742887E-09,0.0,0.0,0.0,4.865572,0,0,0,0,0,0
2023-07-21 14:07:25.395538,1,True,0,1,38,0,629,27.93,1.11972E+05,1.3179182E-09,7.362e-11,9.6944E-12,1.11972E+05,1.557170E-10,1.1690000000000013e-11,1.4357E-12,1.11874E+05,1.8560077E-09,2.500124e-08,2.2193283E-09,0.0,0.0,0.0,4.862278,0,0,0,0,0,0
2023-07-21 14:07:44.727551,1,True,0,1,38,0,629,27.9,1.11972E+05,1.3174648E-09,6.880999999999989e-11,9.5104E-12,1.11972E+05,1.553709E-10,1.1740000000000003e-11,1.4809E-12,1.11836E+05,1.8912574E-09,2.490098e-08,2.3089331E-09,0.0,0.0,0.0,4.863448,0,0,0,0,0,0
2023-07-21 14:08:04.000007,1,True,0,1,38,0,629,27.91,1.11972E+05,1.3167572E-09,6.659000000000008e-11,9.2866E-12,1.11972E+05,1.555978E-10,1.1870000000000007e-11,1.6640E-12,1.11737E+05,1.9650139E-09,2.498665e-08,2.4456620E-09,0.0,0.0,0.0,4.84824,0,0,0,0,0,0
2023-07-21 14:08:23.097311,1,True,0,1,38,0,629,27.92,1.11972E+05,1.3177004E-09,7.298999999999997e-11,9.3701E-12,1.11972E+05,1.554831E-10,1.2169999999999995e-11,1.6142E-12,1.07923E+05,1.8307670E-09,2.497586e-08,2.2084504E-09,0.0,0.0,0.0,4.877169,0,0,0,0,0,0
2023-07-21 14:08:42.359654,1,True,0,1,38,0,629,27.89,1.11972E+05,1.3178599E-09,7.218000000000005e-11,9.3688E-12,1.11972E+05,1.550541E-10,1.1419999999999998e-11,1.5091E-12,1.11857E+05,1.8777926E-09,2.493647e-08,2.2875618E-09,0.0,0.0,0.0,4.828682,0,0,0,0,0,0
2023-07-21 14:09:01.611628,1,True,0,1,38,0,629,27.94,1.11972E+05,1.3178276E-09,6.826999999999981e-11,9.4832E-12,1.11972E+05,1.557506E-10,1.1169999999999999e-11,1.5516E-12,1.11850E+05,1.9210795E-09,2.489844e-08,2.3100910E-09,0.0,0.0,0.0,4.832419,0,0,0,0,0,0
2023-07-21 14:09:24.043711,1,True,0,1,6,1,629,27.96,1.11972E+05,1.3185342E-09,6.442000000000007e-11,9.2607E-12,1.11972E+05,1.555885E-10,1.1520000000000003e-11,1.3698E-12,1.11880E+05,1.8082659E-09,2.499782e-08,2.2106526E-09,0.0,0.0,0.0,4.966007,0,0,0,0,0,0
2023-07-21 14:09:43.477538,1,True,0,1,6,1,629,27.94,1.11972E+05,1.3193193E-09,7.122999999999997e-11,9.4223E-12,1.11972E+05,1.554736E-10,1.1659999999999989e-11,1.7386E-12,1.11809E+05,1.8473889E-09,2.493013e-08,2.2287850E-09,0.0,0.0,0.0,4.975712,0,0,0,0,0,0
2023-07-21 14:10:02.727393,1,True,0,1,6,1,629,27.94,1.11972E+05,1.3171052E-09,6.930999999999984e-11,9.3703E-12,1.11972E+05,1.555912E-10,1.1660000000000015e-11,1.5977E-12,1.11748E+05,2.0124249E-09,2.499409e-08,2.5307406E-09,0.0,0.0,0.0,4.845523,0,0,0,0,0,0
2023-07-21 14:10:22.126158,1,True,0,1,6,1,629,27.94,1.11972E+05,1.3185833E-09,6.748999999999994e-11,9.1342E-12,1.11972E+05,1.559181E-10,1.0599999999999994e-11,1.4328E-12,1.11844E+05,1.8781156E-09,2.495152e-08,2.2494497E-09,0.0,0.0,0.0,4.940321,0,0,0,0,0,0
2023-07-21 14:10:41.409367,1,True,0,1,6,1,629,27.98,1.11972E+05,1.3177582E-09,6.963999999999998e-11,9.5600E-12,1.11972E+05,1.556792E-10,1.2449999999999993e-11,1.5880E-12,1.11870E+05,1.9079746E-09,2.487667e-08,2.2953211E-09,0.0,0.0,0.0,4.837309,0,0,0,0,0,0
2023-07-21 14:11:00.698322,1,True,0,1,6,1,629,27.95,1.11972E+05,1.3177952E-09,7.55e-11,9.6709E-12,1.11972E+05,1.559734E-10,2.097999999999999e-11,2.5439E-12,1.11821E+05,1.9247984E-09,2.499503e-08,2.4009657E-09,0.0,0.0,0.0,4.873259,0,0,0,0,0,0
2023-07-21 14:11:19.965263,1,True,0,1,6,1,629,28.0,1.11972E+05,1.3175718E-09,6.823000000000008e-11,9.3943E-12,1.11972E+05,1.555308E-10,1.2419999999999994e-11,1.7321E-12,1.11848E+05,1.8742829E-09,2.4970730000000002e-08,2.2824599E-09,0.0,0.0,0.0,4.841229,0,0,0,0,0,0
2023-07-21 14:11:39.159235,1,True,0,1,6,1,629,28.0,1.11972E+05,1.3179311E-09,7.415e-11,9.3608E-12,1.11972E+05,1.553363E-10,1.045e-11,1.4705E-12,1.11701E+05,1.9817348E-09,2.499268e-08,2.4839246E-09,0.0,0.0,0.0,4.814999,0,0,0,0,0,0
2023-07-21 14:11:58.455465,1,True,0,1,6,1,629,28.06,1.11972E+05,1.3173558E-09,6.668000000000002e-11,9.2993E-12,1.11972E+05,1.550828E-10,1.2750000000000008e-11,1.5870E-12,1.11805E+05,1.9029831E-09,2.498322e-08,2.3299289E-09,0.0,0.0,0.0,4.881897,0,0,0,0,0,0
2023-07-21 14:12:17.872234,1,True,0,1,6,1,629,28.12,1.11972E+05,1.3166150E-09,6.719999999999993e-11,9.3201E-12,1.11972E+05,1.555451E-10,1.0779999999999988e-11,1.4035E-12,1.11909E+05,1.7758215E-09,2.494756e-08,2.0686320E-09,0.0,0.0,0.0,4.927866,0,0,0,0,0,0
2023-07-21 14:12:37.191062,1,True,0,1,6,1,629,28.1,1.11972E+05,1.3172950E-09,6.654000000000006e-11,9.2249E-12,1.11972E+05,1.554225E-10,1.0810000000000012e-11,1.4343E-12,1.11844E+05,1.8892903E-09,2.499984e-08,2.2985797E-09,0.0,0.0,0.0,4.890717,0,0,0,0,0,0
2023-07-21 14:12:56.505279,1,True,0,1,6,1,629,28.1,1.11972E+05,1.3169231E-09,7.509e-11,9.5605E-12,1.11972E+05,1.552556E-10,1.1779999999999984e-11,1.4713E-12,1.11796E+05,1.9212163E-09,2.499656e-08,2.3332429E-09,0.0,0.0,0.0,4.866795,0,0,0,0,0,0
2023-07-21 14:13:15.224730,1,True,0,1,6,1,629,28.16,1.07973E+05,1.3187532E-09,6.676000000000009e-11,9.2572E-12,1.07973E+05,1.562275E-10,1.2169999999999995e-11,1.7594E-12,1.07871E+05,1.8683911E-09,2.499454e-08,2.2361236E-09,0.0,0.0,0.0,5.056584,0,0,0,0,0,0
2023-07-21 14:13:34.474147,1,True,0,1,6,1,629,28.06,1.11972E+05,1.3171552E-09,7.223999999999995e-11,9.5362E-12,1.11972E+05,1.556191E-10,1.0689999999999991e-11,1.4208E-12,1.11886E+05,1.8701443E-09,2.490156e-08,2.1947127E-09,0.0,0.0,0.0,5.00549,0,0,0,0,0,0
2023-07-21 14:13:53.215141,1,True,0,1,6,1,629,28.07,1.07973E+05,1.3173290E-09,6.738000000000003e-11,9.2224E-12,1.07973E+05,1.561712E-10,1.1729999999999995e-11,1.5888E-12,1.07885E+05,1.7628295E-09,2.487597e-08,2.1097516E-09,0.0,0.0,0.0,4.880743,0,0,0,0,0,0
2023-07-21 14:14:12.718313,1,True,0,1,6,1,629,28.04,1.11972E+05,1.3185735E-09,7.467000000000012e-11,9.8227E-12,1.11972E+05,1.556377E-10,1.2070000000000016e-11,1.6687E-12,1.11865E+05,1.8079661E-09,2.496446e-08,2.1689509E-09,0.0,0.0,0.0,4.822942,0,0,0,0,0,0
2023-07-21 14:14:32.024574,1,True,0,1,6,1,629,28.04,1.11972E+05,1.3182093E-09,6.716e-11,9.2922E-12,1.11972E+05,1.554384E-10,1.365e-11,1.8063E-12,1.11836E+05,1.8554054E-09,2.492168e-08,2.2541436E-09,0.0,0.0,0.0,4.874632,0,0,0,0,0,0
2023-07-21 14:14:50.803795,1,True,0,1,6,1,629,28.02,1.07973E+05,1.3175542E-09,6.853000000000018e-11,9.2064E-12,1.07973E+05,1.556442E-10,1.131000000000001e-11,1.5643E-12,1.07887E+05,1.8196094E-09,2.491637e-08,2.2015608E-09,0.0,0.0,0.0,4.858643,0,0,0,0,0,0
2023-07-21 14:15:09.546701,1,True,0,1,6,1,629,28.0,1.07973E+05,1.3178785E-09,6.843000000000015e-11,9.3373E-12,1.07973E+05,1.557714E-10,1.1529999999999985e-11,1.6813E-12,1.07869E+05,1.8659438E-09,2.491826e-08,2.2236692E-09,0.0,0.0,0.0,4.865001,0,0,0,0,0,0
2023-07-21 14:15:28.784581,1,True,0,1,6,1,629,27.94,1.11972E+05,1.3173208E-09,7.56800000000001e-11,9.7491E-12,1.11972E+05,1.556573E-10,1.2370000000000005e-11,1.4230E-12,1.11820E+05,1.9308524E-09,2.490063e-08,2.3806166E-09,0.0,0.0,0.0,4.840034,0,0,0,0,0,0
2023-07-21 14:15:48.056419,1,True,0,1,6,1,629,27.97,1.11972E+05,1.3171917E-09,6.868000000000002e-11,9.4309E-12,1.11972E+05,1.556461E-10,1.2919999999999993e-11,1.5525E-12,1.11780E+05,1.9086724E-09,2.497903e-08,2.2954194E-09,0.0,0.0,0.0,4.82569,0,0,0,0,0,0
2023-07-21 14:16:07.370307,1,True,0,1,6,1,629,27.95,1.11972E+05,1.3173827E-09,6.859000000000007e-11,9.4737E-12,1.11972E+05,1.558220E-10,1.162999999999999e-11,1.4697E-12,1.11835E+05,1.8778386E-09,2.493041e-08,2.3267715E-09,0.0,0.0,0.0,4.856813,0,0,0,0,0,0
2023-07-21 14:16:26.639516,1,True,0,1,6,1,629,27.95,1.11972E+05,1.3178571E-09,6.562999999999991e-11,9.4472E-12,1.11972E+05,1.555336E-10,1.2970000000000008e-11,1.5197E-12,1.11791E+05,1.9928505E-09,2.493951e-08,2.4400292E-09,0.0,0.0,0.0,4.894891,0,0,0,0,0,0
2023-07-21 14:16:45.898285,1,True,0,1,6,1,629,27.93,1.11972E+05,1.3168074E-09,6.743000000000005e-11,9.2284E-12,1.11972E+05,1.554158E-10,1.2430000000000003e-11,1.5857E-12,1.11813E+05,1.8842836E-09,2.50002e-08,2.3018421E-09,0.0,0.0,0.0,5.175669,0,0,0,0,0,0
2023-07-21 14:17:05.202351,1,True,0,1,6,1,629,27.96,1.11972E+05,1.3169702E-09,6.919000000000005e-11,9.5984E-12,1.11972E+05,1.554271E-10,1.1840000000000008e-11,1.5873E-12,1.11811E+05,1.9067436E-09,2.491407e-08,2.3248330E-09,0.0,0.0,0.0,5.401836,0,0,0,0,0,0
2023-07-21 14:17:24.476302,1,True,0,1,6,1,629,28.0,1.11972E+05,1.3176813E-09,7.172000000000004e-11,9.3526E-12,1.11972E+05,1.554175E-10,1.2299999999999999e-11,1.6065E-12,1.11760E+05,1.9551093E-09,2.495618e-08,2.4320806E-09,0.0,0.0,0.0,4.83877,0,0,0,0,0,0
2023-07-21 14:17:43.795380,1,True,0,1,6,1,629,27.97,1.11972E+05,1.3172812E-09,6.775999999999998e-11,9.5576E-12,1.11972E+05,1.555772E-10,1.2249999999999984e-11,1.5967E-12,1.11770E+05,1.8609205E-09,2.489399e-08,2.2352708E-09,0.0,0.0,0.0,4.826069,0,0,0,0,0,0
2023-07-21 14:18:03.073544,1,True,0,1,6,1,629,28.03,1.11972E+05,1.3173830E-09,6.916e-11,9.5573E-12,1.11972E+05,1.548512E-10,1.2950000000000017e-11,1.6129E-12,1.11868E+05,1.8554244E-09,2.498459e-08,2.2303385E-09,0.0,0.0,0.0,4.922241,0,0,0,0,0,0
2023-07-21 14:18:22.438732,1,True,0,1,6,1,629,28.01,1.11972E+05,1.3170637E-09,7.246000000000018e-11,9.6084E-12,1.11972E+05,1.560681E-10,2.5349999999999995e-11,3.4088E-12,1.11833E+05,1.8914326E-09,2.499196e-08,2.3256633E-09,0.0,0.0,0.0,4.876658,0,0,0,0,0,0
2023-07-21 14:18:41.617064,1,True,0,1,6,1,629,28.02,1.11972E+05,1.3161945E-09,6.455999999999983e-11,9.2211E-12,1.11972E+05,1.556347E-10,1.228999999999999e-11,1.7993E-12,1.07861E+05,1.9541240E-09,2.4932780000000002e-08,2.4171004E-09,0.0,0.0,0.0,4.863508,0,0,0,0,0,0
2023-07-21 14:19:01.019970,1,True,0,1,6,1,629,27.95,1.11972E+05,1.3176969E-09,6.446e-11,9.2667E-12,1.11972E+05,1.552884E-10,1.136e-11,1.4146E-12,1.11851E+05,1.8430572E-09,2.491972e-08,2.2138639E-09,0.0,0.0,0.0,4.877035,0,0,0,0,0,0
2023-07-21 14:19:20.231169,1,True,0,1,6,1,629,27.94,1.11972E+05,1.3159462E-09,7.39699999999999e-11,9.7000E-12,1.11972E+05,1.552897E-10,1.0629999999999993e-11,1.3594E-12,1.11813E+05,1.9539959E-09,2.500071e-08,2.3863705E-09,0.0,0.0,0.0,4.912912,0,0,0,0,0,0
2023-07-21 14:19:39.486167,1,True,0,1,6,1,629,27.9,1.11972E+05,1.3162142E-09,7.379999999999989e-11,9.3544E-12,1.11972E+05,1.547233E-10,1.200000000000001e-11,1.5863E-12,1.11746E+05,1.9821713E-09,2.498753e-08,2.4595892E-09,0.0,0.0,0.0,4.85378,0,0,0,0,0,0
2023-07-21 14:19:58.750096,1,True,0,1,6,1,629,27.97,1.11972E+05,1.3162515E-09,7.141999999999995e-11,9.4500E-12,1.11972E+05,1.554737E-10,1.1859999999999998e-11,1.5044E-12,1.11866E+05,1.8568996E-09,2.500024e-08,2.2336858E-09,0.0,0.0,0.0,4.852918,0,0,0,0,0,0
2023-07-21 14:20:18.038844,1,True,0,1,6,1,629,27.94,1.11972E+05,1.3177223E-09,7.076000000000007e-11,9.6099E-12,1.11972E+05,1.553419E-10,2.2850000000000004e-11,2.8639E-12,1.11843E+05,1.8782100E-09,2.492262e-08,2.2706974E-09,0.0,0.0,0.0,4.933818,0,0,0,0,0,0
2023-07-21 14:20:36.773558,1,True,0,1,6,1,629,27.94,1.07973E+05,1.3171900E-09,6.782999999999996e-11,9.4198E-12,1.07973E+05,1.552743E-10,1.4229999999999986e-11,1.7936E-12,1.07882E+05,1.8089093E-09,2.497646e-08,2.1777861E-09,0.0,0.0,0.0,4.838603,0,0,0,0,0,0
2023-07-21 14:20:56.147179,1,True,0,1,6,1,629,27.98,1.11972E+05,1.3179236E-09,6.575999999999999e-11,9.3710E-12,1.11972E+05,1.549578E-10,1.2090000000000007e-11,1.6525E-12,1.11900E+05,1.7806415E-09,2.4905430000000002e-08,2.0706224E-09,0.0,0.0,0.0,4.835922,0,0,0,0,0,0
2023-07-21 14:21:15.492342,1,True,0,1,6,1,629,28.02,1.11972E+05,1.3173306E-09,6.600999999999986e-11,9.3870E-12,1.11972E+05,1.554964E-10,1.2460000000000001e-11,1.5285E-12,1.11871E+05,1.8310481E-09,2.498507e-08,2.2245075E-09,0.0,0.0,0.0,4.926375,0,0,0,0,0,0
2023-07-21 14:21:34.885403,1,True,0,1,6,1,629,28.1,1.11972E+05,1.3169839E-09,7.532000000000011e-11,9.5402E-12,1.11972E+05,1.556277E-10,1.2230000000000019e-11,1.4271E-12,1.11839E+05,1.8397524E-09,2.498655e-08,2.2339674E-09,0.0,0.0,0.0,4.86554,0,0,0,0,0,0
2023-07-21 14:21:54.205818,1,True,0,1,6,1,629,28.13,1.11972E+05,1.3168380E-09,6.528999999999989e-11,9.4494E-12,1.11972E+05,1.561858E-10,1.2030000000000009e-11,1.5486E-12,1.11770E+05,1.9307190E-09,2.49835e-08,2.3810279E-09,0.0,0.0,0.0,4.882873,0,0,0,0,0,0
2023-07-21 14:22:13.059431,1,True,0,1,6,1,629,28.13,1.07973E+05,1.3186342E-09,7.792000000000008e-11,9.9055E-12,1.07973E+05,1.558148E-10,2.4529999999999992e-11,3.4195E-12,1.07832E+05,1.8033107E-09,2.495456e-08,2.1893514E-09,0.0,0.0,0.0,4.840226,0,0,0,0,0,0
2023-07-21 14:22:32.463949,1,True,0,1,6,1,629,28.13,1.11972E+05,1.3172446E-09,6.748999999999994e-11,9.5500E-12,1.11972E+05,1.553543E-10,1.178000000000001e-11,1.8654E-12,1.11857E+05,1.8139072E-09,2.497198e-08,2.1617815E-09,0.0,0.0,0.0,4.845878,0,0,0,0,0,0
2023-07-21 14:22:51.899426,1,True,0,1,6,1,629,28.16,1.11972E+05,1.3178409E-09,7.389999999999992e-11,9.6898E-12,1.11972E+05,1.560584E-10,2.499000000000001e-11,3.2772E-12,1.11868E+05,1.8064365E-09,2.497712e-08,2.1507342E-09,0.0,0.0,0.0,4.844061,0,0,0,0,0,0
2023-07-21 14:23:11.243507,1,True,0,1,6,1,629,28.08,1.11972E+05,1.3178780E-09,6.738000000000003e-11,9.1868E-12,1.11972E+05,1.555768E-10,1.2059999999999982e-11,1.6682E-12,1.11876E+05,1.8470732E-09,2.498962e-08,2.2050450E-09,0.0,0.0,0.0,4.934119,0,0,0,0,0,0
2023-07-21 14:23:30.616598,1,True,0,1,6,1,629,28.09,1.11972E+05,1.3170450E-09,7.673e-11,9.8749E-12,1.11972E+05,1.558285E-10,1.1960000000000003e-11,1.6103E-12,1.11885E+05,1.7918915E-09,2.499879e-08,2.1350524E-09,0.0,0.0,0.0,4.987784,0,0,0,0,0,0
2023-07-21 14:23:50.074848,1,True,0,1,6,1,629,28.13,1.11972E+05,1.3168276E-09,6.915000000000012e-11,9.4610E-12,1.11972E+05,1.560896E-10,1.3769999999999995e-11,1.7034E-12,1.11909E+05,1.7175201E-09,2.491075e-08,2.0521714E-09,0.0,0.0,0.0,4.886577,0,0,0,0,0,0
2023-07-21 14:24:08.656743,1,True,0,1,6,1,629,28.09,1.07973E+05,1.3179162E-09,7.045999999999998e-11,9.5882E-12,1.07973E+05,1.557581E-10,1.0620000000000011e-11,1.3548E-12,1.07582E+05,2.0389233E-09,2.4975400000000002e-08,2.5684145E-09,0.0,0.0,0.0,4.805052,0,0,0,0,0,0
2023-07-21 14:24:28.147259,1,True,0,1,6,1,629,28.06,1.11972E+05,1.3181260E-09,6.651999999999989e-11,9.2487E-12,1.11972E+05,1.552034E-10,1.2310000000000007e-11,1.5246E-12,1.11917E+05,1.7403811E-09,2.493665e-08,2.0490855E-09,0.0,0.0,0.0,4.85894,0,0,0,0,0,0
2023-07-21 14:24:47.331021,1,True,0,1,6,1,629,27.87,1.11972E+05,1.3169736E-09,6.399999999999999e-11,9.4117E-12,1.11972E+05,1.561142E-10,1.2169999999999995e-11,1.5246E-12,1.11640E+05,2.0682137E-09,2.49611e-08,2.6138742E-09,0.0,0.0,0.0,4.835646,0,0,0,0,0,0
2023-07-21 14:25:06.674769,1,True,0,1,6,1,629,27.89,1.11972E+05,1.3178510E-09,6.886999999999999e-11,9.3677E-12,1.11972E+05,1.553436E-10,1.3070000000000013e-11,1.6620E-12,1.11895E+05,1.7611359E-09,2.498684e-08,2.1305378E-09,0.0,0.0,0.0,4.975794,0,0,0,0,0,0
2023-07-21 14:25:26.007025,1,True,0,1,6,1,629,27.94,1.11972E+05,1.3171549E-09,6.746999999999997e-11,9.3992E-12,1.11972E+05,1.557535E-10,1.2440000000000011e-11,1.7546E-12,1.11785E+05,1.9057915E-09,2.499481e-08,2.3480112E-09,0.0,0.0,0.0,4.933959,0,0,0,0,0,0
2023-07-21 14:25:45.427634,1,True,0,1,6,1,629,27.9,1.11972E+05,1.3171877E-09,7.501000000000014e-11,1.00108E-11,1.11972E+05,1.562857E-10,2.4110000000000008e-11,3.2765E-12,1.11888E+05,1.8098923E-09,2.480076e-08,2.1418497E-09,0.0,0.0,0.0,4.869165,0,0,0,0,0,0
2023-07-21 14:26:04.617346,1,True,0,1,6,1,629,27.87,1.11972E+05,1.3158755E-09,7.225000000000003e-11,9.7615E-12,1.11972E+05,1.554759E-10,1.249e-11,1.7115E-12,1.11788E+05,1.9535058E-09,2.498337e-08,2.4362599E-09,0.0,0.0,0.0,4.965327,0,0,0,0,0,0
2023-07-21 14:26:23.920537,1,True,0,1,6,1,629,27.91,1.11972E+05,1.3157569E-09,7.114000000000003e-11,9.4875E-12,1.11972E+05,1.550661E-10,1.3769999999999995e-11,1.9593E-12,1.11734E+05,2.0319396E-09,2.489664e-08,2.4957276E-09,0.0,0.0,0.0,4.868775,0,0,0,0,0,0
2023-07-21 14:26:43.371019,1,True,0,1,6,1,629,27.9,1.11972E+05,1.3175270E-09,7.170000000000007e-11,9.5671E-12,1.11972E+05,1.555392E-10,1.2190000000000012e-11,1.6110E-12,1.11885E+05,1.7958869E-09,2.494364e-08,2.1226316E-09,0.0,0.0,0.0,4.805792,0,0,0,0,0,0
2023-07-21 14:27:02.759445,1,True,0,1,6,1,629,27.85,1.11972E+05,1.3169164E-09,7.059999999999994e-11,9.6058E-12,1.11972E+05,1.554091E-10,1.2509999999999991e-11,1.6750E-12,1.11650E+05,1.9168429E-09,2.499412e-08,2.4291365E-09,0.0,0.0,0.0,4.903485,0,0,0,0,0,0
2023-07-21 14:27:22.015050,1,True,0,1,6,1,629,27.87,1.11972E+05,1.3174640E-09,7.086999999999998e-11,9.4718E-12,1.11972E+05,1.553654E-10,1.1199999999999998e-11,1.3053E-12,1.11794E+05,2.0016020E-09,2.499446e-08,2.4808923E-09,0.0,0.0,0.0,4.859087,0,0,0,0,0,0
2023-07-21 14:27:41.299507,1,True,0,1,6,1,629,27.81,1.11972E+05,1.3164893E-09,7.105000000000008e-11,9.4104E-12,1.11972E+05,1.548755E-10,1.2079999999999999e-11,1.4947E-12,1.11713E+05,2.0416949E-09,2.499685e-08,2.5905588E-09,0.0,0.0,0.0,4.893385,0,0,0,0,0,0
2023-07-21 14:28:00.628167,1,True,0,1,6,1,629,27.87,1.11972E+05,1.3178145E-09,7.755e-11,9.6835E-12,1.11972E+05,1.552809E-10,1.092e-11,1.4222E-12,1.11858E+05,1.8616235E-09,2.493674e-08,2.2660980E-09,0.0,0.0,0.0,4.893413,0,0,0,0,0,0
2023-07-21 14:28:19.953497,1,True,0,1,6,1,629,27.82,1.11972E+05,1.3186648E-09,7.043000000000014e-11,9.4191E-12,1.11972E+05,1.560033E-10,1.2819999999999988e-11,1.7838E-12,1.11888E+05,1.8569643E-09,2.493473e-08,2.2482056E-09,0.0,0.0,0.0,4.836667,0,0,0,0,0,0
2023-07-21 14:28:38.577081,1,True,0,1,6,1,629,27.81,1.07973E+05,1.3175962E-09,6.812999999999985e-11,9.3609E-12,1.07973E+05,1.561150E-10,1.3019999999999997e-11,1.7934E-12,1.07824E+05,1.9123136E-09,2.498998e-08,2.3348443E-09,0.0,0.0,0.0,4.890238,0,0,0,0,0,0
2023-07-21 14:28:57.928999,1,True,0,1,6,1,629,27.85,1.11972E+05,1.3170428E-09,6.773000000000014e-11,9.6166E-12,1.11972E+05,1.557197E-10,1.2109999999999997e-11,1.6014E-12,1.11825E+05,1.8469565E-09,2.497771e-08,2.2941519E-09,0.0,0.0,0.0,4.925311,0,0,0,0,0,0
2023-07-21 14:29:17.295250,1,True,0,1,6,1,629,27.91,1.11972E+05,1.3174890E-09,6.483999999999995e-11,9.3190E-12,1.11972E+05,1.562454E-10,1.2440000000000011e-11,1.7501E-12,1.11498E+05,1.9842204E-09,2.493428e-08,2.5375593E-09,0.0,0.0,0.0,4.881741,0,0,0,0,0,0
2023-07-21 14:29:36.480189,1,True,0,1,6,1,629,27.86,1.11972E+05,1.3180905E-09,7.327999999999998e-11,9.5205E-12,1.11972E+05,1.561872E-10,1.1410000000000015e-11,1.4707E-12,1.11817E+05,1.9999701E-09,2.499582e-08,2.4301421E-09,0.0,0.0,0.0,4.839942,0,0,0,0,0,0
2023-07-21 14:29:55.862525,1,True,0,1,6,1,629,27.88,1.11972E+05,1.3171509E-09,7.093000000000008e-11,9.4715E-12,1.11972E+05,1.561508E-10,1.3079999999999995e-11,1.8601E-12,1.11880E+05,1.8181423E-09,2.493394e-08,2.1659783E-09,0.0,0.0,0.0,4.910379,0,0,0,0,0,0
2023-07-21 14:30:15.131836,1,True,0,1,6,1,629,27.84,1.11972E+05,1.3173192E-09,6.47e-11,9.3566E-12,1.11972E+05,1.555916E-10,1.3060000000000005e-11,1.6691E-12,1.11892E+05,1.8295524E-09,2.488474e-08,2.1667871E-09,0.0,0.0,0.0,4.811934,0,0,0,0,0,0
2023-07-21 14:30:33.785548,1,True,0,1,6,1,629,27.94,1.07973E+05,1.3181947E-09,6.64000000000001e-11,9.4053E-12,1.07973E+05,1.555444E-10,1.296e-11,1.7126E-12,1.07834E+05,1.8721882E-09,2.498818e-08,2.3294717E-09,0.0,0.0,0.0,4.965456,0,0,0,0,0,0
2023-07-21 14:30:53.073510,1,True,0,1,6,1,629,27.84,1.11972E+05,1.3176181E-09,6.690999999999993e-11,9.5305E-12,1.11972E+05,1.563498E-10,2.4580000000000007e-11,3.1727E-12,1.11824E+05,1.8524893E-09,2.49641e-08,2.3111703E-09,0.0,0.0,0.0,4.885253,0,0,0,0,0,0
2023-07-21 14:31:12.433340,1,True,0,1,6,1,629,27.87,1.11972E+05,1.3180219E-09,7.476000000000006e-11,9.5574E-12,1.11972E+05,1.559005E-10,1.3440000000000007e-11,1.7432E-12,1.11865E+05,1.8484419E-09,2.497634e-08,2.2206214E-09,0.0,0.0,0.0,4.859148,0,0,0,0,0,0
2023-07-21 14:31:31.206564,1,True,0,1,6,1,629,27.9,1.07973E+05,1.3173013E-09,6.85700000000001e-11,9.5613E-12,1.07973E+05,1.555242E-10,1.2560000000000006e-11,1.6793E-12,1.07832E+05,1.8975639E-09,2.498704e-08,2.3285798E-09,0.0,0.0,0.0,4.869205,0,0,0,0,0,0
2023-07-21 14:31:49.947252,1,True,0,1,6,1,629,27.96,1.07973E+05,1.3186963E-09,6.766000000000016e-11,9.2802E-12,1.07973E+05,1.558891E-10,1.2280000000000008e-11,1.5850E-12,1.07884E+05,1.8591673E-09,2.498923e-08,2.2529585E-09,0.0,0.0,0.0,4.870862,0,0,0,0,0,0
2023-07-21 14:32:09.316276,1,True,0,1,6,1,629,27.99,1.11972E+05,1.3175816E-09,7.078000000000004e-11,9.5046E-12,1.11972E+05,1.559634E-10,1.2530000000000007e-11,1.6275E-12,1.11863E+05,1.8527286E-09,2.498275e-08,2.2329556E-09,0.0,0.0,0.0,4.930613,0,0,0,0,0,0
2023-07-21 14:32:28.626762,1,True,0,1,6,1,629,28.05,1.11972E+05,1.3188690E-09,8.049999999999988e-11,1.00636E-11,1.11972E+05,1.565854E-10,2.3280000000000022e-11,3.0466E-12,1.11834E+05,1.8696012E-09,2.499585e-08,2.2854171E-09,0.0,0.0,0.0,4.795916,0,0,0,0,0,0
2023-07-21 14:32:47.975297,1,True,0,1,6,1,629,28.06,1.11972E+05,1.3182064E-09,8.019999999999999e-11,9.6261E-12,1.11972E+05,1.552175E-10,2.2389999999999987e-11,3.0042E-12,1.11872E+05,1.8410150E-09,2.496932e-08,2.2455718E-09,0.0,0.0,0.0,4.907084,0,0,0,0,0,0
2023-07-21 14:33:06.657517,1,True,0,1,6,1,630,28.03,1.07973E+05,1.3183541E-09,6.723999999999986e-11,9.5454E-12,1.07973E+05,1.557942E-10,1.2499999999999983e-11,1.4150E-12,1.07859E+05,1.8847673E-09,2.499199e-08,2.2746641E-09,0.0,0.0,0.0,4.824022,0,0,0,0,0,0
2023-07-21 14:33:26.006362,1,True,0,1,6,1,630,27.98,1.11972E+05,1.3172743E-09,6.552e-11,9.3480E-12,1.11972E+05,1.559006E-10,1.2750000000000008e-11,1.7375E-12,1.11782E+05,1.9632796E-09,2.499683e-08,2.4348043E-09,0.0,0.0,0.0,4.876913,0,0,0,0,0,0
2023-07-21 14:33:45.405137,1,True,0,1,6,1,630,27.96,1.11972E+05,1.3173695E-09,6.671000000000007e-11,9.3171E-12,1.11972E+05,1.559955E-10,1.2850000000000012e-11,1.6420E-12,1.11910E+05,1.7795014E-09,2.488939e-08,2.0703442E-09,0.0,0.0,0.0,4.829635,0,0,0,0,0,0
2023-07-21 14:34:04.756284,1,True,0,1,6,1,629,27.96,1.11972E+05,1.3179360E-09,7.618999999999992e-11,9.6446E-12,1.11972E+05,1.570761E-10,2.294e-11,2.9339E-12,1.11851E+05,1.8487268E-09,2.499233e-08,2.2128268E-09,0.0,0.0,0.0,4.950776,0,0,0,0,0,0
2023-07-21 14:34:24.073493,1,True,0,1,6,1,629,27.97,1.11972E+05,1.3171692E-09,8.231999999999998e-11,1.00779E-11,1.11972E+05,1.560203E-10,1.2260000000000018e-11,1.7525E-12,1.11854E+05,1.8608470E-09,2.498411e-08,2.2342973E-09,0.0,0.0,0.0,4.873484,0,0,0,0,0,0
2023-07-21 14:34:43.419972,1,True,0,1,6,1,629,27.93,1.11972E+05,1.3187265E-09,7.524000000000004e-11,9.8993E-12,1.11972E+05,1.562295E-10,2.2610000000000013e-11,2.7971E-12,1.11866E+05,1.9032269E-09,2.497267e-08,2.3171507E-09,0.0,0.0,0.0,4.918542,0,0,0,0,0,0
2023-07-21 14:35:02.152356,1,True,0,1,6,1,629,27.94,1.07973E+05,1.3182770E-09,7.026000000000013e-11,9.5243E-12,1.07973E+05,1.563271E-10,2.3740000000000013e-11,3.1974E-12,1.07879E+05,1.8519611E-09,2.490799e-08,2.2452708E-09,0.0,0.0,0.0,4.852586,0,0,0,0,0,0
2023-07-21 14:35:21.469976,1,True,0,1,6,1,629,27.97,1.11972E+05,1.3180954E-09,6.904999999999988e-11,9.2167E-12,1.11972E+05,1.557929E-10,1.471000000000002e-11,1.8838E-12,1.11831E+05,1.8692093E-09,2.498673e-08,2.2262326E-09,0.0,0.0,0.0,4.866708,0,0,0,0,0,0
2023-07-21 14:35:40.798432,1,True,0,1,6,1,629,28.0,1.11972E+05,1.3179520E-09,7.008000000000003e-11,9.6858E-12,1.11972E+05,1.555319E-10,1.2039999999999992e-11,1.4504E-12,1.11837E+05,1.8754158E-09,2.492327e-08,2.3170596E-09,0.0,0.0,0.0,4.908878,0,0,0,0,0,0
2023-07-21 14:36:00.082577,1,True,0,1,6,1,629,28.04,1.11972E+05,1.3174898E-09,7.46200000000001e-11,9.6241E-12,1.11972E+05,1.558575E-10,1.3049999999999996e-11,1.6023E-12,1.11779E+05,1.9599542E-09,2.499286e-08,2.3909581E-09,0.0,0.0,0.0,4.838363,0,0,0,0,0,0
2023-07-21 14:36:19.454127,1,True,0,1,6,1,629,28.03,1.11972E+05,1.3178901E-09,6.861999999999991e-11,9.3623E-12,1.11972E+05,1.553632E-10,1.3030000000000006e-11,1.7939E-12,1.11583E+05,1.9726746E-09,2.499851e-08,2.5455634E-09,0.0,0.0,0.0,4.888744,0,0,0,0,0,0
2023-07-21 14:36:38.597411,1,True,0,1,6,1,629,28.03,1.11972E+05,1.3179471E-09,6.998999999999988e-11,9.6278E-12,1.11972E+05,1.561215E-10,2.3230000000000007e-11,3.0706E-12,1.07719E+05,1.9685953E-09,2.494699e-08,2.5032140E-09,0.0,0.0,0.0,4.875665,0,0,0,0,0,0
2023-07-21 14:36:57.756355,1,True,0,1,6,1,629,28.08,1.11972E+05,1.3163226E-09,6.728e-11,9.3837E-12,1.11972E+05,1.557541E-10,1.2240000000000001e-11,1.6368E-12,1.11685E+05,2.0520700E-09,2.499394e-08,2.5626809E-09,0.0,0.0,0.0,4.920562,0,0,0,0,0,0
2023-07-21 14:37:17.025047,1,True,0,1,6,1,629,28.04,1.11972E+05,1.3180620E-09,7.717000000000006e-11,9.7608E-12,1.11972E+05,1.563475E-10,2.3620000000000018e-11,3.0824E-12,1.11796E+05,1.9578551E-09,2.496705e-08,2.3937456E-09,0.0,0.0,0.0,4.888783,0,0,0,0,0,0
2023-07-21 14:37:36.326893,1,True,0,1,6,1,629,28.13,1.11972E+05,1.3179294E-09,7.558000000000006e-11,9.7795E-12,1.11972E+05,1.557926E-10,1.1439999999999988e-11,1.4528E-12,1.11827E+05,1.8945360E-09,2.49658e-08,2.3041897E-09,0.0,0.0,0.0,4.912228,0,0,0,0,0,0
2023-07-21 14:37:55.576517,1,True,0,1,6,1,629,28.13,1.11972E+05,1.3177311E-09,6.748000000000006e-11,9.4424E-12,1.11972E+05,1.556482E-10,1.3010000000000015e-11,1.5340E-12,1.11774E+05,1.9843138E-09,2.498374e-08,2.4139224E-09,0.0,0.0,0.0,4.897538,0,0,0,0,0,0
2023-07-21 14:38:14.269197,1,True,0,1,6,1,629,28.03,1.07973E+05,1.3179426E-09,6.941999999999995e-11,9.4448E-12,1.07973E+05,1.554984E-10,1.2529999999999982e-11,1.5661E-12,1.07865E+05,1.8764847E-09,2.498771e-08,2.2678125E-09,0.0,0.0,0.0,4.917472,0,0,0,0,0,0
2023-07-21 14:38:32.981701,1,True,0,1,6,1,629,28.03,1.07973E+05,1.3192305E-09,7.526000000000001e-11,1.00999E-11,1.07973E+05,1.560605E-10,2.5170000000000002e-11,3.3323E-12,1.07838E+05,1.8927470E-09,2.496689e-08,2.3030863E-09,0.0,0.0,0.0,4.813117,0,0,0,0,0,0
2023-07-21 14:38:52.303064,1,True,0,1,6,1,629,27.98,1.11972E+05,1.3171544E-09,7.375000000000008e-11,9.5690E-12,1.11972E+05,1.560670E-10,1.1120000000000009e-11,1.4800E-12,1.11832E+05,1.9150210E-09,2.498233e-08,2.3492580E-09,0.0,0.0,0.0,4.906246,0,0,0,0,0,0
2023-07-21 14:39:10.948731,1,True,0,1,6,1,629,27.88,1.07973E+05,1.3170108E-09,7.317999999999995e-11,9.4076E-12,1.07973E+05,1.562094E-10,1.2259999999999992e-11,1.6680E-12,1.03884E+05,1.8503301E-09,2.499039e-08,2.2283669E-09,0.0,0.0,0.0,4.918334,0,0,0,0,0,0
2023-07-21 14:39:30.300631,1,True,0,1,6,1,629,27.85,1.11972E+05,1.3170640E-09,7.08e-11,9.3681E-12,1.11972E+05,1.555637E-10,1.1970000000000011e-11,1.6754E-12,1.11866E+05,1.8689209E-09,2.498733e-08,2.2941792E-09,0.0,0.0,0.0,4.975724,0,0,0,0,0,0
2023-07-21 14:39:49.473046,1,True,0,1,6,1,629,27.96,1.11972E+05,1.3166783E-09,6.668000000000002e-11,9.5340E-12,1.11972E+05,1.559795E-10,1.0969999999999989e-11,1.3398E-12,1.07944E+05,1.9093098E-09,2.492956e-08,2.2949147E-09,0.0,0.0,0.0,4.92438,0,0,0,0,0,0
2023-07-21 14:40:08.837306,1,True,0,1,6,1,629,27.97,1.11972E+05,1.3169153E-09,6.775999999999998e-11,9.4472E-12,1.11972E+05,1.558188E-10,1.2620000000000004e-11,1.5592E-12,1.11810E+05,1.9022261E-09,2.495781e-08,2.3162833E-09,0.0,0.0,0.0,4.866546,0,0,0,0,0,0
2023-07-21 14:40:28.125500,1,True,0,1,6,1,629,27.96,1.11972E+05,1.3172562E-09,7.529999999999994e-11,9.8678E-12,1.11972E+05,1.561906E-10,2.3450000000000007e-11,3.1695E-12,1.11870E+05,1.8820683E-09,2.479401e-08,2.2349249E-09,0.0,0.0,0.0,4.863579,0,0,0,0,0,0
2023-07-21 14:40:47.473286,1,True,0,1,6,1,629,27.91,1.11972E+05,1.3187866E-09,7.287999999999986e-11,9.6514E-12,1.11972E+05,1.550716E-10,1.2880000000000011e-11,1.7133E-12,1.11773E+05,1.9150306E-09,2.499844e-08,2.3785922E-09,0.0,0.0,0.0,4.839901,0,0,0,0,0,0
2023-07-21 14:41:06.750739,1,True,0,1,6,1,629,27.84,1.11972E+05,1.3170764E-09,8.112000000000003e-11,9.3821E-12,1.11972E+05,1.559386E-10,1.2660000000000011e-11,1.6911E-12,1.11861E+05,1.8770636E-09,2.496621e-08,2.2519425E-09,0.0,0.0,0.0,5.056755,0,0,0,0,0,0
2023-07-21 14:41:29.196261,1,True,0,1,36,2,629,27.87,1.11972E+05,1.3179367E-09,6.808999999999992e-11,9.4758E-12,1.11972E+05,1.550784E-10,1.3150000000000001e-11,1.5718E-12,1.11829E+05,1.8976315E-09,2.497928e-08,2.3093282E-09,0.0,0.0,0.0,4.847251,0,0,0,0,0,0
2023-07-21 14:41:48.509117,1,True,0,1,36,2,629,27.87,1.11972E+05,1.3179985E-09,7.358999999999995e-11,9.7873E-12,1.11972E+05,1.551932E-10,1.1120000000000009e-11,1.4742E-12,1.11870E+05,1.8199892E-09,2.4961e-08,2.1896337E-09,0.0,0.0,0.0,4.931005,0,0,0,0,0,0
2023-07-21 14:42:07.228319,1,True,0,1,36,2,629,27.84,1.07973E+05,1.3185419E-09,7.688999999999993e-11,9.4446E-12,1.07973E+05,1.551002E-10,1.161e-11,1.5248E-12,1.07843E+05,1.8905765E-09,2.482661e-08,2.3184481E-09,0.0,0.0,0.0,4.976649,0,0,0,0,0,0
2023-07-21 14:42:26.555889,1,True,0,1,36,2,629,27.81,1.11972E+05,1.3180208E-09,6.66899999999999e-11,9.3795E-12,1.11972E+05,1.556863E-10,1.3729999999999988e-11,1.6434E-12,1.11827E+05,1.8383785E-09,2.495853e-08,2.2384310E-09,0.0,0.0,0.0,4.892797,0,0,0,0,0,0
2023-07-21 14:42:45.912384,1,True,0,1,36,2,629,27.84,1.11972E+05,1.3183452E-09,6.744000000000013e-11,9.4641E-12,1.11972E+05,1.558142E-10,1.3609999999999992e-11,1.7935E-12,1.11788E+05,1.9190309E-09,2.497093e-08,2.3856967E-09,0.0,0.0,0.0,4.876194,0,0,0,0,0,0
2023-07-21 14:43:05.105334,1,True,0,1,36,2,629,27.87,1.11972E+05,1.3199236E-09,7.085000000000002e-11,9.5531E-12,1.11972E+05,1.560762E-10,1.3459999999999998e-11,1.7323E-12,1.11823E+05,1.9022153E-09,2.4969390000000002e-08,2.2986977E-09,0.0,0.0,0.0,4.813855,0,0,0,0,0,0
2023-07-21 14:43:23.848457,1,True,0,1,36,2,630,27.84,1.07973E+05,1.3196109E-09,8.161999999999997e-11,9.7911E-12,1.07973E+05,1.567466E-10,1.864e-11,2.3804E-12,1.07855E+05,1.9146383E-09,2.493746e-08,2.2943230E-09,0.0,0.0,0.0,4.852915,0,0,0,0,0,0
2023-07-21 14:43:42.426723,1,True,0,1,36,2,630,27.89,1.11972E+05,1.3172009E-09,6.836000000000017e-11,9.1711E-12,1.11972E+05,1.560489E-10,1.1260000000000021e-11,1.6882E-12,1.11629E+05,2.0769342E-09,2.499739e-08,2.5739879E-09,0.0,0.0,0.0,4.844594,0,0,0,0,0,0
2023-07-21 14:44:01.832287,1,True,0,1,36,2,630,27.88,1.11972E+05,1.3191045E-09,6.966000000000015e-11,9.6331E-12,1.11972E+05,1.558777E-10,1.1720000000000012e-11,1.4821E-12,1.11852E+05,1.8802303E-09,2.498744e-08,2.2767832E-09,0.0,0.0,0.0,4.882786,0,0,0,0,0,0
