Offset Frequency (Hz),Phase Noise (dBc/Hz)
+1.00000000000e+001,-6.16614598476e+001
+1.01800975118e+001,-6.16848684834e+001
+1.03634385350e+001,-6.21486862365e+001
+1.05500814844e+001,-6.26124571728e+001
+1.07400858268e+001,-6.21775122133e+001
+1.09335121002e+001,-6.26411844352e+001
+1.11304219327e+001,-6.24607306702e+001
+1.13308780622e+001,-6.29242970017e+001
+1.15349443568e+001,-6.33878075385e+001
+1.17426858345e+001,-6.29306473102e+001
+1.19541686846e+001,-6.33940402226e+001
+1.21694602882e+001,-6.38859005837e+001
+1.23886292399e+001,-6.43491673506e+001
+1.26117453700e+001,-6.59772972198e+001
+1.28388797661e+001,-6.64404287176e+001
+1.30701047961e+001,-6.65218892836e+001
+1.33054941314e+001,-6.69848757450e+001
+1.35451227700e+001,-6.53324505647e+001
+1.37890670608e+001,-6.57952815364e+001
+1.40374047276e+001,-6.54087260325e+001
+1.42902148939e+001,-6.58713903297e+001
+1.45475781085e+001,-6.57677442183e+001
+1.48095763705e+001,-6.68877826133e+001
+1.50762931560e+001,-6.73501742086e+001
+1.53478134445e+001,-6.83318280368e+001
+1.56242237458e+001,-6.87940214742e+001
+1.59056121278e+001,-6.83329638664e+001
+1.61920682446e+001,-6.88302728167e+001
+1.64836833648e+001,-6.92921422052e+001
+1.67805504007e+001,-6.90025279312e+001
+1.70827639381e+001,-6.83808837007e+001
+1.73904202661e+001,-6.88423938931e+001
+1.77036174080e+001,-6.86980013904e+001
+1.80224551525e+001,-6.96389338023e+001
+1.83470350855e+001,-7.01000460204e+001
+1.86774606222e+001,-7.13749313307e+001
+1.90138370407e+001,-7.14237864718e+001
+1.93562715148e+001,-7.18844579727e+001
+1.97048731486e+001,-7.10012183729e+001
+2.00597530110e+001,-7.13963649612e+001
+2.04210241715e+001,-7.31853399557e+001
+2.07888017356e+001,-7.35490886428e+001
+2.11632028822e+001,-7.40089187319e+001
+2.15443469003e+001,-7.23681573089e+001
+2.19323552273e+001,-7.20737272747e+001
+2.23273514878e+001,-7.17502275850e+001
+2.27294615326e+001,-7.19978802373e+001
+2.31388134792e+001,-7.12956462251e+001
+2.35555377526e+001,-7.10870496027e+001
+2.39797671264e+001,-7.15454387105e+001
+2.44116367658e+001,-7.27896638931e+001
+2.48512842698e+001,-7.46752438054e+001
+2.52988497160e+001,-7.60576909748e+001
+2.57544757045e+001,-7.54965442528e+001
+2.62183074038e+001,-7.45790267069e+001
+2.66904925965e+001,-7.34435664228e+001
+2.71711817270e+001,-7.36820933111e+001
+2.76605279492e+001,-7.48282150464e+001
+2.81586871751e+001,-7.50913512052e+001
+2.86658181246e+001,-7.59971148683e+001
+2.91820823764e+001,-7.64663403737e+001
+2.97076444190e+001,-7.58863110239e+001
+3.02426717031e+001,-7.63481734566e+001
+3.07873346955e+001,-7.67823005691e+001
+3.13418069329e+001,-7.71628165448e+001
+3.19062650773e+001,-7.65395412053e+001
+3.24808889724e+001,-7.83377718243e+001
+3.30658617009e+001,-7.74366675669e+001
+3.36613696427e+001,-7.59130243989e+001
+3.42676025343e+001,-7.69432424174e+001
+3.48847535295e+001,-7.95429512067e+001
+3.55130192606e+001,-7.85572062699e+001
+3.61525999011e+001,-7.79828450542e+001
+3.68036992298e+001,-7.90037694889e+001
+3.74665246955e+001,-7.87713657975e+001
+3.81412874828e+001,-7.94123970393e+001
+3.88282025801e+001,-7.94295773901e+001
+3.95274888473e+001,-8.04471957304e+001
+4.02393690862e+001,-7.90807906279e+001
+4.09640701111e+001,-7.86155156216e+001
+4.17018228212e+001,-7.96053776561e+001
+4.24528622739e+001,-7.99003994903e+001
+4.32174277604e+001,-8.00578718490e+001
+4.39957628810e+001,-8.14805028224e+001
+4.47881156235e+001,-8.04822329984e+001
+4.55947384417e+001,-8.07028978035e+001
+4.64158883361e+001,-8.16667885895e+001
+4.72518269359e+001,-7.99357497898e+001
+4.81028205818e+001,-8.13544525701e+001
+4.89691404115e+001,-8.05775327259e+001
+4.98510624459e+001,-7.97258448095e+001
+5.07488676766e+001,-8.10568382686e+001
+5.16628421561e+001,-8.40191917070e+001
+5.25932770886e+001,-8.18564543508e+001
+5.35404689227e+001,-8.08572671363e+001
+5.45047194461e+001,-8.15413672760e+001
+5.54863358815e+001,-8.26570165735e+001
+5.64856309846e+001,-8.27465488458e+001
+5.75029231439e+001,-8.10210873448e+001
+5.85385364818e+001,-8.01204399505e+001
+5.95928009583e+001,-8.31926959454e+001
+6.06660524757e+001,-8.44905253715e+001
+6.17586329859e+001,-8.45536727364e+001
+6.28708905992e+001,-8.43612075176e+001
+6.40031796953e+001,-8.46256478948e+001
+6.51558610364e+001,-8.51679503732e+001
+6.63293018816e+001,-8.46270333456e+001
+6.75238761044e+001,-8.55501569561e+001
+6.87399643118e+001,-8.62730212880e+001
+6.99779539652e+001,-8.51829771150e+001
+7.12382395042e+001,-8.75824468599e+001
+7.25212224722e+001,-8.69090555782e+001
+7.38273116442e+001,-8.78277110514e+001
+7.51569231572e+001,-8.64782410392e+001
+7.65104806427e+001,-8.75634220362e+001
+7.78884153618e+001,-8.65063618203e+001
+7.92911663423e+001,-8.63419825693e+001
+8.07191805189e+001,-8.68628534769e+001
+8.21729128755e+001,-8.77710321845e+001
+8.36528265901e+001,-8.73996513682e+001
+8.51593931825e+001,-8.75993688083e+001
+8.66930926644e+001,-8.73147769453e+001
+8.82544136923e+001,-8.80003154098e+001
+8.98438537235e+001,-8.82775744662e+001
+9.14619191741e+001,-8.92563900824e+001
+9.31091255809e+001,-9.01128480947e+001
+9.47859977652e+001,-8.93353711925e+001
+9.64930700003e+001,-8.91436581250e+001
+9.82308861817e+001,-9.08736711485e+001
+1.00000000000e+002,-9.02626256507e+001
+1.01800975118e+002,-8.82551842616e+001
+1.03634385350e+002,-8.95364383087e+001
+1.05500814844e+002,-8.93667424764e+001
+1.07400858268e+002,-8.94475502514e+001
+1.09335121002e+002,-9.21723106345e+001
+1.11304219327e+002,-9.12305566816e+001
+1.13308780622e+002,-9.16153106678e+001
+1.15349443568e+002,-9.09294156622e+001
+1.17426858345e+002,-9.03491725915e+001
+1.19541686846e+002,-9.05024446504e+001
+1.21694602882e+002,-9.15668245594e+001
+1.23886292399e+002,-9.13335785433e+001
+1.26117453700e+002,-9.24373883026e+001
+1.28388797661e+002,-9.14883954549e+001
+1.30701047961e+002,-9.25959557314e+001
+1.33054941314e+002,-9.22981503252e+001
+1.35451227700e+002,-9.29689579126e+001
+1.37890670608e+002,-9.35183556443e+001
+1.40374047276e+002,-9.29479154722e+001
+1.42902148939e+002,-9.29734108810e+001
+1.45475781085e+002,-9.45174200681e+001
+1.48095763705e+002,-9.33386630505e+001
+1.50762931560e+002,-9.31828317915e+001
+1.53478134445e+002,-9.30294849310e+001
+1.56242237458e+002,-9.42716426906e+001
+1.59056121278e+002,-9.40811511280e+001
+1.61920682446e+002,-9.35939690180e+001
+1.64836833648e+002,-9.35130979895e+001
+1.67805504007e+002,-9.44016949447e+001
+1.70827639381e+002,-9.48506037624e+001
+1.73904202661e+002,-9.51891399211e+001
+1.77036174080e+002,-9.47852938077e+001
+1.80224551525e+002,-9.48838064836e+001
+1.83470350855e+002,-9.54511603065e+001
+1.86774606222e+002,-9.53971800228e+001
+1.90138370407e+002,-9.57357173894e+001
+1.93562715148e+002,-9.59428680880e+001
+1.97048731486e+002,-9.62816301969e+001
+2.00597530110e+002,-9.61291833766e+001
+2.04210241715e+002,-9.64109894853e+001
+2.07888017356e+002,-9.62822205389e+001
+2.11632028822e+002,-9.34948596801e+001
+2.15443469003e+002,-8.30117533323e+001
+2.19323552273e+002,-7.85936125196e+001
+2.23273514878e+002,-8.21074787408e+001
+2.27294615326e+002,-9.32953810044e+001
+2.31388134792e+002,-9.74711304102e+001
+2.35555377526e+002,-9.76392361809e+001
+2.39797671264e+002,-9.75824707182e+001
+2.44116367658e+002,-9.74881638600e+001
+2.48512842698e+002,-9.76890955344e+001
+2.52988497160e+002,-9.84069184106e+001
+2.57544757045e+002,-9.88196592659e+001
+2.62183074038e+002,-9.80420704394e+001
+2.66904925965e+002,-9.78880728011e+001
+2.71711817270e+002,-9.85330631089e+001
+2.76605279492e+002,-9.83998835749e+001
+2.81586871751e+002,-9.85433281274e+001
+2.86658181246e+002,-9.81434720602e+001
+2.91820823764e+002,-9.78511975262e+001
+2.97076444190e+002,-9.79439973087e+001
+3.02426717031e+002,-9.78580158304e+001
+3.07873346955e+002,-9.79024246552e+001
+3.13418069329e+002,-9.76240696036e+001
+3.19062650773e+002,-9.69965417562e+001
+3.24808889724e+002,-9.50293646504e+001
+3.30658617009e+002,-9.42364749576e+001
+3.36613696427e+002,-9.39000715428e+001
+3.42676025343e+002,-9.33959662635e+001
+3.48847535295e+002,-9.17101840632e+001
+3.55130192606e+002,-9.12112612308e+001
+3.61525999011e+002,-9.16744418885e+001
+3.68036992298e+002,-9.16001989224e+001
+3.74665246955e+002,-9.17694187886e+001
+3.81412874828e+002,-9.07864785084e+001
+3.88282025801e+002,-9.19513325229e+001
+3.95274888473e+002,-9.24778395682e+001
+4.02393690862e+002,-9.23029785500e+001
+4.09640701111e+002,-9.34749528946e+001
+4.17018228212e+002,-9.33648101006e+001
+4.24528622739e+002,-9.52536066206e+001
+4.32174277604e+002,-9.65928863540e+001
+4.39957628810e+002,-9.61746802569e+001
+4.47881156235e+002,-9.55362611185e+001
+4.55947384417e+002,-9.69322192388e+001
+4.64158883361e+002,-9.64275457840e+001
+4.72518269359e+002,-9.65542248733e+001
+4.81028205818e+002,-9.73359009754e+001
+4.89691404115e+002,-9.75493562131e+001
+4.98510624459e+002,-9.86199681348e+001
+5.07488676766e+002,-9.98195164579e+001
+5.16628421561e+002,-9.96208001427e+001
+5.25932770886e+002,-9.99884512023e+001
+5.35404689227e+002,-9.98305486500e+001
+5.45047194461e+002,-1.00291607461e+002
+5.54863358815e+002,-1.00180447886e+002
+5.64856309846e+002,-9.91235677035e+001
+5.75029231439e+002,-9.93868864266e+001
+5.85385364818e+002,-9.91945239131e+001
+5.95928009583e+002,-9.97569790971e+001
+6.06660524757e+002,-1.00271731493e+002
+6.17586329859e+002,-9.98087731959e+001
+6.28708905992e+002,-1.00177783359e+002
+6.40031796953e+002,-9.97258251950e+001
+6.51558610364e+002,-9.96305628825e+001
+6.63293018816e+002,-9.97530925833e+001
+6.75238761044e+002,-9.96696062061e+001
+6.87399643118e+002,-9.90136570173e+001
+6.99779539652e+002,-9.87799258068e+001
+7.12382395042e+002,-9.79264230448e+001
+7.25212224722e+002,-9.84948451464e+001
+7.38273116442e+002,-9.83689747002e+001
+7.51569231572e+002,-9.81137685827e+001
+7.65104806427e+002,-9.84028091639e+001
+7.78884153618e+002,-9.87136153229e+001
+7.92911663423e+002,-9.84986561031e+001
+8.07191805189e+002,-9.89082987888e+001
+8.21729128755e+002,-9.97356814527e+001
+8.36528265901e+002,-9.97132360640e+001
+8.51593931825e+002,-9.97559108191e+001
+8.66930926644e+002,-9.96893078878e+001
+8.82544136923e+002,-9.92115130712e+001
+8.98438537235e+002,-9.85563799858e+001
+9.14619191741e+002,-1.00254151353e+002
+9.31091255809e+002,-1.00245765791e+002
+9.47859977652e+002,-9.98841768663e+001
+9.64930700003e+002,-1.00910193011e+002
+9.82308861817e+002,-1.00438774046e+002
+1.00000000000e+003,-1.00599904660e+002
+1.01800975118e+003,-1.00740718774e+002
+1.03634385350e+003,-1.00779278751e+002
+1.05500814844e+003,-1.01039964853e+002
+1.07400858268e+003,-1.01600197720e+002
+1.09335121002e+003,-1.01192078849e+002
+1.11304219327e+003,-1.00899235604e+002
+1.13308780622e+003,-1.01160905718e+002
+1.15349443568e+003,-1.00865326797e+002
+1.17426858345e+003,-1.00710366837e+002
+1.19541686846e+003,-1.00217807873e+002
+1.21694602882e+003,-1.01098002994e+002
+1.23886292399e+003,-1.00456198851e+002
+1.26117453700e+003,-1.00348470631e+002
+1.28388797661e+003,-1.00233389678e+002
+1.30701047961e+003,-1.00385799708e+002
+1.33054941314e+003,-1.00650323685e+002
+1.35451227700e+003,-1.00022552921e+002
+1.37890670608e+003,-9.98614715156e+001
+1.40374047276e+003,-9.99458301257e+001
+1.42902148939e+003,-6.98049698479e+001
+1.45475781085e+003,-1.00611746412e+002
+1.48095763705e+003,-1.00692667305e+002
+1.50762931560e+003,-1.00819966199e+002
+1.53478134445e+003,-9.97670723615e+001
+1.56242237458e+003,-9.99049658932e+001
+1.59056121278e+003,-9.92010985593e+001
+1.61920682446e+003,-9.81650980119e+001
+1.64836833648e+003,-9.99915311069e+001
+1.67805504007e+003,-1.00624507233e+002
+1.70827639381e+003,-1.00906102098e+002
+1.73904202661e+003,-1.01079232865e+002
+1.77036174080e+003,-1.00850468451e+002
+1.80224551525e+003,-1.00770643929e+002
+1.83470350855e+003,-1.00954971755e+002
+1.86774606222e+003,-1.00960249268e+002
+1.90138370407e+003,-1.00877535510e+002
+1.93562715148e+003,-1.00707328086e+002
+1.97048731486e+003,-1.00967455743e+002
+2.00597530110e+003,-1.00889152077e+002
+2.04210241715e+003,-1.00622312093e+002
+2.07888017356e+003,-1.00939513725e+002
+2.11632028822e+003,-1.01038883090e+002
+2.15443469003e+003,-1.01042597588e+002
+2.19323552273e+003,-1.01045333363e+002
+2.23273514878e+003,-1.01222577794e+002
+2.27294615326e+003,-1.01213773393e+002
+2.31388134792e+003,-1.01299021073e+002
+2.35555377526e+003,-1.01243228658e+002
+2.39797671264e+003,-1.01270254289e+002
+2.44116367658e+003,-1.01307456220e+002
+2.48512842698e+003,-1.01289674720e+002
+2.52988497160e+003,-1.01194667303e+002
+2.57544757045e+003,-1.01127098589e+002
+2.62183074038e+003,-1.01258028805e+002
+2.66904925965e+003,-1.01298498609e+002
+2.71711817270e+003,-1.01081781447e+002
+2.76605279492e+003,-1.01085836257e+002
+2.81586871751e+003,-9.35584847798e+001
+2.86658181246e+003,-8.60315612103e+001
+2.91820823764e+003,-9.78077283441e+001
+2.97076444190e+003,-1.00916039852e+002
+3.02426717031e+003,-1.00940434699e+002
+3.07873346955e+003,-1.00764258077e+002
+3.13418069329e+003,-1.00411163829e+002
+3.19062650773e+003,-9.97257448032e+001
+3.24808889724e+003,-1.00240466972e+002
+3.30658617009e+003,-1.00431004527e+002
+3.36613696427e+003,-1.00244739567e+002
+3.42676025343e+003,-1.00268084243e+002
+3.48847535295e+003,-1.00168966943e+002
+3.55130192606e+003,-9.97881982930e+001
+3.61525999011e+003,-9.95699095811e+001
+3.68036992298e+003,-9.95444203861e+001
+3.74665246955e+003,-9.94589229697e+001
+3.81412874828e+003,-9.91147429996e+001
+3.88282025801e+003,-9.91632564714e+001
+3.95274888473e+003,-9.88434669666e+001
+4.02393690862e+003,-9.86913871362e+001
+4.09640701111e+003,-9.86775079694e+001
+4.17018228212e+003,-9.81202504070e+001
+4.24528622739e+003,-9.63583045219e+001
+4.32174277604e+003,-9.20083787012e+001
+4.39957628810e+003,-9.80488341706e+001
+4.47881156235e+003,-9.77049794036e+001
+4.55947384417e+003,-9.77255955804e+001
+4.64158883361e+003,-9.77123262744e+001
+4.72518269359e+003,-9.74943963017e+001
+4.81028205818e+003,-9.64462778877e+001
+4.89691404115e+003,-9.78361517846e+001
+4.98510624459e+003,-9.77566481648e+001
+5.07488676766e+003,-9.79316186175e+001
+5.16628421561e+003,-9.80749678414e+001
+5.25932770886e+003,-9.83697798503e+001
+5.35404689227e+003,-9.84589252596e+001
+5.45047194461e+003,-9.86933431616e+001
+5.54863358815e+003,-9.92786912781e+001
+5.64856309846e+003,-9.88445616964e+001
+5.75029231439e+003,-9.54491873887e+001
+5.85385364818e+003,-9.99680453275e+001
+5.95928009583e+003,-1.00193402328e+002
+6.06660524757e+003,-1.00725143528e+002
+6.17586329859e+003,-1.00973509956e+002
+6.28708905992e+003,-1.01371606233e+002
+6.40031796953e+003,-1.01267519592e+002
+6.51558610364e+003,-1.01575920844e+002
+6.63293018816e+003,-1.01614964026e+002
+6.75238761044e+003,-1.01952150406e+002
+6.87399643118e+003,-1.02057799607e+002
+6.99779539652e+003,-1.02037874698e+002
+7.12382395042e+003,-9.08882277031e+001
+7.25212224722e+003,-9.92489461873e+001
+7.38273116442e+003,-1.02186765253e+002
+7.51569231572e+003,-1.02248269667e+002
+7.65104806427e+003,-1.02128636635e+002
+7.78884153618e+003,-1.02356248812e+002
+7.92911663423e+003,-1.02359852559e+002
+8.07191805189e+003,-1.02355150200e+002
+8.21729128755e+003,-1.02495279672e+002
+8.36528265901e+003,-1.02388138590e+002
+8.51593931825e+003,-1.02200931431e+002
+8.66930926644e+003,-1.02237474334e+002
+8.82544136923e+003,-1.02274621763e+002
+8.98438537235e+003,-1.02352316084e+002
+9.14619191741e+003,-1.02275760707e+002
+9.31091255809e+003,-1.02373137398e+002
+9.47859977652e+003,-1.02507800974e+002
+9.64930700003e+003,-1.02506890178e+002
+9.82308861817e+003,-1.02631304691e+002
+1.00000000000e+004,-9.12722698800e+001
+1.01800975118e+004,-1.02632823223e+002
+1.03634385350e+004,-1.02781882056e+002
+1.05500814844e+004,-1.02716684399e+002
+1.07400858268e+004,-1.02652446302e+002
+1.09335121002e+004,-1.02727727806e+002
+1.11304219327e+004,-1.02919725476e+002
+1.13308780622e+004,-1.02908153151e+002
+1.15349443568e+004,-1.02790795880e+002
+1.17426858345e+004,-1.02999302019e+002
+1.19541686846e+004,-1.02977441997e+002
+1.21694602882e+004,-1.03065498319e+002
+1.23886292399e+004,-1.02422275086e+002
+1.26117453700e+004,-9.94346424867e+001
+1.28388797661e+004,-9.57262584026e+001
+1.30701047961e+004,-9.81194269638e+001
+1.33054941314e+004,-1.02040646556e+002
+1.35451227700e+004,-1.02077750569e+002
+1.37890670608e+004,-1.01974533752e+002
+1.40374047276e+004,-1.02147140358e+002
+1.42902148939e+004,-1.02490484023e+002
+1.45475781085e+004,-1.03006224786e+002
+1.48095763705e+004,-1.03377930757e+002
+1.50762931560e+004,-1.03690156101e+002
+1.53478134445e+004,-1.03721812789e+002
+1.56242237458e+004,-9.66323235795e+001
+1.59056121278e+004,-9.76414290765e+001
+1.61920682446e+004,-1.03787608219e+002
+1.64836833648e+004,-1.04474444261e+002
+1.67805504007e+004,-1.04498328941e+002
+1.70827639381e+004,-1.04428157321e+002
+1.73904202661e+004,-1.04374211831e+002
+1.77036174080e+004,-1.04281278817e+002
+1.80224551525e+004,-1.04188938022e+002
+1.83470350855e+004,-1.00986968530e+002
+1.86774606222e+004,-9.78809666731e+001
+1.90138370407e+004,-1.03867027693e+002
+1.93562715148e+004,-1.04239262143e+002
+1.97048731486e+004,-1.04163809599e+002
+2.00597530110e+004,-1.04163343937e+002
+2.04210241715e+004,-1.04206817193e+002
+2.07888017356e+004,-1.04208454958e+002
+2.11632028822e+004,-1.02239593077e+002
+2.15443469003e+004,-9.74658331396e+001
+2.19323552273e+004,-1.03779172448e+002
+2.23273514878e+004,-1.04317900417e+002
+2.27294615326e+004,-1.04238402424e+002
+2.31388134792e+004,-1.04327526521e+002
+2.35555377526e+004,-1.04440583582e+002
+2.39797671264e+004,-1.03083549059e+002
+2.44116367658e+004,-9.90224406991e+001
+2.48512842698e+004,-1.04324967653e+002
+2.52988497160e+004,-1.04613851534e+002
+2.57544757045e+004,-1.04623464991e+002
+2.62183074038e+004,-1.04599120213e+002
+2.66904925965e+004,-1.04598863407e+002
+2.71711817270e+004,-1.00399489740e+002
+2.76605279492e+004,-1.02693851088e+002
+2.81586871751e+004,-1.01582023754e+002
+2.86658181246e+004,-9.50754096247e+001
+2.91820823764e+004,-1.03951898391e+002
+2.97076444190e+004,-1.03813570997e+002
+3.02426717031e+004,-1.00152273453e+002
+3.07873346955e+004,-1.04614169079e+002
+3.13418069329e+004,-1.04750815014e+002
+3.19062650773e+004,-1.04765088065e+002
+3.24808889724e+004,-1.04147402376e+002
+3.30658617009e+004,-1.00795121032e+002
+3.36613696427e+004,-1.04619390423e+002
+3.42676025343e+004,-1.04712099277e+002
+3.48847535295e+004,-1.04688651300e+002
+3.55130192606e+004,-1.02935254828e+002
+3.61525999011e+004,-1.02957605056e+002
+3.68036992298e+004,-1.04560483320e+002
+3.74665246955e+004,-1.04660402215e+002
+3.81412874828e+004,-1.04421829900e+002
+3.88282025801e+004,-1.02783525572e+002
+3.95274888473e+004,-1.04586337980e+002
+4.02393690862e+004,-1.04598645283e+002
+4.09640701111e+004,-1.04500323067e+002
+4.17018228212e+004,-1.03452117028e+002
+4.24528622739e+004,-1.04633054185e+002
+4.32174277604e+004,-1.04528884995e+002
+4.39957628810e+004,-1.03932433795e+002
+4.47881156235e+004,-1.03910232906e+002
+4.55947384417e+004,-1.04613774499e+002
+4.64158883361e+004,-1.04677483871e+002
+4.72518269359e+004,-1.03923642793e+002
+4.81028205818e+004,-1.04591932639e+002
+4.89691404115e+004,-1.04578111769e+002
+4.98510624459e+004,-1.03901243653e+002
+5.07488676766e+004,-1.04114062915e+002
+5.16628421561e+004,-1.04484015718e+002
+5.25932770886e+004,-1.04335084338e+002
+5.35404689227e+004,-1.04396666014e+002
+5.45047194461e+004,-1.04545438060e+002
+5.54863358815e+004,-1.04343201166e+002
+5.64856309846e+004,-9.21856344868e+001
+5.75029231439e+004,-7.88746136339e+001
+5.85385364818e+004,-1.04119991334e+002
+5.95928009583e+004,-1.04516476088e+002
+6.06660524757e+004,-1.04546261401e+002
+6.17586329859e+004,-1.04490853592e+002
+6.28708905992e+004,-1.04609704423e+002
+6.40031796953e+004,-1.04499566414e+002
+6.51558610364e+004,-1.04501198072e+002
+6.63293018816e+004,-1.04660781758e+002
+6.75238761044e+004,-1.04544965717e+002
+6.87399643118e+004,-1.04653464301e+002
+6.99779539652e+004,-1.04595606336e+002
+7.12382395042e+004,-1.04704096289e+002
+7.25212224722e+004,-1.04657220483e+002
+7.38273116442e+004,-1.04723560533e+002
+7.51569231572e+004,-1.04786182341e+002
+7.65104806427e+004,-1.04747629036e+002
+7.78884153618e+004,-1.04837533387e+002
+7.92911663423e+004,-1.04809829149e+002
+8.07191805189e+004,-1.04826047180e+002
+8.21729128755e+004,-1.04790952664e+002
+8.36528265901e+004,-1.04902988817e+002
+8.51593931825e+004,-1.03730998457e+002
+8.66930926644e+004,-1.02866293049e+002
+8.82544136923e+004,-1.04902695077e+002
+8.98438537235e+004,-1.04945580649e+002
+9.14619191741e+004,-1.04823620606e+002
+9.31091255809e+004,-1.04849458369e+002
+9.47859977652e+004,-1.04833671000e+002
+9.64930700003e+004,-1.04757797750e+002
+9.82308861817e+004,-1.04763395905e+002
+1.00000000000e+005,-1.04660667780e+002
+1.01800975118e+005,-1.04414746638e+002
+1.03634385350e+005,-1.04313709314e+002
+1.05500814844e+005,-1.04521963218e+002
+1.07400858268e+005,-1.04627234120e+002
+1.09335121002e+005,-1.04409126351e+002
+1.11304219327e+005,-1.03792449983e+002
+1.13308780622e+005,-1.03440025884e+002
+1.15349443568e+005,-1.02809671639e+002
+1.17426858345e+005,-1.02877433552e+002
+1.19541686846e+005,-1.00821506158e+002
+1.21694602882e+005,-1.01596889542e+002
+1.23886292399e+005,-1.03746944844e+002
+1.26117453700e+005,-1.04056390209e+002
+1.28388797661e+005,-1.04296667392e+002
+1.30701047961e+005,-1.04387684763e+002
+1.33054941314e+005,-1.04413889135e+002
+1.35451227700e+005,-1.04434747771e+002
+1.37890670608e+005,-1.04540670558e+002
+1.40374047276e+005,-1.04576490404e+002
+1.42902148939e+005,-1.04342432193e+002
+1.45475781085e+005,-1.04454056891e+002
+1.48095763705e+005,-1.04585509002e+002
+1.50762931560e+005,-1.04561051820e+002
+1.53478134445e+005,-1.04532039320e+002
+1.56242237458e+005,-1.04468472035e+002
+1.59056121278e+005,-1.04423006880e+002
+1.61920682446e+005,-1.04376381257e+002
+1.64836833648e+005,-1.04290749457e+002
+1.67805504007e+005,-1.04203945624e+002
+1.70827639381e+005,-1.03543060846e+002
+1.73904202661e+005,-1.03612156525e+002
+1.77036174080e+005,-1.04090801271e+002
+1.80224551525e+005,-1.04021344586e+002
+1.83470350855e+005,-1.03984165745e+002
+1.86774606222e+005,-1.03943657614e+002
+1.90138370407e+005,-1.03903281647e+002
+1.93562715148e+005,-1.03858547327e+002
+1.97048731486e+005,-1.03806377980e+002
+2.00597530110e+005,-1.03642593841e+002
+2.04210241715e+005,-1.03642560675e+002
+2.07888017356e+005,-1.03603030342e+002
+2.11632028822e+005,-1.03544099160e+002
+2.15443469003e+005,-1.03442808676e+002
+2.19323552273e+005,-1.03299650684e+002
+2.23273514878e+005,-1.03201623414e+002
+2.27294615326e+005,-1.02860211646e+002
+2.31388134792e+005,-1.01258477945e+002
+2.35555377526e+005,-1.02377045999e+002
+2.39797671264e+005,-1.02787480263e+002
+2.44116367658e+005,-1.02944607556e+002
+2.48512842698e+005,-1.02979273609e+002
+2.52988497160e+005,-1.02967429311e+002
+2.57544757045e+005,-1.03035027661e+002
+2.62183074038e+005,-1.03006352063e+002
+2.66904925965e+005,-1.02955668125e+002
+2.71711817270e+005,-1.02903431263e+002
+2.76605279492e+005,-1.02880390052e+002
+2.81586871751e+005,-1.02804645846e+002
+2.86658181246e+005,-1.02764210942e+002
+2.91820823764e+005,-1.02731856095e+002
+2.97076444190e+005,-1.02686988014e+002
+3.02426717031e+005,-1.02688583612e+002
+3.07873346955e+005,-1.02675737681e+002
+3.13418069329e+005,-1.02666926199e+002
+3.19062650773e+005,-1.02605336973e+002
+3.24808889724e+005,-1.02553974045e+002
+3.30658617009e+005,-1.02497649033e+002
+3.36613696427e+005,-1.02417643233e+002
+3.42676025343e+005,-1.02180783964e+002
+3.48847535295e+005,-9.44706342465e+001
+3.55130192606e+005,-8.85791521396e+001
+3.61525999011e+005,-1.02164098148e+002
+3.68036992298e+005,-1.02828074686e+002
+3.74665246955e+005,-1.03326118678e+002
+3.81412874828e+005,-1.03724777206e+002
+3.88282025801e+005,-1.04058847609e+002
+3.95274888473e+005,-1.04397905266e+002
+4.02393690862e+005,-1.04657095280e+002
+4.09640701111e+005,-1.04905628038e+002
+4.17018228212e+005,-1.05198295521e+002
+4.24528622739e+005,-1.05435990225e+002
+4.32174277604e+005,-1.05664336768e+002
+4.39957628810e+005,-1.05842567312e+002
+4.47881156235e+005,-1.06019253223e+002
+4.55947384417e+005,-1.06083689331e+002
+4.64158883361e+005,-1.05998643613e+002
+4.72518269359e+005,-1.05409921849e+002
+4.81028205818e+005,-1.06433704476e+002
+4.89691404115e+005,-1.06769972472e+002
+4.98510624459e+005,-1.06973943534e+002
+5.07488676766e+005,-1.07119773578e+002
+5.16628421561e+005,-1.07250804156e+002
+5.25932770886e+005,-1.07367958169e+002
+5.35404689227e+005,-1.07414680630e+002
+5.45047194461e+005,-1.07445240392e+002
+5.54863358815e+005,-1.07441214018e+002
+5.64856309846e+005,-1.07419502561e+002
+5.75029231439e+005,-1.07374387526e+002
+5.85385364818e+005,-1.06859024535e+002
+5.95928009583e+005,-1.07362813671e+002
+6.06660524757e+005,-1.04815583107e+002
+6.17586329859e+005,-1.07673657093e+002
+6.28708905992e+005,-1.07708908261e+002
+6.40031796953e+005,-1.07735403362e+002
+6.51558610364e+005,-1.07739626879e+002
+6.63293018816e+005,-1.07792267468e+002
+6.75238761044e+005,-1.07781881590e+002
+6.87399643118e+005,-1.07418387619e+002
+6.99779539652e+005,-9.39595038369e+001
+7.12382395042e+005,-9.69788598573e+001
+7.25212224722e+005,-1.08012255289e+002
+7.38273116442e+005,-1.08475080246e+002
+7.51569231572e+005,-1.08686876257e+002
+7.65104806427e+005,-1.08831749904e+002
+7.78884153618e+005,-1.08980155152e+002
+7.92911663423e+005,-1.08339144391e+002
+8.07191805189e+005,-1.08727835339e+002
+8.21729128755e+005,-1.09136491955e+002
+8.36528265901e+005,-1.09435061526e+002
+8.51593931825e+005,-1.09711800897e+002
+8.66930926644e+005,-1.09947803404e+002
+8.82544136923e+005,-1.10173576692e+002
+8.98438537235e+005,-1.10344883928e+002
+9.14619191741e+005,-1.10440060028e+002
+9.31091255809e+005,-1.10324111866e+002
+9.47859977652e+005,-1.10402143260e+002
+9.64930700003e+005,-1.10852021719e+002
+9.82308861817e+005,-1.11127194110e+002
+1.00000000000e+006,-1.11309929929e+002
+1.01800975118e+006,-1.11311421041e+002
+1.03634385350e+006,-1.03845366112e+002
+1.05500814844e+006,-9.61756473078e+001
+1.07400858268e+006,-9.95259440413e+001
+1.09335121002e+006,-1.12061567071e+002
+1.11304219327e+006,-1.12273990292e+002
+1.13308780622e+006,-1.12433143771e+002
+1.15349443568e+006,-1.12612992085e+002
+1.17426858345e+006,-1.12631437372e+002
+1.19541686846e+006,-1.10360777229e+002
+1.21694602882e+006,-1.08614529748e+002
+1.23886292399e+006,-1.12268696392e+002
+1.26117453700e+006,-1.13704846337e+002
+1.28388797661e+006,-1.13381078599e+002
+1.30701047961e+006,-1.13561837876e+002
+1.33054941314e+006,-1.14322361651e+002
+1.35451227700e+006,-1.14569153805e+002
+1.37890670608e+006,-1.10096148721e+002
+1.40374047276e+006,-9.94692643801e+001
+1.42902148939e+006,-1.01569399976e+002
+1.45475781085e+006,-1.15320276140e+002
+1.48095763705e+006,-1.15588570943e+002
+1.50762931560e+006,-1.15715321859e+002
+1.53478134445e+006,-1.15747910763e+002
+1.56242237458e+006,-1.15702288385e+002
+1.59056121278e+006,-1.14615144083e+002
+1.61920682446e+006,-1.16294455871e+002
+1.64836833648e+006,-1.16102210016e+002
+1.67805504007e+006,-1.16679790954e+002
+1.70827639381e+006,-1.16970894036e+002
+1.73904202661e+006,-1.15523866327e+002
+1.77036174080e+006,-1.07032591790e+002
+1.80224551525e+006,-1.11915313377e+002
+1.83470350855e+006,-1.11725888245e+002
+1.86774606222e+006,-1.17797785906e+002
+1.90138370407e+006,-1.18015216731e+002
+1.93562715148e+006,-1.18286208363e+002
+1.97048731486e+006,-1.18438857119e+002
+2.00597530110e+006,-1.18461539678e+002
+2.04210241715e+006,-1.18555892159e+002
+2.07888017356e+006,-1.18067766848e+002
+2.11632028822e+006,-1.12439907860e+002
+2.15443469003e+006,-1.17502195177e+002
+2.19323552273e+006,-1.19137955237e+002
+2.23273514878e+006,-1.19156624801e+002
+2.27294615326e+006,-1.19413903710e+002
+2.31388134792e+006,-1.19499628872e+002
+2.35555377526e+006,-1.18946928347e+002
+2.39797671264e+006,-1.18440791787e+002
+2.44116367658e+006,-1.12999477182e+002
+2.48512842698e+006,-1.15697004521e+002
+2.52988497160e+006,-1.19923024334e+002
+2.57544757045e+006,-1.19983004923e+002
+2.62183074038e+006,-1.20072144319e+002
+2.66904925965e+006,-1.20133593725e+002
+2.71711817270e+006,-1.20078424215e+002
+2.76605279492e+006,-1.20266571654e+002
+2.81586871751e+006,-1.17046125658e+002
+2.86658181246e+006,-1.20405433321e+002
+2.91820823764e+006,-1.20626967871e+002
+2.97076444190e+006,-1.20620044426e+002
+3.02426717031e+006,-1.16660415358e+002
+3.07873346955e+006,-1.18594979616e+002
+3.13418069329e+006,-1.20253854568e+002
+3.19062650773e+006,-1.18273170948e+002
+3.24808889724e+006,-1.21349983237e+002
+3.30658617009e+006,-1.21382482702e+002
+3.36613696427e+006,-1.21594737862e+002
+3.42676025343e+006,-1.21728861420e+002
+3.48847535295e+006,-1.21940532197e+002
+3.55130192606e+006,-1.21548567685e+002
+3.61525999011e+006,-1.18432688975e+002
+3.68036992298e+006,-1.20150588618e+002
+3.74665246955e+006,-1.22792360778e+002
+3.81412874828e+006,-1.23092275231e+002
+3.88282025801e+006,-1.23161477694e+002
+3.95274888473e+006,-1.23416635630e+002
+4.02393690862e+006,-1.23824201569e+002
+4.09640701111e+006,-1.23617484917e+002
+4.17018228212e+006,-1.24150425058e+002
+4.24528622739e+006,-1.19801961842e+002
+4.32174277604e+006,-1.24611834385e+002
+4.39957628810e+006,-1.24870915827e+002
+4.47881156235e+006,-1.25025337859e+002
+4.55947384417e+006,-1.24692373923e+002
+4.64158883361e+006,-1.25242015841e+002
+4.72518269359e+006,-1.25332595564e+002
+4.81028205818e+006,-1.24598504354e+002
+4.89691404115e+006,-1.23538235330e+002
+4.98510624459e+006,-1.25322268797e+002
+5.07488676766e+006,-1.25646528722e+002
+5.16628421561e+006,-1.25672677388e+002
+5.25932770886e+006,-1.25649756880e+002
+5.35404689227e+006,-1.25848678738e+002
+5.45047194461e+006,-1.25065163133e+002
+5.54863358815e+006,-1.25999903255e+002
+5.64856309846e+006,-1.26156643418e+002
+5.75029231439e+006,-1.26457373094e+002
+5.85385364818e+006,-1.26590472069e+002
+5.95928009583e+006,-1.26757278188e+002
+6.06660524757e+006,-1.26661047007e+002
+6.17586329859e+006,-1.27243936251e+002
+6.28708905992e+006,-1.27380395052e+002
+6.40031796953e+006,-1.27459677042e+002
+6.51558610364e+006,-1.27453561545e+002
+6.63293018816e+006,-1.27851123166e+002
+6.75238761044e+006,-1.27844089580e+002
+6.87399643118e+006,-1.28205682125e+002
+6.99779539652e+006,-1.28198417274e+002
+7.12382395042e+006,-1.28529274633e+002
+7.25212224722e+006,-1.28520584418e+002
+7.38273116442e+006,-1.28806855141e+002
+7.51569231572e+006,-1.29052623039e+002
+7.65104806427e+006,-1.29041705600e+002
+7.78884153618e+006,-1.29213907345e+002
+7.92911663423e+006,-1.29202651210e+002
+8.07191805189e+006,-1.29326962818e+002
+8.21729128755e+006,-1.29319094265e+002
+8.36528265901e+006,-1.29457332480e+002
+8.51593931825e+006,-1.29641636873e+002
+8.66930926644e+006,-1.29633381847e+002
+8.82544136923e+006,-1.29934488605e+002
+8.98438537235e+006,-1.30317877257e+002
+9.14619191741e+006,-1.30311323619e+002
+9.31091255809e+006,-1.30740762733e+002
+9.47859977652e+006,-1.31108934821e+002
+9.64930700003e+006,-1.31102288447e+002
+9.82308861817e+006,-1.30896828455e+002
+1.00000000000e+007,-1.30334715812e+002
+1.01800975118e+007,-1.30962874880e+002
+1.03634385350e+007,-1.30957849103e+002
+1.05500814844e+007,-1.31260943336e+002
+1.07400858268e+007,-1.31272577365e+002
+1.09335121002e+007,-1.31402944932e+002
+1.11304219327e+007,-1.31397572982e+002
+1.13308780622e+007,-1.31693862998e+002
+1.15349443568e+007,-1.32073230590e+002
+1.17426858345e+007,-1.32476959654e+002
+1.19541686846e+007,-1.32810242759e+002
+1.21694602882e+007,-1.32996139940e+002
+1.23886292399e+007,-1.32971789439e+002
+1.26117453700e+007,-1.32740914020e+002
+1.28388797661e+007,-1.32415298174e+002
+1.30701047961e+007,-1.32188147824e+002
+1.33054941314e+007,-1.32185117400e+002
+1.35451227700e+007,-1.32297550779e+002
+1.37890670608e+007,-1.32654438295e+002
+1.40374047276e+007,-1.35101736849e+002
+1.42902148939e+007,-1.33929256586e+002
+1.45475781085e+007,-1.33030080605e+002
+1.48095763705e+007,-1.32621816224e+002
+1.50762931560e+007,-1.32797738510e+002
+1.53478134445e+007,-1.33456591923e+002
+1.56242237458e+007,-1.33931001145e+002
+1.59056121278e+007,-1.34256565669e+002
+1.61920682446e+007,-1.34371568533e+002
+1.64836833648e+007,-1.34280177071e+002
+1.67805504007e+007,-1.34105897881e+002
+1.70827639381e+007,-1.34001140830e+002
+1.73904202661e+007,-1.33964040837e+002
+1.77036174080e+007,-1.34097092125e+002
+1.80224551525e+007,-1.34314011722e+002
+1.83470350855e+007,-1.34447354444e+002
+1.86774606222e+007,-1.34552598504e+002
+1.90138370407e+007,-1.34460570391e+002
+1.93562715148e+007,-1.34353044721e+002
+1.97048731486e+007,-1.29679477033e+002
+2.00597530110e+007,-1.24499631984e+002
+2.04210241715e+007,-1.30749604632e+002
+2.07888017356e+007,-1.34419869716e+002
+2.11632028822e+007,-1.34452213257e+002
+2.15443469003e+007,-1.34410190266e+002
+2.19323552273e+007,-1.34318968408e+002
+2.23273514878e+007,-1.34252662327e+002
+2.27294615326e+007,-1.34199488013e+002
+2.31388134792e+007,-1.34225755838e+002
+2.35555377526e+007,-1.34274179318e+002
+2.39797671264e+007,-1.34199288065e+002
+2.44116367658e+007,-1.34051806182e+002
+2.48512842698e+007,-1.33797114482e+002
+2.52988497160e+007,-1.33779282560e+002
+2.57544757045e+007,-1.33928617486e+002
+2.62183074038e+007,-1.33945391128e+002
+2.66904925965e+007,-1.33807972357e+002
+2.71711817270e+007,-1.33540861452e+002
+2.76605279492e+007,-1.33496384665e+002
+2.81586871751e+007,-1.34044172089e+002
+2.86658181246e+007,-1.33580413831e+002
+2.91820823764e+007,-1.33427824687e+002
+2.97076444190e+007,-1.33584689867e+002
+3.02426717031e+007,-1.33668873580e+002
+3.07873346955e+007,-1.33740389822e+002
+3.13418069329e+007,-1.33734102604e+002
+3.19062650773e+007,-1.33875188550e+002
+3.24808889724e+007,-1.34104068114e+002
+3.30658617009e+007,-1.34306719544e+002
+3.36613696427e+007,-1.34460036926e+002
+3.42676025343e+007,-1.34713158324e+002
+3.48847535295e+007,-1.34630821324e+002
+3.55130192606e+007,-1.35279863237e+002
+3.61525999011e+007,-1.35537151781e+002
+3.68036992298e+007,-1.35801984896e+002
+3.74665246955e+007,-1.36101247049e+002
+3.81412874828e+007,-1.36356841454e+002
+3.88282025801e+007,-1.36476161787e+002
+3.95274888473e+007,-1.32388775145e+002
+4.00000000000e+007,-1.29806404195e+002
