xpm_cdc.sv,systemverilog,xpm,../../../../Xilinx/Vivado/2022.1/data/ip/xpm/xpm_cdc/hdl/xpm_cdc.sv,incdir="../../../../../../src/ip/udp_bridge/gearbox_4_to_1/hdl"
xpm_fifo.sv,systemverilog,xpm,../../../../Xilinx/Vivado/2022.1/data/ip/xpm/xpm_fifo/hdl/xpm_fifo.sv,incdir="../../../../../../src/ip/udp_bridge/gearbox_4_to_1/hdl"
xpm_memory.sv,systemverilog,xpm,../../../../Xilinx/Vivado/2022.1/data/ip/xpm/xpm_memory/hdl/xpm_memory.sv,incdir="../../../../../../src/ip/udp_bridge/gearbox_4_to_1/hdl"
xpm_VCOMP.vhd,vhdl,xpm,../../../../Xilinx/Vivado/2022.1/data/ip/xpm/xpm_VCOMP.vhd,incdir="../../../../../../src/ip/udp_bridge/gearbox_4_to_1/hdl"
gearbox_4_to_1_sim_netlist.v,verilog,xil_defaultlib,../../../../../../src/ip/udp_bridge/gearbox_4_to_1/gearbox_4_to_1_sim_netlist.v,incdir="../../../../../../src/ip/udp_bridge/gearbox_4_to_1/hdl"
glbl.v,Verilog,xil_defaultlib,glbl.v
