xpm_cdc.sv,systemverilog,xpm,../../../Xilinx/Vivado/2022.1/data/ip/xpm/xpm_cdc/hdl/xpm_cdc.sv,incdir="../../../../../../src/ip/vio_1/hdl/verilog"incdir="../../../../../../src/ip/vio_1/hdl"
xpm_fifo.sv,systemverilog,xpm,../../../Xilinx/Vivado/2022.1/data/ip/xpm/xpm_fifo/hdl/xpm_fifo.sv,incdir="../../../../../../src/ip/vio_1/hdl/verilog"incdir="../../../../../../src/ip/vio_1/hdl"
xpm_memory.sv,systemverilog,xpm,../../../Xilinx/Vivado/2022.1/data/ip/xpm/xpm_memory/hdl/xpm_memory.sv,incdir="../../../../../../src/ip/vio_1/hdl/verilog"incdir="../../../../../../src/ip/vio_1/hdl"
xpm_VCOMP.vhd,vhdl,xpm,../../../Xilinx/Vivado/2022.1/data/ip/xpm/xpm_VCOMP.vhd,incdir="../../../../../../src/ip/vio_1/hdl/verilog"incdir="../../../../../../src/ip/vio_1/hdl"
vio_1_sim_netlist.v,verilog,xil_defaultlib,../../../../../../src/ip/vio_1/vio_1_sim_netlist.v,incdir="../../../../../../src/ip/vio_1/hdl/verilog"incdir="../../../../../../src/ip/vio_1/hdl"
glbl.v,Verilog,xil_defaultlib,glbl.v
