Time,Legal,LOLs,Valid,Slides,N reset,Temp,N,Mean [s],Range [s],StdD [s],N C,Mean C,Range C,StdD C,N fo,Mean fo,Range fo,StdD fo
2023-04-11 16:41:44.515919,True,0,1,16,0,622,1.12499E+05,3.12418947E-09,6.187200000000014e-11,7.82037E-12,1.12499E+05,2.43822583E-09,1.1711000000000064e-11,1.48317E-12,1.12498E+05,3.87236789E-09,1.9654999999999556e-11,2.79721E-12
2023-04-11 16:42:08.052737,True,0,1,16,0,622,1.12499E+05,3.12975490E-09,6.370800000000017e-11,8.55853E-12,1.12499E+05,2.44038462E-09,1.2133000000000169e-11,2.03784E-12,1.12498E+05,3.87290298E-09,2.194300000000016e-11,2.84146E-12
2023-04-11 16:42:31.587050,True,0,1,16,0,622,1.12499E+05,3.12575898E-09,6.687399999999983e-11,8.30387E-12,1.12499E+05,2.43664028E-09,1.303600000000016e-11,2.05606E-12,1.12498E+05,3.87279439E-09,2.067400000000013e-11,2.79500E-12
2023-04-11 16:42:55.149843,True,0,1,16,0,622,1.12499E+05,3.12687187E-09,6.340399999999963e-11,8.08743E-12,1.12499E+05,2.43778809E-09,1.2568999999999773e-11,2.02559E-12,1.12498E+05,3.87272259E-09,1.963899999999942e-11,2.78954E-12
2023-04-11 16:43:18.689064,True,0,1,16,0,622,1.12499E+05,3.12526036E-09,6.676700000000004e-11,8.52512E-12,1.12499E+05,2.43953792E-09,1.0959999999999722e-11,1.62792E-12,1.12498E+05,3.87263741E-09,1.9750999999999553e-11,2.77192E-12
2023-04-11 16:43:42.279787,True,0,1,16,0,622,1.12499E+05,3.12651251E-09,5.784000000000029e-11,7.58537E-12,1.12499E+05,2.43825534E-09,1.234499999999992e-11,2.00185E-12,1.12498E+05,3.87297516E-09,1.9575000000000524e-11,2.77255E-12
2023-04-11 16:44:05.822772,True,0,1,16,0,622,1.12499E+05,3.12932615E-09,5.01889999999999e-11,5.72813E-12,1.12499E+05,2.43709094E-09,1.2141000000000238e-11,1.78300E-12,1.12498E+05,3.87274499E-09,2.193500000000009e-11,2.81707E-12
2023-04-11 16:44:29.302142,True,0,1,16,0,622,1.12499E+05,3.12691109E-09,9.564200000000011e-11,1.468535E-11,1.12499E+05,2.43543885E-09,1.3807999999999752e-11,2.15806E-12,1.12498E+05,3.87306199E-09,2.2965000000000034e-11,2.81846E-12
2023-04-11 16:44:52.853879,True,0,1,16,0,623,1.12499E+05,3.12687829E-09,1.1415000000000007e-10,1.567586E-11,1.12499E+05,2.43846382E-09,1.1999000000000053e-11,1.88889E-12,1.12498E+05,3.87272148E-09,1.91289999999998e-11,2.77609E-12
2023-04-11 16:45:16.365807,True,0,1,16,0,623,1.12499E+05,3.12581055E-09,1.0229900000000004e-10,1.506676E-11,1.12499E+05,2.43522276E-09,1.0591999999999874e-11,1.31980E-12,1.12498E+05,3.87293298E-09,1.9991000000000784e-11,2.76036E-12
2023-04-11 16:45:39.857751,True,0,1,16,0,624,1.12499E+05,3.12850466E-09,1.0629900000000003e-10,1.551974E-11,1.12499E+05,2.43815684E-09,1.4690999999999986e-11,2.78665E-12,1.12498E+05,3.87306634E-09,2.0503000000000213e-11,2.75390E-12
2023-04-11 16:46:03.412586,True,0,1,16,0,624,1.12499E+05,3.12664459E-09,1.07477e-10,1.488804E-11,1.12499E+05,2.43813427E-09,1.1698000000000056e-11,1.77832E-12,1.12498E+05,3.87307995E-09,1.955999999999988e-11,2.78403E-12
2023-04-11 16:46:26.911742,True,0,1,16,0,624,1.12499E+05,3.12979790E-09,9.914699999999989e-11,1.500199E-11,1.12499E+05,2.43723367E-09,1.2815999999999928e-11,2.01008E-12,1.12498E+05,3.87334297E-09,2.062299999999959e-11,2.84836E-12
2023-04-11 16:46:50.477317,True,0,1,16,0,624,1.12499E+05,3.12795453E-09,1.0863200000000009e-10,1.546472E-11,1.12499E+05,2.43815748E-09,1.202199999999994e-11,1.73043E-12,1.12498E+05,3.87334787E-09,1.9891999999999832e-11,2.79144E-12
2023-04-11 16:47:14.012194,True,0,1,16,0,624,1.12499E+05,3.13060264E-09,1.0669199999999999e-10,1.522738E-11,1.12499E+05,2.43721337E-09,9.884000000000004e-12,1.18493E-12,1.12498E+05,3.87359731E-09,2.1002999999999953e-11,2.78955E-12
2023-04-11 16:47:37.539570,True,0,1,16,0,624,1.12499E+05,3.12929158E-09,4.5983000000000006e-11,5.96163E-12,1.12499E+05,2.44050187E-09,1.516799999999984e-11,2.86112E-12,1.12498E+05,3.87349757E-09,2.0849999999999985e-11,2.76687E-12
2023-04-11 16:48:01.061861,True,0,1,16,0,624,1.12499E+05,3.12994089E-09,5.456799999999993e-11,6.64216E-12,1.12499E+05,2.43986714E-09,1.3879000000000051e-11,2.37973E-12,1.12498E+05,3.87347802E-09,2.0013000000000353e-11,2.74266E-12
2023-04-11 16:48:24.609129,True,0,1,16,0,624,1.12499E+05,3.12974242E-09,5.6945000000000365e-11,7.88827E-12,1.12499E+05,2.43618552E-09,1.2815000000000022e-11,2.38066E-12,1.12498E+05,3.87347520E-09,2.1549999999999786e-11,2.75894E-12
2023-04-11 16:48:48.144744,True,0,1,16,0,624,1.12499E+05,3.12801037E-09,6.373500000000009e-11,7.25129E-12,1.12499E+05,2.43875820E-09,1.297999999999968e-11,2.00696E-12,1.12498E+05,3.87349841E-09,2.1754999999999787e-11,2.77566E-12
2023-04-11 16:49:11.688749,True,0,1,16,0,624,1.12499E+05,3.12998270E-09,5.493499999999987e-11,7.06198E-12,1.12499E+05,2.43823012E-09,1.332200000000034e-11,2.13936E-12,1.12498E+05,3.87346630E-09,1.9511000000000803e-11,2.77836E-12
2023-04-11 16:49:35.234272,True,0,1,16,0,624,1.12499E+05,3.12877572E-09,5.3399000000000345e-11,7.35444E-12,1.12499E+05,2.43574682E-09,1.2507999999999767e-11,1.77168E-12,1.12498E+05,3.87311893E-09,1.9417000000000617e-11,2.73483E-12
2023-04-11 16:49:58.740906,True,0,1,16,0,623,1.12499E+05,3.12893958E-09,4.8417999999999905e-11,7.44982E-12,1.12499E+05,2.43779596E-09,1.398899999999996e-11,2.34103E-12,1.12498E+05,3.87376484E-09,2.1209000000000273e-11,2.75195E-12
2023-04-11 16:50:22.311077,True,0,1,16,0,623,1.12499E+05,3.12732276E-09,4.64169999999998e-11,5.86567E-12,1.12499E+05,2.43964772E-09,1.363200000000031e-11,2.51923E-12,1.12498E+05,3.87368240E-09,2.0500000000000084e-11,2.77550E-12
2023-04-11 16:50:45.835957,True,0,1,16,0,623,1.12499E+05,3.12980268E-09,4.970300000000007e-11,5.87040E-12,1.12499E+05,2.43698584E-09,9.80300000000024e-12,1.27946E-12,1.12498E+05,3.87341364E-09,1.9507000000000355e-11,2.79306E-12
2023-04-11 16:51:09.400146,True,0,1,16,0,623,1.12499E+05,3.13080920E-09,5.843300000000031e-11,7.96658E-12,1.12499E+05,2.44010692E-09,1.2412999999999676e-11,2.15539E-12,1.12498E+05,3.87332633E-09,2.061299999999971e-11,2.83228E-12
2023-04-11 16:51:32.925316,True,0,1,16,0,624,1.12499E+05,3.12835656E-09,7.496600000000017e-11,8.89333E-12,1.12499E+05,2.43598899E-09,1.3069999999999832e-11,2.03025E-12,1.12498E+05,3.87367822E-09,1.991299999999991e-11,2.79263E-12
2023-04-11 16:51:56.456328,True,0,1,16,0,624,1.12499E+05,3.12852565E-09,5.284400000000003e-11,7.46230E-12,1.12499E+05,2.43773264E-09,1.2401999999999892e-11,2.04529E-12,1.12498E+05,3.87344578E-09,2.012899999999928e-11,2.81175E-12
2023-04-11 16:52:19.952156,True,0,1,16,0,624,1.12499E+05,3.12936776E-09,4.445000000000019e-11,7.03882E-12,1.12499E+05,2.43944194E-09,1.2077000000000102e-11,1.95728E-12,1.12498E+05,3.87379902E-09,2.037700000000058e-11,2.82641E-12
2023-04-11 16:52:43.520135,True,0,1,16,0,624,1.12499E+05,3.12909558E-09,4.9077999999999776e-11,6.53230E-12,1.12499E+05,2.43823609E-09,1.1397000000000059e-11,1.74923E-12,1.12498E+05,3.87377667E-09,2.0643000000000174e-11,2.79535E-12
2023-04-11 16:53:07.046881,True,0,1,16,0,624,1.12499E+05,3.11293451E-09,6.427699999999998e-11,7.24982E-12,1.12499E+05,2.43740551E-09,1.2352000000000083e-11,1.85994E-12,1.12498E+05,3.87396461E-09,2.0849000000000493e-11,2.87070E-12
2023-04-11 16:53:30.618509,True,0,1,16,0,624,1.12499E+05,3.10312210E-09,4.976299999999976e-11,6.23007E-12,1.12499E+05,2.43706522E-09,9.582000000000102e-12,1.17713E-12,1.12498E+05,3.87411772E-09,2.0773999999999746e-11,2.80494E-12
2023-04-11 16:53:54.166191,True,0,1,16,0,624,1.12499E+05,3.12870657E-09,4.18969999999999e-11,5.95255E-12,1.12499E+05,2.43696066E-09,1.2539999999999628e-11,1.58573E-12,1.12498E+05,3.87367001E-09,2.083099999999972e-11,2.80687E-12
2023-04-11 16:54:17.638928,True,0,1,16,0,624,1.12499E+05,3.12692759E-09,6.013899999999985e-11,8.12390E-12,1.12499E+05,2.43802011E-09,9.804000000000145e-12,1.18662E-12,1.12498E+05,3.87385425E-09,2.0775000000000065e-11,2.76185E-12
2023-04-11 16:54:41.279650,True,0,1,16,0,625,1.12499E+05,3.12910075E-09,4.71879999999999e-11,6.09561E-12,1.12499E+05,2.43841221E-09,1.2103000000000118e-11,1.98472E-12,1.12498E+05,3.87375043E-09,1.969599999999939e-11,2.81572E-12
2023-04-11 16:55:04.982212,True,0,1,16,0,625,1.12499E+05,3.12937332E-09,4.8775999999999874e-11,6.54529E-12,1.12499E+05,2.43734693E-09,1.1450999999999902e-11,1.54568E-12,1.12498E+05,3.87388864E-09,2.080600000000002e-11,2.81605E-12
2023-04-11 16:55:28.531806,True,0,1,16,0,625,1.12499E+05,3.12987791E-09,5.154199999999982e-11,7.77468E-12,1.12499E+05,2.44078849E-09,1.2282000000000103e-11,1.82447E-12,1.12498E+05,3.87388907E-09,2.1077999999999873e-11,2.81199E-12
2023-04-11 16:55:52.043661,True,0,1,16,0,625,1.12499E+05,3.12983850E-09,4.50429999999998e-11,5.84860E-12,1.12499E+05,2.43778119E-09,1.0041000000000007e-11,1.16530E-12,1.12498E+05,3.87388537E-09,2.2067999999999473e-11,2.78287E-12
2023-04-11 16:56:15.587155,True,0,1,16,0,625,1.12499E+05,3.12877334E-09,4.850499999999993e-11,6.34005E-12,1.12499E+05,2.43745682E-09,1.434899999999974e-11,2.45884E-12,1.12498E+05,3.87402149E-09,1.955e-11,2.77113E-12
2023-04-11 16:56:39.103746,True,0,1,16,0,625,1.12499E+05,3.12915314E-09,4.562199999999991e-11,7.27589E-12,1.12499E+05,2.43790624E-09,1.2566000000000058e-11,1.93564E-12,1.12498E+05,3.87420470E-09,1.9883999999999763e-11,2.77387E-12
2023-04-11 16:57:02.652721,True,0,1,16,0,625,1.12499E+05,3.12508664E-09,5.963599999999998e-11,6.27957E-12,1.12499E+05,2.43801765E-09,1.1380000000000017e-11,1.52812E-12,1.12498E+05,3.87453041E-09,2.0728999999999464e-11,2.77070E-12
2023-04-11 16:57:26.213568,True,0,1,16,0,625,1.12499E+05,3.13051043E-09,4.991799999999995e-11,7.42373E-12,1.12499E+05,2.44203145E-09,1.4251999999999839e-11,2.31282E-12,1.12498E+05,3.87439087E-09,2.018299999999995e-11,2.78188E-12
