verilog gtwizard_ultrascale_v1_7_13  \
"../../../ipstatic/hdl/gtwizard_ultrascale_v1_7_bit_sync.v" \
"../../../ipstatic/hdl/gtwizard_ultrascale_v1_7_gte4_drp_arb.v" \
"../../../ipstatic/hdl/gtwizard_ultrascale_v1_7_gthe4_delay_powergood.v" \
"../../../ipstatic/hdl/gtwizard_ultrascale_v1_7_gtye4_delay_powergood.v" \
"../../../ipstatic/hdl/gtwizard_ultrascale_v1_7_gthe3_cpll_cal.v" \
"../../../ipstatic/hdl/gtwizard_ultrascale_v1_7_gthe3_cal_freqcnt.v" \
"../../../ipstatic/hdl/gtwizard_ultrascale_v1_7_gthe4_cpll_cal.v" \
"../../../ipstatic/hdl/gtwizard_ultrascale_v1_7_gthe4_cpll_cal_rx.v" \
"../../../ipstatic/hdl/gtwizard_ultrascale_v1_7_gthe4_cpll_cal_tx.v" \
"../../../ipstatic/hdl/gtwizard_ultrascale_v1_7_gthe4_cal_freqcnt.v" \
"../../../ipstatic/hdl/gtwizard_ultrascale_v1_7_gtye4_cpll_cal.v" \
"../../../ipstatic/hdl/gtwizard_ultrascale_v1_7_gtye4_cpll_cal_rx.v" \
"../../../ipstatic/hdl/gtwizard_ultrascale_v1_7_gtye4_cpll_cal_tx.v" \
"../../../ipstatic/hdl/gtwizard_ultrascale_v1_7_gtye4_cal_freqcnt.v" \
"../../../ipstatic/hdl/gtwizard_ultrascale_v1_7_gtwiz_buffbypass_rx.v" \
"../../../ipstatic/hdl/gtwizard_ultrascale_v1_7_gtwiz_buffbypass_tx.v" \
"../../../ipstatic/hdl/gtwizard_ultrascale_v1_7_gtwiz_reset.v" \
"../../../ipstatic/hdl/gtwizard_ultrascale_v1_7_gtwiz_userclk_rx.v" \
"../../../ipstatic/hdl/gtwizard_ultrascale_v1_7_gtwiz_userclk_tx.v" \
"../../../ipstatic/hdl/gtwizard_ultrascale_v1_7_gtwiz_userdata_rx.v" \
"../../../ipstatic/hdl/gtwizard_ultrascale_v1_7_gtwiz_userdata_tx.v" \
"../../../ipstatic/hdl/gtwizard_ultrascale_v1_7_reset_sync.v" \
"../../../ipstatic/hdl/gtwizard_ultrascale_v1_7_reset_inv_sync.v" \

verilog xil_defaultlib  \
"../../../../hop_m_gty_ex.gen/sources_1/ip/hop_m_gty/sim/gtwizard_ultrascale_v1_7_gtye4_channel.v" \
"../../../../hop_m_gty_ex.gen/sources_1/ip/hop_m_gty/sim/hop_m_gty_gtye4_channel_wrapper.v" \
"../../../../hop_m_gty_ex.gen/sources_1/ip/hop_m_gty/sim/hop_m_gty_gtwizard_gtye4.v" \
"../../../../hop_m_gty_ex.gen/sources_1/ip/hop_m_gty/sim/hop_m_gty_gtwizard_top.v" \
"../../../../hop_m_gty_ex.gen/sources_1/ip/hop_m_gty/sim/hop_m_gty.v" \

verilog xil_defaultlib "glbl.v"

nosort
