Time,ambient T,step,N fo,Mean fo,Range fo,StdD fo
2023-07-31 10:23:09.734087,26.06,0,4.08000E+05,6.777049E-10,4.3050000000000074e-11,4.8097E-12
2023-07-31 10:23:30.240296,26.06,0,4.56000E+05,6.777611E-10,4.1979999999999994e-11,4.7280E-12
2023-07-31 10:23:49.702439,26.02,0,4.32000E+05,6.794447E-10,3.997000000000002e-11,4.6336E-12
2023-07-31 10:24:09.261120,25.96,0,4.32000E+05,6.783151E-10,3.993999999999997e-11,4.7868E-12
2023-07-31 10:24:28.759460,25.99,0,4.32000E+05,6.784935E-10,4.152999999999996e-11,4.9650E-12
2023-07-31 10:24:59.434971,25.89,20,4.56000E+05,6.989178E-10,4.254000000000004e-11,4.9313E-12
2023-07-31 10:25:18.848487,25.86,20,4.32000E+05,6.995333E-10,4.034999999999997e-11,4.6331E-12
2023-07-31 10:25:37.482023,25.99,20,4.08000E+05,6.996506E-10,4.1140000000000025e-11,4.7376E-12
2023-07-31 10:25:55.103457,26.06,20,4.08000E+05,6.989765E-10,3.9350000000000076e-11,4.7774E-12
2023-07-31 10:26:14.706573,26.05,20,4.32000E+05,6.985668E-10,4.168999999999999e-11,4.9085E-12
2023-07-31 10:26:43.387638,25.96,40,4.08000E+05,7.189996E-10,4.085000000000002e-11,4.8622E-12
2023-07-31 10:27:01.121311,25.99,40,4.08000E+05,7.193597E-10,4.103000000000001e-11,4.7449E-12
2023-07-31 10:27:19.954170,25.99,40,4.08000E+05,7.195594E-10,4.0770000000000057e-11,4.7239E-12
2023-07-31 10:27:39.713987,26.04,40,4.32000E+05,7.188392E-10,4.632e-11,4.9366E-12
2023-07-31 10:28:00.043381,25.96,40,4.56000E+05,7.192505E-10,4.0830000000000054e-11,4.6384E-12
2023-07-31 10:28:29.477334,25.99,60,4.32000E+05,7.389286E-10,3.966000000000005e-11,4.7254E-12
2023-07-31 10:28:49.989252,25.99,60,4.56000E+05,7.396978E-10,3.853999999999995e-11,4.8858E-12
2023-07-31 10:29:09.469017,26.02,60,4.32000E+05,7.395832E-10,4.1649999999999954e-11,4.6987E-12
2023-07-31 10:29:28.255097,25.99,60,4.08000E+05,7.394913E-10,4.344999999999999e-11,5.0001E-12
2023-07-31 10:29:46.800326,25.97,60,4.08000E+05,7.392872E-10,4.302000000000002e-11,4.6902E-12
2023-07-31 10:30:17.774978,25.96,80,4.80000E+05,7.580429E-10,4.169999999999997e-11,4.7557E-12
2023-07-31 10:30:37.245638,25.94,80,4.32000E+05,7.590769E-10,4.071999999999994e-11,4.8148E-12
2023-07-31 10:30:57.798040,25.92,80,4.56000E+05,7.593476E-10,4.1210000000000006e-11,4.8961E-12
2023-07-31 10:31:17.240376,25.96,80,4.32000E+05,7.581071E-10,4.139999999999998e-11,4.8605E-12
2023-07-31 10:31:36.674507,25.99,80,4.32000E+05,7.592939E-10,4.032000000000002e-11,4.7317E-12
2023-07-31 10:32:05.822984,25.98,100,4.32000E+05,7.788591E-10,4.186999999999998e-11,4.8920E-12
2023-07-31 10:32:26.383065,26.04,100,4.56000E+05,7.790636E-10,4.0600000000000046e-11,4.6771E-12
2023-07-31 10:32:45.812678,25.97,100,4.32000E+05,7.769910E-10,4.5799999999999987e-11,4.8915E-12
2023-07-31 10:33:04.242682,26.02,100,4.08000E+05,7.785030E-10,4.132000000000002e-11,5.1116E-12
2023-07-31 10:33:24.969037,26.0,100,4.56000E+05,7.782821E-10,4.0769999999999953e-11,4.9361E-12
2023-07-31 10:33:53.807665,25.85,120,4.32000E+05,7.977243E-10,4.0660000000000044e-11,4.8206E-12
2023-07-31 10:34:10.561401,25.92,120,4.08000E+05,7.984211E-10,3.9890000000000056e-11,4.7994E-12
2023-07-31 10:34:29.081758,25.89,120,4.08000E+05,7.980985E-10,4.267000000000002e-11,4.9188E-12
2023-07-31 10:34:49.369270,25.92,120,4.56000E+05,7.976361E-10,4.2529999999999955e-11,4.9367E-12
2023-07-31 10:35:08.931166,25.92,120,4.32000E+05,7.978779E-10,4.092999999999998e-11,5.2242E-12
2023-07-31 10:35:38.657231,25.92,140,4.56000E+05,8.178177E-10,4.113000000000004e-11,4.8458E-12
2023-07-31 10:35:57.155703,25.99,140,4.08000E+05,8.184928E-10,3.951e-11,4.9298E-12
2023-07-31 10:36:16.751825,25.99,140,4.32000E+05,8.180308E-10,4.6190000000000024e-11,4.8645E-12
2023-07-31 10:36:34.339772,25.97,140,4.08000E+05,8.185094E-10,4.1210000000000006e-11,4.8372E-12
2023-07-31 10:36:54.594203,25.99,140,4.56000E+05,8.178657E-10,4.287999999999996e-11,4.8920E-12
2023-07-31 10:37:23.401735,25.99,160,4.32000E+05,8.378676E-10,4.233e-11,4.7453E-12
2023-07-31 10:37:42.205387,26.08,160,4.56000E+05,8.383550E-10,4.682999999999993e-11,4.9506E-12
2023-07-31 10:38:01.863007,26.09,160,4.08000E+05,8.391369E-10,4.500999999999993e-11,4.9338E-12
2023-07-31 10:38:22.568715,26.08,160,4.56000E+05,8.395266E-10,4.2620000000000004e-11,4.9757E-12
2023-07-31 10:38:43.167980,26.09,160,4.56000E+05,8.391348E-10,4.065000000000006e-11,4.8387E-12
2023-07-31 10:39:12.723971,26.15,180,4.56000E+05,8.603637E-10,4.342000000000004e-11,5.0941E-12
2023-07-31 10:39:32.085130,26.0,180,4.32000E+05,8.601230E-10,4.145999999999998e-11,4.8092E-12
2023-07-31 10:39:52.775707,25.8,180,4.56000E+05,8.593580E-10,4.237000000000003e-11,4.8953E-12
2023-07-31 10:40:11.233286,25.7,180,4.08000E+05,8.595782E-10,3.8840000000000044e-11,4.5937E-12
2023-07-31 10:40:31.663494,25.76,180,4.56000E+05,8.602755E-10,4.018000000000006e-11,4.8570E-12
2023-07-31 10:40:59.076401,25.76,200,4.08000E+05,8.800971E-10,4.065999999999994e-11,4.9058E-12
2023-07-31 10:41:19.703001,25.76,200,4.56000E+05,8.800330E-10,4.3609999999999915e-11,4.7825E-12
2023-07-31 10:41:39.005444,25.76,200,4.32000E+05,8.802782E-10,4.28e-11,4.8705E-12
2023-07-31 10:41:59.338228,25.86,200,4.56000E+05,8.792506E-10,4.517999999999994e-11,4.8611E-12
2023-07-31 10:42:17.934406,25.86,200,4.08000E+05,8.801590E-10,4.0900000000000035e-11,4.6254E-12
2023-07-31 10:42:47.257998,25.9,220,4.56000E+05,9.029009E-10,4.0539999999999945e-11,4.8009E-12
2023-07-31 10:43:06.787382,25.95,220,4.32000E+05,9.010536E-10,3.889000000000006e-11,4.8572E-12
2023-07-31 10:43:25.373421,25.87,220,4.08000E+05,9.012831E-10,4.1319999999999915e-11,4.8976E-12
2023-07-31 10:43:45.757848,25.83,220,4.56000E+05,9.025626E-10,4.226000000000002e-11,5.0348E-12
2023-07-31 10:44:06.211123,25.84,220,4.56000E+05,9.018402E-10,3.926000000000003e-11,4.8198E-12
2023-07-31 10:44:35.408120,25.77,240,4.56000E+05,9.239460E-10,4.365000000000005e-11,4.8358E-12
2023-07-31 10:44:53.954479,25.8,240,4.08000E+05,9.249882E-10,3.759999999999995e-11,4.6089E-12
2023-07-31 10:45:10.511240,25.88,240,4.08000E+05,9.241562E-10,4.134000000000009e-11,5.0096E-12
2023-07-31 10:45:29.979808,25.83,240,4.32000E+05,9.255404E-10,4.466999999999991e-11,5.2651E-12
2023-07-31 10:45:49.431690,25.8,240,4.32000E+05,9.241224E-10,4.324999999999993e-11,4.7475E-12
2023-07-31 10:46:17.714782,25.8,260,4.32000E+05,9.472035E-10,4.1950000000000046e-11,5.0193E-12
2023-07-31 10:46:36.569173,25.78,260,4.08000E+05,9.464189E-10,4.466999999999991e-11,5.2096E-12
2023-07-31 10:46:55.098936,25.74,260,4.08000E+05,9.462137E-10,4.324000000000005e-11,5.1612E-12
2023-07-31 10:47:13.722635,25.73,260,4.08000E+05,9.455310E-10,4.3809999999999976e-11,4.9733E-12
2023-07-31 10:47:33.314278,25.71,260,4.32000E+05,9.456622E-10,4.690000000000012e-11,5.1302E-12
2023-07-31 10:48:01.070980,25.8,280,4.32000E+05,9.680715E-10,4.072999999999992e-11,5.0918E-12
2023-07-31 10:48:19.730591,25.73,280,4.08000E+05,9.684179E-10,4.516000000000008e-11,5.0386E-12
2023-07-31 10:48:39.938748,25.67,280,4.56000E+05,9.676785E-10,4.412999999999993e-11,5.1958E-12
2023-07-31 10:48:59.575570,25.64,280,4.32000E+05,9.679420E-10,4.190000000000003e-11,5.0772E-12
2023-07-31 10:49:20.161770,25.66,280,4.56000E+05,9.675857E-10,4.2890000000000045e-11,5.0846E-12
2023-07-31 10:49:48.902841,25.76,300,4.56000E+05,9.906300E-10,4.311999999999995e-11,5.1128E-12
2023-07-31 10:50:08.593883,25.8,300,4.32000E+05,9.910039E-10,4.3090000000000107e-11,5.2739E-12
2023-07-31 10:50:27.442436,25.8,300,4.08000E+05,9.914611E-10,4.1400000000000085e-11,5.2515E-12
2023-07-31 10:50:47.778457,25.86,300,4.56000E+05,9.910707E-10,4.412999999999993e-11,5.2629E-12
2023-07-31 10:51:06.211568,25.82,300,4.08000E+05,9.912690E-10,4.446999999999995e-11,5.2814E-12
2023-07-31 10:51:34.913939,25.82,320,4.56000E+05,1.0118860E-09,4.3730000000000013e-11,5.3133E-12
2023-07-31 10:51:53.625230,25.81,320,4.08000E+05,1.0130390E-09,4.259000000000016e-11,4.9784E-12
2023-07-31 10:52:14.126410,25.8,320,4.56000E+05,1.0135567E-09,4.2339999999999877e-11,5.1043E-12
2023-07-31 10:52:32.539488,25.84,320,4.08000E+05,1.0133291E-09,4.0269999999999903e-11,4.8007E-12
2023-07-31 10:52:53.319248,25.84,320,4.56000E+05,1.0139451E-09,4.423999999999984e-11,5.0576E-12
2023-07-31 10:53:22.257554,25.89,340,4.56000E+05,1.0348631E-09,4.111999999999996e-11,4.9360E-12
2023-07-31 10:53:40.884542,25.77,340,4.08000E+05,1.0350565E-09,4.3730000000000013e-11,5.3345E-12
2023-07-31 10:54:00.405397,25.73,340,4.32000E+05,1.0349540E-09,4.298999999999987e-11,5.1420E-12
2023-07-31 10:54:21.048973,25.76,340,4.56000E+05,1.0351419E-09,4.6430000000000014e-11,5.1275E-12
2023-07-31 10:54:41.562761,25.75,340,4.56000E+05,1.0346547E-09,4.696999999999989e-11,5.1360E-12
2023-07-31 10:55:07.564230,25.67,360,4.08000E+05,1.0561024E-09,4.287999999999996e-11,4.9634E-12
2023-07-31 10:55:28.130839,25.62,360,4.56000E+05,1.0557447E-09,4.368e-11,5.4175E-12
2023-07-31 10:55:45.049857,25.57,360,4.08000E+05,1.0554329E-09,4.536000000000014e-11,5.3441E-12
2023-07-31 10:56:03.481951,25.52,360,4.08000E+05,1.0555862E-09,4.644999999999998e-11,5.3490E-12
2023-07-31 10:56:23.899112,25.57,360,4.56000E+05,1.0559198E-09,4.723999999999993e-11,5.2746E-12
2023-07-31 10:56:50.166771,25.54,380,4.07998E+05,1.0765609E-09,4.221e-11,5.1109E-12
2023-07-31 10:57:10.821444,25.61,380,4.55999E+05,1.0753487E-09,4.445000000000019e-11,5.1576E-12
2023-07-31 10:57:30.368327,25.61,380,4.32000E+05,1.0752463E-09,4.3760000000000064e-11,5.0262E-12
2023-07-31 10:57:48.868470,25.74,380,4.07997E+05,1.0761399E-09,4.468999999999998e-11,5.4579E-12
2023-07-31 10:58:09.281969,25.77,380,4.56000E+05,1.0759889E-09,4.5320000000000005e-11,5.2839E-12
2023-07-31 10:58:37.502013,25.8,400,4.55996E+05,1.0963060E-09,4.156000000000001e-11,4.8567E-12
2023-07-31 10:58:56.913802,25.81,400,4.31991E+05,1.0959163E-09,4.1780000000000036e-11,4.9301E-12
2023-07-31 10:59:16.566763,25.84,400,4.31993E+05,1.0969433E-09,4.162999999999999e-11,5.1184E-12
2023-07-31 10:59:36.066615,25.91,400,4.31994E+05,1.0966644E-09,4.325999999999991e-11,5.1693E-12
2023-07-31 10:59:53.724158,25.89,400,4.07994E+05,1.0970292E-09,4.104999999999998e-11,4.9151E-12
2023-07-31 11:00:19.986812,25.86,420,4.07993E+05,1.1177180E-09,4.598999999999996e-11,5.4031E-12
2023-07-31 11:00:40.326260,25.95,420,4.55985E+05,1.1169196E-09,4.574999999999997e-11,5.5272E-12
2023-07-31 11:01:00.940903,25.89,420,4.55987E+05,1.1174660E-09,4.4289999999999854e-11,5.2138E-12
2023-07-31 11:01:20.681647,25.89,420,4.31990E+05,1.1164168E-09,4.287000000000008e-11,5.2171E-12
2023-07-31 11:01:38.564242,25.87,420,4.07987E+05,1.1177677E-09,4.2129999999999936e-11,5.3064E-12
2023-07-31 11:02:04.936646,25.88,440,4.07983E+05,1.1378349E-09,4.3099999999999986e-11,4.9073E-12
2023-07-31 11:02:24.567591,25.74,440,4.31982E+05,1.1381929E-09,4.8969999999999884e-11,5.3431E-12
2023-07-31 11:02:44.983092,25.8,440,4.55981E+05,1.1381868E-09,4.747999999999992e-11,5.1983E-12
2023-07-31 11:03:05.615748,25.57,440,4.55982E+05,1.1369289E-09,4.4589999999999946e-11,5.1580E-12
2023-07-31 11:03:25.025554,25.61,440,4.31982E+05,1.1376129E-09,4.726999999999998e-11,5.1469E-12
2023-07-31 11:03:53.710912,25.66,460,4.55981E+05,1.1581156E-09,4.4730000000000113e-11,5.3119E-12
2023-07-31 11:04:14.290530,25.57,460,4.55981E+05,1.1583282E-09,4.4799999999999887e-11,5.4338E-12
2023-07-31 11:04:32.059152,25.61,460,4.07983E+05,1.1568996E-09,4.3479999999999937e-11,5.2114E-12
2023-07-31 11:04:52.763859,25.64,460,4.55981E+05,1.1582224E-09,4.9279999999999855e-11,5.5055E-12
2023-07-31 11:05:11.423795,25.7,460,4.07983E+05,1.1582369E-09,4.0409999999999864e-11,5.0860E-12
2023-07-31 11:05:39.937048,25.64,480,4.55981E+05,1.1791842E-09,4.5000000000000155e-11,5.2326E-12
2023-07-31 11:05:56.697126,25.57,480,4.07983E+05,1.1794481E-09,4.8259999999999997e-11,5.6387E-12
2023-07-31 11:06:16.105905,25.6,480,4.31982E+05,1.1794896E-09,4.6050000000000063e-11,5.0929E-12
2023-07-31 11:06:35.819908,25.62,480,4.31982E+05,1.1792854E-09,4.513000000000003e-11,5.2939E-12
2023-07-31 11:06:54.353074,25.63,480,4.07983E+05,1.1797565E-09,4.262999999999988e-11,4.9839E-12
2023-07-31 11:07:20.211441,25.61,500,4.07983E+05,1.2029435E-09,3.985000000000002e-11,4.9195E-12
2023-07-31 11:07:39.683291,25.69,500,4.31982E+05,1.2010277E-09,4.426999999999989e-11,5.4157E-12
2023-07-31 11:08:00.301919,25.72,500,4.55981E+05,1.2018398E-09,4.402000000000002e-11,5.0082E-12
2023-07-31 11:08:20.785469,25.7,500,4.55981E+05,1.2008289E-09,4.260000000000004e-11,5.0420E-12
2023-07-31 11:08:39.344653,25.74,500,4.07983E+05,1.2024768E-09,4.01000000000001e-11,4.7812E-12
2023-07-31 11:09:07.801799,25.7,520,4.55981E+05,1.2248816E-09,4.388999999999994e-11,5.0268E-12
2023-07-31 11:09:27.174526,25.7,520,4.31982E+05,1.2253230E-09,4.2020000000000027e-11,4.9160E-12
2023-07-31 11:09:46.505616,25.61,520,4.31982E+05,1.2253577E-09,4.394000000000016e-11,5.0695E-12
2023-07-31 11:10:04.174192,25.52,520,4.07983E+05,1.2248109E-09,4.426000000000001e-11,4.8587E-12
2023-07-31 11:10:23.622569,25.64,520,4.55981E+05,1.2246964E-09,4.491e-11,5.2501E-12
2023-07-31 11:10:52.393813,25.61,540,4.55981E+05,1.2480000E-09,4.203999999999999e-11,5.2414E-12
2023-07-31 11:11:11.949988,25.58,540,4.31982E+05,1.2495136E-09,4.1789999999999915e-11,4.9096E-12
2023-07-31 11:11:32.501277,25.58,540,4.55981E+05,1.2495759E-09,4.1810000000000086e-11,4.9156E-12
2023-07-31 11:11:49.168829,25.64,540,4.07983E+05,1.2497140E-09,4.0530000000000066e-11,4.9273E-12
2023-07-31 11:12:08.586883,25.71,540,4.31982E+05,1.2491243E-09,4.099000000000008e-11,4.9387E-12
2023-07-31 11:12:37.756453,25.69,560,4.55981E+05,1.2723431E-09,4.6329999999999984e-11,4.9874E-12
2023-07-31 11:12:57.350270,25.56,560,4.31982E+05,1.2735309E-09,4.134999999999986e-11,4.9271E-12
2023-07-31 11:13:17.082592,25.55,560,4.31982E+05,1.2730123E-09,4.6739999999999985e-11,5.0743E-12
2023-07-31 11:13:36.871311,25.61,560,4.31982E+05,1.2722346E-09,4.2829999999999944e-11,4.9920E-12
2023-07-31 11:13:55.639167,25.67,560,4.07983E+05,1.2738623E-09,4.2199999999999916e-11,4.8186E-12
2023-07-31 11:14:23.960577,25.7,580,4.31982E+05,1.2974546E-09,3.9320000000000026e-11,4.7269E-12
2023-07-31 11:14:44.357214,25.71,580,4.55981E+05,1.2984344E-09,4.617000000000006e-11,5.0812E-12
2023-07-31 11:15:01.015273,25.74,580,4.07983E+05,1.2970878E-09,4.3409999999999957e-11,4.9927E-12
2023-07-31 11:15:21.494536,25.73,580,4.55981E+05,1.2990518E-09,4.4550000000000017e-11,5.1685E-12
2023-07-31 11:15:41.903521,25.76,580,4.55981E+05,1.2988494E-09,4.466000000000013e-11,5.0398E-12
2023-07-31 11:16:10.533123,25.74,600,4.31982E+05,1.3229297E-09,4.0090000000000014e-11,5.0700E-12
2023-07-31 11:16:29.121803,25.67,600,4.07983E+05,1.3231855E-09,4.543000000000012e-11,4.9388E-12
2023-07-31 11:16:47.652490,25.73,600,4.07983E+05,1.3235560E-09,4.128000000000009e-11,4.9782E-12
2023-07-31 11:17:08.812473,25.75,600,4.79980E+05,1.3228704E-09,4.276000000000017e-11,5.0738E-12
2023-07-31 11:17:27.457035,25.73,600,4.07983E+05,1.3236904E-09,4.263999999999997e-11,4.8771E-12
2023-07-31 11:17:55.204357,25.79,620,4.07983E+05,1.3480589E-09,4.297000000000011e-11,5.1702E-12
2023-07-31 11:18:12.827438,25.79,620,4.07983E+05,1.3468174E-09,4.8740000000000185e-11,5.0697E-12
2023-07-31 11:18:33.345016,25.77,620,4.55981E+05,1.3475471E-09,4.485999999999999e-11,5.0239E-12
2023-07-31 11:18:52.705515,25.78,620,4.31982E+05,1.3477697E-09,4.713000000000002e-11,4.9197E-12
2023-07-31 11:19:13.251994,26.02,620,4.55981E+05,1.3493416E-09,4.28000000000001e-11,4.9517E-12
2023-07-31 11:19:39.720321,25.99,600,4.07983E+05,1.3247639E-09,4.2340000000000083e-11,4.9626E-12
2023-07-31 11:19:58.467879,25.93,600,4.07983E+05,1.3238366E-09,4.0630000000000096e-11,4.8123E-12
2023-07-31 11:20:18.947017,25.89,600,4.55981E+05,1.3231297E-09,4.641999999999993e-11,4.7652E-12
2023-07-31 11:20:39.673409,25.86,600,4.55981E+05,1.3241731E-09,4.932999999999987e-11,5.0988E-12
2023-07-31 11:20:59.333387,25.86,600,4.31982E+05,1.3239758E-09,4.3960000000000125e-11,5.3319E-12
2023-07-31 11:21:27.623762,25.84,580,4.31982E+05,1.3002393E-09,4.0530000000000066e-11,4.6908E-12
2023-07-31 11:21:45.543130,25.83,580,4.07983E+05,1.2989466E-09,4.472000000000003e-11,5.2606E-12
2023-07-31 11:22:05.323629,25.83,580,4.31982E+05,1.2996169E-09,4.281999999999986e-11,4.9422E-12
2023-07-31 11:22:25.236566,25.82,580,4.31982E+05,1.2995706E-09,4.6709999999999935e-11,5.0960E-12
2023-07-31 11:22:45.871002,25.79,580,4.55981E+05,1.2987994E-09,4.222999999999997e-11,5.1102E-12
2023-07-31 11:23:11.017442,25.82,560,4.07983E+05,1.2751631E-09,4.1719999999999935e-11,5.0396E-12
2023-07-31 11:23:31.450347,25.8,560,4.55981E+05,1.2744997E-09,4.3860000000000095e-11,5.0787E-12
2023-07-31 11:23:51.008611,25.85,560,4.31982E+05,1.2761064E-09,4.1339999999999983e-11,4.8790E-12
2023-07-31 11:24:08.805520,25.86,560,4.07983E+05,1.2735152E-09,4.1640000000000075e-11,5.1105E-12
2023-07-31 11:24:27.319250,25.83,560,4.07983E+05,1.2736369E-09,4.405999999999995e-11,5.1998E-12
2023-07-31 11:24:56.276998,25.85,540,4.55981E+05,1.2496378E-09,4.3480000000000144e-11,5.0302E-12
2023-07-31 11:25:14.777443,25.88,540,4.07983E+05,1.2500002E-09,4.3009999999999834e-11,4.9189E-12
2023-07-31 11:25:33.510759,25.84,540,4.07983E+05,1.2496162E-09,4.308000000000002e-11,5.1041E-12
2023-07-31 11:25:50.501386,25.78,540,4.07983E+05,1.2512366E-09,4.5979999999999876e-11,4.7416E-12
2023-07-31 11:26:09.096878,25.83,540,4.07983E+05,1.2505457E-09,4.579000000000011e-11,5.0999E-12
2023-07-31 11:26:37.228569,25.89,520,4.31982E+05,1.2263777E-09,4.263000000000009e-11,5.2547E-12
2023-07-31 11:26:57.836351,25.88,520,4.55981E+05,1.2261870E-09,4.284000000000003e-11,5.1326E-12
2023-07-31 11:27:14.705467,25.96,520,4.07983E+05,1.2257676E-09,4.113999999999992e-11,4.9045E-12
2023-07-31 11:27:35.204254,25.89,520,4.55981E+05,1.2281301E-09,4.706999999999992e-11,4.9972E-12
2023-07-31 11:27:55.728037,25.89,520,4.55981E+05,1.2268497E-09,4.6499999999999995e-11,5.5724E-12
2023-07-31 11:28:23.636324,25.88,500,4.31982E+05,1.2038951E-09,4.634999999999995e-11,5.0848E-12
2023-07-31 11:28:41.443710,25.95,500,4.07983E+05,1.2035778E-09,4.4519999999999966e-11,5.2632E-12
2023-07-31 11:29:00.085357,25.93,500,4.07983E+05,1.2042524E-09,4.5590000000000046e-11,5.2391E-12
2023-07-31 11:29:18.653243,25.91,500,4.07983E+05,1.2033391E-09,4.5000000000000155e-11,5.1302E-12
2023-07-31 11:29:38.842032,25.92,500,4.55981E+05,1.2045083E-09,4.467000000000001e-11,4.9573E-12
2023-07-31 11:30:06.696221,25.92,480,4.31982E+05,1.1815059E-09,4.2480000000000044e-11,4.9923E-12
2023-07-31 11:30:25.620598,25.91,480,4.07983E+05,1.1802245E-09,4.318000000000005e-11,5.4181E-12
2023-07-31 11:30:46.136785,25.86,480,4.55981E+05,1.1809645E-09,4.359000000000005e-11,5.4729E-12
2023-07-31 11:31:06.800276,25.88,480,4.55981E+05,1.1832264E-09,4.229999999999995e-11,4.9580E-12
2023-07-31 11:31:23.577654,25.89,480,4.07983E+05,1.1807686E-09,4.318000000000005e-11,5.4103E-12
2023-07-31 11:31:52.035428,25.92,460,4.55981E+05,1.1609337E-09,4.3139999999999915e-11,4.9536E-12
2023-07-31 11:32:11.364525,25.92,460,4.31982E+05,1.1592021E-09,4.4349999999999955e-11,5.3456E-12
2023-07-31 11:32:30.210327,25.91,460,4.55981E+05,1.1594891E-09,4.3279999999999875e-11,5.0405E-12
2023-07-31 11:32:50.728533,25.89,460,4.55981E+05,1.1579311E-09,4.503e-11,5.3267E-12
2023-07-31 11:33:10.378838,25.92,460,4.31982E+05,1.1585363E-09,4.627999999999997e-11,5.1432E-12
2023-07-31 11:33:38.799254,25.96,440,4.55981E+05,1.1384505E-09,4.465000000000005e-11,5.0859E-12
2023-07-31 11:33:59.991635,25.98,440,4.79980E+05,1.1385236E-09,4.2020000000000027e-11,5.3281E-12
2023-07-31 11:34:18.245520,25.96,440,4.07983E+05,1.1397993E-09,4.588999999999993e-11,5.0002E-12
2023-07-31 11:34:36.819687,26.02,440,4.07983E+05,1.1393269E-09,4.317000000000017e-11,5.1660E-12
2023-07-31 11:34:55.691374,25.95,440,4.07983E+05,1.1388904E-09,4.526999999999999e-11,5.3151E-12
2023-07-31 11:35:22.913571,26.02,420,4.31985E+05,1.1180602E-09,4.651000000000008e-11,5.1129E-12
2023-07-31 11:35:40.681157,25.99,420,4.07988E+05,1.1190450E-09,4.496000000000002e-11,5.4655E-12
2023-07-31 11:35:59.361334,25.99,420,4.07988E+05,1.1194014E-09,4.6320000000000105e-11,5.3226E-12
2023-07-31 11:36:19.857190,25.99,420,4.55987E+05,1.1188330E-09,4.701000000000003e-11,5.4816E-12
2023-07-31 11:36:40.549424,25.99,420,4.55985E+05,1.1191657E-09,4.3760000000000064e-11,5.3479E-12
2023-07-31 11:37:08.411351,26.06,400,4.55990E+05,1.0984368E-09,4.9890000000000124e-11,5.2003E-12
2023-07-31 11:37:27.914631,26.06,400,4.31991E+05,1.0994916E-09,4.3449999999999886e-11,5.0581E-12
2023-07-31 11:37:45.642559,26.11,400,4.07993E+05,1.0980411E-09,4.335999999999994e-11,5.1060E-12
2023-07-31 11:38:04.443626,26.05,400,4.07993E+05,1.0985316E-09,4.225000000000014e-11,4.8806E-12
2023-07-31 11:38:25.018323,26.05,400,4.55990E+05,1.0992735E-09,4.238000000000001e-11,5.4050E-12
2023-07-31 11:38:53.031114,26.06,380,4.55998E+05,1.0788578E-09,5.0510000000000066e-11,5.2572E-12
2023-07-31 11:39:12.524653,26.0,380,4.31997E+05,1.0788421E-09,4.4690000000000184e-11,5.3682E-12
2023-07-31 11:39:31.080397,26.12,380,4.07998E+05,1.0783098E-09,4.321999999999998e-11,5.1453E-12
2023-07-31 11:39:51.543718,26.08,380,4.55998E+05,1.0791481E-09,4.473999999999999e-11,5.0949E-12
2023-07-31 11:40:12.180480,26.08,380,4.55997E+05,1.0781271E-09,4.523000000000006e-11,5.5374E-12
2023-07-31 11:40:40.464437,26.03,360,4.56000E+05,1.0574253E-09,4.557000000000008e-11,5.3089E-12
2023-07-31 11:41:00.023230,26.02,360,4.32000E+05,1.0578049E-09,4.3069999999999935e-11,4.9876E-12
2023-07-31 11:41:19.381466,25.99,360,4.32000E+05,1.0578332E-09,4.349000000000002e-11,5.4407E-12
2023-07-31 11:41:40.097146,26.03,360,4.56000E+05,1.0576523E-09,4.5389999999999985e-11,5.2496E-12
2023-07-31 11:41:57.904530,26.07,360,4.08000E+05,1.0583221E-09,4.5049999999999963e-11,5.0440E-12
2023-07-31 11:42:23.404069,26.22,340,4.08000E+05,1.0374024E-09,4.479000000000001e-11,5.1352E-12
2023-07-31 11:42:41.845283,26.36,340,4.08000E+05,1.0374966E-09,4.593999999999995e-11,5.2027E-12
2023-07-31 11:43:02.429507,26.19,340,4.56000E+05,1.0372061E-09,4.4219999999999874e-11,4.9787E-12
2023-07-31 11:43:22.123412,26.12,340,4.32000E+05,1.0364503E-09,4.494999999999993e-11,5.4514E-12
2023-07-31 11:43:42.759105,26.06,340,4.56000E+05,1.0372271E-09,4.526999999999999e-11,5.3858E-12
2023-07-31 11:44:11.054347,26.05,320,4.56000E+05,1.0154589E-09,4.456999999999998e-11,5.4701E-12
2023-07-31 11:44:29.745186,26.02,320,4.08000E+05,1.0142983E-09,4.246000000000008e-11,4.9253E-12
2023-07-31 11:44:49.067494,26.04,320,4.32000E+05,1.0147307E-09,4.465000000000005e-11,4.9629E-12
2023-07-31 11:45:08.675244,26.02,320,4.32000E+05,1.0141257E-09,4.731000000000012e-11,5.2455E-12
2023-07-31 11:45:24.493619,26.05,320,3.84000E+05,1.0131178E-09,4.1400000000000085e-11,5.0135E-12
2023-07-31 11:45:51.448620,26.0,300,4.08000E+05,9.912954E-10,4.624999999999992e-11,5.1960E-12
2023-07-31 11:46:11.151531,25.99,300,4.32000E+05,9.932780E-10,4.398000000000009e-11,5.2092E-12
2023-07-31 11:46:30.738782,26.0,300,4.32000E+05,9.925352E-10,4.600999999999993e-11,5.2596E-12
2023-07-31 11:46:49.324443,25.99,300,4.08000E+05,9.918256E-10,4.197000000000001e-11,4.9978E-12
2023-07-31 11:47:09.830309,25.99,300,4.56000E+05,9.922592E-10,4.480999999999997e-11,5.2511E-12
2023-07-31 11:47:36.802317,26.05,280,4.08000E+05,9.702493E-10,4.291000000000001e-11,4.7917E-12
2023-07-31 11:47:56.457390,26.05,280,4.32000E+05,9.699804E-10,4.321999999999998e-11,5.0653E-12
2023-07-31 11:48:15.809298,26.05,280,4.32000E+05,9.698183E-10,4.280999999999998e-11,5.0806E-12
2023-07-31 11:48:32.717136,26.02,280,4.08000E+05,9.704947E-10,3.974000000000011e-11,5.1098E-12
2023-07-31 11:48:50.665050,26.05,280,4.08000E+05,9.696737E-10,4.376999999999994e-11,5.2662E-12
2023-07-31 11:49:18.647939,26.13,260,4.32000E+05,9.476552E-10,4.3660000000000033e-11,4.8241E-12
2023-07-31 11:49:38.189228,26.12,260,4.32000E+05,9.478050E-10,4.109999999999989e-11,4.9949E-12
2023-07-31 11:49:57.854486,26.14,260,4.32000E+05,9.484001E-10,4.19800000000001e-11,5.1987E-12
2023-07-31 11:50:16.566998,26.11,260,4.08000E+05,9.481396E-10,4.4959999999999915e-11,5.2665E-12
2023-07-31 11:50:36.219160,26.11,260,4.32000E+05,9.478246E-10,4.293999999999996e-11,5.1655E-12
2023-07-31 11:51:01.627616,26.06,240,4.08000E+05,9.254964E-10,4.025999999999992e-11,5.1025E-12
2023-07-31 11:51:21.249101,26.08,240,4.32000E+05,9.257363E-10,4.268e-11,5.0237E-12
2023-07-31 11:51:40.907427,26.08,240,4.32000E+05,9.267471E-10,4.1919999999999996e-11,4.8141E-12
2023-07-31 11:52:00.493042,26.06,240,4.32000E+05,9.260774E-10,4.341000000000006e-11,4.8632E-12
2023-07-31 11:52:20.213487,26.05,240,4.32000E+05,9.257064E-10,4.430999999999992e-11,4.9215E-12
2023-07-31 11:52:49.273432,26.12,220,4.56000E+05,9.045313E-10,4.463999999999996e-11,4.7615E-12
2023-07-31 11:53:09.665591,26.06,220,4.56000E+05,9.033272E-10,4.0670000000000026e-11,4.9804E-12
2023-07-31 11:53:29.067112,26.05,220,4.32000E+05,9.047491E-10,3.7830000000000065e-11,4.7771E-12
2023-07-31 11:53:50.359359,26.05,220,4.80000E+05,9.038061E-10,4.1610000000000025e-11,5.0654E-12
2023-07-31 11:54:11.047363,26.08,220,4.56000E+05,9.026173E-10,4.547999999999993e-11,4.9466E-12
2023-07-31 11:54:38.241230,26.09,200,4.08000E+05,8.813072E-10,4.207000000000004e-11,5.0682E-12
2023-07-31 11:54:56.974307,26.08,200,4.08000E+05,8.819897E-10,4.3260000000000014e-11,5.0194E-12
2023-07-31 11:55:15.764437,26.18,200,4.08000E+05,8.819066E-10,4.2929999999999975e-11,4.7954E-12
2023-07-31 11:55:35.482063,26.28,200,4.32000E+05,8.817367E-10,4.0970000000000015e-11,4.9918E-12
2023-07-31 11:55:55.180304,26.15,200,4.32000E+05,8.815756E-10,4.443000000000002e-11,4.8958E-12
2023-07-31 11:56:24.528303,26.12,180,4.56000E+05,8.605569E-10,4.162000000000001e-11,4.7744E-12
2023-07-31 11:56:43.994887,26.15,180,4.32000E+05,8.612087E-10,4.034999999999997e-11,4.7204E-12
2023-07-31 11:57:02.749352,26.18,180,4.08000E+05,8.611847E-10,4.0830000000000054e-11,4.9232E-12
2023-07-31 11:57:21.509140,26.14,180,4.08000E+05,8.606173E-10,4.2340000000000083e-11,4.9454E-12
2023-07-31 11:57:40.817109,26.16,180,4.32000E+05,8.610495E-10,3.882999999999996e-11,4.9190E-12
2023-07-31 11:58:09.059217,26.28,160,4.32000E+05,8.394198E-10,4.210999999999997e-11,4.9078E-12
2023-07-31 11:58:26.787799,26.34,160,4.08000E+05,8.401511E-10,4.186999999999998e-11,4.8301E-12
2023-07-31 11:58:47.415591,26.33,160,4.56000E+05,8.401422E-10,4.250000000000001e-11,4.9481E-12
2023-07-31 11:59:06.788388,26.34,160,4.32000E+05,8.403187E-10,4.260000000000004e-11,4.9029E-12
2023-07-31 11:59:27.556491,26.34,160,4.56000E+05,8.404947E-10,4.0939999999999964e-11,5.0338E-12
2023-07-31 11:59:54.281484,26.33,140,4.08000E+05,8.191384E-10,4.0590000000000064e-11,4.7581E-12
2023-07-31 12:00:13.973666,26.29,140,4.32000E+05,8.206625E-10,4.6290000000000054e-11,4.9364E-12
2023-07-31 12:00:34.687378,26.21,140,4.56000E+05,8.198498E-10,4.051e-11,4.9059E-12
2023-07-31 12:00:55.235097,26.24,140,4.56000E+05,8.201935E-10,4.0949999999999946e-11,4.7716E-12
2023-07-31 12:01:14.052166,26.14,140,4.08000E+05,8.193174E-10,4.139e-11,4.7643E-12
2023-07-31 12:01:43.830933,26.21,120,4.56000E+05,8.001204E-10,4.0800000000000004e-11,4.9503E-12
2023-07-31 12:02:04.650293,26.31,120,4.56000E+05,8.002551E-10,4.0639999999999975e-11,4.8296E-12
2023-07-31 12:02:22.065056,26.28,120,4.08000E+05,7.980150E-10,4.3099999999999986e-11,4.9492E-12
2023-07-31 12:02:40.711996,26.32,120,4.32000E+05,7.995519E-10,4.092e-11,4.8634E-12
2023-07-31 12:03:00.231666,26.28,120,4.32000E+05,7.991351E-10,4.146000000000008e-11,4.7261E-12
2023-07-31 12:03:27.239609,26.39,100,4.08000E+05,7.800597E-10,3.9180000000000065e-11,4.7295E-12
2023-07-31 12:03:46.890850,26.38,100,4.32000E+05,7.791088E-10,4.368e-11,4.9507E-12
2023-07-31 12:04:05.720061,26.33,100,4.08000E+05,7.792095E-10,4.196000000000003e-11,5.1920E-12
2023-07-31 12:04:24.372439,26.25,100,4.08000E+05,7.802028E-10,4.167000000000002e-11,4.8996E-12
2023-07-31 12:04:41.951911,26.31,100,4.08000E+05,7.804533E-10,4.222000000000009e-11,4.7745E-12
2023-07-31 12:05:11.740442,26.28,80,4.56000E+05,7.606578E-10,4.244000000000001e-11,4.9797E-12
2023-07-31 12:05:32.148374,26.41,80,4.56000E+05,7.600756E-10,4.475999999999996e-11,5.0776E-12
2023-07-31 12:05:49.165380,26.45,80,4.08000E+05,7.611849E-10,4.6300000000000037e-11,4.9197E-12
2023-07-31 12:06:07.814053,26.54,80,4.08000E+05,7.609284E-10,4.062000000000001e-11,4.9413E-12
2023-07-31 12:06:28.345807,26.37,80,4.56000E+05,7.602987E-10,4.1919999999999996e-11,4.8258E-12
2023-07-31 12:06:58.208156,26.31,60,4.56000E+05,7.410905E-10,4.216999999999997e-11,4.7742E-12
2023-07-31 12:07:16.933031,26.32,60,4.08000E+05,7.414950E-10,4.1780000000000036e-11,4.9831E-12
2023-07-31 12:07:35.499009,26.31,60,4.08000E+05,7.402543E-10,4.219000000000004e-11,4.9275E-12
2023-07-31 12:07:55.870038,26.28,60,4.56000E+05,7.405786E-10,4.362e-11,4.9646E-12
2023-07-31 12:08:15.604761,26.3,60,4.32000E+05,7.402652E-10,4.111999999999996e-11,4.8400E-12
2023-07-31 12:08:46.017539,26.27,40,4.56000E+05,7.204345E-10,4.160999999999992e-11,4.8018E-12
2023-07-31 12:09:03.737181,26.28,40,4.08000E+05,7.209335E-10,4.483000000000004e-11,4.7239E-12
2023-07-31 12:09:24.556161,26.21,40,4.56000E+05,7.204450E-10,4.166000000000004e-11,4.7345E-12
2023-07-31 12:09:45.076375,26.27,40,4.56000E+05,7.202261E-10,4.0099999999999996e-11,4.8010E-12
2023-07-31 12:10:05.833347,26.29,40,4.56000E+05,7.196759E-10,4.352999999999995e-11,4.8709E-12
2023-07-31 12:10:34.253431,26.27,20,4.08000E+05,7.005362E-10,4.135999999999995e-11,4.7043E-12
2023-07-31 12:10:54.585358,26.29,20,4.56000E+05,7.002120E-10,4.116999999999997e-11,4.7523E-12
2023-07-31 12:11:14.206311,26.34,20,4.32000E+05,6.997458E-10,4.314000000000002e-11,4.8737E-12
2023-07-31 12:11:34.853181,26.21,20,4.56000E+05,7.001059E-10,4.223999999999995e-11,4.7044E-12
2023-07-31 12:11:54.280148,26.16,20,4.32000E+05,6.996011E-10,4.3979999999999987e-11,4.8724E-12
2023-07-31 12:12:23.664812,26.2,0,4.32000E+05,6.785894E-10,4.079000000000002e-11,4.8162E-12
2023-07-31 12:12:41.490760,26.21,0,4.08000E+05,6.793055E-10,4.1300000000000054e-11,4.7440E-12
2023-07-31 12:13:02.129004,26.18,0,4.56000E+05,6.778975E-10,3.9929999999999985e-11,4.7776E-12
2023-07-31 12:13:20.750356,26.18,0,4.08000E+05,6.797262E-10,4.2090000000000007e-11,4.8995E-12
2023-07-31 12:13:39.382458,26.18,0,4.08000E+05,6.780278E-10,4.2359999999999945e-11,5.0860E-12
