vhdl xil_defaultlib  \
"../../../../m_top.gen/sources_1/ip/PCS_PMA/synth/PCS_PMA_resets.vhd" \
"../../../../m_top.gen/sources_1/ip/PCS_PMA/synth/PCS_PMA_clocking.vhd" \
"../../../../m_top.gen/sources_1/ip/PCS_PMA/synth/PCS_PMA_support.vhd" \
"../../../../m_top.gen/sources_1/ip/PCS_PMA/synth/PCS_PMA_reset_sync.vhd" \
"../../../../m_top.gen/sources_1/ip/PCS_PMA/synth/PCS_PMA_sync_block.vhd" \
"../../../../m_top.gen/sources_1/ip/PCS_PMA/synth/transceiver/PCS_PMA_transceiver.vhd" \
"../../../../m_top.gen/sources_1/ip/PCS_PMA/synth/PCS_PMA_block.vhd" \
"../../../../m_top.gen/sources_1/ip/PCS_PMA/synth/PCS_PMA.vhd" \

nosort
