verilog xil_defaultlib --include "../../../../../../src/ip/udp_bridge/Ethernet_Setup_VIO/hdl/verilog" --include "../../../../../../src/ip/udp_bridge/Ethernet_Setup_VIO/hdl" \
"../../../../../../src/ip/udp_bridge/Ethernet_Setup_VIO/Ethernet_Setup_VIO_sim_netlist.v" \

verilog xil_defaultlib "glbl.v"

nosort
