Time,Legal,wasIllegal,LOLs,Valid,Slides,N reset,Temp,ambient T,N,Mean [s],Range [s],StdD [s],N C,Mean C,Range C,StdD C,N fo,Mean fo,Range fo,StdD fo,ddmtd,range dd,stdD dd,timeTook (100k),txpi_steps,dmtd_jump,step_done,ali_done
2023-07-14 12:46:13.153810,1,True,0,1,26,0,621,27.29,1.63959E+05,3.7350709E-09,1.8049999999999953e-11,2.5737E-12,1.63959E+05,3.81510E-11,9.170000000000006e-12,1.0656E-12,1.63959E+05,2.2308931E-09,2.510999999999972e-11,3.4567E-12,3.5778631331858005e-09,22.396766531939193,2.778908047834804,5.018103,0,0,0,0
2023-07-14 12:46:31.391498,1,True,0,1,26,0,621,27.23,1.63959E+05,3.7350414E-09,1.8590000000000036e-11,2.5837E-12,1.63959E+05,3.79690E-11,9.419999999999998e-12,1.1518E-12,1.63959E+05,2.2308477E-09,2.6840000000000292e-11,3.4525E-12,3.577691039209645e-09,20.31334638943281,2.7775806085418138,5.061311,0,0,0,0
2023-07-14 12:46:54.853486,1,True,0,1,20,1,621,27.24,1.63959E+05,3.3188203E-09,1.7860000000000184e-11,2.4138E-12,1.63959E+05,3.79508E-11,8.96e-12,1.1167E-12,1.63959E+05,2.2306376E-09,2.686000000000005e-11,3.4279E-12,3.1615936931394835e-09,18.92439962776234,2.660016638880401,5.041046,0,0,0,0
2023-07-14 12:47:13.098358,1,True,0,1,20,1,621,27.26,1.63959E+05,3.3187277E-09,1.7990000000000266e-11,2.4333E-12,1.63959E+05,3.78712E-11,1.0250000000000003e-11,1.1176E-12,1.63959E+05,2.2305032E-09,2.5229999999999922e-11,3.3283E-12,3.1618308471181713e-09,19.445254663388823,2.6831039009539066,5.002186,0,0,0,0
2023-07-14 12:47:36.534101,1,True,0,1,32,2,621,27.24,1.63959E+05,1.8610963E-09,1.7900000000000114e-11,2.4290E-12,1.63959E+05,3.82406E-11,8.979999999999998e-12,1.0749E-12,1.63959E+05,2.2305449E-09,2.5580000000000236e-11,3.2109E-12,1.7022850431269914e-09,19.09801797297132,2.671141042850315,4.976906,0,0,0,0
2023-07-14 12:47:54.780373,1,True,0,1,32,2,621,27.29,1.63959E+05,1.8610842E-09,1.725000000000012e-11,2.4234E-12,1.63959E+05,3.80721E-11,9.920000000000003e-12,1.0526E-12,1.63959E+05,2.2303129E-09,2.3540000000000107e-11,3.1742E-12,1.7028600584054503e-09,19.618873008597802,2.6892637200122675,4.982339,0,0,0,0
2023-07-14 12:48:17.795487,1,True,0,1,26,3,621,27.38,1.59960E+05,3.5266873E-09,1.7879999999999942e-11,2.4865E-12,1.59960E+05,3.84417E-11,8.940000000000004e-12,1.0602E-12,1.59960E+05,2.2309814E-09,2.5730000000000076e-11,3.2116E-12,3.36853343715668e-09,18.22992624692597,2.636813420008281,4.955572,0,0,0,0
2023-07-14 12:48:35.650248,1,True,0,1,26,3,621,27.35,1.59960E+05,3.5264833E-09,1.937000000000011e-11,2.5262E-12,1.59960E+05,3.82135E-11,9.260000000000002e-12,1.0556E-12,1.59960E+05,2.2309171E-09,2.5879999999999915e-11,3.2677E-12,3.368385109795795e-09,18.056307901717446,2.6311208580707484,5.069598,0,0,0,0
2023-07-14 12:48:59.089273,1,True,0,1,8,4,621,27.29,1.63959E+05,3.5262766E-09,2.1259999999999987e-11,2.5897E-12,1.63959E+05,4.34446E-11,1.0459999999999995e-11,1.1810E-12,1.63959E+05,2.2363485E-09,2.405000000000014e-11,3.3637E-12,3.3632844667135e-09,18.92439962776234,2.6706683673843656,5.013261,0,0,0,0
2023-07-14 12:49:17.319395,1,True,0,1,8,4,621,27.26,1.63959E+05,3.5263114E-09,1.8720000000000117e-11,2.5880E-12,1.63959E+05,4.29716E-11,9.5e-12,1.1558E-12,1.63959E+05,2.2358886E-09,2.7510000000000043e-11,3.3840E-12,3.363728948775155e-09,19.445254663388823,2.6831392340426827,5.083426,0,0,0,0
2023-07-14 12:49:40.739727,1,True,0,1,0,5,621,27.35,1.63959E+05,6.102834E-10,1.840999999999994e-11,2.5271E-12,1.63959E+05,3.76591E-11,9.169999999999999e-12,1.0593E-12,1.63959E+05,2.2305308E-09,2.872000000000029e-11,3.3619E-12,4.5365303415434364e-10,20.486964734641788,2.7357199728131594,5.034229,0,0,0,0
2023-07-14 12:49:59.037641,1,True,0,1,0,5,621,27.25,1.63959E+05,6.104795E-10,1.9560000000000085e-11,2.5696E-12,1.63959E+05,3.79530E-11,8.7e-12,1.0533E-12,1.63959E+05,2.2307771E-09,2.5560000000000065e-11,3.3059E-12,4.537340479465892e-10,19.618873008597348,2.737653627470983,5.072261,0,0,0,0
2023-07-14 12:50:22.548964,1,True,0,1,36,6,621,27.48,1.63959E+05,1.2351550E-09,1.875999999999984e-11,2.5961E-12,1.63959E+05,4.28399E-11,8.710000000000001e-12,1.0328E-12,1.63959E+05,2.2351298E-09,2.2899999999999993e-11,3.1322E-12,1.0717258635776256e-09,19.96610969901485,2.694810071161884,4.948889,0,0,0,0
2023-07-14 12:50:40.771087,1,True,0,1,36,6,621,27.32,1.63959E+05,1.2350871E-09,1.923000000000015e-11,2.6125E-12,1.63959E+05,4.33281E-11,8.930000000000002e-12,1.0801E-12,1.63959E+05,2.2352812E-09,2.5180000000000114e-11,3.0248E-12,1.0720163843632073e-09,19.792491353806327,2.648844222215875,4.977748,0,0,0,0
2023-07-14 12:51:03.792996,1,True,0,1,36,7,621,27.25,1.59960E+05,4.1528882E-09,1.779999999999967e-11,2.3867E-12,1.59960E+05,3.85722E-11,9.43e-12,1.1079E-12,1.59960E+05,2.2309089E-09,2.5229999999999922e-11,3.0251E-12,3.994200055210357e-09,19.271636318179844,2.6891164828654577,5.052167,0,0,0,0
2023-07-14 12:51:22.088121,1,True,0,1,36,7,621,27.28,1.63959E+05,4.1527397E-09,1.7560000000000092e-11,2.3724E-12,1.63959E+05,3.85655E-11,1.0219999999999998e-11,1.1141E-12,1.63959E+05,2.2310885E-09,2.450000000000007e-11,3.1885E-12,3.994769901870653e-09,21.702293151103277,2.693696669946527,5.07795,0,0,0,0
2023-07-14 12:51:45.524307,1,True,0,1,24,8,621,27.26,1.63959E+05,3.5272685E-09,1.8429999999999904e-11,2.4406E-12,1.63959E+05,4.44904E-11,1.0320000000000003e-11,1.1262E-12,1.63959E+05,2.2367426E-09,2.961000000000027e-11,3.2577E-12,3.3635364806861196e-09,19.09801797297132,2.6767704140677044,5.04336,0,0,0,0
2023-07-14 12:52:03.413658,1,True,0,1,24,8,621,27.3,1.59960E+05,3.5272144E-09,1.733999999999986e-11,2.4202E-12,1.59960E+05,4.41068E-11,8.769999999999999e-12,1.0796E-12,1.59960E+05,2.2365559E-09,2.5779999999999884e-11,3.1775E-12,3.364008114921054e-09,20.139728044224285,2.6843117767838094,5.022685,0,0,0,0
2023-07-14 12:52:26.475332,1,True,0,1,10,9,621,27.25,1.59960E+05,3.1099965E-09,2.0350000000000245e-11,2.5692E-12,1.59960E+05,3.79506E-11,8.970000000000002e-12,1.0664E-12,1.59960E+05,2.2304902E-09,2.386000000000037e-11,3.1295E-12,2.952372012027816e-09,19.445254663389278,2.6096036495048787,4.947459,0,0,0,0
2023-07-14 12:52:44.705213,1,True,0,1,10,9,621,27.21,1.63959E+05,3.1099268E-09,1.931000000000001e-11,2.5907E-12,1.63959E+05,3.77730E-11,8.750000000000002e-12,1.0475E-12,1.63959E+05,2.2301608E-09,2.481000000000004e-11,3.0776E-12,2.952386521312917e-09,18.750781282553362,2.5991204582867242,4.955432,0,0,0,0
2023-07-14 12:53:08.167675,1,True,0,1,8,10,621,27.27,1.63959E+05,3.5271600E-09,1.7900000000000114e-11,2.4129E-12,1.63959E+05,4.41889E-11,1.0130000000000001e-11,1.1070E-12,1.63959E+05,2.2367014E-09,2.2580000000000143e-11,3.1309E-12,3.3639324885060888e-09,19.098017972970865,2.68760489960751,5.062105,0,0,0,0
2023-07-14 12:53:26.405502,1,True,0,1,8,10,621,27.29,1.63959E+05,3.5272804E-09,1.7820000000000255e-11,2.4065E-12,1.63959E+05,4.40490E-11,8.96e-12,1.1199E-12,1.63959E+05,2.2365712E-09,2.5569999999999944e-11,3.1573E-12,3.3640546602633034e-09,19.618873008597348,2.6936076323077165,5.09602,0,0,0,0
2023-07-14 12:53:49.820272,1,True,0,1,16,11,621,27.29,1.63959E+05,2.2778266E-09,1.746999999999994e-11,2.4310E-12,1.63959E+05,4.45483E-11,1.0509999999999998e-11,1.1472E-12,1.63959E+05,2.2366299E-09,2.6350000000000018e-11,3.1320E-12,2.1136584284764472e-09,19.618873008597802,2.700369542577683,4.931874,0,0,0,0
2023-07-14 12:54:08.134833,1,True,0,1,16,11,621,27.28,1.63959E+05,2.2779166E-09,1.8469999999999834e-11,2.4301E-12,1.63959E+05,4.42557E-11,9.999999999999998e-12,1.1783E-12,1.63959E+05,2.2364757E-09,2.495999999999988e-11,3.2632E-12,2.113772438435244e-09,18.056307901718355,2.699547830299038,4.953287,0,0,0,0
2023-07-14 12:54:31.550442,1,True,0,1,30,12,621,27.34,1.63959E+05,2.9028675E-09,1.881000000000027e-11,2.4449E-12,1.63959E+05,4.40755E-11,9.58e-12,1.1274E-12,1.63959E+05,2.2367610E-09,2.5130000000000305e-11,3.3502E-12,2.7382711380339455e-09,20.660583079850767,2.6878548851780817,4.950043,0,0,0,0
2023-07-14 12:54:49.759680,1,True,0,1,30,12,621,27.32,1.63959E+05,2.9029278E-09,1.8919999999999765e-11,2.4652E-12,1.63959E+05,4.44249E-11,9.859999999999999e-12,1.2557E-12,1.63959E+05,2.2374368E-09,2.893000000000023e-11,3.4260E-12,2.7380341698269986e-09,18.403544592135404,2.691917445858691,4.940135,0,0,0,0
2023-07-14 12:55:12.376957,1,True,0,1,28,13,621,27.3,1.55961E+05,1.0262900E-09,1.9460000000000055e-11,2.5988E-12,1.55961E+05,3.86418E-11,8.750000000000002e-12,1.0951E-12,1.55961E+05,2.2316199E-09,2.6789999999999656e-11,3.4877E-12,8.681054054335018e-10,18.403544592136313,2.6090641483846495,4.940873,0,0,0,0
2023-07-14 12:55:30.650643,1,True,0,1,28,13,621,27.35,1.63959E+05,1.0264731E-09,1.9669999999999995e-11,2.6186E-12,1.63959E+05,3.82554E-11,9.21e-12,1.1003E-12,1.63959E+05,2.2311047E-09,2.7990000000000024e-11,3.5356E-12,8.687403068877398e-10,19.618873008597802,2.6188711986217657,4.963096,0,0,0,0
2023-07-14 12:55:53.689978,1,True,0,1,36,14,621,27.28,1.59960E+05,1.8604482E-09,2.0319999999999988e-11,2.6295E-12,1.59960E+05,4.36286E-11,9.420000000000005e-12,1.1123E-12,1.59960E+05,2.2367568E-09,2.7850000000000064e-11,3.5516E-12,1.6963431531871113e-09,19.09801797297132,2.678321324782623,4.949015,0,0,0,0
2023-07-14 12:56:11.573527,1,True,0,1,36,14,621,27.29,1.59960E+05,1.8603642E-09,1.899999999999983e-11,2.6093E-12,1.59960E+05,4.37860E-11,1.0369999999999999e-11,1.1436E-12,1.59960E+05,2.2368521E-09,2.713000000000009e-11,3.5657E-12,1.6963204091839025e-09,18.750781282553362,2.6518332058916676,4.943213,0,0,0,0
