Time,Legal,wasIllegal,LOLs,Valid,Slides,N reset,Temp,ambient T,N,Mean [s],Range [s],StdD [s],N C,Mean C,Range C,StdD C,N fo,Mean fo,Range fo,StdD fo,ddmtd,range dd,stdD dd,timeTook (100k),txpi_steps,dmtd_jump,step_done,ali_done
2023-07-14 11:20:38.142409,1,True,0,1,6,0,620,27.07,1.59960E+05,1.8586081E-09,1.9580000000000257e-11,2.6408E-12,1.59960E+05,4.30593E-11,9.490000000000004e-12,1.1201E-12,1.59960E+05,2.2537549E-09,1.6470000000000048e-11,1.8739E-12,1.6750873994750148e-09,19.271636318179844,2.7942055148441707,4.931432,0,0,0,1
2023-07-14 11:20:55.918985,1,True,0,1,6,0,621,27.16,1.59960E+05,1.8583100E-09,2.107000000000001e-11,2.6505E-12,1.59960E+05,4.25688E-11,9.79e-12,1.0345E-12,1.59960E+05,2.2533944E-09,1.6489999999999806e-11,1.8480E-12,1.6755846389433156e-09,19.792491353806327,2.811599004185437,4.979805,0,0,0,1
2023-07-14 11:21:19.264836,1,True,0,1,14,1,621,27.12,1.63959E+05,1.4417429E-09,1.9199999999999892e-11,2.5478E-12,1.63959E+05,3.75845E-11,8.939999999999997e-12,1.0555E-12,1.63959E+05,2.2482134E-09,1.678000000000002e-11,1.8654E-12,1.2640119987638508e-09,19.792491353806327,2.691351933234478,4.956106,0,0,0,1
2023-07-14 11:21:37.098267,1,True,0,1,14,1,621,27.09,1.59960E+05,1.4416605E-09,1.8490000000000005e-11,2.5494E-12,1.59960E+05,3.75894E-11,9.98e-12,1.0822E-12,1.59960E+05,2.2483396E-09,1.5869999999999864e-11,1.8689E-12,1.2640963998499628e-09,19.96610969901576,2.6907536265316168,4.956297,0,0,0,1
2023-07-14 11:22:00.413843,1,True,0,1,26,2,621,27.07,1.63959E+05,1.0252912E-09,1.861999999999988e-11,2.5871E-12,1.63959E+05,4.31602E-11,1.1110000000000001e-11,1.2554E-12,1.63959E+05,2.2538023E-09,1.7979999999999973e-11,1.9786E-12,8.42307610039206e-10,19.271636318180754,2.692689555297371,5.047355,0,0,0,1
2023-07-14 11:22:18.265525,1,True,0,1,26,2,621,27.13,1.59960E+05,1.0254235E-09,1.89599999999999e-11,2.5789E-12,1.59960E+05,4.33186E-11,1.0600000000000001e-11,1.1617E-12,1.59960E+05,2.2540007E-09,1.7240000000000242e-11,1.9360E-12,8.424707175298079e-10,19.271636318179844,2.7041134164347866,4.987775,0,0,0,1
2023-07-14 11:22:41.163828,1,True,0,1,20,3,621,27.17,1.59960E+05,3.3166244E-09,2.0290000000000144e-11,2.7017E-12,1.59960E+05,4.38902E-11,9.72e-12,1.2798E-12,1.59960E+05,2.2573440E-09,1.649000000000022e-11,1.9028E-12,3.1328019952224715e-09,23.091239912774654,2.905469986064018,4.994395,0,0,0,1
2023-07-14 11:22:59.377691,1,True,0,1,20,3,621,27.1,1.63959E+05,3.3164197E-09,2.0719999999999904e-11,2.7095E-12,1.63959E+05,4.35635E-11,1.0200000000000001e-11,1.2142E-12,1.63959E+05,2.2571848E-09,1.8979999999999866e-11,1.8870E-12,3.1326480634614014e-09,21.528674805894298,2.8859924585956467,5.013705,0,0,0,1
2023-07-14 11:23:22.300660,1,True,0,1,22,4,621,27.15,1.59960E+05,6.096621E-10,1.755999999999999e-11,2.4333E-12,1.59960E+05,4.39706E-11,9.180000000000001e-12,1.2554E-12,1.59960E+05,2.2574815E-09,1.7779999999999912e-11,2.0521E-12,4.254554755754082e-10,20.31334638943281,2.776866374758347,5.01735,0,0,0,1
2023-07-14 11:23:40.532958,1,True,0,1,22,4,621,27.1,1.63959E+05,6.096976E-10,1.7749999999999965e-11,2.4700E-12,1.63959E+05,4.40479E-11,1.0320000000000003e-11,1.1651E-12,1.63959E+05,2.2576068E-09,1.736999999999991e-11,1.9146E-12,4.25373675292073e-10,20.660583079850312,2.772143307668949,5.030449,0,0,0,1
2023-07-14 11:24:03.934516,1,True,0,1,16,5,621,27.19,1.63959E+05,1.926170E-10,1.981999999999999e-11,2.6155E-12,1.63959E+05,3.73699E-11,8.56e-12,1.0168E-12,1.63959E+05,2.2509418E-09,1.667000000000011e-11,1.8580E-12,1.4844007389196188e-11,18.403544592135404,2.6311302713823896,4.912804,0,0,0,1
2023-07-14 11:24:21.813390,1,True,0,1,16,5,620,27.16,1.59960E+05,1.925971E-10,1.931000000000001e-11,2.5997E-12,1.59960E+05,3.74309E-11,9.32e-12,1.0638E-12,1.59960E+05,2.2509940E-09,1.670000000000016e-11,1.9058E-12,1.512945157437067e-11,17.535452866091873,2.583974250960599,5.01377,0,0,0,1
2023-07-14 11:24:45.152412,1,True,0,1,0,6,621,27.23,1.63959E+05,2.4843761E-09,1.927000000000008e-11,2.4847E-12,1.63959E+05,4.43850E-11,1.132e-11,1.3303E-12,1.63959E+05,2.2609190E-09,1.7790000000000204e-11,2.0755E-12,2.2998294130312976e-09,20.83420142505929,2.9100460635671577,4.929268,0,0,0,1
2023-07-14 11:25:03.500676,1,True,0,1,0,6,621,27.17,1.63959E+05,2.4845159E-09,1.8890000000000128e-11,2.4720E-12,1.63959E+05,4.47006E-11,1.0600000000000001e-11,1.1784E-12,1.63959E+05,2.2610828E-09,1.6570000000000078e-11,1.9368E-12,2.3001071589789886e-09,19.618873008596893,2.9295194241901554,4.928585,0,0,0,1
2023-07-14 11:25:26.424625,1,True,0,1,34,7,621,27.13,1.59960E+05,1.6505322E-09,1.9630000000000066e-11,2.4711E-12,1.59960E+05,3.84313E-11,9.569999999999999e-12,1.1841E-12,1.59960E+05,2.2549415E-09,1.659000000000025e-11,1.9520E-12,1.4710378644249385e-09,19.445254663389278,2.7608680468490725,4.967571,0,0,0,1
2023-07-14 11:25:44.253963,1,True,0,1,34,7,621,27.16,1.59960E+05,1.6505759E-09,1.7419999999999925e-11,2.4556E-12,1.59960E+05,3.85140E-11,9.849999999999997e-12,1.1242E-12,1.59960E+05,2.2548564E-09,1.5940000000000257e-11,1.9135E-12,1.471312367182032e-09,20.83420142505929,2.7732228329803865,4.947735,0,0,0,1
2023-07-14 11:26:07.164535,1,True,0,1,32,8,621,27.13,1.59960E+05,2.0672114E-09,1.8319999999999995e-11,2.4384E-12,1.59960E+05,3.97788E-11,1.0280000000000002e-11,1.1152E-12,1.59960E+05,2.2561774E-09,1.677000000000014e-11,1.9220E-12,1.888066218036927e-09,19.618873008597802,2.7529581882568297,5.090016,0,0,0,1
2023-07-14 11:26:25.046400,1,True,0,1,32,8,621,27.13,1.59960E+05,2.0673227E-09,1.7930000000000165e-11,2.4508E-12,1.59960E+05,3.92078E-11,9.420000000000005e-12,1.0382E-12,1.59960E+05,2.2555824E-09,1.5769999999999833e-11,1.8983E-12,1.888600167368102e-09,20.83420142505929,2.7363712950337287,4.973418,0,0,0,1
2023-07-14 11:26:48.378419,1,True,0,1,18,9,621,27.1,1.63959E+05,1.8584775E-09,2.080999999999985e-11,2.6232E-12,1.63959E+05,4.32590E-11,9.690000000000001e-12,1.0920E-12,1.63959E+05,2.2596452E-09,1.8100000000000175e-11,1.9270E-12,1.6745959050377342e-09,20.486964734641333,2.7957311358209256,5.070616,0,0,0,1
2023-07-14 11:27:06.163673,1,True,0,1,18,9,621,27.11,1.59960E+05,1.8584969E-09,1.874999999999996e-11,2.6291E-12,1.59960E+05,4.27802E-11,1.0750000000000002e-11,1.1920E-12,1.59960E+05,2.2591990E-09,1.7420000000000132e-11,2.0206E-12,1.6746419798741412e-09,21.355056460685773,2.789628739417774,5.030186,0,0,0,1
2023-07-14 11:27:29.496061,1,True,0,1,32,10,621,27.06,1.63959E+05,8.173556E-10,1.8490000000000005e-11,2.5779E-12,1.63959E+05,4.43790E-11,9.199999999999998e-12,1.1196E-12,1.63959E+05,2.2607444E-09,1.7919999999999872e-11,1.9291E-12,6.33148502715342e-10,20.31334638943281,2.7102972036961446,5.008246,0,0,0,1
2023-07-14 11:27:47.260857,1,True,0,1,32,10,621,27.13,1.59960E+05,8.172195E-10,1.877000000000003e-11,2.5967E-12,1.59960E+05,4.41464E-11,8.620000000000005e-12,1.0580E-12,1.59960E+05,2.2604997E-09,1.8049999999999953e-11,1.9340E-12,6.331349292331063e-10,19.09801797297132,2.6896699221098332,5.080346,0,0,0,1
2023-07-14 11:28:10.590351,1,True,0,1,34,11,621,27.14,1.63959E+05,1.8582704E-09,2.0150000000000184e-11,2.6744E-12,1.63959E+05,3.76159E-11,9.550000000000002e-12,1.1703E-12,1.63959E+05,2.2537497E-09,1.7380000000000203e-11,1.9683E-12,1.6796843479589495e-09,19.792491353806327,2.702796732233544,5.01709,0,0,0,1
2023-07-14 11:28:28.824427,1,True,0,1,34,11,621,27.1,1.63959E+05,1.8583603E-09,1.996e-11,2.6689E-12,1.63959E+05,3.73889E-11,8.280000000000003e-12,9.998E-13,1.63959E+05,2.2535836E-09,1.9299999999999716e-11,1.8643E-12,1.6800658673278166e-09,19.445254663389278,2.702519803189823,5.009042,0,0,0,1
2023-07-14 11:28:51.751827,1,True,0,1,4,12,621,27.12,1.59960E+05,6.096953E-10,1.799000000000006e-11,2.4302E-12,1.59960E+05,3.83988E-11,9.749999999999999e-12,1.0347E-12,1.59960E+05,2.2546223E-09,1.6570000000000078e-11,1.9040E-12,4.3070236086231406e-10,20.486964734641333,2.8160816142364027,4.963142,0,0,0,1
2023-07-14 11:29:09.640098,1,True,0,1,4,12,621,27.12,1.59960E+05,6.095727E-10,1.7789999999999998e-11,2.4596E-12,1.59960E+05,3.85037E-11,9.58e-12,1.0412E-12,1.59960E+05,2.2546469E-09,1.687000000000017e-11,1.9250E-12,4.3023771129360495e-10,19.445254663389278,2.80738987321123,5.180712,0,0,0,1
2023-07-14 11:29:32.969574,1,True,0,1,4,13,621,27.15,1.63959E+05,1.4415223E-09,2.1129999999999905e-11,2.6480E-12,1.63959E+05,3.74050E-11,9.549999999999995e-12,1.0828E-12,1.63959E+05,2.2536797E-09,1.753999999999992e-11,1.9094E-12,1.2639487270302898e-09,20.139728044223375,2.6743451324698597,4.928891,0,0,0,1
2023-07-14 11:29:51.264769,1,True,0,1,4,13,621,27.19,1.63959E+05,1.4416197E-09,2.076000000000004e-11,2.6512E-12,1.63959E+05,3.70830E-11,9.529999999999998e-12,1.0753E-12,1.63959E+05,2.2534183E-09,1.8590000000000036e-11,1.9361E-12,1.2642789664847126e-09,21.528674805895207,2.661246485213854,5.009706,0,0,0,1
2023-07-14 11:30:14.618032,1,True,0,1,18,14,621,27.19,1.63959E+05,8.178691E-10,1.739999999999996e-11,2.4211E-12,1.63959E+05,3.82762E-11,9.500000000000006e-12,1.2298E-12,1.63959E+05,2.2546832E-09,1.8540000000000228e-11,1.9915E-12,6.400912416489211e-10,19.618873008597802,2.744091372020503,4.99244,0,0,0,1
2023-07-14 11:30:32.885354,1,True,0,1,18,14,621,27.12,1.63959E+05,8.178825E-10,1.8310000000000012e-11,2.4340E-12,1.63959E+05,3.82770E-11,9.03e-12,1.0531E-12,1.63959E+05,2.2545091E-09,1.5700000000000266e-11,1.9100E-12,6.402483124296468e-10,19.09801797297132,2.7358026554109864,5.153898,0,0,0,1
