Time,Legal,wasIllegal,LOLs,Valid,Slides,N reset,Temp,ambient T,N,Mean [s],Range [s],StdD [s],N C,Mean C,Range C,StdD C,N fo,Mean fo,Range fo,StdD fo,ddmtd,range dd,stdD dd,timeTook (100k),txpi_steps,desired_shift,step_done,ali_done
2023-07-14 19:07:18.443821,1,True,0,1,18,0,622,28.21,1.63959E+05,1.2353440E-09,1.8490000000000005e-11,2.5151E-12,1.63959E+05,4.39819E-11,9.25e-12,1.1021E-12,1.63959E+05,2.2362140E-09,2.7870000000000236e-11,2.8481E-12,1.071345639401601e-09,18.577162937344838,2.641354160218464,4.984276,0,0,0,0
2023-07-14 19:07:47.119690,1,True,0,1,22,1,622,28.2,1.63959E+05,1.944239E-10,1.7450000000000002e-11,2.4947E-12,1.63959E+05,4.31303E-11,9.009999999999997e-12,1.0669E-12,1.63959E+05,2.2373961E-09,2.5010000000000103e-11,2.9040E-12,3.120555370362848e-11,16.49374279483891,2.525549412745308,4.94807,-1,-1.560801144533965,1,0
2023-07-14 19:08:15.325036,1,True,0,1,26,2,622,28.22,1.59960E+05,3.1100903E-09,1.9950000000000122e-11,2.5096E-12,1.59960E+05,3.85915E-11,8.92e-12,1.0137E-12,1.59960E+05,2.2369762E-09,2.467000000000008e-11,2.7830E-12,2.952008647929356e-09,18.056307901717446,2.601915715640684,4.956271,-3,-4.116808685936803,1,0
2023-07-14 19:08:43.622583,1,True,0,1,38,3,622,28.21,1.59960E+05,4.1522351E-09,1.7260000000000414e-11,2.4056E-12,1.59960E+05,3.98207E-11,9.14e-12,1.0539E-12,1.59960E+05,2.2320100E-09,2.725999999999976e-11,2.6220E-12,3.993184011139091e-09,19.445254663388823,2.6909828523624015,5.012126,0,0.3729026903581314,0,0
2023-07-14 19:09:12.279380,1,True,0,1,8,4,622,28.27,1.63959E+05,3.1106808E-09,1.7750000000000275e-11,2.4167E-12,1.63959E+05,3.94527E-11,8.650000000000004e-12,1.0236E-12,1.63959E+05,2.2318501E-09,2.3869999999999836e-11,2.6045E-12,2.951189651999007e-09,20.139728044223375,2.6012600380700617,4.938173,0,0.5136585553689486,0,0
2023-07-14 19:09:40.497788,1,True,0,1,26,5,622,28.29,1.59960E+05,1.2363939E-09,1.8389999999999975e-11,2.3968E-12,1.59960E+05,4.49825E-11,9.730000000000002e-12,1.0594E-12,1.59960E+05,2.2322358E-09,2.450999999999995e-11,2.6312E-12,1.0713884415322353e-09,19.271636318179844,2.6498260360892107,4.977242,3,4.900527104969484,1,0
2023-07-14 19:10:09.188371,1,True,0,1,20,6,622,28.28,1.63959E+05,4.1514840E-09,1.9229999999999736e-11,2.5449E-12,1.63959E+05,3.87855E-11,9.510000000000001e-12,1.1015E-12,1.63959E+05,2.2371707E-09,2.3879999999999715e-11,2.6247E-12,3.993462967206706e-09,19.09801797297132,2.6595783928467123,4.979415,-3,-5.431149908764326,1,0
2023-07-14 19:10:37.824346,1,True,0,1,16,7,622,28.15,1.63959E+05,2.2773727E-09,1.978000000000011e-11,2.5100E-12,1.63959E+05,4.36827E-11,9.459999999999999e-12,1.1259E-12,1.63959E+05,2.2302661E-09,2.699000000000013e-11,2.6479E-12,2.1135430573498094e-09,19.792491353806327,2.6563635204522282,4.891574,3,4.793703209288111,1,0
2023-07-14 19:11:06.439691,1,True,0,1,2,8,622,28.23,1.63959E+05,1.2359647E-09,1.7989999999999852e-11,2.4750E-12,1.63959E+05,4.44410E-11,8.509999999999998e-12,1.0079E-12,1.63959E+05,2.2350454E-09,2.5640000000000337e-11,2.6220E-12,1.0711525862188153e-09,21.007819770268725,2.6866504062695915,4.971386,1,0.9847823522873398,1,0
2023-07-14 19:11:35.082747,1,True,0,1,24,9,622,28.15,1.63959E+05,2.0696348E-09,1.7030000000000302e-11,2.3840E-12,1.63959E+05,4.52579E-11,9.58e-12,1.0621E-12,1.63959E+05,2.2375377E-09,2.7190000000000193e-11,2.6775E-12,1.9045199452757427e-09,20.139728044224285,2.64837889305335,4.956274,0,-0.23833284757722595,0,0
2023-07-14 19:12:03.747416,1,True,0,1,18,10,622,28.06,1.63959E+05,1.949466E-10,1.7589999999999988e-11,2.3956E-12,1.63959E+05,4.41318E-11,9.370000000000002e-12,1.1411E-12,1.63959E+05,2.2383848E-09,2.3659999999999896e-11,2.7113E-12,3.06608955928745e-11,18.056307901718355,2.5804023188173164,4.935578,-1,-1.1481902021260915,1,0
2023-07-14 19:12:32.325007,1,True,0,1,38,11,622,28.22,1.63959E+05,2.9025919E-09,1.736999999999991e-11,2.4602E-12,1.63959E+05,4.37140E-11,9.569999999999999e-12,1.1086E-12,1.63959E+05,2.2356474E-09,2.5909999999999965e-11,2.6870E-12,2.7382623564180348e-09,19.09801797297041,2.6914730702332434,4.930139,0,0.33235238919032284,0,0
2023-07-14 19:13:00.520692,1,True,0,1,2,12,622,28.12,1.59960E+05,2.6941782E-09,1.7949999999999923e-11,2.5472E-12,1.59960E+05,3.90788E-11,9.5e-12,1.0653E-12,1.59960E+05,2.2372642E-09,2.2340000000000152e-11,2.6119E-12,2.5349291307281147e-09,19.792491353806327,2.7081944042472808,4.980205,-3,-5.1165569399725825,1,0
2023-07-14 19:13:29.195605,1,True,0,1,12,13,622,28.15,1.63959E+05,8.199824E-10,1.806000000000004e-11,2.4335E-12,1.63959E+05,3.94681E-11,1.0440000000000005e-11,1.1017E-12,1.63959E+05,2.2313733E-09,2.443999999999997e-11,2.6518E-12,6.608339149547611e-10,19.09801797297132,2.7191319059474823,4.946723,0,-0.722321762951168,0,0
2023-07-14 19:13:57.865409,1,True,0,1,0,14,622,28.02,1.63959E+05,4.031548E-10,1.7600000000000022e-11,2.3992E-12,1.63959E+05,4.51093E-11,1.0350000000000002e-11,1.1950E-12,1.63959E+05,2.2300889E-09,2.5060000000000325e-11,2.6904E-12,2.382115470089769e-10,18.403544592136313,2.679523378932536,4.9026,4,6.122880119907052,1,0
2023-07-14 19:14:26.510636,1,True,0,1,38,15,622,28.12,1.63959E+05,2.6942725E-09,1.734999999999974e-11,2.4825E-12,1.63959E+05,3.83144E-11,9.050000000000004e-12,1.0895E-12,1.63959E+05,2.2382543E-09,2.430000000000001e-11,2.6446E-12,2.5358085684132287e-09,19.271636318179844,2.7259726517765053,4.998704,-4,-5.980252649877798,1,0
2023-07-14 19:14:54.832568,1,True,0,1,20,16,622,28.08,1.59960E+05,3.9435880E-09,1.8010000000000437e-11,2.4206E-12,1.59960E+05,3.96598E-11,9.43e-12,1.0862E-12,1.59960E+05,2.2295515E-09,2.4449999999999848e-11,2.6141E-12,3.784538598830215e-09,19.09801797297132,2.7224241218436536,5.0281,1,1.3190688509649249,1,0
2023-07-14 19:15:23.475688,1,True,0,1,20,17,622,28.15,1.63959E+05,2.0686203E-09,1.8679999999999774e-11,2.5359E-12,1.63959E+05,3.76996E-11,8.789999999999996e-12,1.0314E-12,1.63959E+05,2.2317317E-09,2.6499999999999857e-11,2.6048E-12,1.9111584614639827e-09,19.271636318179844,2.6410219833318553,5.026859,-1,-1.7865449260446837,1,0
2023-07-14 19:15:51.731754,1,True,0,1,22,18,622,28.09,1.59960E+05,3.9433180E-09,2.0519999999999842e-11,2.5753E-12,1.59960E+05,4.35920E-11,8.659999999999999e-12,1.1057E-12,1.59960E+05,2.2288213E-09,2.3820000000000027e-11,2.6241E-12,3.779699527410596e-09,19.271636318180754,2.600873865733399,4.941896,4,6.235008056589862,1,0
2023-07-14 19:16:20.002647,1,True,0,1,0,19,622,28.14,1.59960E+05,4.1515140E-09,1.8959999999999695e-11,2.4647E-12,1.59960E+05,4.38005E-11,9.520000000000003e-12,1.0624E-12,1.59960E+05,2.2380682E-09,2.5490000000000085e-11,2.5975E-12,3.98897773865549e-09,19.445254663388823,2.699611498129675,5.002984,-1,-0.8356702362890758,1,0
2023-07-14 19:16:48.703924,1,True,0,1,10,20,622,28.04,1.63959E+05,3.3182585E-09,1.92000000000001e-11,2.5722E-12,1.63959E+05,4.34475E-11,9.5e-12,1.1415E-12,1.63959E+05,2.2355469E-09,2.485999999999985e-11,2.6196E-12,3.1555438230060328e-09,19.445254663388823,2.680279148595014,5.011063,0,0.0654211288812121,0,0
2023-07-14 19:17:17.384432,1,True,0,1,8,21,622,28.06,1.63959E+05,3.7347469E-09,1.907000000000043e-11,2.5805E-12,1.63959E+05,3.87137E-11,8.729999999999999e-12,1.0396E-12,1.63959E+05,2.2369975E-09,2.3539999999999693e-11,2.5506E-12,3.5774078381734908e-09,20.83420142505929,2.7297214115460275,4.959077,-3,-5.204758531683922,1,0
2023-07-14 19:17:45.974929,1,True,0,1,38,22,622,28.08,1.63959E+05,1.0269633E-09,1.9190000000000013e-11,2.5658E-12,1.63959E+05,3.88210E-11,9.520000000000003e-12,1.0495E-12,1.63959E+05,2.2308180E-09,2.6900000000000393e-11,2.5470E-12,8.684243892106095e-10,18.403544592135404,2.596830960564286,4.930046,0,0.5967505587821336,0,0
2023-07-14 19:18:14.681916,1,True,0,1,32,23,622,28.12,1.63959E+05,1.2352538E-09,2.0330000000000074e-11,2.5616E-12,1.63959E+05,3.79435E-11,8.81e-12,9.802E-13,1.63959E+05,2.2301007E-09,2.5589999999999702e-11,2.5292E-12,1.0775909603872867e-09,21.007819770267815,2.6361222850949524,4.948165,0,-0.5963408198170157,0,0
2023-07-14 19:18:43.389945,1,True,0,1,18,24,622,28.15,1.63959E+05,2.2769968E-09,1.9289999999999837e-11,2.5520E-12,1.63959E+05,3.86707E-11,8.460000000000002e-12,1.0127E-12,1.63959E+05,2.2287190E-09,2.3689999999999946e-11,2.5485E-12,2.118121043238192e-09,19.96610969901576,2.611170528545501,4.925703,1,0.8447417945326094,1,0
2023-07-14 19:19:12.060449,1,True,0,1,18,25,622,28.06,1.63959E+05,2.0682885E-09,1.895000000000023e-11,2.5449E-12,1.63959E+05,4.43135E-11,9.54e-12,1.0574E-12,1.63959E+05,2.2289082E-09,2.468999999999984e-11,2.5642E-12,1.9041745402588385e-09,20.31334638943281,2.6719196748990526,4.944442,4,5.861025459496574,1,0
2023-07-14 19:19:40.738726,1,True,0,1,28,26,622,28.28,1.63959E+05,1.0277371E-09,1.733999999999986e-11,2.3991E-12,1.63959E+05,3.88015E-11,9.269999999999997e-12,1.0744E-12,1.63959E+05,2.2386824E-09,2.6579999999999716e-11,2.5405E-12,8.690108094781393e-10,17.535452866090964,2.638788842531418,4.956517,-4,-6.076843479338635,1,0
2023-07-14 19:20:09.353789,1,True,0,1,36,27,622,28.05,1.63959E+05,6.113326E-10,1.8180000000000034e-11,2.3989E-12,1.63959E+05,4.42709E-11,9.110000000000001e-12,1.0500E-12,1.63959E+05,2.2311219E-09,2.456000000000017e-11,2.5305E-12,4.474211251859034e-10,19.271636318179844,2.7507700911167094,4.941423,3,5.410845243409938,1,0
2023-07-14 19:20:37.554743,1,True,0,1,16,28,622,28.0,1.59960E+05,2.6939899E-09,1.992999999999995e-11,2.5611E-12,1.59960E+05,4.36296E-11,8.769999999999999e-12,1.1047E-12,1.59960E+05,2.2358522E-09,2.3349999999999925e-11,2.5603E-12,2.5299812092869192e-09,19.618873008597802,2.713552432713046,4.908693,0,0.7009753875736919,0,0
2023-07-14 19:21:06.157784,1,True,0,1,6,29,622,28.22,1.63959E+05,3.9428862E-09,1.919000000000022e-11,2.5808E-12,1.63959E+05,3.81605E-11,9.089999999999998e-12,1.0722E-12,1.63959E+05,2.2362697E-09,2.4960000000000294e-11,2.5376E-12,3.784571190465982e-09,18.750781282553362,2.640946516434855,4.910502,-3,-4.830321054356716,1,0
2023-07-14 19:21:34.527335,1,True,0,1,32,30,622,28.09,1.59960E+05,1.4436987E-09,1.8780000000000012e-11,2.4763E-12,1.59960E+05,3.88519E-11,8.869999999999998e-12,1.0533E-12,1.59960E+05,2.2329027E-09,2.48299999999998e-11,2.5297E-12,1.2853947404058784e-09,17.361834520882894,2.6236528047732763,5.123426,-1,-1.0386543887196922,1,0
2023-07-14 19:22:02.749869,1,True,0,1,12,31,622,28.03,1.59960E+05,1.936753E-10,1.8580000000000002e-11,2.5199E-12,1.59960E+05,4.37112E-11,8.710000000000001e-12,1.1299E-12,1.59960E+05,2.2283736E-09,2.5409999999999812e-11,2.5359E-12,2.9832527744216375e-11,18.22992624692779,2.556161572313847,4.903183,4,5.773653763374501,1,0
2023-07-14 19:22:31.427061,1,True,0,1,0,32,622,27.99,1.63959E+05,1.946905E-10,1.7849999999999995e-11,2.4137E-12,1.63959E+05,4.50368E-11,9.010000000000003e-12,1.0581E-12,1.63959E+05,2.2372326E-09,2.5429999999999984e-11,2.5204E-12,3.01082336764079e-11,18.22992624692779,2.575090518440033,4.925547,0,-0.23289164826168118,0,0
2023-07-14 19:23:00.116127,1,True,0,1,18,33,622,27.99,1.63959E+05,2.6936755E-09,1.9950000000000122e-11,2.5763E-12,1.63959E+05,4.29308E-11,9.9e-12,1.1398E-12,1.63959E+05,2.2369660E-09,2.419999999999998e-11,2.5220E-12,2.531108251038655e-09,20.83420142505929,2.721901199838702,5.011107,-1,-1.2045050492633358,1,0
2023-07-14 19:23:28.327454,1,True,0,1,6,34,622,28.11,1.59960E+05,2.2777410E-09,1.7970000000000094e-11,2.3907E-12,1.59960E+05,4.50222E-11,8.499999999999996e-12,1.0154E-12,1.59960E+05,2.2351645E-09,2.477999999999999e-11,2.4759E-12,2.1127473783631664e-09,17.709071211300397,2.681136644739196,4.97372,1,1.6772695391439925,1,0
2023-07-14 19:23:56.948687,1,True,0,1,16,35,622,28.02,1.63959E+05,2.4857957E-09,1.8710000000000238e-11,2.4362E-12,1.63959E+05,3.92353E-11,8.609999999999997e-12,1.0125E-12,1.63959E+05,2.2372392E-09,2.3589999999999915e-11,2.4938E-12,2.3267011576874702e-09,18.403544592136313,2.625257740593665,4.913072,-3,-5.467253844099247,1,0
2023-07-14 19:24:25.592575,1,True,0,1,22,36,622,27.96,1.63959E+05,1.4431180E-09,1.8369999999999803e-11,2.5824E-12,1.63959E+05,3.80875E-11,9.239999999999999e-12,1.1063E-12,1.63959E+05,2.2301210E-09,2.430000000000001e-11,2.5065E-12,1.2854092062864791e-09,18.0563079017179,2.608261967143772,4.978191,0,-0.32353952218315385,0,0
2023-07-14 19:24:53.820487,1,True,0,1,10,37,622,28.1,1.59960E+05,6.101677E-10,1.8360000000000028e-11,2.5544E-12,1.59960E+05,3.85569E-11,9.32e-12,1.1348E-12,1.59960E+05,2.2305375E-09,2.6189999999999886e-11,2.5453E-12,4.5231549578470167e-10,20.139728044224285,2.7967716334654527,4.959091,0,0.005413419959324983,0,0
2023-07-14 19:25:22.006795,1,True,0,1,0,38,622,28.08,1.59960E+05,2.9028919E-09,1.8369999999999803e-11,2.3972E-12,1.59960E+05,3.96384E-11,9.1e-12,1.1041E-12,1.59960E+05,2.2317029E-09,2.5660000000000095e-11,2.5154E-12,2.7434876401101807e-09,18.056307901717446,2.6528498547501327,4.939213,0,0.6081746460864395,0,0
2023-07-14 19:25:50.856985,1,True,0,1,18,39,622,28.02,1.63959E+05,3.9434062E-09,1.8119999999999933e-11,2.4723E-12,1.63959E+05,4.47382E-11,9.910000000000001e-12,1.1948E-12,1.63959E+05,2.2315835E-09,2.4769999999999698e-11,2.5699E-12,3.780018226453561e-09,20.660583079850767,2.7131514797495795,4.984362,3,4.8350000699717555,1,0
