Time,Legal,wasIllegal,LOLs,Valid,Slides,N reset,Temp,ambient T,N,Mean [s],Range [s],StdD [s],N C,Mean C,Range C,StdD C,N fo,Mean fo,Range fo,StdD fo,ddmtd,range dd,stdD dd,timeTook (100k),txpi_steps,desired_shift,step_done,ali_done,prev_step,undo
2023-07-14 22:53:34.445283,1,True,0,1,36,0,620,27.0,1.63959E+05,3.7329949E-09,1.8060000000000246e-11,2.4870E-12,1.63959E+05,3.72449E-11,9.689999999999994e-12,1.1472E-12,1.63959E+05,2.2169291E-09,2.6609999999999766e-11,3.4545E-12,3.5790382220783976e-09,19.966109699015306,2.855114918921504,4.999638,6,9.311950497580852,1,1,6,0
2023-07-14 22:53:52.258307,1,True,0,1,36,0,620,26.93,1.59960E+05,3.7332931E-09,1.8660000000000016e-11,2.4907E-12,1.59960E+05,3.71252E-11,9.690000000000001e-12,1.1184E-12,1.59960E+05,2.2168677E-09,2.6350000000000018e-11,3.4656E-12,3.57902341243345e-09,19.966109699015306,2.8230540862701368,5.022037,0,9.311950497580852,0,1,6,0
2023-07-14 22:54:10.547553,1,True,0,1,36,0,620,26.9,1.63959E+05,3.7329746E-09,1.7500000000000405e-11,2.4827E-12,1.63959E+05,3.73282E-11,8.659999999999999e-12,1.0729E-12,1.63959E+05,2.2170633E-09,2.6809999999999828e-11,3.4583E-12,3.5790072659273904e-09,20.486964734641788,2.81587675924204,4.998724,0,9.311950497580852,0,1,6,0
2023-07-14 22:54:28.775365,1,True,0,1,36,0,620,26.9,1.63959E+05,3.7330332E-09,1.8619999999999673e-11,2.5017E-12,1.63959E+05,3.68937E-11,9.639999999999999e-12,1.1793E-12,1.63959E+05,2.2167232E-09,2.5679999999999853e-11,3.4713E-12,3.5788480978370457e-09,20.660583079850312,2.8268466327290245,5.01187,0,9.311950497580852,0,1,6,0
2023-07-14 22:54:46.606231,1,True,0,1,36,0,620,26.97,1.63959E+05,3.7330457E-09,1.8259999999999894e-11,2.4865E-12,1.63959E+05,3.70958E-11,9.690000000000001e-12,1.0310E-12,1.63959E+05,2.2169605E-09,2.5710000000000318e-11,3.4460E-12,3.5792656812085675e-09,20.83420142505929,2.8331073016058226,5.01288,0,9.311950497580852,0,1,6,0
2023-07-14 22:55:16.873810,1,True,0,1,36,1,620,27.06,1.59960E+05,6.082749E-10,2.0519999999999946e-11,2.6112E-12,1.59960E+05,3.59342E-11,8.480000000000006e-12,1.0220E-12,1.59960E+05,2.1971491E-09,2.6429999999999877e-11,3.4490E-12,4.5417945539410806e-10,21.70229315110373,2.7944344952244915,5.051602,6,9.242268775218804,1,1,6,1
2023-07-14 22:55:34.750970,1,True,0,1,36,1,620,27.06,1.59960E+05,6.081199E-10,2.005000000000005e-11,2.6044E-12,1.59960E+05,3.59449E-11,9.239999999999999e-12,1.0788E-12,1.59960E+05,2.1971321E-09,2.5730000000000076e-11,3.4578E-12,4.543125390642525e-10,19.271636318179844,2.7690872876933237,5.067756,0,9.242268775218804,0,1,6,1
2023-07-14 22:55:52.990365,1,True,0,1,36,1,620,27.03,1.63959E+05,6.082058E-10,1.938999999999997e-11,2.6128E-12,1.63959E+05,3.57338E-11,9.910000000000001e-12,1.1860E-12,1.63959E+05,2.1969260E-09,2.714999999999985e-11,3.4795E-12,4.5444717314620175e-10,19.792491353807236,2.812142377354326,4.95915,0,9.242268775218804,0,1,6,1
2023-07-14 22:56:10.859495,1,True,0,1,36,1,620,27.04,1.59960E+05,6.080535E-10,1.996e-11,2.5863E-12,1.59960E+05,3.58654E-11,9.98e-12,1.0800E-12,1.59960E+05,2.1970533E-09,2.66000000000003e-11,3.4578E-12,4.548502055642327e-10,19.96610969901576,2.794291411373893,5.017732,0,9.242268775218804,0,1,6,1
2023-07-14 22:56:28.754625,1,True,0,1,36,1,620,27.12,1.59960E+05,6.081668E-10,2.0310000000000005e-11,2.6209E-12,1.59960E+05,3.58282E-11,9.019999999999998e-12,1.0665E-12,1.59960E+05,2.1969321E-09,2.5709999999999904e-11,3.4367E-12,4.545807794075774e-10,20.660583079850767,2.78897685379217,4.967559,0,9.242268775218804,0,1,6,1
2023-07-14 22:56:58.633476,1,True,0,1,2,2,620,27.01,1.59960E+05,1.0243050E-09,1.8849999999999992e-11,2.5936E-12,1.59960E+05,4.23718E-11,8.949999999999999e-12,1.0846E-12,1.59960E+05,2.1908736E-09,2.714999999999985e-11,3.4325E-12,8.642043470561343e-10,18.924399627761886,2.6161915374185853,4.970679,2,2.7549915274389605,1,1,2,1
2023-07-14 22:57:16.882433,1,True,0,1,2,2,620,27.14,1.63959E+05,1.0243872E-09,2.0040000000000067e-11,2.6202E-12,1.63959E+05,4.24534E-11,9.5e-12,1.0772E-12,1.63959E+05,2.1909619E-09,2.5180000000000114e-11,3.4299E-12,8.640312252593998e-10,19.44525466338837,2.6150959434030385,4.997393,0,2.7549915274389605,0,1,2,1
2023-07-14 22:57:34.687889,1,True,0,1,2,2,620,27.04,1.59960E+05,1.0244094E-09,1.9700000000000046e-11,2.6335E-12,1.59960E+05,4.23610E-11,9.200000000000004e-12,1.1045E-12,1.59960E+05,2.1909908E-09,2.8209999999999844e-11,3.4521E-12,8.644723339166595e-10,19.445254663389278,2.628155695655944,5.033293,0,2.7549915274389605,0,1,2,1
2023-07-14 22:57:52.531455,1,True,0,1,2,2,620,27.0,1.59960E+05,1.0244977E-09,1.982000000000004e-11,2.6277E-12,1.59960E+05,4.19240E-11,9.170000000000006e-12,1.0847E-12,1.59960E+05,2.1905087E-09,2.7150000000000263e-11,3.4635E-12,8.645900975040491e-10,19.618873008596893,2.63213847421988,4.998945,0,2.7549915274389605,0,1,2,1
2023-07-14 22:58:10.414812,1,True,0,1,2,2,620,26.94,1.59960E+05,1.0244114E-09,2.0079999999999997e-11,2.6257E-12,1.59960E+05,4.19979E-11,9.72e-12,1.2125E-12,1.59960E+05,2.1905601E-09,2.941000000000021e-11,3.5085E-12,8.647459390668663e-10,19.96610969901576,2.630336965940793,5.01202,0,2.7549915274389605,0,1,2,1
2023-07-14 22:58:40.726176,1,True,0,1,4,3,620,26.93,1.59960E+05,3.9409241E-09,2.0060000000000446e-11,2.6345E-12,1.59960E+05,3.54629E-11,1.052e-11,1.1201E-12,1.59960E+05,2.1683033E-09,2.932000000000006e-11,3.4712E-12,3.788311646665693e-09,20.313346389433264,2.7110843491635825,4.990643,6,10.026825770368589,1,1,6,1
2023-07-14 22:58:59.032862,1,True,0,1,4,3,620,26.97,1.63959E+05,3.9410519E-09,2.0570000000000064e-11,2.6233E-12,1.63959E+05,3.54687E-11,9.119999999999997e-12,1.1445E-12,1.63959E+05,2.1683567E-09,2.64800000000001e-11,3.4798E-12,3.788051835492932e-09,19.445254663388823,2.691042483252503,5.018392,0,10.026825770368589,0,1,6,1
2023-07-14 22:59:17.232716,1,True,0,1,4,3,620,26.92,1.63959E+05,3.9410018E-09,2.040999999999952e-11,2.6263E-12,1.63959E+05,3.55931E-11,1.074e-11,1.1385E-12,1.63959E+05,2.1684849E-09,2.68900000000001e-11,3.4609E-12,3.788126968831808e-09,21.18143811547725,2.691209139819157,5.021364,0,10.026825770368589,0,1,6,1
2023-07-14 22:59:35.086481,1,True,0,1,4,3,620,27.16,1.59960E+05,3.9409032E-09,2.151000000000027e-11,2.6308E-12,1.59960E+05,3.54761E-11,9.54e-12,1.0470E-12,1.59960E+05,2.1682634E-09,2.6159999999999835e-11,3.4354E-12,3.787877187590862e-09,21.18143811547725,2.706981070324489,5.039559,0,10.026825770368589,0,1,6,1
2023-07-14 22:59:53.355811,1,True,0,1,4,3,620,27.12,1.63959E+05,3.9409588E-09,1.946000000000026e-11,2.6212E-12,1.63959E+05,3.54835E-11,1.0099999999999996e-11,1.1272E-12,1.63959E+05,2.1680339E-09,2.6089999999999855e-11,3.4511E-12,3.787781556870317e-09,19.445254663388823,2.695194782111264,5.040306,0,10.026825770368589,0,1,6,1
2023-07-14 23:00:23.940661,1,True,0,1,0,4,620,27.08,1.63959E+05,3.1077430E-09,1.9920000000000072e-11,2.5546E-12,1.63959E+05,4.24123E-11,9.060000000000005e-12,1.0900E-12,1.63959E+05,2.2665349E-09,2.689999999999998e-11,3.4413E-12,2.9475504031417345e-09,20.486964734642243,2.646101796710327,4.969202,2,2.9438309928502235,1,1,2,1
2023-07-14 23:00:41.785493,1,True,0,1,0,4,620,27.03,1.59960E+05,3.1076774E-09,2.039999999999964e-11,2.5672E-12,1.59960E+05,4.23887E-11,1.052e-11,1.1230E-12,1.59960E+05,2.2666193E-09,2.6980000000000252e-11,3.4864E-12,2.9478857747542965e-09,18.577162937344838,2.6581483931605794,4.987064,0,2.9438309928502235,0,1,2,1
2023-07-14 23:00:59.236607,1,True,0,1,0,4,620,26.97,1.63959E+05,3.1075162E-09,1.8399999999999854e-11,2.5607E-12,1.63959E+05,4.26297E-11,1.0259999999999999e-11,1.1590E-12,1.63959E+05,2.2668596E-09,2.7700000000000225e-11,3.4875E-12,2.9475070367514226e-09,19.96610969901485,2.6502747336359667,4.952726,0,2.9438309928502235,0,1,2,1
2023-07-14 23:01:17.025928,1,True,0,1,0,4,620,27.21,1.59960E+05,3.1076834E-09,1.9049999999999846e-11,2.5824E-12,1.59960E+05,4.24363E-11,8.81e-12,1.0867E-12,1.59960E+05,2.2667528E-09,2.8450000000000248e-11,3.4395E-12,2.9472127814352925e-09,20.660583079850767,2.6639037435540396,5.026395,0,2.9438309928502235,0,1,2,1
2023-07-14 23:01:34.933620,1,True,0,1,0,4,620,27.08,1.59960E+05,3.1076776E-09,1.8849999999999785e-11,2.5499E-12,1.59960E+05,4.23318E-11,9.65e-12,1.1534E-12,1.59960E+05,2.2667426E-09,2.738999999999984e-11,3.4756E-12,2.947512398085982e-09,20.660583079849857,2.6574318923623776,4.956605,0,2.9438309928502235,0,1,2,1
2023-07-14 23:02:05.597653,1,True,0,1,32,5,620,27.07,1.63959E+05,8.166724E-10,1.8729999999999996e-11,2.5968E-12,1.63959E+05,3.66528E-11,9.569999999999999e-12,1.0526E-12,1.63959E+05,2.2510650E-09,2.4870000000000143e-11,3.4561E-12,6.619713147769278e-10,18.924399627761886,2.7023325148406263,4.986547,5,8.44662972062926,1,1,5,1
2023-07-14 23:02:23.792903,1,True,0,1,32,5,620,27.16,1.63959E+05,8.164333E-10,1.860000000000002e-11,2.5913E-12,1.63959E+05,3.67848E-11,8.59e-12,1.0250E-12,1.63959E+05,2.2511411E-09,2.751999999999992e-11,3.4616E-12,6.616719637623412e-10,20.31334638943281,2.7194809753007405,4.986802,0,8.44662972062926,0,1,5,1
2023-07-14 23:02:41.237434,1,True,0,1,32,5,620,27.11,1.59960E+05,8.166523E-10,2.002999999999998e-11,2.6354E-12,1.59960E+05,3.70182E-11,9.9e-12,1.0723E-12,1.59960E+05,2.2515257E-09,2.6249999999999987e-11,3.4918E-12,6.614953157769772e-10,20.139728044224285,2.719022090536644,4.962592,0,8.44662972062926,0,1,5,1
2023-07-14 23:02:59.483006,1,True,0,1,32,5,620,27.01,1.63959E+05,8.167457E-10,1.8639999999999948e-11,2.6366E-12,1.63959E+05,3.74650E-11,1.0479999999999999e-11,1.1268E-12,1.63959E+05,2.2518614E-09,2.7640000000000124e-11,3.4913E-12,6.609248579801774e-10,19.09801797297132,2.710438127869822,4.952779,0,8.44662972062926,0,1,5,1
2023-07-14 23:03:17.753861,1,True,0,1,32,5,620,26.97,1.63959E+05,8.166574E-10,1.9499999999999984e-11,2.5904E-12,1.63959E+05,3.71463E-11,1.0570000000000002e-11,1.1461E-12,1.63959E+05,2.2515587E-09,2.548999999999967e-11,3.4939E-12,6.615842743447071e-10,20.660583079850767,2.7288089116329606,4.961164,0,8.44662972062926,0,1,5,1
2023-07-14 23:03:47.993709,1,True,0,1,36,6,620,26.98,1.59960E+05,1.4411808E-09,1.729999999999993e-11,2.4481E-12,1.59960E+05,3.68111E-11,9.709999999999998e-12,1.1575E-12,1.59960E+05,2.2344531E-09,2.5700000000000025e-11,3.4926E-12,1.2870695497729983e-09,18.577162937344838,2.6514896889406994,4.962485,6,9.181344361681283,1,1,6,1
2023-07-14 23:04:06.294109,1,True,0,1,36,6,620,27.06,1.63959E+05,1.4411009E-09,1.8389999999999975e-11,2.4183E-12,1.63959E+05,3.67281E-11,9.889999999999998e-12,1.0491E-12,1.63959E+05,2.2343179E-09,2.520999999999975e-11,3.4657E-12,1.2870770865454211e-09,18.750781282553362,2.657704448823966,5.021265,0,9.181344361681283,0,1,6,1
2023-07-14 23:04:24.513502,1,True,0,1,36,6,620,27.03,1.63959E+05,1.4412899E-09,1.7979999999999973e-11,2.4502E-12,1.63959E+05,3.64598E-11,9.850000000000003e-12,1.0976E-12,1.63959E+05,2.2341705E-09,2.717000000000002e-11,3.4728E-12,1.2876274914234242e-09,18.924399627761886,2.6432410954750614,5.007473,0,9.181344361681283,0,1,6,1
2023-07-14 23:04:42.331968,1,True,0,1,36,6,620,27.23,1.59960E+05,1.4411909E-09,1.7789999999999998e-11,2.4433E-12,1.59960E+05,3.65083E-11,9.28e-12,1.0393E-12,1.59960E+05,2.2340580E-09,2.720999999999995e-11,3.4602E-12,1.2875375710100204e-09,19.618873008597802,2.646324218002088,5.00658,0,9.181344361681283,0,1,6,1
2023-07-14 23:05:00.236638,1,True,0,1,36,6,620,27.04,1.59960E+05,1.4411574E-09,1.7589999999999936e-11,2.4414E-12,1.59960E+05,3.63710E-11,9.1e-12,1.0217E-12,1.59960E+05,2.2339242E-09,2.647000000000022e-11,3.4726E-12,1.287824371154442e-09,18.22992624692779,2.6424910627831597,5.038787,0,9.181344361681283,0,1,6,1
2023-07-14 23:05:30.904168,1,True,0,1,2,7,620,26.92,1.63959E+05,1.916255E-10,1.9590000000000007e-11,2.6288E-12,1.63959E+05,3.58370E-11,9.510000000000001e-12,1.1368E-12,1.63959E+05,2.2121956E-09,2.6809999999999828e-11,3.5029E-12,3.725426406655338e-11,17.535452866091873,2.531052795114397,4.949066,6,9.427227870601627,1,1,6,1
2023-07-14 23:05:49.132854,1,True,0,1,2,7,620,26.94,1.63959E+05,1.916803E-10,2.002e-11,2.5880E-12,1.63959E+05,3.58858E-11,9.519999999999997e-12,1.1554E-12,1.63959E+05,2.2121377E-09,2.6249999999999987e-11,3.5082E-12,3.7681540550299425e-11,18.22992624692779,2.5479348520841714,4.995255,0,9.427227870601627,0,1,6,1
2023-07-14 23:06:07.388762,1,True,0,1,2,7,620,26.94,1.63959E+05,1.916636E-10,1.911e-11,2.6072E-12,1.63959E+05,3.61307E-11,8.659999999999999e-12,1.0646E-12,1.63959E+05,2.2124091E-09,2.730999999999998e-11,3.5070E-12,3.725646381098655e-11,18.75078128255427,2.525987270205918,5.013837,0,9.427227870601627,0,1,6,1
2023-07-14 23:06:25.189565,1,True,0,1,2,7,620,26.98,1.59960E+05,1.916330E-10,1.840000000000001e-11,2.6075E-12,1.59960E+05,3.62237E-11,9.21e-12,1.1234E-12,1.59960E+05,2.2124749E-09,2.66000000000003e-11,3.4916E-12,3.6922373501669105e-11,18.22992624692688,2.5228634154931213,5.081863,0,9.427227870601627,0,1,6,1
2023-07-14 23:06:43.076844,1,True,0,1,2,7,620,26.96,1.59960E+05,1.917503E-10,1.8539999999999995e-11,2.6210E-12,1.59960E+05,3.59949E-11,9.07e-12,1.1122E-12,1.59960E+05,2.2123222E-09,2.6450000000000048e-11,3.4823E-12,3.7748982596493575e-11,17.88268955650983,2.5312689757476208,5.009637,0,9.427227870601627,0,1,6,1
2023-07-14 23:07:13.387519,1,True,0,1,16,8,620,26.87,1.59960E+05,3.3163204E-09,1.8130000000000226e-11,2.4637E-12,1.59960E+05,3.64115E-11,9.170000000000006e-12,1.0368E-12,1.59960E+05,2.1952115E-09,2.7570000000000144e-11,3.4619E-12,3.1630418941062398e-09,19.966109699015306,2.7213893490450665,5.030221,6,9.822093281206747,1,1,6,1
2023-07-14 23:07:31.682460,1,True,0,1,16,8,620,26.94,1.63959E+05,3.3164657E-09,1.8400000000000267e-11,2.4745E-12,1.63959E+05,3.63461E-11,1.0360000000000004e-11,1.2645E-12,1.63959E+05,2.1950798E-09,2.633000000000026e-11,3.5174E-12,3.1634844993538083e-09,19.966109699015306,2.7276945680601075,5.004499,0,9.822093281206747,0,1,6,1
2023-07-14 23:07:49.959052,1,True,0,1,16,8,620,26.88,1.63959E+05,3.3163414E-09,1.8909999999999886e-11,2.4536E-12,1.63959E+05,3.61883E-11,8.74e-12,1.0320E-12,1.63959E+05,2.1949531E-09,2.8039999999999833e-11,3.4516E-12,3.162977776851502e-09,20.313346389433264,2.720235611826462,5.028989,0,9.822093281206747,0,1,6,1
2023-07-14 23:08:08.277409,1,True,0,1,16,8,620,26.87,1.63959E+05,3.3163485E-09,1.8550000000000107e-11,2.4539E-12,1.63959E+05,3.65861E-11,9.669999999999997e-12,1.0684E-12,1.63959E+05,2.1952298E-09,2.729999999999969e-11,3.4716E-12,3.1628055700232976e-09,20.834201425059746,2.715387117382579,5.033411,0,9.822093281206747,0,1,6,1
2023-07-14 23:08:26.510753,1,True,0,1,16,8,620,26.87,1.63959E+05,3.3163740E-09,1.8280000000000065e-11,2.4882E-12,1.63959E+05,3.65113E-11,1.005e-11,1.1175E-12,1.63959E+05,2.1952749E-09,2.759999999999978e-11,3.4949E-12,3.162710316054349e-09,20.139728044224285,2.710076081906866,5.016001,0,9.822093281206747,0,1,6,1
2023-07-14 23:08:56.719430,1,True,0,1,18,9,620,26.93,1.59960E+05,1.4411480E-09,1.8880000000000042e-11,2.4994E-12,1.59960E+05,4.26196E-11,1.0289999999999998e-11,1.1302E-12,1.59960E+05,2.1872980E-09,2.64800000000001e-11,3.5106E-12,1.28093356494026e-09,19.271636318179844,2.645453145199825,4.948067,2,2.5727738655984353,1,1,2,1
2023-07-14 23:09:14.993664,1,True,0,1,18,9,620,27.09,1.63959E+05,1.4410016E-09,1.8919999999999972e-11,2.4632E-12,1.63959E+05,4.26627E-11,9.340000000000003e-12,1.1972E-12,1.63959E+05,2.1873725E-09,2.6239999999999694e-11,3.5098E-12,1.2811330541550614e-09,18.577162937344838,2.6624775649276944,4.981362,0,2.5727738655984353,0,1,2,1
2023-07-14 23:09:33.218962,1,True,0,1,18,9,620,26.97,1.63959E+05,1.4410398E-09,1.8429999999999904e-11,2.4866E-12,1.63959E+05,4.28235E-11,9.690000000000001e-12,1.1497E-12,1.63959E+05,2.1874055E-09,2.669000000000004e-11,3.5063E-12,1.2807338500215654e-09,19.96610969901485,2.655387531623966,4.959033,0,2.5727738655984353,0,1,2,1
2023-07-14 23:09:51.386494,1,True,0,1,18,9,620,27.09,1.63959E+05,1.4408086E-09,1.8119999999999933e-11,2.4932E-12,1.63959E+05,4.26418E-11,9.550000000000002e-12,1.1253E-12,1.63959E+05,2.1872371E-09,2.5259999999999973e-11,3.4815E-12,1.2805331784658259e-09,18.22992624692779,2.654622397272239,4.991714,0,2.5727738655984353,0,1,2,1
2023-07-14 23:10:09.609440,1,True,0,1,18,9,620,27.1,1.63959E+05,1.4409592E-09,1.8080000000000004e-11,2.4964E-12,1.63959E+05,4.27145E-11,8.700000000000006e-12,1.0475E-12,1.63959E+05,2.1873388E-09,2.8020000000000075e-11,3.4626E-12,1.2805295463700531e-09,20.486964734641333,2.674380808278254,4.989852,0,2.5727738655984353,0,1,2,1
2023-07-14 23:10:40.371481,1,True,0,1,20,10,620,26.84,1.63959E+05,2.6915711E-09,1.8479999999999713e-11,2.4972E-12,1.63959E+05,3.64831E-11,8.910000000000005e-12,1.0129E-12,1.63959E+05,2.1658648E-09,2.7470000000000113e-11,3.4356E-12,2.537254024473688e-09,19.09801797297041,2.7396264458592667,4.962771,6,9.031553398595747,1,1,6,1
2023-07-14 23:10:58.604025,1,True,0,1,20,10,620,26.98,1.63959E+05,2.6916280E-09,1.8559999999999986e-11,2.5547E-12,1.63959E+05,3.61296E-11,8.969999999999996e-12,1.0623E-12,1.63959E+05,2.1654743E-09,2.6119999999999906e-11,3.4323E-12,2.537780992611196e-09,19.271636318179844,2.718121546844184,4.992812,0,9.031553398595747,0,1,6,1
2023-07-14 23:11:16.435386,1,True,0,1,20,10,620,26.87,1.59960E+05,2.6915303E-09,1.887000000000037e-11,2.5065E-12,1.59960E+05,3.61527E-11,9.21e-12,1.0357E-12,1.59960E+05,2.1654074E-09,2.6009999999999996e-11,3.4401E-12,2.5373238763425064e-09,19.96610969901576,2.731549847193924,4.984002,0,9.031553398595747,0,1,6,1
2023-07-14 23:11:34.721793,1,True,0,1,20,10,620,27.16,1.63959E+05,2.6916025E-09,1.763999999999995e-11,2.4954E-12,1.63959E+05,3.68684E-11,9.54e-12,1.1615E-12,1.63959E+05,2.1659804E-09,2.6210000000000057e-11,3.4622E-12,2.537437540800659e-09,21.18143811547725,2.7477866250979086,4.960719,0,9.031553398595747,0,1,6,1
2023-07-14 23:11:53.008507,1,True,0,1,20,10,620,26.97,1.63959E+05,2.6917352E-09,2.1109999999999734e-11,2.5163E-12,1.63959E+05,3.66139E-11,9.21e-12,1.0397E-12,1.63959E+05,2.1659030E-09,2.4800000000000163e-11,3.4088E-12,2.5373094920626214e-09,20.83420142505929,2.7395947142930672,5.042055,0,9.031553398595747,0,1,6,1
2023-07-14 23:12:23.663015,1,True,0,1,16,11,620,26.9,1.63959E+05,1.0244114E-09,1.9190000000000013e-11,2.6112E-12,1.63959E+05,4.26711E-11,9.290000000000001e-12,1.1948E-12,1.63959E+05,2.2642054E-09,2.685000000000017e-11,3.4750E-12,8.639618751475636e-10,20.83420142505929,2.6346446447982417,4.941814,2,2.491367695887675,1,1,2,1
2023-07-14 23:12:41.556426,1,True,0,1,16,11,620,26.87,1.59960E+05,1.0244939E-09,1.9539999999999914e-11,2.6521E-12,1.59960E+05,4.31178E-11,8.63e-12,1.0121E-12,1.59960E+05,2.2644664E-09,2.665999999999999e-11,3.4243E-12,8.634643735155681e-10,19.271636318179844,2.6047380778467093,5.069086,0,2.491367695887675,0,1,2,1
2023-07-14 23:12:59.814396,1,True,0,1,16,11,620,26.87,1.63959E+05,1.0243451E-09,1.924000000000003e-11,2.6112E-12,1.63959E+05,4.28082E-11,9.010000000000003e-12,1.0851E-12,1.63959E+05,2.2642527E-09,2.7510000000000043e-11,3.4406E-12,8.635784928538622e-10,19.44525466338837,2.6038195961154167,4.986307,0,2.491367695887675,0,1,2,1
2023-07-14 23:13:18.037876,1,True,0,1,16,11,620,26.87,1.63959E+05,1.0244653E-09,1.968999999999996e-11,2.6023E-12,1.63959E+05,4.28267E-11,9.730000000000002e-12,1.1655E-12,1.63959E+05,2.2641317E-09,2.8239999999999894e-11,3.4755E-12,8.634575017014567e-10,19.271636318179844,2.600402297064856,4.977287,0,2.491367695887675,0,1,2,1
2023-07-14 23:13:36.240729,1,True,0,1,16,11,620,26.84,1.63959E+05,1.0243958E-09,1.917000000000005e-11,2.6491E-12,1.63959E+05,4.24741E-11,8.900000000000003e-12,1.0795E-12,1.63959E+05,2.2637096E-09,2.5959999999999774e-11,3.4245E-12,8.638939035654162e-10,20.31334638943281,2.596553701030057,4.965942,0,2.491367695887675,0,1,2,1
2023-07-14 23:14:06.480282,1,True,0,1,6,12,620,26.97,1.59960E+05,2.6920604E-09,1.729000000000005e-11,2.4347E-12,1.59960E+05,4.34678E-11,8.780000000000001e-12,1.0319E-12,1.59960E+05,2.2594526E-09,2.8959999999999867e-11,3.4328E-12,2.530673229440643e-09,19.618873008597802,2.733471713540968,4.975788,2,2.601108379988432,1,1,2,1
2023-07-14 23:14:24.756837,1,True,0,1,6,12,620,26.97,1.63959E+05,2.6919735E-09,1.767999999999988e-11,2.4553E-12,1.63959E+05,4.35923E-11,1.0079999999999999e-11,1.1108E-12,1.63959E+05,2.2595429E-09,2.5800000000000056e-11,3.4694E-12,2.530949030862893e-09,19.618873008597802,2.75346706902719,5.017849,0,2.601108379988432,0,1,2,1
2023-07-14 23:14:42.960903,1,True,0,1,6,12,620,26.9,1.63959E+05,2.6919781E-09,1.7949999999999923e-11,2.4739E-12,1.63959E+05,4.33337E-11,8.620000000000005e-12,1.0944E-12,1.63959E+05,2.2594039E-09,2.855000000000028e-11,3.4637E-12,2.530910673361854e-09,18.403544592135404,2.726741583932746,5.002431,0,2.601108379988432,0,1,2,1
2023-07-14 23:15:01.157286,1,True,0,1,6,12,620,26.88,1.63959E+05,2.6921301E-09,1.8280000000000065e-11,2.4636E-12,1.63959E+05,4.31327E-11,8.570000000000002e-12,1.0656E-12,1.63959E+05,2.2591483E-09,2.6579999999999716e-11,3.4581E-12,2.5310249298587106e-09,19.445254663389278,2.7525510636859076,4.954736,0,2.601108379988432,0,1,2,1
2023-07-14 23:15:19.381378,1,True,0,1,6,12,620,26.84,1.63959E+05,2.6919721E-09,1.8520000000000056e-11,2.4529E-12,1.63959E+05,4.30886E-11,9.14e-12,1.0138E-12,1.63959E+05,2.2592268E-09,2.7510000000000043e-11,3.4349E-12,2.531178474450741e-09,18.403544592135404,2.7303538263950182,7.448353,0,2.601108379988432,0,1,2,1
2023-07-14 23:15:50.017831,1,True,0,1,30,13,620,26.8,1.63959E+05,1.8573561E-09,2.052000000000005e-11,2.6896E-12,1.63959E+05,4.17381E-11,1.0029999999999997e-11,1.1312E-12,1.63959E+05,2.2534079E-09,2.7889999999999994e-11,3.4487E-12,1.6975335604262834e-09,19.09801797297041,2.645893247575099,4.940539,1,2.2595681071327363,1,1,1,1
2023-07-14 23:16:08.230609,1,True,0,1,30,13,620,26.83,1.63959E+05,1.8573457E-09,2.1340000000000052e-11,2.6906E-12,1.63959E+05,4.18295E-11,9.570000000000005e-12,1.1843E-12,1.63959E+05,2.2535018E-09,2.6359999999999897e-11,3.4741E-12,1.697724115241057e-09,18.403544592135404,2.6662152968472888,5.043578,0,2.2595681071327363,0,1,1,1
2023-07-14 23:16:26.455370,1,True,0,1,30,13,620,26.83,1.63959E+05,1.8574566E-09,2.0319999999999988e-11,2.6799E-12,1.63959E+05,4.20295E-11,1.085e-11,1.1567E-12,1.63959E+05,2.2537681E-09,2.717000000000002e-11,3.5114E-12,1.6977484304903137e-09,18.577162937344838,2.6746214654241878,4.94203,0,2.2595681071327363,0,1,1,1
2023-07-14 23:16:44.684553,1,True,0,1,30,13,620,26.84,1.63959E+05,1.8574330E-09,2.059000000000003e-11,2.6926E-12,1.63959E+05,4.17224E-11,8.529999999999995e-12,1.0554E-12,1.63959E+05,2.2533487E-09,2.8989999999999917e-11,3.4684E-12,1.6978154263373774e-09,19.96610969901485,2.688257084015673,5.059777,0,2.2595681071327363,0,1,1,1
2023-07-14 23:17:02.902837,1,True,0,1,30,13,620,26.9,1.63959E+05,1.8573878E-09,2.072999999999999e-11,2.6994E-12,1.63959E+05,4.16005E-11,9.679999999999999e-12,1.1589E-12,1.63959E+05,2.2533556E-09,2.6509999999999736e-11,3.4687E-12,1.6978505441200642e-09,19.09801797297041,2.6781537430331923,5.007497,0,2.2595681071327363,0,1,1,1
2023-07-14 23:17:32.806480,1,True,0,1,32,14,620,26.84,1.59960E+05,3.5243698E-09,1.8140000000000105e-11,2.4718E-12,1.59960E+05,3.70445E-11,8.320000000000003e-12,9.923E-13,1.59960E+05,2.2382148E-09,2.5579999999999823e-11,3.4339E-12,3.3709827753235107e-09,18.577162937344838,2.6440672407237913,5.001267,6,9.339076627777558,1,1,6,1
2023-07-14 23:17:51.002700,1,True,0,1,32,14,620,26.81,1.63959E+05,3.5243584E-09,1.8480000000000126e-11,2.4674E-12,1.63959E+05,3.69325E-11,9.340000000000003e-12,1.1104E-12,1.63959E+05,2.2380418E-09,2.6449999999999635e-11,3.4653E-12,3.3705576447626924e-09,18.92439962776234,2.6483544401987498,4.996136,0,9.339076627777558,0,1,6,1
2023-07-14 23:18:09.214782,1,True,0,1,32,14,620,26.79,1.63959E+05,3.5245011E-09,1.7660000000000123e-11,2.4978E-12,1.63959E+05,3.69922E-11,9.490000000000004e-12,1.0999E-12,1.63959E+05,2.2381380E-09,2.9019999999999968e-11,3.4696E-12,3.3707888505767477e-09,20.486964734642243,2.640532015726893,4.992243,0,9.339076627777558,0,1,6,1
2023-07-14 23:18:27.464796,1,True,0,1,32,14,620,26.92,1.63959E+05,3.5243289E-09,1.7420000000000132e-11,2.4672E-12,1.63959E+05,3.68381E-11,8.979999999999998e-12,1.0465E-12,1.63959E+05,2.2380683E-09,2.6180000000000007e-11,3.4630E-12,3.370885132366234e-09,19.96610969901576,2.658819771093145,5.033697,0,9.339076627777558,0,1,6,1
2023-07-14 23:18:45.326727,1,True,0,1,32,14,620,26.88,1.59960E+05,3.5244990E-09,1.7909999999999993e-11,2.4750E-12,1.59960E+05,3.67905E-11,1.07e-11,1.0850E-12,1.59960E+05,2.2380603E-09,2.7220000000000243e-11,3.4706E-12,3.3709037668232667e-09,19.445254663389278,2.653242392962871,5.046214,0,9.339076627777558,0,1,6,1
2023-07-14 23:19:16.043704,1,True,0,1,8,15,620,26.84,1.63959E+05,2.2749015E-09,1.8569999999999865e-11,2.4663E-12,1.63959E+05,3.69762E-11,9.119999999999997e-12,1.0738E-12,1.63959E+05,2.2161662E-09,2.5649999999999803e-11,3.4725E-12,2.120843623693016e-09,18.0563079017179,2.689848090208279,5.008482,6,9.256779796747708,1,1,6,1
2023-07-14 23:19:33.852116,1,True,0,1,8,15,620,26.86,1.59960E+05,2.2746835E-09,1.7900000000000114e-11,2.4639E-12,1.59960E+05,3.71010E-11,9.120000000000003e-12,1.0779E-12,1.59960E+05,2.2163063E-09,2.6359999999999897e-11,3.4579E-12,2.120709590330576e-09,18.924399627761886,2.692236315965467,5.038147,0,9.256779796747708,0,1,6,1
2023-07-14 23:19:51.715427,1,True,0,1,8,15,620,27.0,1.59960E+05,2.2748122E-09,2.0789999999999884e-11,2.4710E-12,1.59960E+05,3.72676E-11,9.72e-12,1.1483E-12,1.59960E+05,2.2162815E-09,2.5979999999999945e-11,3.4907E-12,2.1203642217735295e-09,20.139728044224285,2.6916223184850643,5.009586,0,9.256779796747708,0,1,6,1
2023-07-14 23:20:09.980685,1,True,0,1,8,15,620,26.97,1.63959E+05,2.2746298E-09,1.8060000000000246e-11,2.4574E-12,1.63959E+05,3.70691E-11,9.58e-12,1.0516E-12,1.63959E+05,2.2159557E-09,2.686999999999993e-11,3.4558E-12,2.1209283824329953e-09,19.44525466338837,2.6897108520444877,5.017585,0,9.256779796747708,0,1,6,1
2023-07-14 23:20:28.200719,1,True,0,1,8,15,620,27.0,1.63959E+05,2.2749280E-09,1.8479999999999713e-11,2.4728E-12,1.63959E+05,3.74515E-11,9.21e-12,1.1255E-12,1.63959E+05,2.2163970E-09,2.5730000000000076e-11,3.4863E-12,2.120413850577575e-09,18.40354459213586,2.69978073750555,5.077168,0,9.256779796747708,0,1,6,1
2023-07-14 23:20:58.927420,1,True,0,1,14,16,620,26.84,1.63959E+05,3.9414409E-09,1.8539999999999814e-11,2.4936E-12,1.63959E+05,3.70691E-11,9.409999999999996e-12,1.0309E-12,1.63959E+05,2.1981853E-09,2.6019999999999875e-11,3.4383E-12,3.7873076464988455e-09,19.792491353806327,2.7074142716671292,5.042453,6,9.498965234423679,1,1,6,1
2023-07-14 23:21:17.175567,1,True,0,1,14,16,620,26.9,1.63959E+05,3.9415005E-09,1.9219999999999857e-11,2.4900E-12,1.63959E+05,3.70771E-11,1.0720000000000003e-11,1.1771E-12,1.63959E+05,2.1982511E-09,2.735999999999979e-11,3.4874E-12,3.787069056696547e-09,19.445254663388823,2.6742389236475623,4.981777,0,9.498965234423679,0,1,6,1
2023-07-14 23:21:35.507583,1,True,0,1,14,16,620,27.09,1.63959E+05,3.9414527E-09,1.7930000000000578e-11,2.4830E-12,1.63959E+05,3.74857E-11,9.059999999999999e-12,1.0242E-12,1.63959E+05,2.1986141E-09,2.690999999999986e-11,3.4618E-12,3.786772256135404e-09,18.92439962776234,2.726192879041605,5.128488,0,9.498965234423679,0,1,6,1
2023-07-14 23:21:52.868680,1,True,0,1,14,16,620,27.19,1.55961E+05,3.9412039E-09,1.8389999999999975e-11,2.4694E-12,1.55961E+05,3.72846E-11,8.99e-12,1.0535E-12,1.55961E+05,2.1983721E-09,2.8829999999999786e-11,3.4531E-12,3.786605047779301e-09,20.313346389433264,2.7067238196396963,5.013057,0,9.498965234423679,0,1,6,1
2023-07-14 23:22:11.106778,1,True,0,1,14,16,620,27.03,1.63959E+05,3.9411160E-09,1.876000000000046e-11,2.4789E-12,1.63959E+05,3.71280E-11,9.690000000000001e-12,1.1784E-12,1.63959E+05,2.1982542E-09,2.8520000000000228e-11,3.5022E-12,3.786595425850766e-09,21.181438115476794,2.712687606126346,5.12729,0,9.498965234423679,0,1,6,1
2023-07-14 23:22:41.786993,1,True,0,1,26,17,620,26.93,1.63959E+05,6.080954E-10,2.0340000000000056e-11,2.6619E-12,1.63959E+05,4.28824E-11,9.479999999999996e-12,1.0321E-12,1.63959E+05,2.1912793E-09,2.5229999999999922e-11,3.4625E-12,4.474550276401673e-10,20.83420142505929,2.7620137397990856,4.938394,2,2.851714307683153,1,1,2,1
2023-07-14 23:23:00.035336,1,True,0,1,26,17,620,27.0,1.63959E+05,6.081149E-10,1.8849999999999992e-11,2.6391E-12,1.63959E+05,4.26575E-11,1.0109999999999998e-11,1.1770E-12,1.63959E+05,2.1909342E-09,2.8260000000000066e-11,3.4861E-12,4.475191275332211e-10,20.31334638943281,2.7397793913404582,4.934594,0,2.851714307683153,0,1,2,1
2023-07-14 23:23:18.243742,1,True,0,1,26,17,620,26.93,1.63959E+05,6.080179E-10,2.002e-11,2.6626E-12,1.63959E+05,4.23523E-11,1.0539999999999997e-11,1.2030E-12,1.63959E+05,2.1907160E-09,2.5920000000000258e-11,3.4696E-12,4.472680823507833e-10,19.44525466338837,2.733531275258814,4.934022,0,2.851714307683153,0,1,2,1
2023-07-14 23:23:36.545973,1,True,0,1,26,17,620,26.99,1.63959E+05,6.081268E-10,2.0139999999999995e-11,2.6332E-12,1.63959E+05,4.28889E-11,9.080000000000003e-12,1.1066E-12,1.63959E+05,2.1912685E-09,2.5089999999999962e-11,3.4506E-12,4.476298370072197e-10,19.792491353806327,2.7318973195870626,4.993093,0,2.851714307683153,0,1,2,1
2023-07-14 23:23:54.837979,1,True,0,1,26,17,620,26.9,1.63959E+05,6.080838E-10,1.9199999999999996e-11,2.6789E-12,1.63959E+05,4.28323E-11,9.040000000000002e-12,1.1050E-12,1.63959E+05,2.1911717E-09,2.7850000000000064e-11,3.4216E-12,4.469959373308415e-10,20.31334638943281,2.7186723320631567,4.985329,0,2.851714307683153,0,1,2,1
2023-07-14 23:24:25.057092,1,True,0,1,24,18,620,26.84,1.59960E+05,6.084164E-10,1.816000000000007e-11,2.4189E-12,1.59960E+05,4.34111E-11,9.43e-12,1.1592E-12,1.59960E+05,2.1835669E-09,2.8530000000000107e-11,3.4455E-12,4.47916706599009e-10,19.44525466338837,2.7590964453694027,4.948764,2,2.7928681057422864,1,1,2,1
2023-07-14 23:24:43.397727,1,True,0,1,24,18,620,27.13,1.63959E+05,6.085998E-10,1.6490000000000012e-11,2.4158E-12,1.63959E+05,4.31602E-11,9.269999999999997e-12,1.1300E-12,1.63959E+05,2.1830070E-09,2.5329999999999953e-11,3.4420E-12,4.4773826339998834e-10,21.702293151102822,2.7407618252541535,4.933555,0,2.7928681057422864,0,1,2,1
2023-07-14 23:25:00.803940,1,True,0,1,24,18,620,27.01,1.59960E+05,6.085535E-10,1.7720000000000017e-11,2.4226E-12,1.59960E+05,4.30020E-11,8.970000000000002e-12,1.1196E-12,1.59960E+05,2.1829843E-09,2.5770000000000005e-11,3.4277E-12,4.475228985236661e-10,18.750781282553362,2.7410342577321387,4.937287,0,2.7928681057422864,0,1,2,1
2023-07-14 23:25:18.604553,1,True,0,1,24,18,620,27.13,1.59960E+05,6.086574E-10,1.802999999999999e-11,2.4370E-12,1.59960E+05,4.34476E-11,1.0820000000000001e-11,1.1362E-12,1.59960E+05,2.1835823E-09,2.6049999999999926e-11,3.4218E-12,4.4734591198256596e-10,19.44525466338837,2.7349682888232216,5.006237,0,2.7928681057422864,0,1,2,1
2023-07-14 23:25:36.835618,1,True,0,1,24,18,620,26.97,1.63959E+05,6.087312E-10,1.695000000000003e-11,2.4255E-12,1.63959E+05,4.33161E-11,8.579999999999998e-12,1.0712E-12,1.63959E+05,2.1833711E-09,2.5839999999999985e-11,3.4287E-12,4.4742989291233016e-10,19.792491353806327,2.7556803828148544,5.031872,0,2.7928681057422864,0,1,2,1
2023-07-14 23:26:07.539722,1,True,0,1,26,19,619,26.97,1.63959E+05,2.6914955E-09,2.0800000000000176e-11,2.7077E-12,1.63959E+05,4.21172E-11,9.819999999999998e-12,1.1208E-12,1.63959E+05,2.1745321E-09,2.8189999999999672e-11,3.4378E-12,2.530642163910042e-09,22.744003222356696,2.734582197238646,4.935791,2,2.998400975470645,1,1,2,1
2023-07-14 23:26:25.767720,1,True,0,1,26,19,620,26.9,1.63959E+05,2.6916761E-09,2.0220000000000164e-11,2.7028E-12,1.63959E+05,4.23690E-11,1.005e-11,1.1072E-12,1.63959E+05,2.1748404E-09,2.6140000000000077e-11,3.4423E-12,2.5310332687477404e-09,18.056307901718355,2.7364212948065316,4.952912,0,2.998400975470645,0,1,2,1
2023-07-14 23:26:44.022958,1,True,0,1,26,19,620,26.99,1.63959E+05,2.6915840E-09,2.0409999999999933e-11,2.7062E-12,1.63959E+05,4.21765E-11,1.0619999999999998e-11,1.1852E-12,1.63959E+05,2.1746415E-09,2.8969999999999746e-11,3.4318E-12,2.5309337350866363e-09,20.139728044224285,2.7469497010259243,5.021082,0,2.998400975470645,0,1,2,1
2023-07-14 23:27:02.256091,1,True,0,1,26,19,620,26.95,1.63959E+05,2.6915585E-09,2.0220000000000164e-11,2.7011E-12,1.63959E+05,4.17743E-11,9.449999999999997e-12,1.0779E-12,1.63959E+05,2.1742589E-09,2.6459999999999927e-11,3.4317E-12,2.5313867678519135e-09,20.660583079850767,2.760473094355646,4.930775,0,2.998400975470645,0,1,2,1
2023-07-14 23:27:20.066381,1,True,0,1,26,19,620,26.9,1.59960E+05,2.6914359E-09,2.0239999999999922e-11,2.7135E-12,1.59960E+05,4.20812E-11,9.910000000000001e-12,1.1993E-12,1.59960E+05,2.1745810E-09,2.5730000000000076e-11,3.4839E-12,2.531550316333037e-09,19.792491353806327,2.759578213621367,4.986746,0,2.998400975470645,0,1,2,1
