Copyright 1986-2022 Xilinx, Inc. All Rights Reserved.
-----------------------------------------------------------------------------------------
| Tool Version      : Vivado v.2022.1 (win64) Build 3526262 Mon Apr 18 15:48:16 MDT 2022
| Date              : Wed Aug  9 16:58:28 2023
| Host              : PCPHESE71 running 64-bit major release  (build 9200)
| Command           : report_clock_utilization -file m_top_clock_utilization_routed.rpt
| Design            : m_top
| Device            : xcku040-ffva1156
| Speed File        : -2  PRODUCTION 1.25 12-04-2018
| Temperature Grade : E
| Design State      : Routed
-----------------------------------------------------------------------------------------

Clock Utilization Report

Table of Contents
-----------------
1. Clock Primitive Utilization
2. Global Clock Resources
3. Global Clock Source Details
4. Clock Regions : Clock Primitives
5. Clock Regions : Load Primitives
6. Clock Regions : Global Clock Summary
7. Clock Regions : Routing Resource Utilization
8. Device Cell Placement Summary for Global Clock g0
9. Device Cell Placement Summary for Global Clock g1
10. Device Cell Placement Summary for Global Clock g2
11. Device Cell Placement Summary for Global Clock g3
12. Device Cell Placement Summary for Global Clock g4
13. Device Cell Placement Summary for Global Clock g5
14. Device Cell Placement Summary for Global Clock g6
15. Device Cell Placement Summary for Global Clock g7
16. Device Cell Placement Summary for Global Clock g8
17. Device Cell Placement Summary for Global Clock g9
18. Device Cell Placement Summary for Global Clock g10
19. Clock Region Cell Placement per Global Clock: Region X2Y0
20. Clock Region Cell Placement per Global Clock: Region X3Y0
21. Clock Region Cell Placement per Global Clock: Region X2Y1
22. Clock Region Cell Placement per Global Clock: Region X3Y1
23. Clock Region Cell Placement per Global Clock: Region X1Y2
24. Clock Region Cell Placement per Global Clock: Region X2Y2
25. Clock Region Cell Placement per Global Clock: Region X3Y2
26. Clock Region Cell Placement per Global Clock: Region X2Y3
27. Clock Region Cell Placement per Global Clock: Region X3Y3

1. Clock Primitive Utilization
------------------------------

+------------+------+-----------+-----+--------------+--------+
| Type       | Used | Available | LOC | Clock Region | Pblock |
+------------+------+-----------+-----+--------------+--------+
| BUFGCE     |    3 |       240 |   0 |            0 |      0 |
| BUFGCE_DIV |    0 |        40 |   0 |            0 |      0 |
| BUFGCTRL   |    0 |        80 |   0 |            0 |      0 |
| BUFG_GT    |    8 |       120 |   0 |            0 |      0 |
| MMCM       |    1 |        10 |   0 |            0 |      0 |
| PLL        |    0 |        20 |   0 |            0 |      0 |
+------------+------+-----------+-----+--------------+--------+


2. Global Clock Resources
-------------------------

+-----------+-----------+-----------------+------------+----------------+--------------+------+-------------------+-------------------+-------------+-----------------+--------------+--------------------------------------------------------------------------------------------+--------------------------------------------------------------------------------------------------------------+--------------------------------------------------------------------------------------------------------+
| Global Id | Source Id | Driver Type/Pin | Constraint | Site           | Clock Region | Root | Clock Delay Group | Load Clock Region | Clock Loads | Non-Clock Loads | Clock Period | Clock                                                                                      | Driver Pin                                                                                                   | Net                                                                                                    |
+-----------+-----------+-----------------+------------+----------------+--------------+------+-------------------+-------------------+-------------+-----------------+--------------+--------------------------------------------------------------------------------------------+--------------------------------------------------------------------------------------------------------------+--------------------------------------------------------------------------------------------------------+
| g0        | src0      | BUFGCE/O        | None       | BUFGCE_X1Y48   | X2Y2         | X2Y2 |                   |                 8 |       16297 |               1 |        8.000 | clk_125                                                                                    | sys_clk_inst/bufg_inst/O                                                                                     | sys_clk_inst/clk_sys                                                                                   |
| g1        | src1      | BUFG_GT/O       | None       | BUFG_GT_X0Y52  | X3Y2         | X2Y1 |                   |                 5 |        2758 |               0 |        8.000 | txoutclk_out[0]                                                                            | AXI_inst/system_ctrl_inst/udp_bridge_control/mac_pcs_pma_i/PCS_PMA_i/U0/core_clocking_i/usrclk2_bufg_inst/O  | AXI_inst/system_ctrl_inst/udp_bridge_control/mac_pcs_pma_i/PCS_PMA_i/U0/core_clocking_i/userclk2       |
| g2        | src1      | BUFG_GT/O       | None       | BUFG_GT_X0Y51  | X3Y2         | X3Y2 |                   |                 1 |          62 |               0 |       16.000 | userclk_out                                                                                | AXI_inst/system_ctrl_inst/udp_bridge_control/mac_pcs_pma_i/PCS_PMA_i/U0/core_clocking_i/usrclk_bufg_inst/O   | AXI_inst/system_ctrl_inst/udp_bridge_control/mac_pcs_pma_i/PCS_PMA_i/U0/core_clocking_i/userclk        |
| g3        | src2      | BUFG_GT/O       | None       | BUFG_GT_X0Y50  | X3Y2         | X2Y1 |                   |                 7 |         997 |               1 |        4.167 | rxoutclk_out[0]_1                                                                          | gt_inst/ch[0].rx_usrclk_bufg_gt/O                                                                            | gt_inst/gt_o[0][rx_usrclk]                                                                             |
| g4        | src3      | BUFG_GT/O       | None       | BUFG_GT_X0Y55  | X3Y2         | X2Y2 |                   |                 4 |         565 |               0 |        4.167 | txoutclk_out[0]_1                                                                          | gt_inst/tx_usrclk_bufg_gt/O                                                                                  | gt_inst/gt_o[0][tx_usrclk]                                                                             |
| g5        | src4      | BUFGCE/O        | None       | BUFGCE_X0Y102  | X0Y4         | X2Y2 |                   |                 3 |         497 |               0 |       33.000 | dbg_hub/inst/BSCANID.u_xsdbm_id/SWITCH_N_EXT_BSCAN.bscan_inst/SERIES7_BSCAN.bscan_inst/TCK | dbg_hub/inst/BSCANID.u_xsdbm_id/SWITCH_N_EXT_BSCAN.u_bufg_icon_tck/O                                         | dbg_hub/inst/BSCANID.u_xsdbm_id/itck_i                                                                 |
| g6        | src5      | BUFGCE/O        | None       | BUFGCE_X1Y71   | X2Y2         | X3Y1 |                   |                 2 |         248 |               0 |       16.000 | freerun_clk_62_5                                                                           | AXI_inst/system_ctrl_inst/udp_bridge_control/clk_pcs_pma_62_5_i/inst/freerun_clk_62_5_BUFG_inst/O            | AXI_inst/system_ctrl_inst/udp_bridge_control/clk_pcs_pma_62_5_i/inst/freerun_clk_62_5_BUFGCE           |
| g7        | src6      | BUFG_GT/O       | None       | BUFG_GT_X0Y97  | X3Y4         | X3Y0 |                   |                 2 |         182 |               0 |        4.167 | ddmtdclk                                                                                   | DDMTD_inst/ddmtdclk_buf_inst/bufg_inst/O                                                                     | DDMTD_inst/ddmtdclk_buf_inst/clk_dmtd                                                                  |
| g8        | src7      | BUFG_GT/O       | None       | BUFG_GT_X0Y53  | X3Y2         | X3Y2 |                   |                 1 |           8 |               0 |       16.000 | rxoutclk_out[0]                                                                            | AXI_inst/system_ctrl_inst/udp_bridge_control/mac_pcs_pma_i/PCS_PMA_i/U0/core_clocking_i/rxrecclk_bufg_inst/O | AXI_inst/system_ctrl_inst/udp_bridge_control/mac_pcs_pma_i/PCS_PMA_i/U0/core_clocking_i/rxuserclk2_out |
| g9        | src8      | BUFG_GT/O       | None       | BUFG_GT_X0Y57  | X3Y2         | X3Y2 |                   |                 1 |           4 |               0 |        4.167 | gt_refclk                                                                                  | gt_inst/gtclk_inst/bufg_inst/O                                                                               | gt_inst/gtclk_inst/bufg_inst_0                                                                         |
| g10       | src9      | BUFG_GT/O       | None       | BUFG_GT_X0Y106 | X3Y4         | X3Y4 | n/a               |                 1 |           0 |               1 |        4.167 | gtfanout                                                                                   | DDMTD_inst/fanout_buf_inst/bufg_inst/O                                                                       | DDMTD_inst/fanout_buf_inst/gtfanout                                                                    |
+-----------+-----------+-----------------+------------+----------------+--------------+------+-------------------+-------------------+-------------+-----------------+--------------+--------------------------------------------------------------------------------------------+--------------------------------------------------------------------------------------------------------------+--------------------------------------------------------------------------------------------------------+
* Clock Loads column represents the clock pin loads (pin count). Internal cell leaf pins are not counted
** Non-Clock Loads column represents the non-clock pin loads (pin count)


3. Global Clock Source Details
------------------------------

+-----------+-----------+------------------------+---------------------+---------------------+--------------+-------------+-----------------+---------------------+--------------------------------------------------------------------------------------------+-----------------------------------------------------------------------------------------------------------------------------------------------------------------------------------------------------------------------------------------------------------------------------------------------------------------------------------------------------------------------+----------------------------------------------------------------------------------------------------------------------------------------------------------------------------------------------------------------------------------------------------------------------------------------------------------+
| Source Id | Global Id | Driver Type/Pin        | Constraint          | Site                | Clock Region | Clock Loads | Non-Clock Loads | Source Clock Period | Source Clock                                                                               | Driver Pin                                                                                                                                                                                                                                                                                                                                                            | Net                                                                                                                                                                                                                                                                                                      |
+-----------+-----------+------------------------+---------------------+---------------------+--------------+-------------+-----------------+---------------------+--------------------------------------------------------------------------------------------+-----------------------------------------------------------------------------------------------------------------------------------------------------------------------------------------------------------------------------------------------------------------------------------------------------------------------------------------------------------------------+----------------------------------------------------------------------------------------------------------------------------------------------------------------------------------------------------------------------------------------------------------------------------------------------------------+
| src0      | g0        | IBUFCTRL/O             | IOB_X1Y127          | IOB_X1Y127          | X2Y2         |           1 |               0 |               8.000 | clk_125                                                                                    | sys_clk_inst/ibuf_inst/IBUFCTRL_INST/O                                                                                                                                                                                                                                                                                                                                | sys_clk_inst/ibuf_inst/O                                                                                                                                                                                                                                                                                 |
| src1      | g1        | GTHE3_CHANNEL/TXOUTCLK | GTHE3_CHANNEL_X0Y9  | GTHE3_CHANNEL_X0Y9  | X3Y2         |           3 |               0 |               8.000 | txoutclk_out[0]                                                                            | AXI_inst/system_ctrl_inst/udp_bridge_control/mac_pcs_pma_i/PCS_PMA_i/U0/pcs_pma_block_i/transceiver_inst/PCS_PMA_gt_i/inst/gen_gtwizard_gthe3_top.PCS_PMA_gt_gtwizard_gthe3_inst/gen_gtwizard_gthe3.gen_channel_container[2].gen_enabled_channel.gthe3_channel_wrapper_inst/channel_inst/gthe3_channel_gen.gen_gthe3_channel_inst[0].GTHE3_CHANNEL_PRIM_INST/TXOUTCLK | AXI_inst/system_ctrl_inst/udp_bridge_control/mac_pcs_pma_i/PCS_PMA_i/U0/pcs_pma_block_i/transceiver_inst/PCS_PMA_gt_i/inst/gen_gtwizard_gthe3_top.PCS_PMA_gt_gtwizard_gthe3_inst/gen_gtwizard_gthe3.gen_channel_container[2].gen_enabled_channel.gthe3_channel_wrapper_inst/channel_inst/txoutclk_out[0] |
| src1      | g2        | GTHE3_CHANNEL/TXOUTCLK | GTHE3_CHANNEL_X0Y9  | GTHE3_CHANNEL_X0Y9  | X3Y2         |           3 |               0 |               8.000 | txoutclk_out[0]                                                                            | AXI_inst/system_ctrl_inst/udp_bridge_control/mac_pcs_pma_i/PCS_PMA_i/U0/pcs_pma_block_i/transceiver_inst/PCS_PMA_gt_i/inst/gen_gtwizard_gthe3_top.PCS_PMA_gt_gtwizard_gthe3_inst/gen_gtwizard_gthe3.gen_channel_container[2].gen_enabled_channel.gthe3_channel_wrapper_inst/channel_inst/gthe3_channel_gen.gen_gthe3_channel_inst[0].GTHE3_CHANNEL_PRIM_INST/TXOUTCLK | AXI_inst/system_ctrl_inst/udp_bridge_control/mac_pcs_pma_i/PCS_PMA_i/U0/pcs_pma_block_i/transceiver_inst/PCS_PMA_gt_i/inst/gen_gtwizard_gthe3_top.PCS_PMA_gt_gtwizard_gthe3_inst/gen_gtwizard_gthe3.gen_channel_container[2].gen_enabled_channel.gthe3_channel_wrapper_inst/channel_inst/txoutclk_out[0] |
| src2      | g3        | GTHE3_CHANNEL/RXOUTCLK | GTHE3_CHANNEL_X0Y10 | GTHE3_CHANNEL_X0Y10 | X3Y2         |           2 |               0 |               4.167 | rxoutclk_out[0]_1                                                                          | gt_inst/ch[0].inst/inst/gen_gtwizard_gthe3_top.m_gth_gtwizard_gthe3_inst/gen_gtwizard_gthe3.gen_channel_container[0].gen_enabled_channel.gthe3_channel_wrapper_inst/channel_inst/gthe3_channel_gen.gen_gthe3_channel_inst[0].GTHE3_CHANNEL_PRIM_INST/RXOUTCLK                                                                                                         | gt_inst/ch[0].inst/inst/gen_gtwizard_gthe3_top.m_gth_gtwizard_gthe3_inst/gen_gtwizard_gthe3.gen_channel_container[0].gen_enabled_channel.gthe3_channel_wrapper_inst/channel_inst/rxoutclk_out[0]                                                                                                         |
| src3      | g4        | GTHE3_CHANNEL/TXOUTCLK | GTHE3_CHANNEL_X0Y10 | GTHE3_CHANNEL_X0Y10 | X3Y2         |           2 |               0 |               4.167 | txoutclk_out[0]_1                                                                          | gt_inst/ch[0].inst/inst/gen_gtwizard_gthe3_top.m_gth_gtwizard_gthe3_inst/gen_gtwizard_gthe3.gen_channel_container[0].gen_enabled_channel.gthe3_channel_wrapper_inst/channel_inst/gthe3_channel_gen.gen_gthe3_channel_inst[0].GTHE3_CHANNEL_PRIM_INST/TXOUTCLK                                                                                                         | gt_inst/ch[0].inst/inst/gen_gtwizard_gthe3_top.m_gth_gtwizard_gthe3_inst/gen_gtwizard_gthe3.gen_channel_container[0].gen_enabled_channel.gthe3_channel_wrapper_inst/channel_inst/txoutclk_out[0]                                                                                                         |
| src4      | g5        | BSCANE2/TCK            | None                | CONFIG_SITE_X0Y0    | X3Y1         |           1 |               0 |              33.000 | dbg_hub/inst/BSCANID.u_xsdbm_id/SWITCH_N_EXT_BSCAN.bscan_inst/SERIES7_BSCAN.bscan_inst/TCK | dbg_hub/inst/BSCANID.u_xsdbm_id/SWITCH_N_EXT_BSCAN.bscan_inst/SERIES7_BSCAN.bscan_inst/TCK                                                                                                                                                                                                                                                                            | dbg_hub/inst/BSCANID.u_xsdbm_id/SWITCH_N_EXT_BSCAN.bscan_inst/TCK                                                                                                                                                                                                                                        |
| src5      | g6        | MMCME3_ADV/CLKOUT0     | None                | MMCME3_ADV_X1Y2     | X2Y2         |           2 |               0 |              16.000 | freerun_clk_62_5                                                                           | AXI_inst/system_ctrl_inst/udp_bridge_control/clk_pcs_pma_62_5_i/inst/mmcme3_adv_inst/CLKOUT0                                                                                                                                                                                                                                                                          | AXI_inst/system_ctrl_inst/udp_bridge_control/clk_pcs_pma_62_5_i/inst/freerun_clk_62_5                                                                                                                                                                                                                    |
| src6      | g7        | IBUFDS_GTE3/ODIV2      | GTHE3_COMMON_X0Y4   | GTHE3_COMMON_X0Y4   | X3Y4         |           2 |               0 |               4.167 | ddmtdclk                                                                                   | DDMTD_inst/ddmtdclk_buf_inst/ibuf_inst/ODIV2                                                                                                                                                                                                                                                                                                                          | DDMTD_inst/ddmtdclk_buf_inst/clk_odiv2                                                                                                                                                                                                                                                                   |
| src7      | g8        | GTHE3_CHANNEL/RXOUTCLK | GTHE3_CHANNEL_X0Y9  | GTHE3_CHANNEL_X0Y9  | X3Y2         |           2 |               0 |              16.000 | rxoutclk_out[0]                                                                            | AXI_inst/system_ctrl_inst/udp_bridge_control/mac_pcs_pma_i/PCS_PMA_i/U0/pcs_pma_block_i/transceiver_inst/PCS_PMA_gt_i/inst/gen_gtwizard_gthe3_top.PCS_PMA_gt_gtwizard_gthe3_inst/gen_gtwizard_gthe3.gen_channel_container[2].gen_enabled_channel.gthe3_channel_wrapper_inst/channel_inst/gthe3_channel_gen.gen_gthe3_channel_inst[0].GTHE3_CHANNEL_PRIM_INST/RXOUTCLK | AXI_inst/system_ctrl_inst/udp_bridge_control/mac_pcs_pma_i/PCS_PMA_i/U0/pcs_pma_block_i/transceiver_inst/PCS_PMA_gt_i/inst/gen_gtwizard_gthe3_top.PCS_PMA_gt_gtwizard_gthe3_inst/gen_gtwizard_gthe3.gen_channel_container[2].gen_enabled_channel.gthe3_channel_wrapper_inst/channel_inst/rxoutclk_out[0] |
| src8      | g9        | IBUFDS_GTE3/ODIV2      | GTHE3_COMMON_X0Y2   | GTHE3_COMMON_X0Y2   | X3Y2         |           2 |               0 |               4.167 | gt_refclk                                                                                  | gt_inst/gtclk_inst/ibuf_inst/ODIV2                                                                                                                                                                                                                                                                                                                                    | gt_inst/gtclk_inst/clk_odiv2                                                                                                                                                                                                                                                                             |
| src9      | g10       | IBUFDS_GTE3/ODIV2      | GTHE3_COMMON_X0Y4   | GTHE3_COMMON_X0Y4   | X3Y4         |           2 |               0 |               4.167 | gtfanout                                                                                   | DDMTD_inst/fanout_buf_inst/ibuf_inst/ODIV2                                                                                                                                                                                                                                                                                                                            | DDMTD_inst/fanout_buf_inst/clk_odiv2                                                                                                                                                                                                                                                                     |
+-----------+-----------+------------------------+---------------------+---------------------+--------------+-------------+-----------------+---------------------+--------------------------------------------------------------------------------------------+-----------------------------------------------------------------------------------------------------------------------------------------------------------------------------------------------------------------------------------------------------------------------------------------------------------------------------------------------------------------------+----------------------------------------------------------------------------------------------------------------------------------------------------------------------------------------------------------------------------------------------------------------------------------------------------------+
* Clock Loads column represents the clock pin loads (pin count). Internal cell leaf pins are not counted
** Non-Clock Loads column represents the non-clock pin loads (pin count)


4. Clock Regions : Clock Primitives
-----------------------------------

+-------------------+---------------+---------------+---------------+---------------+---------------+---------------+---------------+
|                   |  Global Clock |     BUFGCE    |   BUFGCE_DIV  |    BUFGCTRL   |    BUFG_GT    |      MMCM     |      PLL      |
+-------------------+-------+-------+-------+-------+-------+-------+-------+-------+-------+-------+-------+-------+-------+-------+
| Clock Region Name | Used  | Avail | Used  | Avail | Used  | Avail | Used  | Avail | Used  | Avail | Used  | Avail | Used  | Avail |
+-------------------+-------+-------+-------+-------+-------+-------+-------+-------+-------+-------+-------+-------+-------+-------+
| X0Y0              |     0 |    24 |     0 |    24 |     0 |     4 |     0 |     8 |     0 |     0 |     0 |     1 |     0 |     2 |
| X1Y0              |     0 |    24 |     0 |     0 |     0 |     0 |     0 |     0 |     0 |     0 |     0 |     0 |     0 |     0 |
| X2Y0              |     2 |    24 |     0 |    24 |     0 |     4 |     0 |     8 |     0 |     0 |     0 |     1 |     0 |     2 |
| X3Y0              |     4 |    24 |     0 |     0 |     0 |     0 |     0 |     0 |     0 |    24 |     0 |     0 |     0 |     0 |
| X0Y1              |     0 |    24 |     0 |    24 |     0 |     4 |     0 |     8 |     0 |     0 |     0 |     1 |     0 |     2 |
| X1Y1              |     0 |    24 |     0 |     0 |     0 |     0 |     0 |     0 |     0 |     0 |     0 |     0 |     0 |     0 |
| X2Y1              |     4 |    24 |     0 |    24 |     0 |     4 |     0 |     8 |     0 |     0 |     0 |     1 |     0 |     2 |
| X3Y1              |     4 |    24 |     0 |     0 |     0 |     0 |     0 |     0 |     0 |    24 |     0 |     0 |     0 |     0 |
| X0Y2              |     0 |    24 |     0 |    24 |     0 |     4 |     0 |     8 |     0 |     0 |     0 |     1 |     0 |     2 |
| X1Y2              |     4 |    24 |     0 |     0 |     0 |     0 |     0 |     0 |     0 |     0 |     0 |     0 |     0 |     0 |
| X2Y2              |     9 |    24 |     2 |    24 |     0 |     4 |     0 |     8 |     0 |     0 |     1 |     1 |     0 |     2 |
| X3Y2              |     9 |    24 |     0 |     0 |     0 |     0 |     0 |     0 |     6 |    24 |     0 |     0 |     0 |     0 |
| X0Y3              |     0 |    24 |     0 |    24 |     0 |     4 |     0 |     8 |     0 |     0 |     0 |     1 |     0 |     2 |
| X1Y3              |     0 |    24 |     0 |     0 |     0 |     0 |     0 |     0 |     0 |     0 |     0 |     0 |     0 |     0 |
| X2Y3              |     5 |    24 |     0 |    24 |     0 |     4 |     0 |     8 |     0 |     0 |     0 |     1 |     0 |     2 |
| X3Y3              |     4 |    24 |     0 |     0 |     0 |     0 |     0 |     0 |     0 |    24 |     0 |     0 |     0 |     0 |
| X0Y4              |     0 |    24 |     1 |    24 |     0 |     4 |     0 |     8 |     0 |     0 |     0 |     1 |     0 |     2 |
| X1Y4              |     0 |    24 |     0 |     0 |     0 |     0 |     0 |     0 |     0 |     0 |     0 |     0 |     0 |     0 |
| X2Y4              |     0 |    24 |     0 |    24 |     0 |     4 |     0 |     8 |     0 |     0 |     0 |     1 |     0 |     2 |
| X3Y4              |     0 |    24 |     0 |     0 |     0 |     0 |     0 |     0 |     2 |    24 |     0 |     0 |     0 |     0 |
+-------------------+-------+-------+-------+-------+-------+-------+-------+-------+-------+-------+-------+-------+-------+-------+
* Global Clock column represents track count; while other columns represents cell counts


5. Clock Regions : Load Primitives
----------------------------------

+-------------------+------------------+------------------+------------------+------------------+------------------+------------------+------------------+
|                   |   Global Clock   |        FF        |      LUTRAM      |  Block RAM (18K) |        DSP       |        GT        |      HARD IP     |
+-------------------+--------+---------+--------+---------+--------+---------+--------+---------+--------+---------+--------+---------+--------+---------+
| Clock Region Name | Used   | Avail   | Used   | Avail   | Used   | Avail   | Used   | Avail   | Used   | Avail   | Used   | Avail   | Used   | Avail   |
+-------------------+--------+---------+--------+---------+--------+---------+--------+---------+--------+---------+--------+---------+--------+---------+
| X0Y0              |      0 |      24 |      0 |   23040 |      0 |    5760 |      0 |      72 |      0 |      96 |      0 |       0 |      0 |       0 |
| X1Y0              |      0 |      24 |      0 |   24000 |      0 |    6240 |      0 |      72 |      0 |      96 |      0 |       0 |      0 |       0 |
| X2Y0              |      2 |      24 |    621 |   25920 |      4 |    7200 |      0 |      48 |      0 |     144 |      0 |       0 |      0 |       0 |
| X3Y0              |      4 |      24 |   1275 |   24000 |      8 |    3360 |      0 |      48 |      0 |      48 |      0 |       4 |      0 |       1 |
| X0Y1              |      0 |      24 |      0 |   23040 |      0 |    5760 |      0 |      72 |      0 |      96 |      0 |       0 |      0 |       0 |
| X1Y1              |      0 |      24 |      0 |   24000 |      0 |    6240 |      0 |      72 |      0 |      96 |      0 |       0 |      0 |       0 |
| X2Y1              |      4 |      24 |   2686 |   25920 |     40 |    7200 |      0 |      48 |      0 |     144 |      0 |       0 |      0 |       0 |
| X3Y1              |      4 |      24 |   6390 |   24000 |    111 |    3360 |      2 |      48 |      0 |      48 |      0 |       4 |      0 |       0 |
| X0Y2              |      0 |      24 |      0 |   23040 |      0 |    5760 |      0 |      72 |      0 |      96 |      0 |       0 |      0 |       0 |
| X1Y2              |      4 |      24 |     12 |   24000 |      0 |    6240 |      0 |      72 |      0 |      96 |      0 |       0 |      0 |       0 |
| X2Y2              |      9 |      24 |     97 |   25920 |      0 |    7200 |      0 |      48 |      0 |     144 |      0 |       0 |      0 |       0 |
| X3Y2              |      9 |      24 |   7749 |   24000 |    348 |    3360 |     11 |      48 |      0 |      48 |      2 |       4 |      0 |       0 |
| X0Y3              |      0 |      24 |      0 |   23040 |      0 |    5760 |      0 |      72 |      0 |      96 |      0 |       0 |      0 |       0 |
| X1Y3              |      0 |      24 |      0 |   24000 |      0 |    6240 |      0 |      72 |      0 |      96 |      0 |       0 |      0 |       0 |
| X2Y3              |      5 |      24 |      1 |   25920 |      0 |    7200 |      0 |      48 |      0 |     144 |      0 |       0 |      0 |       0 |
| X3Y3              |      4 |      24 |   1829 |   24000 |    103 |    3360 |      5 |      48 |      0 |      48 |      0 |       4 |      0 |       1 |
| X0Y4              |      0 |      24 |      0 |   23040 |      0 |    5760 |      0 |      72 |      0 |      96 |      0 |       0 |      0 |       0 |
| X1Y4              |      0 |      24 |      0 |   24000 |      0 |    6240 |      0 |      72 |      0 |      96 |      0 |       0 |      0 |       0 |
| X2Y4              |      0 |      24 |      0 |   25920 |      0 |    7200 |      0 |      48 |      0 |     144 |      0 |       0 |      0 |       0 |
| X3Y4              |      0 |      24 |      0 |   24000 |      0 |    3360 |      0 |      48 |      0 |      48 |      0 |       4 |      0 |       1 |
+-------------------+--------+---------+--------+---------+--------+---------+--------+---------+--------+---------+--------+---------+--------+---------+
* Global Clock column represents track count; while other columns represents cell counts


6. Clock Regions : Global Clock Summary
---------------------------------------

All Modules
+----+----+----+----+----+
|    | X0 | X1 | X2 | X3 |
+----+----+----+----+----+
| Y4 |  0 |  0 |  0 |  0 |
| Y3 |  0 |  0 |  4 |  6 |
| Y2 |  0 |  4 |  6 | 11 |
| Y1 |  0 |  0 |  3 |  5 |
| Y0 |  0 |  0 |  2 |  4 |
+----+----+----+----+----+


7. Clock Regions : Routing Resource Utilization
-----------------------------------------------

All Modules
+-------------------+----------------------+----------------------+----------------------+----------------------+
|                   |        HROUTES       |        HDISTRS       |        VROUTES       |        VDISTRS       |
+-------------------+------+-------+-------+------+-------+-------+------+-------+-------+------+-------+-------+
| Clock Region Name | Used | Avail | Util% | Used | Avail | Util% | Used | Avail | Util% | Used | Avail | Util% |
+-------------------+------+-------+-------+------+-------+-------+------+-------+-------+------+-------+-------+
| X0Y0              |    0 |    24 |  0.00 |    0 |    24 |  0.00 |    0 |    24 |  0.00 |    0 |    24 |  0.00 |
| X1Y0              |    0 |    24 |  0.00 |    0 |    24 |  0.00 |    0 |    24 |  0.00 |    0 |    24 |  0.00 |
| X2Y0              |    0 |    24 |  0.00 |    2 |    24 |  8.33 |    0 |    24 |  0.00 |    2 |    24 |  8.33 |
| X3Y0              |    0 |    24 |  0.00 |    4 |    24 | 16.67 |    1 |    24 |  4.17 |    2 |    24 |  8.33 |
| X0Y1              |    0 |    24 |  0.00 |    0 |    24 |  0.00 |    0 |    24 |  0.00 |    0 |    24 |  0.00 |
| X1Y1              |    0 |    24 |  0.00 |    0 |    24 |  0.00 |    0 |    24 |  0.00 |    0 |    24 |  0.00 |
| X2Y1              |    0 |    24 |  0.00 |    4 |    24 | 16.67 |    2 |    24 |  8.33 |    3 |    24 | 12.50 |
| X3Y1              |    0 |    24 |  0.00 |    4 |    24 | 16.67 |    2 |    24 |  8.33 |    2 |    24 |  8.33 |
| X0Y2              |    0 |    24 |  0.00 |    0 |    24 |  0.00 |    0 |    24 |  0.00 |    0 |    24 |  0.00 |
| X1Y2              |    0 |    24 |  0.00 |    4 |    24 | 16.67 |    0 |    24 |  0.00 |    0 |    24 |  0.00 |
| X2Y2              |    8 |    24 | 33.33 |    9 |    24 | 37.50 |    3 |    24 | 12.50 |    4 |    24 | 16.67 |
| X3Y2              |    8 |    24 | 33.33 |    9 |    24 | 37.50 |    2 |    24 |  8.33 |    1 |    24 |  4.17 |
| X0Y3              |    0 |    24 |  0.00 |    0 |    24 |  0.00 |    0 |    24 |  0.00 |    0 |    24 |  0.00 |
| X1Y3              |    0 |    24 |  0.00 |    0 |    24 |  0.00 |    0 |    24 |  0.00 |    0 |    24 |  0.00 |
| X2Y3              |    0 |    24 |  0.00 |    5 |    24 | 20.83 |    1 |    24 |  4.17 |    0 |    24 |  0.00 |
| X3Y3              |    0 |    24 |  0.00 |    4 |    24 | 16.67 |    1 |    24 |  4.17 |    1 |    24 |  4.17 |
| X0Y4              |    2 |    24 |  8.33 |    0 |    24 |  0.00 |    0 |    24 |  0.00 |    0 |    24 |  0.00 |
| X1Y4              |    2 |    24 |  8.33 |    0 |    24 |  0.00 |    0 |    24 |  0.00 |    0 |    24 |  0.00 |
| X2Y4              |    2 |    24 |  8.33 |    0 |    24 |  0.00 |    1 |    24 |  4.17 |    0 |    24 |  0.00 |
| X3Y4              |    4 |    24 | 16.67 |    0 |    24 |  0.00 |    1 |    24 |  4.17 |    1 |    24 |  4.17 |
+-------------------+------+-------+-------+------+-------+-------+------+-------+-------+------+-------+-------+


8. Device Cell Placement Summary for Global Clock g0
----------------------------------------------------

+-----------+-----------------+-------------------+---------+-------------+---------------+----------+-------------+----------+----------------+----------+----------------------+
| Global Id | Driver Type/Pin | Driver Region (D) | Clock   | Period (ns) | Waveform (ns) | Root (R) | Slice Loads | IO Loads | Clocking Loads | GT Loads | Net                  |
+-----------+-----------------+-------------------+---------+-------------+---------------+----------+-------------+----------+----------------+----------+----------------------+
| g0        | BUFGCE/O        | X2Y2              | clk_125 |       8.000 | {0.000 4.000} | X2Y2     |       15982 |        0 |              1 |        1 | sys_clk_inst/clk_sys |
+-----------+-----------------+-------------------+---------+-------------+---------------+----------+-------------+----------+----------------+----------+----------------------+
* Slice Loads column represents load cell count of all cell types other than IO, GT and clock resources
** IO Loads column represents load cell count of IO types
*** Clocking Loads column represents load cell count that are clock resources (global clock buffer, MMCM, PLL, etc)
**** GT Loads column represents load cell count of GT types


+----+----+----+------------+-------+-----------------------+
|    | X0 | X1 | X2         | X3    | HORIZONTAL PROG DELAY |
+----+----+----+------------+-------+-----------------------+
| Y4 |  0 |  0 |          0 |     0 |                     - |
| Y3 |  0 |  0 |          0 |  1286 |                     2 |
| Y2 |  0 |  3 | (R) (D) 62 |  5892 |                     2 |
| Y1 |  0 |  0 |       2696 |  4315 |                     0 |
| Y0 |  0 |  0 |        625 |  1105 |                     0 |
+----+----+----+------------+-------+-----------------------+


9. Device Cell Placement Summary for Global Clock g1
----------------------------------------------------

+-----------+-----------------+-------------------+-----------------+-------------+---------------+----------+-------------+----------+----------------+----------+--------------------------------------------------------------------------------------------------+
| Global Id | Driver Type/Pin | Driver Region (D) | Clock           | Period (ns) | Waveform (ns) | Root (R) | Slice Loads | IO Loads | Clocking Loads | GT Loads | Net                                                                                              |
+-----------+-----------------+-------------------+-----------------+-------------+---------------+----------+-------------+----------+----------------+----------+--------------------------------------------------------------------------------------------------+
| g1        | BUFG_GT/O       | X3Y2              | txoutclk_out[0] |       8.000 | {0.000 4.000} | X2Y1     |        2758 |        0 |              0 |        0 | AXI_inst/system_ctrl_inst/udp_bridge_control/mac_pcs_pma_i/PCS_PMA_i/U0/core_clocking_i/userclk2 |
+-----------+-----------------+-------------------+-----------------+-------------+---------------+----------+-------------+----------+----------------+----------+--------------------------------------------------------------------------------------------------+
* Slice Loads column represents load cell count of all cell types other than IO, GT and clock resources
** IO Loads column represents load cell count of IO types
*** Clocking Loads column represents load cell count that are clock resources (global clock buffer, MMCM, PLL, etc)
**** GT Loads column represents load cell count of GT types


+----+----+----+--------+----------+-----------------------+
|    | X0 | X1 | X2     | X3       | HORIZONTAL PROG DELAY |
+----+----+----+--------+----------+-----------------------+
| Y4 |  0 |  0 |      0 |        0 |                     - |
| Y3 |  0 |  0 |      0 |        0 |                     - |
| Y2 |  0 |  3 |     14 |  (D) 532 |                     0 |
| Y1 |  0 |  0 | (R) 30 |     2179 |                     0 |
| Y0 |  0 |  0 |      0 |        0 |                     - |
+----+----+----+--------+----------+-----------------------+


10. Device Cell Placement Summary for Global Clock g2
-----------------------------------------------------

+-----------+-----------------+-------------------+-------------+-------------+---------------+----------+-------------+----------+----------------+----------+-------------------------------------------------------------------------------------------------+
| Global Id | Driver Type/Pin | Driver Region (D) | Clock       | Period (ns) | Waveform (ns) | Root (R) | Slice Loads | IO Loads | Clocking Loads | GT Loads | Net                                                                                             |
+-----------+-----------------+-------------------+-------------+-------------+---------------+----------+-------------+----------+----------------+----------+-------------------------------------------------------------------------------------------------+
| g2        | BUFG_GT/O       | X3Y2              | userclk_out |      16.000 | {0.000 8.000} | X3Y2     |          58 |        0 |              0 |        1 | AXI_inst/system_ctrl_inst/udp_bridge_control/mac_pcs_pma_i/PCS_PMA_i/U0/core_clocking_i/userclk |
+-----------+-----------------+-------------------+-------------+-------------+---------------+----------+-------------+----------+----------------+----------+-------------------------------------------------------------------------------------------------+
* Slice Loads column represents load cell count of all cell types other than IO, GT and clock resources
** IO Loads column represents load cell count of IO types
*** Clocking Loads column represents load cell count that are clock resources (global clock buffer, MMCM, PLL, etc)
**** GT Loads column represents load cell count of GT types


+----+----+----+----+------------+-----------------------+
|    | X0 | X1 | X2 | X3         | HORIZONTAL PROG DELAY |
+----+----+----+----+------------+-----------------------+
| Y4 |  0 |  0 |  0 |          0 |                     - |
| Y3 |  0 |  0 |  0 |          0 |                     - |
| Y2 |  0 |  0 |  0 | (R) (D) 59 |                     0 |
| Y1 |  0 |  0 |  0 |          0 |                     - |
| Y0 |  0 |  0 |  0 |          0 |                     - |
+----+----+----+----+------------+-----------------------+


11. Device Cell Placement Summary for Global Clock g3
-----------------------------------------------------

+-----------+-----------------+-------------------+-------------------+-------------+---------------+----------+-------------+----------+----------------+----------+----------------------------+
| Global Id | Driver Type/Pin | Driver Region (D) | Clock             | Period (ns) | Waveform (ns) | Root (R) | Slice Loads | IO Loads | Clocking Loads | GT Loads | Net                        |
+-----------+-----------------+-------------------+-------------------+-------------+---------------+----------+-------------+----------+----------------+----------+----------------------------+
| g3        | BUFG_GT/O       | X3Y2              | rxoutclk_out[0]_1 |       4.167 | {0.000 2.083} | X2Y1     |         994 |        2 |              0 |        1 | gt_inst/gt_o[0][rx_usrclk] |
+-----------+-----------------+-------------------+-------------------+-------------+---------------+----------+-------------+----------+----------------+----------+----------------------------+
* Slice Loads column represents load cell count of all cell types other than IO, GT and clock resources
** IO Loads column represents load cell count of IO types
*** Clocking Loads column represents load cell count that are clock resources (global clock buffer, MMCM, PLL, etc)
**** GT Loads column represents load cell count of GT types


+----+----+----+-------+----------+-----------------------+
|    | X0 | X1 | X2    | X3       | HORIZONTAL PROG DELAY |
+----+----+----+-------+----------+-----------------------+
| Y4 |  0 |  0 |     0 |        0 |                     - |
| Y3 |  0 |  0 |     2 |        4 |                     0 |
| Y2 |  0 |  3 |     3 |  (D) 983 |                     0 |
| Y1 |  0 |  0 | (R) 1 |        0 |                     0 |
| Y0 |  0 |  0 |     0 |        1 |                     0 |
+----+----+----+-------+----------+-----------------------+


12. Device Cell Placement Summary for Global Clock g4
-----------------------------------------------------

+-----------+-----------------+-------------------+-------------------+-------------+---------------+----------+-------------+----------+----------------+----------+----------------------------+
| Global Id | Driver Type/Pin | Driver Region (D) | Clock             | Period (ns) | Waveform (ns) | Root (R) | Slice Loads | IO Loads | Clocking Loads | GT Loads | Net                        |
+-----------+-----------------+-------------------+-------------------+-------------+---------------+----------+-------------+----------+----------------+----------+----------------------------+
| g4        | BUFG_GT/O       | X3Y2              | txoutclk_out[0]_1 |       4.167 | {0.000 2.083} | X2Y2     |         563 |        0 |              0 |        1 | gt_inst/gt_o[0][tx_usrclk] |
+-----------+-----------------+-------------------+-------------------+-------------+---------------+----------+-------------+----------+----------------+----------+----------------------------+
* Slice Loads column represents load cell count of all cell types other than IO, GT and clock resources
** IO Loads column represents load cell count of IO types
*** Clocking Loads column represents load cell count that are clock resources (global clock buffer, MMCM, PLL, etc)
**** GT Loads column represents load cell count of GT types


+----+----+----+-------+---------+-----------------------+
|    | X0 | X1 | X2    | X3      | HORIZONTAL PROG DELAY |
+----+----+----+-------+---------+-----------------------+
| Y4 |  0 |  0 |     0 |       0 |                     - |
| Y3 |  0 |  0 |     0 |     489 |                     0 |
| Y2 |  0 |  3 | (R) 3 |  (D) 69 |                     0 |
| Y1 |  0 |  0 |     0 |       0 |                     - |
| Y0 |  0 |  0 |     0 |       0 |                     - |
+----+----+----+-------+---------+-----------------------+


13. Device Cell Placement Summary for Global Clock g5
-----------------------------------------------------

+-----------+-----------------+-------------------+--------------------------------------------------------------------------------------------+-------------+----------------+----------+-------------+----------+----------------+----------+----------------------------------------+
| Global Id | Driver Type/Pin | Driver Region (D) | Clock                                                                                      | Period (ns) | Waveform (ns)  | Root (R) | Slice Loads | IO Loads | Clocking Loads | GT Loads | Net                                    |
+-----------+-----------------+-------------------+--------------------------------------------------------------------------------------------+-------------+----------------+----------+-------------+----------+----------------+----------+----------------------------------------+
| g5        | BUFGCE/O        | X0Y4              | dbg_hub/inst/BSCANID.u_xsdbm_id/SWITCH_N_EXT_BSCAN.bscan_inst/SERIES7_BSCAN.bscan_inst/TCK |      33.000 | {0.000 16.500} | X2Y2     |         497 |        0 |              0 |        0 | dbg_hub/inst/BSCANID.u_xsdbm_id/itck_i |
+-----------+-----------------+-------------------+--------------------------------------------------------------------------------------------+-------------+----------------+----------+-------------+----------+----------------+----------+----------------------------------------+
* Slice Loads column represents load cell count of all cell types other than IO, GT and clock resources
** IO Loads column represents load cell count of IO types
*** Clocking Loads column represents load cell count that are clock resources (global clock buffer, MMCM, PLL, etc)
**** GT Loads column represents load cell count of GT types


+----+--------+----+--------+------+-----------------------+
|    | X0     | X1 | X2     | X3   | HORIZONTAL PROG DELAY |
+----+--------+----+--------+------+-----------------------+
| Y4 |  (D) 0 |  0 |      0 |    0 |                     - |
| Y3 |      0 |  0 |      0 |  159 |                     0 |
| Y2 |      0 |  0 | (R) 16 |  322 |                     0 |
| Y1 |      0 |  0 |      0 |    0 |                     - |
| Y0 |      0 |  0 |      0 |    0 |                     - |
+----+--------+----+--------+------+-----------------------+


14. Device Cell Placement Summary for Global Clock g6
-----------------------------------------------------

+-----------+-----------------+-------------------+------------------+-------------+---------------+----------+-------------+----------+----------------+----------+----------------------------------------------------------------------------------------------+
| Global Id | Driver Type/Pin | Driver Region (D) | Clock            | Period (ns) | Waveform (ns) | Root (R) | Slice Loads | IO Loads | Clocking Loads | GT Loads | Net                                                                                          |
+-----------+-----------------+-------------------+------------------+-------------+---------------+----------+-------------+----------+----------------+----------+----------------------------------------------------------------------------------------------+
| g6        | BUFGCE/O        | X2Y2              | freerun_clk_62_5 |      16.000 | {0.000 8.000} | X3Y1     |         248 |        0 |              0 |        0 | AXI_inst/system_ctrl_inst/udp_bridge_control/clk_pcs_pma_62_5_i/inst/freerun_clk_62_5_BUFGCE |
+-----------+-----------------+-------------------+------------------+-------------+---------------+----------+-------------+----------+----------------+----------+----------------------------------------------------------------------------------------------+
* Slice Loads column represents load cell count of all cell types other than IO, GT and clock resources
** IO Loads column represents load cell count of IO types
*** Clocking Loads column represents load cell count that are clock resources (global clock buffer, MMCM, PLL, etc)
**** GT Loads column represents load cell count of GT types


+----+----+----+--------+-------+-----------------------+
|    | X0 | X1 | X2     | X3    | HORIZONTAL PROG DELAY |
+----+----+----+--------+-------+-----------------------+
| Y4 |  0 |  0 |      0 |     0 |                     - |
| Y3 |  0 |  0 |      0 |     0 |                     - |
| Y2 |  0 |  0 |  (D) 0 |   243 |                     0 |
| Y1 |  0 |  0 |      0 | (R) 5 |                     0 |
| Y0 |  0 |  0 |      0 |     0 |                     - |
+----+----+----+--------+-------+-----------------------+


15. Device Cell Placement Summary for Global Clock g7
-----------------------------------------------------

+-----------+-----------------+-------------------+----------+-------------+---------------+----------+-------------+----------+----------------+----------+---------------------------------------+
| Global Id | Driver Type/Pin | Driver Region (D) | Clock    | Period (ns) | Waveform (ns) | Root (R) | Slice Loads | IO Loads | Clocking Loads | GT Loads | Net                                   |
+-----------+-----------------+-------------------+----------+-------------+---------------+----------+-------------+----------+----------------+----------+---------------------------------------+
| g7        | BUFG_GT/O       | X3Y4              | ddmtdclk |       4.167 | {0.000 2.083} | X3Y0     |         182 |        0 |              0 |        0 | DDMTD_inst/ddmtdclk_buf_inst/clk_dmtd |
+-----------+-----------------+-------------------+----------+-------------+---------------+----------+-------------+----------+----------------+----------+---------------------------------------+
* Slice Loads column represents load cell count of all cell types other than IO, GT and clock resources
** IO Loads column represents load cell count of IO types
*** Clocking Loads column represents load cell count that are clock resources (global clock buffer, MMCM, PLL, etc)
**** GT Loads column represents load cell count of GT types


+----+----+----+----+---------+-----------------------+
|    | X0 | X1 | X2 | X3      | HORIZONTAL PROG DELAY |
+----+----+----+----+---------+-----------------------+
| Y4 |  0 |  0 |  0 |   (D) 0 |                     - |
| Y3 |  0 |  0 |  0 |       0 |                     - |
| Y2 |  0 |  0 |  0 |       0 |                     - |
| Y1 |  0 |  0 |  0 |       4 |                     0 |
| Y0 |  0 |  0 |  0 | (R) 178 |                     0 |
+----+----+----+----+---------+-----------------------+


16. Device Cell Placement Summary for Global Clock g8
-----------------------------------------------------

+-----------+-----------------+-------------------+-----------------+-------------+---------------+----------+-------------+----------+----------------+----------+--------------------------------------------------------------------------------------------------------+
| Global Id | Driver Type/Pin | Driver Region (D) | Clock           | Period (ns) | Waveform (ns) | Root (R) | Slice Loads | IO Loads | Clocking Loads | GT Loads | Net                                                                                                    |
+-----------+-----------------+-------------------+-----------------+-------------+---------------+----------+-------------+----------+----------------+----------+--------------------------------------------------------------------------------------------------------+
| g8        | BUFG_GT/O       | X3Y2              | rxoutclk_out[0] |      16.000 | {0.000 8.000} | X3Y2     |           8 |        0 |              0 |        0 | AXI_inst/system_ctrl_inst/udp_bridge_control/mac_pcs_pma_i/PCS_PMA_i/U0/core_clocking_i/rxuserclk2_out |
+-----------+-----------------+-------------------+-----------------+-------------+---------------+----------+-------------+----------+----------------+----------+--------------------------------------------------------------------------------------------------------+
* Slice Loads column represents load cell count of all cell types other than IO, GT and clock resources
** IO Loads column represents load cell count of IO types
*** Clocking Loads column represents load cell count that are clock resources (global clock buffer, MMCM, PLL, etc)
**** GT Loads column represents load cell count of GT types


+----+----+----+----+-----------+-----------------------+
|    | X0 | X1 | X2 | X3        | HORIZONTAL PROG DELAY |
+----+----+----+----+-----------+-----------------------+
| Y4 |  0 |  0 |  0 |         0 |                     - |
| Y3 |  0 |  0 |  0 |         0 |                     - |
| Y2 |  0 |  0 |  0 | (R) (D) 8 |                     0 |
| Y1 |  0 |  0 |  0 |         0 |                     - |
| Y0 |  0 |  0 |  0 |         0 |                     - |
+----+----+----+----+-----------+-----------------------+


17. Device Cell Placement Summary for Global Clock g9
-----------------------------------------------------

+-----------+-----------------+-------------------+-----------+-------------+---------------+----------+-------------+----------+----------------+----------+--------------------------------+
| Global Id | Driver Type/Pin | Driver Region (D) | Clock     | Period (ns) | Waveform (ns) | Root (R) | Slice Loads | IO Loads | Clocking Loads | GT Loads | Net                            |
+-----------+-----------------+-------------------+-----------+-------------+---------------+----------+-------------+----------+----------------+----------+--------------------------------+
| g9        | BUFG_GT/O       | X3Y2              | gt_refclk |       4.167 | {0.000 2.083} | X3Y2     |           4 |        0 |              0 |        0 | gt_inst/gtclk_inst/bufg_inst_0 |
+-----------+-----------------+-------------------+-----------+-------------+---------------+----------+-------------+----------+----------------+----------+--------------------------------+
* Slice Loads column represents load cell count of all cell types other than IO, GT and clock resources
** IO Loads column represents load cell count of IO types
*** Clocking Loads column represents load cell count that are clock resources (global clock buffer, MMCM, PLL, etc)
**** GT Loads column represents load cell count of GT types


+----+----+----+----+-----------+-----------------------+
|    | X0 | X1 | X2 | X3        | HORIZONTAL PROG DELAY |
+----+----+----+----+-----------+-----------------------+
| Y4 |  0 |  0 |  0 |         0 |                     - |
| Y3 |  0 |  0 |  0 |         0 |                     - |
| Y2 |  0 |  0 |  0 | (R) (D) 4 |                     0 |
| Y1 |  0 |  0 |  0 |         0 |                     - |
| Y0 |  0 |  0 |  0 |         0 |                     - |
+----+----+----+----+-----------+-----------------------+


18. Device Cell Placement Summary for Global Clock g10
------------------------------------------------------

+-----------+-----------------+-------------------+----------+-------------+---------------+----------+-------------+----------+----------------+----------+-------------------------------------+
| Global Id | Driver Type/Pin | Driver Region (D) | Clock    | Period (ns) | Waveform (ns) | Root (R) | Slice Loads | IO Loads | Clocking Loads | GT Loads | Net                                 |
+-----------+-----------------+-------------------+----------+-------------+---------------+----------+-------------+----------+----------------+----------+-------------------------------------+
| g10       | BUFG_GT/O       | X3Y4              | gtfanout |       4.167 | {0.000 2.083} | X3Y4     |           1 |        0 |              0 |        0 | DDMTD_inst/fanout_buf_inst/gtfanout |
+-----------+-----------------+-------------------+----------+-------------+---------------+----------+-------------+----------+----------------+----------+-------------------------------------+
* Slice Loads column represents load cell count of all cell types other than IO, GT and clock resources
** IO Loads column represents load cell count of IO types
*** Clocking Loads column represents load cell count that are clock resources (global clock buffer, MMCM, PLL, etc)
**** GT Loads column represents load cell count of GT types


+----+----+----+----+-----------+-----------------------+
|    | X0 | X1 | X2 | X3        | HORIZONTAL PROG DELAY |
+----+----+----+----+-----------+-----------------------+
| Y4 |  0 |  0 |  0 | (R) (D) 0 |                     - |
| Y3 |  0 |  0 |  0 |         0 |                     - |
| Y2 |  0 |  0 |  0 |         0 |                     - |
| Y1 |  0 |  0 |  0 |         0 |                     - |
| Y0 |  0 |  0 |  0 |         1 |                     0 |
+----+----+----+----+-----------+-----------------------+


19. Clock Region Cell Placement per Global Clock: Region X2Y0
-------------------------------------------------------------

+-----------+-------+-----------------+------------+-------------+-----------------+-----+-------------+------+-----+----+------+-----+---------+----------------------------+
| Global Id | Track | Driver Type/Pin | Constraint | Clock Loads | Non-Clock Loads | FF  | Memory LUTs | RAMB | DSP | GT | MMCM | PLL | Hard IP | Net                        |
+-----------+-------+-----------------+------------+-------------+-----------------+-----+-------------+------+-----+----+------+-----+---------+----------------------------+
| g0        | 0     | BUFGCE/O        | None       |         625 |               0 | 621 |           4 |    0 |   0 |  0 |    0 |   0 |       0 | sys_clk_inst/clk_sys       |
| g3+       | 2     | BUFG_GT/O       | None       |           0 |               0 |   0 |           0 |    0 |   0 |  0 |    0 |   0 |       0 | gt_inst/gt_o[0][rx_usrclk] |
+-----------+-------+-----------------+------------+-------------+-----------------+-----+-------------+------+-----+----+------+-----+---------+----------------------------+
* Clock Loads column represents the clock pin loads (pin count). Internal cell leaf pins are not counted
** Non-Clock Loads column represents the non-clock pin loads (pin count)
*** Columns FF, LUTRAM, RAMB through 'Hard IP' represents load cell counts
**** In Global Id column, sympbol '+' indicates that global clock was used only to route through the clock region.


20. Clock Region Cell Placement per Global Clock: Region X3Y0
-------------------------------------------------------------

+-----------+-------+-----------------+------------+-------------+-----------------+------+-------------+------+-----+----+------+-----+---------+---------------------------------------+
| Global Id | Track | Driver Type/Pin | Constraint | Clock Loads | Non-Clock Loads | FF   | Memory LUTs | RAMB | DSP | GT | MMCM | PLL | Hard IP | Net                                   |
+-----------+-------+-----------------+------------+-------------+-----------------+------+-------------+------+-----+----+------+-----+---------+---------------------------------------+
| g0        | 0     | BUFGCE/O        | None       |        1105 |               0 | 1097 |           8 |    0 |   0 |  0 |    0 |   0 |       0 | sys_clk_inst/clk_sys                  |
| g3        | 2     | BUFG_GT/O       | None       |           0 |               1 |    1 |           0 |    0 |   0 |  0 |    0 |   0 |       0 | gt_inst/gt_o[0][rx_usrclk]            |
| g7        | 1     | BUFG_GT/O       | None       |         178 |               0 |  178 |           0 |    0 |   0 |  0 |    0 |   0 |       0 | DDMTD_inst/ddmtdclk_buf_inst/clk_dmtd |
| g10       | 10    | BUFG_GT/O       | None       |           0 |               1 |    1 |           0 |    0 |   0 |  0 |    0 |   0 |       0 | DDMTD_inst/fanout_buf_inst/gtfanout   |
+-----------+-------+-----------------+------------+-------------+-----------------+------+-------------+------+-----+----+------+-----+---------+---------------------------------------+
* Clock Loads column represents the clock pin loads (pin count). Internal cell leaf pins are not counted
** Non-Clock Loads column represents the non-clock pin loads (pin count)
*** Columns FF, LUTRAM, RAMB through 'Hard IP' represents load cell counts


21. Clock Region Cell Placement per Global Clock: Region X2Y1
-------------------------------------------------------------

+-----------+-------+-----------------+------------+-------------+-----------------+------+-------------+------+-----+----+------+-----+---------+--------------------------------------------------------------------------------------------------+
| Global Id | Track | Driver Type/Pin | Constraint | Clock Loads | Non-Clock Loads | FF   | Memory LUTs | RAMB | DSP | GT | MMCM | PLL | Hard IP | Net                                                                                              |
+-----------+-------+-----------------+------------+-------------+-----------------+------+-------------+------+-----+----+------+-----+---------+--------------------------------------------------------------------------------------------------+
| g0        | 0     | BUFGCE/O        | None       |        2696 |               0 | 2656 |          40 |    0 |   0 |  0 |    0 |   0 |       0 | sys_clk_inst/clk_sys                                                                             |
| g1        | 4     | BUFG_GT/O       | None       |          30 |               0 |   30 |           0 |    0 |   0 |  0 |    0 |   0 |       0 | AXI_inst/system_ctrl_inst/udp_bridge_control/mac_pcs_pma_i/PCS_PMA_i/U0/core_clocking_i/userclk2 |
| g3        | 2     | BUFG_GT/O       | None       |           1 |               0 |    0 |           0 |    0 |   0 |  0 |    0 |   0 |       0 | gt_inst/gt_o[0][rx_usrclk]                                                                       |
+-----------+-------+-----------------+------------+-------------+-----------------+------+-------------+------+-----+----+------+-----+---------+--------------------------------------------------------------------------------------------------+
* Clock Loads column represents the clock pin loads (pin count). Internal cell leaf pins are not counted
** Non-Clock Loads column represents the non-clock pin loads (pin count)
*** Columns FF, LUTRAM, RAMB through 'Hard IP' represents load cell counts


22. Clock Region Cell Placement per Global Clock: Region X3Y1
-------------------------------------------------------------

+-----------+-------+-----------------+------------+-------------+-----------------+------+-------------+------+-----+----+------+-----+---------+--------------------------------------------------------------------------------------------------+
| Global Id | Track | Driver Type/Pin | Constraint | Clock Loads | Non-Clock Loads | FF   | Memory LUTs | RAMB | DSP | GT | MMCM | PLL | Hard IP | Net                                                                                              |
+-----------+-------+-----------------+------------+-------------+-----------------+------+-------------+------+-----+----+------+-----+---------+--------------------------------------------------------------------------------------------------+
| g0        | 0     | BUFGCE/O        | None       |        4315 |               0 | 4247 |          67 |    1 |   0 |  0 |    0 |   0 |       0 | sys_clk_inst/clk_sys                                                                             |
| g1        | 4     | BUFG_GT/O       | None       |        2179 |               0 | 2134 |          44 |    1 |   0 |  0 |    0 |   0 |       0 | AXI_inst/system_ctrl_inst/udp_bridge_control/mac_pcs_pma_i/PCS_PMA_i/U0/core_clocking_i/userclk2 |
| g6        | 23    | BUFGCE/O        | None       |           5 |               0 |    5 |           0 |    0 |   0 |  0 |    0 |   0 |       0 | AXI_inst/system_ctrl_inst/udp_bridge_control/clk_pcs_pma_62_5_i/inst/freerun_clk_62_5_BUFGCE     |
| g7        | 1     | BUFG_GT/O       | None       |           4 |               0 |    4 |           0 |    0 |   0 |  0 |    0 |   0 |       0 | DDMTD_inst/ddmtdclk_buf_inst/clk_dmtd                                                            |
| g10+      | 10    | BUFG_GT/O       | None       |           0 |               0 |    0 |           0 |    0 |   0 |  0 |    0 |   0 |       0 | DDMTD_inst/fanout_buf_inst/gtfanout                                                              |
+-----------+-------+-----------------+------------+-------------+-----------------+------+-------------+------+-----+----+------+-----+---------+--------------------------------------------------------------------------------------------------+
* Clock Loads column represents the clock pin loads (pin count). Internal cell leaf pins are not counted
** Non-Clock Loads column represents the non-clock pin loads (pin count)
*** Columns FF, LUTRAM, RAMB through 'Hard IP' represents load cell counts
**** In Global Id column, sympbol '+' indicates that global clock was used only to route through the clock region.


23. Clock Region Cell Placement per Global Clock: Region X1Y2
-------------------------------------------------------------

+-----------+-------+-----------------+------------+-------------+-----------------+----+-------------+------+-----+----+------+-----+---------+--------------------------------------------------------------------------------------------------+
| Global Id | Track | Driver Type/Pin | Constraint | Clock Loads | Non-Clock Loads | FF | Memory LUTs | RAMB | DSP | GT | MMCM | PLL | Hard IP | Net                                                                                              |
+-----------+-------+-----------------+------------+-------------+-----------------+----+-------------+------+-----+----+------+-----+---------+--------------------------------------------------------------------------------------------------+
| g0        | 0     | BUFGCE/O        | None       |           3 |               0 |  3 |           0 |    0 |   0 |  0 |    0 |   0 |       0 | sys_clk_inst/clk_sys                                                                             |
| g1        | 4     | BUFG_GT/O       | None       |           3 |               0 |  3 |           0 |    0 |   0 |  0 |    0 |   0 |       0 | AXI_inst/system_ctrl_inst/udp_bridge_control/mac_pcs_pma_i/PCS_PMA_i/U0/core_clocking_i/userclk2 |
| g3        | 2     | BUFG_GT/O       | None       |           3 |               0 |  3 |           0 |    0 |   0 |  0 |    0 |   0 |       0 | gt_inst/gt_o[0][rx_usrclk]                                                                       |
| g4        | 7     | BUFG_GT/O       | None       |           3 |               0 |  3 |           0 |    0 |   0 |  0 |    0 |   0 |       0 | gt_inst/gt_o[0][tx_usrclk]                                                                       |
+-----------+-------+-----------------+------------+-------------+-----------------+----+-------------+------+-----+----+------+-----+---------+--------------------------------------------------------------------------------------------------+
* Clock Loads column represents the clock pin loads (pin count). Internal cell leaf pins are not counted
** Non-Clock Loads column represents the non-clock pin loads (pin count)
*** Columns FF, LUTRAM, RAMB through 'Hard IP' represents load cell counts


24. Clock Region Cell Placement per Global Clock: Region X2Y2
-------------------------------------------------------------

+-----------+-------+-----------------+------------+-------------+-----------------+----+-------------+------+-----+----+------+-----+---------+--------------------------------------------------------------------------------------------------+
| Global Id | Track | Driver Type/Pin | Constraint | Clock Loads | Non-Clock Loads | FF | Memory LUTs | RAMB | DSP | GT | MMCM | PLL | Hard IP | Net                                                                                              |
+-----------+-------+-----------------+------------+-------------+-----------------+----+-------------+------+-----+----+------+-----+---------+--------------------------------------------------------------------------------------------------+
| g0        | 0     | BUFGCE/O        | None       |          61 |               1 | 61 |           0 |    0 |   0 |  0 |    1 |   0 |       0 | sys_clk_inst/clk_sys                                                                             |
| g1        | 4     | BUFG_GT/O       | None       |          14 |               0 | 14 |           0 |    0 |   0 |  0 |    0 |   0 |       0 | AXI_inst/system_ctrl_inst/udp_bridge_control/mac_pcs_pma_i/PCS_PMA_i/U0/core_clocking_i/userclk2 |
| g3        | 2     | BUFG_GT/O       | None       |           3 |               0 |  3 |           0 |    0 |   0 |  0 |    0 |   0 |       0 | gt_inst/gt_o[0][rx_usrclk]                                                                       |
| g4        | 7     | BUFG_GT/O       | None       |           3 |               0 |  3 |           0 |    0 |   0 |  0 |    0 |   0 |       0 | gt_inst/gt_o[0][tx_usrclk]                                                                       |
| g5        | 6     | BUFGCE/O        | None       |          16 |               0 | 16 |           0 |    0 |   0 |  0 |    0 |   0 |       0 | dbg_hub/inst/BSCANID.u_xsdbm_id/itck_i                                                           |
| g6+       | 23    | BUFGCE/O        | None       |           0 |               0 |  0 |           0 |    0 |   0 |  0 |    0 |   0 |       0 | AXI_inst/system_ctrl_inst/udp_bridge_control/clk_pcs_pma_62_5_i/inst/freerun_clk_62_5_BUFGCE     |
+-----------+-------+-----------------+------------+-------------+-----------------+----+-------------+------+-----+----+------+-----+---------+--------------------------------------------------------------------------------------------------+
* Clock Loads column represents the clock pin loads (pin count). Internal cell leaf pins are not counted
** Non-Clock Loads column represents the non-clock pin loads (pin count)
*** Columns FF, LUTRAM, RAMB through 'Hard IP' represents load cell counts
**** In Global Id column, sympbol '+' indicates that global clock was used only to route through the clock region.


25. Clock Region Cell Placement per Global Clock: Region X3Y2
-------------------------------------------------------------

+-----------+-------+-----------------+------------+-------------+-----------------+------+-------------+------+-----+----+------+-----+---------+--------------------------------------------------------------------------------------------------------+
| Global Id | Track | Driver Type/Pin | Constraint | Clock Loads | Non-Clock Loads | FF   | Memory LUTs | RAMB | DSP | GT | MMCM | PLL | Hard IP | Net                                                                                                    |
+-----------+-------+-----------------+------------+-------------+-----------------+------+-------------+------+-----+----+------+-----+---------+--------------------------------------------------------------------------------------------------------+
| g0        | 0     | BUFGCE/O        | None       |        5892 |               0 | 5685 |         199 |    6 |   0 |  1 |    0 |   0 |       0 | sys_clk_inst/clk_sys                                                                                   |
| g1        | 4     | BUFG_GT/O       | None       |         532 |               0 |  524 |           8 |    0 |   0 |  0 |    0 |   0 |       0 | AXI_inst/system_ctrl_inst/udp_bridge_control/mac_pcs_pma_i/PCS_PMA_i/U0/core_clocking_i/userclk2       |
| g3        | 2     | BUFG_GT/O       | None       |         983 |               0 |  840 |         138 |    4 |   0 |  1 |    0 |   0 |       0 | gt_inst/gt_o[0][rx_usrclk]                                                                             |
| g4        | 7     | BUFG_GT/O       | None       |          69 |               0 |   68 |           0 |    0 |   0 |  1 |    0 |   0 |       0 | gt_inst/gt_o[0][tx_usrclk]                                                                             |
| g5        | 6     | BUFGCE/O        | None       |         322 |               0 |  319 |           3 |    0 |   0 |  0 |    0 |   0 |       0 | dbg_hub/inst/BSCANID.u_xsdbm_id/itck_i                                                                 |
| g6        | 23    | BUFGCE/O        | None       |         243 |               0 |  243 |           0 |    0 |   0 |  0 |    0 |   0 |       0 | AXI_inst/system_ctrl_inst/udp_bridge_control/clk_pcs_pma_62_5_i/inst/freerun_clk_62_5_BUFGCE           |
| g7+       | 1     | BUFG_GT/O       | None       |           0 |               0 |    0 |           0 |    0 |   0 |  0 |    0 |   0 |       0 | DDMTD_inst/ddmtdclk_buf_inst/clk_dmtd                                                                  |
| g2        | 3     | BUFG_GT/O       | None       |          59 |               0 |   58 |           0 |    0 |   0 |  1 |    0 |   0 |       0 | AXI_inst/system_ctrl_inst/udp_bridge_control/mac_pcs_pma_i/PCS_PMA_i/U0/core_clocking_i/userclk        |
| g8        | 5     | BUFG_GT/O       | None       |           8 |               0 |    8 |           0 |    0 |   0 |  0 |    0 |   0 |       0 | AXI_inst/system_ctrl_inst/udp_bridge_control/mac_pcs_pma_i/PCS_PMA_i/U0/core_clocking_i/rxuserclk2_out |
| g9        | 9     | BUFG_GT/O       | None       |           4 |               0 |    4 |           0 |    0 |   0 |  0 |    0 |   0 |       0 | gt_inst/gtclk_inst/bufg_inst_0                                                                         |
| g10+      | 10    | BUFG_GT/O       | None       |           0 |               0 |    0 |           0 |    0 |   0 |  0 |    0 |   0 |       0 | DDMTD_inst/fanout_buf_inst/gtfanout                                                                    |
+-----------+-------+-----------------+------------+-------------+-----------------+------+-------------+------+-----+----+------+-----+---------+--------------------------------------------------------------------------------------------------------+
* Clock Loads column represents the clock pin loads (pin count). Internal cell leaf pins are not counted
** Non-Clock Loads column represents the non-clock pin loads (pin count)
*** Columns FF, LUTRAM, RAMB through 'Hard IP' represents load cell counts
**** In Global Id column, sympbol '+' indicates that global clock was used only to route through the clock region.


26. Clock Region Cell Placement per Global Clock: Region X2Y3
-------------------------------------------------------------

+-----------+-------+-----------------+------------+-------------+-----------------+----+-------------+------+-----+----+------+-----+---------+----------------------------------------+
| Global Id | Track | Driver Type/Pin | Constraint | Clock Loads | Non-Clock Loads | FF | Memory LUTs | RAMB | DSP | GT | MMCM | PLL | Hard IP | Net                                    |
+-----------+-------+-----------------+------------+-------------+-----------------+----+-------------+------+-----+----+------+-----+---------+----------------------------------------+
| g0+       | 0     | BUFGCE/O        | None       |           0 |               0 |  0 |           0 |    0 |   0 |  0 |    0 |   0 |       0 | sys_clk_inst/clk_sys                   |
| g3        | 2     | BUFG_GT/O       | None       |           2 |               0 |  1 |           0 |    0 |   0 |  0 |    0 |   0 |       0 | gt_inst/gt_o[0][rx_usrclk]             |
| g4+       | 7     | BUFG_GT/O       | None       |           0 |               0 |  0 |           0 |    0 |   0 |  0 |    0 |   0 |       0 | gt_inst/gt_o[0][tx_usrclk]             |
| g5+       | 6     | BUFGCE/O        | None       |           0 |               0 |  0 |           0 |    0 |   0 |  0 |    0 |   0 |       0 | dbg_hub/inst/BSCANID.u_xsdbm_id/itck_i |
+-----------+-------+-----------------+------------+-------------+-----------------+----+-------------+------+-----+----+------+-----+---------+----------------------------------------+
* Clock Loads column represents the clock pin loads (pin count). Internal cell leaf pins are not counted
** Non-Clock Loads column represents the non-clock pin loads (pin count)
*** Columns FF, LUTRAM, RAMB through 'Hard IP' represents load cell counts
**** In Global Id column, sympbol '+' indicates that global clock was used only to route through the clock region.


27. Clock Region Cell Placement per Global Clock: Region X3Y3
-------------------------------------------------------------

+-----------+-------+-----------------+------------+-------------+-----------------+------+-------------+------+-----+----+------+-----+---------+----------------------------------------+
| Global Id | Track | Driver Type/Pin | Constraint | Clock Loads | Non-Clock Loads | FF   | Memory LUTs | RAMB | DSP | GT | MMCM | PLL | Hard IP | Net                                    |
+-----------+-------+-----------------+------------+-------------+-----------------+------+-------------+------+-----+----+------+-----+---------+----------------------------------------+
| g0        | 0     | BUFGCE/O        | None       |        1286 |               0 | 1253 |          30 |    3 |   0 |  0 |    0 |   0 |       0 | sys_clk_inst/clk_sys                   |
| g3        | 2     | BUFG_GT/O       | None       |           4 |               0 |    4 |           0 |    0 |   0 |  0 |    0 |   0 |       0 | gt_inst/gt_o[0][rx_usrclk]             |
| g4        | 7     | BUFG_GT/O       | None       |         489 |               0 |  413 |          73 |    3 |   0 |  0 |    0 |   0 |       0 | gt_inst/gt_o[0][tx_usrclk]             |
| g5        | 6     | BUFGCE/O        | None       |         159 |               0 |  159 |           0 |    0 |   0 |  0 |    0 |   0 |       0 | dbg_hub/inst/BSCANID.u_xsdbm_id/itck_i |
| g7+       | 1     | BUFG_GT/O       | None       |           0 |               0 |    0 |           0 |    0 |   0 |  0 |    0 |   0 |       0 | DDMTD_inst/ddmtdclk_buf_inst/clk_dmtd  |
| g10+      | 10    | BUFG_GT/O       | None       |           0 |               0 |    0 |           0 |    0 |   0 |  0 |    0 |   0 |       0 | DDMTD_inst/fanout_buf_inst/gtfanout    |
+-----------+-------+-----------------+------------+-------------+-----------------+------+-------------+------+-----+----+------+-----+---------+----------------------------------------+
* Clock Loads column represents the clock pin loads (pin count). Internal cell leaf pins are not counted
** Non-Clock Loads column represents the non-clock pin loads (pin count)
*** Columns FF, LUTRAM, RAMB through 'Hard IP' represents load cell counts
**** In Global Id column, sympbol '+' indicates that global clock was used only to route through the clock region.


