Copyright 1986-2022 Xilinx, Inc. All Rights Reserved.
---------------------------------------------------------------------------------------------------------
| Tool Version : Vivado v.2022.1 (win64) Build 3526262 Mon Apr 18 15:48:16 MDT 2022
| Date         : Sun Aug  6 00:33:12 2023
| Host         : PCPHESE71 running 64-bit major release  (build 9200)
| Command      : report_drc -file m_top_drc_routed.rpt -pb m_top_drc_routed.pb -rpx m_top_drc_routed.rpx
| Design       : m_top
| Device       : xcvu9p-flga2104-2L-e
| Speed File   : -2L
| Design State : Fully Routed
---------------------------------------------------------------------------------------------------------

Report DRC

Table of Contents
-----------------
1. REPORT SUMMARY
2. REPORT DETAILS

1. REPORT SUMMARY
-----------------
            Netlist: netlist
          Floorplan: design_1
      Design limits: <entire design considered>
           Ruledeck: default
             Max violations: <unlimited>
             Violations found: 5
+-----------+----------+--------------------------+------------+
| Rule      | Severity | Description              | Violations |
+-----------+----------+--------------------------+------------+
| BUFC-1    | Warning  | Input Buffer Connections | 1          |
| PDCN-1569 | Warning  | LUT equation term check  | 3          |
| RTSTAT-10 | Warning  | No routable loads        | 1          |
+-----------+----------+--------------------------+------------+

2. REPORT DETAILS
-----------------
BUFC-1#1 Warning
Input Buffer Connections  
Input buffer AXI_inst/system_ctrl_inst/udp_bridge_control/mac_pcs_pma_i/phy_cfgrt/mdio_3st/IBUFCTRL_INST (in AXI_inst/system_ctrl_inst/udp_bridge_control/mac_pcs_pma_i/phy_cfgrt/mdio_3st macro) has no loads. It is recommended to have an input buffer drive an internal load.
Related violations: <none>

PDCN-1569#1 Warning
LUT equation term check  
Used physical LUT pin 'A1' of cell dbg_hub/inst/BSCANID.u_xsdbm_id/SWITCH_N_EXT_BSCAN.bscan_switch/temp_curid[31]_i_1 (pin dbg_hub/inst/BSCANID.u_xsdbm_id/SWITCH_N_EXT_BSCAN.bscan_switch/temp_curid[31]_i_1/I0) is not included in the LUT equation: 'O5=(A2*A5)+(A2*(~A5)*(~A3))+((~A2))'. If this cell is a user instantiated LUT in the design, please remove connectivity to the pin or change the equation and/or INIT string of the LUT to prevent this issue. If the cell is inferred or IP created LUT, please regenerate the IP and/or resynthesize the design to attempt to correct the issue.
Related violations: <none>

PDCN-1569#2 Warning
LUT equation term check  
Used physical LUT pin 'A4' of cell dbg_hub/inst/BSCANID.u_xsdbm_id/SWITCH_N_EXT_BSCAN.bscan_switch/temp_curid[31]_i_1 (pin dbg_hub/inst/BSCANID.u_xsdbm_id/SWITCH_N_EXT_BSCAN.bscan_switch/temp_curid[31]_i_1/I1) is not included in the LUT equation: 'O5=(A2*A5)+(A2*(~A5)*(~A3))+((~A2))'. If this cell is a user instantiated LUT in the design, please remove connectivity to the pin or change the equation and/or INIT string of the LUT to prevent this issue. If the cell is inferred or IP created LUT, please regenerate the IP and/or resynthesize the design to attempt to correct the issue.
Related violations: <none>

PDCN-1569#3 Warning
LUT equation term check  
Used physical LUT pin 'A5' of cell dbg_hub/inst/BSCANID.u_xsdbm_id/SWITCH_N_EXT_BSCAN.id_state[0]_i_1 (pin dbg_hub/inst/BSCANID.u_xsdbm_id/SWITCH_N_EXT_BSCAN.id_state[0]_i_1/I0) is not included in the LUT equation: 'O6=(A6+~A6)*((A4))'. If this cell is a user instantiated LUT in the design, please remove connectivity to the pin or change the equation and/or INIT string of the LUT to prevent this issue. If the cell is inferred or IP created LUT, please regenerate the IP and/or resynthesize the design to attempt to correct the issue.
Related violations: <none>

RTSTAT-10#1 Warning
No routable loads  
696 net(s) have no routable loads. The problem bus(es) and/or net(s) are AXI_inst/system_ctrl_inst/udp_bridge_control/mac_pcs_pma_i/PCS_PMA_i/inst/clock_reset_i/Rx_BtVal_0[0],
AXI_inst/system_ctrl_inst/udp_bridge_control/mac_pcs_pma_i/PCS_PMA_i/inst/clock_reset_i/Rx_BtVal_0[1],
AXI_inst/system_ctrl_inst/udp_bridge_control/mac_pcs_pma_i/PCS_PMA_i/inst/clock_reset_i/Rx_BtVal_0[2],
AXI_inst/system_ctrl_inst/udp_bridge_control/mac_pcs_pma_i/PCS_PMA_i/inst/clock_reset_i/Rx_BtVal_1[8:0],
AXI_inst/system_ctrl_inst/udp_bridge_control/mac_pcs_pma_i/PCS_PMA_i/inst/clock_reset_i/Rx_BtVal_2[8:0],
AXI_inst/system_ctrl_inst/udp_bridge_control/mac_pcs_pma_i/PCS_PMA_i/inst/clock_reset_i/Rx_BtVal_3[8:0],
AXI_inst/system_ctrl_inst/udp_bridge_control/mac_pcs_pma_i/PCS_PMA_i/inst/pcs_pma_block_i/gen_io_logic/BaseX_Byte_I_Rx_Nibble/Rx_CntValueOut[17:0],
AXI_inst/system_ctrl_inst/udp_bridge_control/mac_pcs_pma_i/PCS_PMA_i/inst/pcs_pma_block_i/gen_io_logic/BaseX_Byte_I_Rx_Nibble/Rx_Q_CombOut[6:0],
AXI_inst/system_ctrl_inst/udp_bridge_control/mac_pcs_pma_i/PCS_PMA_i/inst/pcs_pma_block_i/gen_io_logic/BaseX_Byte_I_Rx_Nibble/Rx_Q_Out[10],
AXI_inst/system_ctrl_inst/udp_bridge_control/mac_pcs_pma_i/PCS_PMA_i/inst/pcs_pma_block_i/gen_io_logic/BaseX_Byte_I_Rx_Nibble/Rx_Q_Out[11],
AXI_inst/system_ctrl_inst/udp_bridge_control/mac_pcs_pma_i/PCS_PMA_i/inst/pcs_pma_block_i/gen_io_logic/BaseX_Byte_I_Rx_Nibble/Rx_Q_Out[12],
AXI_inst/system_ctrl_inst/udp_bridge_control/mac_pcs_pma_i/PCS_PMA_i/inst/pcs_pma_block_i/gen_io_logic/BaseX_Byte_I_Rx_Nibble/Rx_Q_Out[13],
AXI_inst/system_ctrl_inst/udp_bridge_control/mac_pcs_pma_i/PCS_PMA_i/inst/pcs_pma_block_i/gen_io_logic/BaseX_Byte_I_Rx_Nibble/Rx_Q_Out[8],
AXI_inst/system_ctrl_inst/udp_bridge_control/mac_pcs_pma_i/PCS_PMA_i/inst/pcs_pma_block_i/gen_io_logic/BaseX_Byte_I_Rx_Nibble/Rx_Q_Out[9],
AXI_inst/system_ctrl_inst/udp_bridge_control/mac_pcs_pma_i/PCS_PMA_i/inst/pcs_pma_block_i/gen_io_logic/BaseX_Riu_Valid
 (the first 15 of 259 listed nets/buses).
Related violations: <none>


