Time,Legal,wasIllegal,LOLs,Valid,Slides,N reset,Temp,ambient T,N,Mean [s],Range [s],StdD [s],N C,Mean C,Range C,StdD C,N fo,Mean fo,Range fo,StdD fo,ddmtd,range dd,stdD dd,timeTook 100k,txpi_steps,desired_shift,step_done,ali_done,undo_step,undo,dmtd h,range dd h,error,error_h
2023-08-03 13:53:43.990203,1,True,0,1,10,0,619,26.57,1.56000E+05,1.4231088E-09,1.861999999999988e-11,2.5387E-12,1.56000E+05,6.372438E-10,9.970000000000018e-12,1.1626E-12,1.56000E+05,3.407137E-10,1.6200000000000006e-11,1.8438E-12,4.110801154909161e-09,19.271636318179844,2.4786488782288805,4.921287,29,46.622727336028944,1,0,0,0,5.005276261509425e-11,12.326902509826795,False,False
2023-08-03 13:54:02.649178,1,True,0,1,10,0,619,26.57,1.56000E+05,1.4231440E-09,1.864999999999993e-11,2.5364E-12,1.56000E+05,6.370949E-10,1.0120000000000064e-11,1.1493E-12,1.56000E+05,3.404323E-10,1.614999999999999e-11,1.7929E-12,4.110885679264428e-09,17.535452866090964,2.4894326239400537,5.021023,0,46.622727336028944,0,0,0,0,4.9729848118653884e-11,13.36861258107976,False,False
2023-08-03 13:54:47.054078,1,True,0,1,28,1,619,26.59,1.48000E+05,1.2162169E-09,1.7079999999999904e-11,2.4159E-12,1.48000E+05,6.308053E-10,8.639999999999983e-12,1.0782E-12,1.48000E+05,3.403686E-10,1.6369999999999965e-11,1.8196E-12,3.909585774407273e-09,19.44525466338837,2.6442174618980516,4.972416,33,53.69412614429906,1,0,0,0,4.9950598636038355e-11,12.153284164617972,False,False
2023-08-03 13:55:05.674691,1,True,0,1,28,1,619,26.6,1.56000E+05,1.2160995E-09,1.7879999999999942e-11,2.4326E-12,1.56000E+05,6.308030E-10,9.60000000000005e-12,1.0874E-12,1.56000E+05,3.402430E-10,1.526999999999999e-11,1.7907E-12,3.909613343264301e-09,20.13972804422383,2.6505498816726476,4.966583,0,53.69412614429906,0,0,0,0,5.0038574523923004e-11,12.326902509826795,False,False
2023-08-03 13:55:52.630010,1,True,0,1,18,2,619,26.6,1.56000E+05,2.8821424E-09,1.92000000000001e-11,2.5172E-12,1.56000E+05,6.366669E-10,9.33999999999999e-12,1.1957E-12,1.56000E+05,3.400391E-10,1.682e-11,1.8183E-12,1.402433663903074e-09,18.40354459213586,2.6396262847195326,4.904613,29,47.04129686011767,1,0,0,0,4.966843410140225e-11,12.500520855035631,False,False
2023-08-03 13:56:11.231900,1,True,0,1,18,2,619,26.57,1.56000E+05,2.8820069E-09,1.927000000000008e-11,2.5110E-12,1.56000E+05,6.368708E-10,1.0359999999999952e-11,1.1569E-12,1.56000E+05,3.401169E-10,1.5380000000000003e-11,1.7941E-12,1.4023693070548088e-09,18.92439962776234,2.618736531384299,4.885118,0,47.04129686011767,0,0,0,0,5.018403370972243e-11,12.674139200244454,False,False
2023-08-03 13:56:56.416760,1,True,0,1,6,3,619,26.57,1.52000E+05,3.2996797E-09,1.813999999999969e-11,2.3926E-12,1.52000E+05,6.371636E-10,1.0200000000000027e-11,1.1600E-12,1.52000E+05,3.403397E-10,1.7149999999999987e-11,1.8391E-12,1.8198999281215491e-09,19.792491353806327,2.7015714071619352,4.911842,29,47.88429899827209,1,0,0,0,4.9902530660982505e-11,12.500520855035617,False,False
2023-08-03 13:57:13.305566,1,True,0,1,6,3,619,26.6,1.48000E+05,3.2997397E-09,1.8049999999999953e-11,2.4093E-12,1.48000E+05,6.375342E-10,9.16999999999998e-12,1.1073E-12,1.48000E+05,3.410208E-10,1.6029999999999995e-11,1.7920E-12,1.8199525275354462e-09,20.486964734641788,2.7052747656218648,5.008233,0,47.88429899827209,0,0,0,0,5.0159379904701784e-11,12.847757545453277,False,False
2023-08-03 13:57:58.934678,1,True,0,1,24,4,619,26.59,1.56000E+05,1.4233462E-09,1.809999999999997e-11,2.5089E-12,1.56000E+05,6.378466E-10,8.89000000000006e-12,1.0157E-12,1.56000E+05,3.411433E-10,1.5559999999999996e-11,1.7565E-12,4.110843995235885e-09,17.36183452088244,2.5216133901617543,5.040305,29,46.82638165488042,1,0,0,0,4.9991812158821675e-11,12.674139200244454,False,False
2023-08-03 13:58:15.806096,1,True,0,1,24,4,619,26.57,1.48000E+05,1.4233657E-09,1.82600000000001e-11,2.5452E-12,1.48000E+05,6.375570E-10,8.430000000000042e-12,1.0038E-12,1.48000E+05,3.409791E-10,1.5580000000000012e-11,1.7637E-12,4.110533687167548e-09,17.535452866091873,2.514047835585798,4.961313,0,46.82638165488042,0,0,0,0,5.018147283913128e-11,12.153284164617972,False,False
2023-08-03 13:59:03.179237,1,True,0,1,6,5,619,26.6,1.56000E+05,2.6746795E-09,1.8620000000000087e-11,2.3922E-12,1.56000E+05,6.385322E-10,1.0070000000000049e-11,1.0696E-12,1.56000E+05,3.418119E-10,1.621999999999997e-11,1.8293E-12,1.193780560301425e-09,19.09801797297132,2.674424748341456,4.908193,29,46.79051731365563,1,0,0,0,4.983218745224025e-11,12.326902509826809,False,False
2023-08-03 13:59:21.829231,1,True,0,1,6,5,619,26.58,1.56000E+05,2.6747492E-09,1.7989999999999852e-11,2.4129E-12,1.56000E+05,6.382532E-10,8.239999999999963e-12,1.0386E-12,1.56000E+05,3.417057E-10,1.520000000000001e-11,1.7562E-12,1.1937229780410359e-09,19.792491353806327,2.674964322081533,4.951457,0,46.79051731365563,0,0,0,0,5.013078149087891e-11,13.194994235870936,False,False
2023-08-03 14:00:09.205375,1,True,0,1,12,6,619,26.68,1.56000E+05,3.817400E-10,1.799999999999999e-11,2.5466E-12,1.56000E+05,6.369922E-10,9.500000000000019e-12,1.1148E-12,1.56000E+05,3.402801E-10,1.6409999999999998e-11,1.8064E-12,3.0693490700999533e-09,20.139728044224285,2.712505693470509,4.991257,29,47.30535126450651,1,0,0,0,5.022442601773689e-11,12.500520855035631,False,False
2023-08-03 14:00:27.388711,1,True,0,1,12,6,619,26.67,1.56000E+05,3.820488E-10,1.8379999999999992e-11,2.5539E-12,1.56000E+05,6.376960E-10,9.349999999999973e-12,1.1867E-12,1.56000E+05,3.409422E-10,1.6070000000000028e-11,1.8585E-12,3.0691112824143507e-09,20.486964734641333,2.7188845435152555,5.01156,0,47.30535126450651,0,0,0,0,4.977174396153599e-11,12.500520855035617,False,False
2023-08-03 14:01:12.681976,1,True,0,1,2,7,619,26.66,1.48000E+05,1.8411748E-09,1.7319999999999895e-11,2.4891E-12,1.48000E+05,6.312588E-10,9.330000000000008e-12,1.0673E-12,1.48000E+05,3.409594E-10,1.6529999999999994e-11,1.7918E-12,3.6696377105980415e-10,22.917621567565334,2.683919744669178,4.887515,33,53.09897981867174,1,0,0,0,5.020098927731609e-11,12.326902509826795,False,False
2023-08-03 14:01:31.301678,1,True,0,1,2,7,619,26.6,1.56000E+05,1.8411473E-09,1.7650000000000037e-11,2.4560E-12,1.56000E+05,6.315791E-10,9.500000000000019e-12,1.1361E-12,1.56000E+05,3.411573E-10,1.6399999999999964e-11,1.8534E-12,3.66853181382457e-10,20.139728044224057,2.702096501367716,4.921741,0,53.09897981867174,0,0,0,0,5.0120741141975786e-11,12.326902509826795,False,False
2023-08-03 14:02:18.303437,1,True,0,1,4,8,619,26.63,1.56000E+05,1.4233129E-09,1.85499999999999e-11,2.5363E-12,1.56000E+05,6.317602E-10,9.70999999999996e-12,1.2813E-12,1.56000E+05,3.398868E-10,1.780000000000003e-11,1.9303E-12,4.1157377668515974e-09,4166.8402850118755,146.98241406689016,4.904464,32,51.90166430574736,1,0,0,0,4.987432983317202e-11,12.153284164617972,False,False
2023-08-03 14:02:36.938280,1,True,0,1,4,8,619,26.62,1.56000E+05,1.4231510E-09,1.805000000000016e-11,2.5413E-12,1.56000E+05,6.320520E-10,1.0149999999999908e-11,1.1884E-12,1.56000E+05,3.402453E-10,1.6239999999999987e-11,1.8084E-12,4.115747833243071e-09,4166.8402850118755,145.7989739111871,4.980908,0,51.90166430574736,0,0,0,0,5.006923899605491e-11,12.847757545453277,False,False
2023-08-03 14:03:22.642220,1,True,0,1,24,9,619,26.63,1.48000E+05,5.903040E-10,1.9279999999999958e-11,2.5312E-12,1.48000E+05,6.311764E-10,9.569999999999999e-12,1.1414E-12,1.48000E+05,3.393729E-10,1.6029999999999995e-11,1.8212E-12,3.2828430368626178e-09,21.18143811547725,2.7908931536837467,4.800312,32,51.577805325442725,1,0,0,0,5.006856014832302e-11,12.674139200244454,False,False
2023-08-03 14:03:41.249484,1,True,0,1,24,9,619,26.6,1.56000E+05,5.901986E-10,1.82e-11,2.5402E-12,1.56000E+05,6.309711E-10,9.569999999999999e-12,1.1805E-12,1.56000E+05,3.389636E-10,1.627999999999997e-11,1.8567E-12,3.2830148200619974e-09,20.660583079850767,2.8053993280661063,4.868179,0,51.577805325442725,0,0,0,0,4.985325430224606e-11,12.847757545453291,False,False
2023-08-03 14:04:26.939425,1,True,0,1,32,10,619,26.6,1.48000E+05,2.2571086E-09,1.9000000000000038e-11,2.5344E-12,1.48000E+05,6.377586E-10,9.33999999999999e-12,1.1635E-12,1.48000E+05,3.410213E-10,1.6199999999999954e-11,1.8463E-12,7.771103205690159e-10,18.056307901718128,2.617323262486718,4.835554,29,46.68470214066092,1,0,0,0,5.003169229271907e-11,13.021375890662114,False,False
2023-08-03 14:04:45.507140,1,True,0,1,32,10,619,26.64,1.56000E+05,2.2571651E-09,1.8809999999999855e-11,2.5407E-12,1.56000E+05,6.376562E-10,9.440000000000021e-12,1.1426E-12,1.56000E+05,3.410490E-10,1.682e-11,1.7867E-12,7.764365147159963e-10,18.57716293734461,2.638568469405763,4.84573,0,46.68470214066092,0,0,0,0,5.01967026403721e-11,14.063085961915078,False,False
