verilog xil_defaultlib  \
"../../../../../../src/ip/m_gty/sim/gtwizard_ultrascale_v1_7_gtye4_channel.v" \
"../../../../../../src/ip/m_gty/sim/m_gty_gtye4_channel_wrapper.v" \
"../../../../../../src/ip/m_gty/sim/m_gty_gtwizard_gtye4.v" \
"../../../../../../src/ip/m_gty/sim/m_gty_gtwizard_top.v" \
"../../../../../../src/ip/m_gty/sim/m_gty.v" \

verilog xil_defaultlib "glbl.v"

nosort
