xpm_cdc.sv,systemverilog,xpm,../../../../2022.1/data/ip/xpm/xpm_cdc/hdl/xpm_cdc.sv,incdir="../../../../cpll_ex.gen/sources_1/ip/vio_0/hdl/verilog"incdir="../../../../cpll_ex.gen/sources_1/ip/vio_0/hdl"
xpm_VCOMP.vhd,vhdl,xpm,../../../../2022.1/data/ip/xpm/xpm_VCOMP.vhd,incdir="../../../../cpll_ex.gen/sources_1/ip/vio_0/hdl/verilog"incdir="../../../../cpll_ex.gen/sources_1/ip/vio_0/hdl"
vio_0.vhd,vhdl,xil_defaultlib,../../../../cpll_ex.gen/sources_1/ip/vio_0/sim/vio_0.vhd,incdir="../../../../cpll_ex.gen/sources_1/ip/vio_0/hdl/verilog"incdir="../../../../cpll_ex.gen/sources_1/ip/vio_0/hdl"
glbl.v,Verilog,xil_defaultlib,glbl.v
