Time,ambient T,step,N fo,Mean fo,Range fo,StdD fo,ddmtd,range,stdDev,timeTook
2023-05-25 17:00:44.024177,24.35,0,5.99975E+05,1.5982261E-09,1.0139999999999926e-11,1.0835E-12,1.966140189868852e-09,16.14650610442004,1.948281296915999,4.846192
2023-05-25 17:01:06.676054,24.37,0,5.99975E+05,1.5982917E-09,1.0250000000000042e-11,1.0921E-12,1.965924074961343e-09,17.535452866091873,1.9831905284482438,4.850783
2023-05-25 17:01:29.430457,24.34,0,5.99975E+05,1.5979872E-09,1.0409999999999967e-11,1.1124E-12,1.9660295481059648e-09,17.188216175673915,1.9712963204380989,4.832237
2023-05-25 17:01:52.253146,24.28,0,5.99975E+05,1.5982390E-09,1.0629999999999993e-11,1.1313E-12,1.9660926514297227e-09,17.36183452088244,1.953509585214656,4.840749
2023-05-25 17:02:14.981141,24.34,0,5.99975E+05,1.5979938E-09,1.0710000000000059e-11,1.1277E-12,1.966329031070585e-09,16.667361140047433,1.956003034794345,4.858915
2023-05-25 17:02:38.098282,24.36,1.6276041666666667,5.99975E+05,1.5965425E-09,1.0660000000000044e-11,1.1172E-12,1.964600828854028e-09,17.535452866090964,1.967710343937783,4.822336
2023-05-25 17:03:00.796188,24.34,1.6276041666666667,5.99975E+05,1.5965267E-09,1.115999999999999e-11,1.1706E-12,1.9647404127949514e-09,17.709071211300397,1.956275032393268,4.825423
2023-05-25 17:03:23.570209,24.38,1.6276041666666667,5.99975E+05,1.5966671E-09,1.0300000000000057e-11,1.0950E-12,1.964657701015304e-09,17.535452866090964,1.934451665054651,4.888782
2023-05-25 17:03:46.436880,24.41,1.6276041666666667,5.99975E+05,1.5965204E-09,1.0399999999999881e-11,1.0912E-12,1.9653253920300884e-09,18.403544592135404,1.9843420252093866,4.967648
2023-05-25 17:04:09.059952,24.41,1.6276041666666667,5.99975E+05,1.5966006E-09,1.1389999999999896e-11,1.2103E-12,1.964855294317905e-09,17.01459783046539,1.9683962846412213,4.878197
2023-05-25 17:04:32.086438,24.48,3.2552083333333335,5.99975E+05,1.5948849E-09,1.0459999999999982e-11,1.1514E-12,1.9631507562813627e-09,17.88268955650892,1.935338909033978,4.813366
2023-05-25 17:04:54.823116,24.48,3.2552083333333335,5.99975E+05,1.5949948E-09,1.0909999999999914e-11,1.0996E-12,1.9630677024736146e-09,17.01459783046539,1.9456500677399162,4.870817
2023-05-25 17:05:17.559159,24.43,3.2552083333333335,5.99975E+05,1.5950148E-09,1.0719999999999938e-11,1.1364E-12,1.963049781588012e-09,17.36183452088244,1.9407795015851084,4.86925
2023-05-25 17:05:40.262488,24.44,3.2552083333333335,5.75976E+05,1.5950616E-09,1.0790000000000125e-11,1.1375E-12,1.962990016945085e-09,16.49374279483891,1.9657784395674116,4.889098
2023-05-25 17:06:02.929955,24.43,3.2552083333333335,5.99975E+05,1.5949771E-09,1.0649999999999958e-11,1.0921E-12,1.962843722654982e-09,17.36183452088244,1.9276920476586152,4.864456
2023-05-25 17:06:26.196761,24.44,4.8828125,5.99975E+05,1.5934228E-09,9.899999999999935e-12,1.0767E-12,1.961146059905079e-09,16.49374279483891,1.9113509634090722,4.894437
2023-05-25 17:06:48.555224,24.44,4.8828125,5.75976E+05,1.5932310E-09,1.0699999999999973e-11,1.1310E-12,1.961578668208175e-09,16.840979485255957,1.9278193863565154,4.863054
2023-05-25 17:07:11.405044,24.43,4.8828125,5.99975E+05,1.5933760E-09,1.0119999999999961e-11,1.0893E-12,1.9618880786697545e-09,17.709071211300397,1.9871939715803417,4.896642
2023-05-25 17:07:34.172606,24.4,4.8828125,5.99975E+05,1.5934861E-09,1.0479999999999947e-11,1.1227E-12,1.9617956425265777e-09,16.667361140047433,1.9730850056842846,4.847686
2023-05-25 17:07:56.770400,24.41,4.8828125,5.99975E+05,1.5932881E-09,9.969999999999915e-12,1.1012E-12,1.9618499086765776e-09,17.535452866091873,1.976773389366941,4.836871
2023-05-25 17:08:19.811481,24.41,6.510416666666667,5.99975E+05,1.5915727E-09,1.0500000000000119e-11,1.1508E-12,1.96009831486042e-09,17.36183452088244,1.9806027153165775,4.820473
2023-05-25 17:08:42.507779,24.38,6.510416666666667,5.99975E+05,1.5914546E-09,1.1580000000000078e-11,1.2071E-12,1.9600916062475294e-09,17.88268955650983,1.9668439282531975,4.847518
2023-05-25 17:09:05.206423,24.4,6.510416666666667,5.99975E+05,1.5915687E-09,1.0420000000000053e-11,1.1120E-12,1.9601974526716874e-09,17.188216175673915,1.9633200803240223,4.819453
2023-05-25 17:09:27.942132,24.4,6.510416666666667,5.99975E+05,1.5914873E-09,9.969999999999915e-12,1.1122E-12,1.960146834243154e-09,17.36183452088244,1.9418245407611268,4.844937
2023-05-25 17:09:50.659685,24.5,6.510416666666667,5.99975E+05,1.5915242E-09,1.0599999999999943e-11,1.0871E-12,1.9602387165438652e-09,17.88268955650892,1.9406095971572157,4.933274
2023-05-25 17:10:13.719976,24.5,8.138020833333334,5.99975E+05,1.5898632E-09,1.0929999999999879e-11,1.0817E-12,1.958623395766273e-09,17.709071211300397,1.9559864866816623,4.874093
2023-05-25 17:10:36.376340,24.44,8.138020833333334,5.99975E+05,1.5901164E-09,9.450000000000004e-12,1.0561E-12,1.9583970755724293e-09,17.88268955650892,1.9410123320206778,4.807827
2023-05-25 17:10:59.034245,24.41,8.138020833333334,5.99975E+05,1.5901794E-09,1.0289999999999972e-11,1.0807E-12,1.958256969040158e-09,17.709071211300397,1.962430273034376,4.800368
2023-05-25 17:11:21.778170,24.47,8.138020833333334,5.99975E+05,1.5900089E-09,1.0359999999999952e-11,1.1201E-12,1.9586423948218433e-09,16.667361140047433,1.9468736551654258,4.879722
2023-05-25 17:11:44.586867,24.44,8.138020833333334,5.99975E+05,1.5899515E-09,1.0620000000000114e-11,1.1656E-12,1.9584536300121685e-09,17.188216175674825,1.9643442642547788,4.881097
2023-05-25 17:12:07.809229,24.53,9.765625,5.99975E+05,1.5879375E-09,1.0769999999999954e-11,1.0848E-12,1.9563126675416535e-09,17.188216175673915,1.978652847125548,4.830126
2023-05-25 17:12:30.473760,24.49,9.765625,5.99975E+05,1.5880150E-09,1.0800000000000004e-11,1.1354E-12,1.9565366612496775e-09,17.36183452088335,1.9765048049280078,4.830046
2023-05-25 17:12:53.108571,24.47,9.765625,5.99975E+05,1.5882022E-09,9.98e-12,1.1374E-12,1.9563735884827737e-09,19.44525466338837,1.979440343720922,4.857167
2023-05-25 17:13:15.873945,24.55,9.765625,5.99975E+05,1.5881069E-09,1.0549999999999927e-11,1.1663E-12,1.956903273747317e-09,17.188216175673915,1.975517151286924,4.85368
2023-05-25 17:13:38.436247,24.54,9.765625,5.99975E+05,1.5879754E-09,1.0200000000000027e-11,1.0783E-12,1.9567733082627045e-09,17.01459783046539,1.970365189861218,4.86986
2023-05-25 17:14:01.542078,24.53,11.393229166666666,5.99975E+05,1.5863137E-09,1.0330000000000108e-11,1.1309E-12,1.9548369879993945e-09,18.22992624692688,1.9778830950327564,4.85117
2023-05-25 17:14:24.279147,24.5,11.393229166666666,5.99975E+05,1.5861193E-09,1.115999999999999e-11,1.1745E-12,1.9546966019415207e-09,17.88268955650892,1.9898010251441283,4.872043
2023-05-25 17:14:47.005466,24.53,11.393229166666666,5.99975E+05,1.5864801E-09,1.0339999999999987e-11,1.1076E-12,1.954650087850723e-09,17.709071211301307,1.9871476998380457,4.860974
2023-05-25 17:15:09.678564,24.48,11.393229166666666,5.99975E+05,1.5861609E-09,1.1489999999999926e-11,1.1734E-12,1.9547635856354084e-09,17.36183452088244,1.98848121493579,4.880797
2023-05-25 17:15:32.405319,24.37,11.393229166666666,5.99975E+05,1.5862681E-09,1.0239999999999956e-11,1.1116E-12,1.954464048849042e-09,18.924399627762796,2.0051982443938976,4.837318
2023-05-25 17:15:55.720626,24.44,13.020833333333332,5.99975E+05,1.5840752E-09,1.0279999999999886e-11,1.1175E-12,1.952490173201509e-09,18.577162937344838,1.9872398194109733,4.932881
2023-05-25 17:16:18.370610,24.5,13.020833333333332,5.99975E+05,1.5842137E-09,1.105999999999996e-11,1.1349E-12,1.952588779740689e-09,17.01459783046539,1.9822949059187207,4.868255
2023-05-25 17:16:41.022693,24.57,13.020833333333332,5.99975E+05,1.5840725E-09,9.91000000000002e-12,1.1120E-12,1.952584104198612e-09,17.188216175674825,1.9583966646019133,4.816726
2023-05-25 17:17:03.570525,24.56,13.020833333333332,5.99975E+05,1.5845026E-09,1.067000000000013e-11,1.1558E-12,1.9525062676221825e-09,17.36183452088244,1.9585705096392545,4.832503
2023-05-25 17:17:25.725480,24.56,13.020833333333332,5.75976E+05,1.5845530E-09,1.1240000000000056e-11,1.1313E-12,1.9523969974442765e-09,18.22992624692779,1.9568692167289634,4.813597
2023-05-25 17:17:48.937821,24.52,14.648437499999998,5.99975E+05,1.5825725E-09,1.0599999999999943e-11,1.1152E-12,1.9509259899717205e-09,18.924399627761886,1.968105500572268,4.841594
2023-05-25 17:18:11.685159,24.59,14.648437499999998,5.99975E+05,1.5824857E-09,1.0470000000000068e-11,1.1923E-12,1.951321124491253e-09,18.403544592135404,1.9835087291451128,4.834882
2023-05-25 17:18:34.246435,24.52,14.648437499999998,5.99975E+05,1.5825262E-09,1.1319999999999915e-11,1.2671E-12,1.950949062113599e-09,16.667361140047433,1.971353066038973,4.84438
2023-05-25 17:18:56.970445,24.44,14.648437499999998,5.99975E+05,1.5822699E-09,1.0270000000000007e-11,1.1042E-12,1.9510404877979652e-09,17.36183452088244,1.9699653140865703,4.815204
2023-05-25 17:19:19.669743,24.52,14.648437499999998,5.99975E+05,1.5824639E-09,1.0490000000000033e-11,1.1331E-12,1.950955673500161e-09,18.056307901718355,1.9832938609036168,4.847458
2023-05-25 17:19:42.785298,24.44,16.276041666666664,5.99975E+05,1.5803463E-09,1.0699999999999973e-11,1.1733E-12,1.9490318537574704e-09,17.36183452088244,1.9519472245875888,4.818761
2023-05-25 17:20:05.542362,24.5,16.276041666666664,5.99975E+05,1.5805802E-09,1.012999999999984e-11,1.0738E-12,1.9488705935661055e-09,19.271636318180754,1.9601412873869295,4.89466
2023-05-25 17:20:28.282240,24.54,16.276041666666664,5.99975E+05,1.5807329E-09,1.0779999999999832e-11,1.1058E-12,1.948829517201787e-09,17.709071211300397,1.96357117554581,4.84945
2023-05-25 17:20:51.021199,24.54,16.276041666666664,5.99975E+05,1.5804787E-09,1.0370000000000038e-11,1.1314E-12,1.948915138824858e-09,17.709071211300397,1.9807656742812627,4.871594
2023-05-25 17:21:13.760228,24.58,16.276041666666664,5.99975E+05,1.5806106E-09,1.0640000000000079e-11,1.1537E-12,1.948627062585693e-09,18.056307901718355,1.9757398999531925,4.92249
2023-05-25 17:21:36.952163,24.64,17.903645833333332,5.99975E+05,1.5789237E-09,1.0860000000000105e-11,1.1361E-12,1.947067396905227e-09,17.36183452088244,1.9569164007102646,4.915324
2023-05-25 17:21:59.686393,24.6,17.903645833333332,5.99975E+05,1.5789863E-09,9.98999999999988e-12,1.1049E-12,1.9472078246314225e-09,17.88268955650983,1.9176104481847671,4.849607
2023-05-25 17:22:22.189078,24.64,17.903645833333332,5.99975E+05,1.5790480E-09,1.1489999999999926e-11,1.1254E-12,1.947084784782576e-09,17.188216175673915,1.939863794709121,4.809859
2023-05-25 17:22:44.951189,24.63,17.903645833333332,5.99975E+05,1.5792687E-09,9.70000000000008e-12,1.0773E-12,1.947135278205932e-09,19.09801797297132,1.965988667296772,4.868426
2023-05-25 17:23:07.734895,24.59,17.903645833333332,5.99975E+05,1.5789670E-09,1.081000000000009e-11,1.1212E-12,1.9470848872173755e-09,17.88268955650892,1.958228665701128,4.804144
2023-05-25 17:23:30.969363,24.5,19.53125,5.99975E+05,1.5770066E-09,1.116999999999987e-11,1.1862E-12,1.945144174409678e-09,19.271636318180754,1.9618740155590217,4.861685
2023-05-25 17:23:53.773599,24.5,19.53125,5.99975E+05,1.5769484E-09,1.109999999999989e-11,1.1939E-12,1.945466151367054e-09,17.01459783046539,1.9691636426973613,4.868016
2023-05-25 17:24:16.491924,24.5,19.53125,5.99975E+05,1.5770153E-09,1.0189999999999941e-11,1.0859E-12,1.9451309828877865e-09,18.577162937344838,1.966627731345973,4.833164
2023-05-25 17:24:39.030063,24.54,19.53125,5.99975E+05,1.5768900E-09,9.559999999999913e-12,1.0701E-12,1.945229728321688e-09,17.36183452088335,1.9886702818050104,4.837832
2023-05-25 17:25:01.777918,24.57,19.53125,5.99975E+05,1.5768692E-09,1.115999999999999e-11,1.1621E-12,1.9454086524434706e-09,18.403544592136313,1.960391126535749,4.85809
2023-05-25 17:25:24.940069,24.54,21.158854166666668,5.99975E+05,1.5755183E-09,1.0469999999999861e-11,1.1719E-12,1.944089418656123e-09,18.056307901718355,1.967459077078422,4.839365
2023-05-25 17:25:47.203877,24.41,21.158854166666668,5.99975E+05,1.5756433E-09,1.0590000000000064e-11,1.0937E-12,1.9436846205395897e-09,17.88268955650892,1.9815852508963583,4.846786
2023-05-25 17:26:10.033712,24.37,21.158854166666668,5.99975E+05,1.5754085E-09,1.105999999999996e-11,1.1722E-12,1.943718042071106e-09,17.01459783046448,1.9773407419369027,4.906139
2023-05-25 17:26:32.602005,24.34,21.158854166666668,5.99975E+05,1.5752710E-09,1.0239999999999956e-11,1.0961E-12,1.9437319454281443e-09,18.056307901717446,1.9775878592742526,4.870022
2023-05-25 17:26:55.324812,24.34,21.158854166666668,5.99975E+05,1.5751839E-09,1.0550000000000134e-11,1.0865E-12,1.943506699931805e-09,18.22992624692688,1.9799837316577942,4.839517
2023-05-25 17:27:18.558692,24.38,22.786458333333336,5.99975E+05,1.5732126E-09,1.1009999999999944e-11,1.2024E-12,1.941416296859205e-09,18.577162937344838,1.9964506394735249,4.830066
2023-05-25 17:27:41.216266,24.42,22.786458333333336,5.99975E+05,1.5734736E-09,1.1070000000000046e-11,1.1250E-12,1.941632633998223e-09,18.924399627762796,1.9944113658636695,4.825802
2023-05-25 17:28:03.885182,24.52,22.786458333333336,5.99975E+05,1.5733932E-09,1.0130000000000047e-11,1.1176E-12,1.9417166583325675e-09,19.09801797297132,1.9847087664558143,4.817892
2023-05-25 17:28:26.614871,24.55,22.786458333333336,5.99975E+05,1.5732584E-09,9.829999999999955e-12,1.1154E-12,1.941801616733752e-09,17.36183452088244,1.9825114513427946,4.847636
2023-05-25 17:28:49.239431,24.65,22.786458333333336,5.99975E+05,1.5737464E-09,1.0350000000000073e-11,1.1208E-12,1.9424342368429814e-09,19.09801797297132,1.9716606130068297,4.870392
2023-05-25 17:29:12.420808,24.63,24.414062500000004,5.99975E+05,1.5724406E-09,1.0829999999999848e-11,1.1123E-12,1.940775827464634e-09,19.09801797297132,1.9803907900708073,4.856005
2023-05-25 17:29:35.081118,24.7,24.414062500000004,5.99975E+05,1.5722405E-09,1.1660000000000144e-11,1.1842E-12,1.940759114962681e-09,16.840979485255957,1.9799048419116352,4.807505
2023-05-25 17:29:57.769040,24.67,24.414062500000004,5.99975E+05,1.5721948E-09,9.87999999999997e-12,1.1050E-12,1.940910399043961e-09,17.36183452088244,1.9910067256683244,4.836578
2023-05-25 17:30:20.469767,24.64,24.414062500000004,5.99975E+05,1.5723038E-09,1.1550000000000027e-11,1.1932E-12,1.940723011027843e-09,16.840979485256867,2.0053293805723507,4.854708
2023-05-25 17:30:43.157877,24.72,24.414062500000004,5.99975E+05,1.5721912E-09,1.0339999999999987e-11,1.1546E-12,1.9407151287549123e-09,16.667361140047433,2.0018965489621805,4.836512
2023-05-25 17:31:06.474436,24.7,26.04166666666667,5.99975E+05,1.5704672E-09,1.0259999999999921e-11,1.1193E-12,1.9387138960648928e-09,17.01459783046448,1.9938260255827138,4.850739
2023-05-25 17:31:29.106188,24.77,26.04166666666667,5.99975E+05,1.5704094E-09,1.1069999999999839e-11,1.1580E-12,1.9385528112280555e-09,17.535452866090964,1.9971893684298538,4.85922
2023-05-25 17:31:51.762690,24.73,26.04166666666667,5.99975E+05,1.5703807E-09,1.0450000000000104e-11,1.1466E-12,1.938502948039307e-09,17.709071211300397,2.0107202178564463,4.835404
2023-05-25 17:32:14.466235,24.79,26.04166666666667,5.99975E+05,1.5705394E-09,1.0249999999999835e-11,1.1339E-12,1.9385488839810607e-09,19.09801797297132,1.9978687739665018,4.816323
2023-05-25 17:32:37.208183,24.79,26.04166666666667,5.99975E+05,1.5705423E-09,1.1290000000000072e-11,1.1071E-12,1.9386640693361046e-09,17.188216175673915,1.9834257343255166,4.882473
2023-05-25 17:33:00.380403,24.82,27.66927083333334,5.99975E+05,1.5688769E-09,1.0560000000000013e-11,1.1126E-12,1.9376081086708e-09,18.577162937344838,1.9823266458972753,4.840735
2023-05-25 17:33:22.947663,24.87,27.66927083333334,5.99975E+05,1.5692121E-09,9.899999999999935e-12,1.1086E-12,1.937523466255234e-09,16.840979485256867,1.9871152860234331,4.862451
2023-05-25 17:33:45.291741,24.99,27.66927083333334,5.75976E+05,1.5690124E-09,1.0609999999999822e-11,1.1833E-12,1.937255941219331e-09,17.709071211300397,1.9889870929379005,4.834415
2023-05-25 17:34:07.962361,24.99,27.66927083333334,5.99975E+05,1.5690577E-09,1.1070000000000046e-11,1.0888E-12,1.937501191021394e-09,18.056307901717446,1.992848098222547,4.83681
2023-05-25 17:34:30.606764,25.02,27.66927083333334,5.99975E+05,1.5691457E-09,1.0859999999999898e-11,1.0918E-12,1.937452248009938e-09,19.44525466338837,1.9774094335380084,4.802946
2023-05-25 17:34:53.875853,25.08,29.296875000000007,5.99975E+05,1.5676073E-09,1.0749999999999989e-11,1.1093E-12,1.9360276747639016e-09,17.535452866091873,1.971105751872434,4.857512
2023-05-25 17:35:16.540117,25.18,29.296875000000007,5.99975E+05,1.5677348E-09,9.969999999999915e-12,1.1199E-12,1.9356558780224433e-09,17.709071211300397,1.9952200573782897,4.847091
2023-05-25 17:35:39.305922,25.3,29.296875000000007,5.99975E+05,1.5680175E-09,1.0469999999999861e-11,1.0757E-12,1.9357660405986723e-09,19.44525466338837,1.9753647153520186,4.86352
2023-05-25 17:36:02.038048,25.37,29.296875000000007,5.99975E+05,1.5677014E-09,1.109000000000001e-11,1.1005E-12,1.9356071937022745e-09,18.750781282553362,1.9973802058841696,4.849202
2023-05-25 17:36:24.643039,25.27,29.296875000000007,5.99975E+05,1.5677363E-09,1.1460000000000082e-11,1.1517E-12,1.935356471449972e-09,18.750781282553362,1.99655171804369,4.834606
2023-05-25 17:36:47.861982,25.18,30.924479166666675,5.99975E+05,1.5662057E-09,1.088000000000007e-11,1.0809E-12,1.9337677212241936e-09,18.22992624692688,1.9891891144978053,4.803707
2023-05-25 17:37:10.469827,25.34,30.924479166666675,5.99975E+05,1.5660969E-09,1.022999999999987e-11,1.1131E-12,1.9338951501447717e-09,17.709071211301307,1.9950932296230766,4.824324
2023-05-25 17:37:33.124577,25.56,30.924479166666675,5.99975E+05,1.5661299E-09,1.0590000000000064e-11,1.1689E-12,1.9336978919256553e-09,19.96610969901576,2.006543519300625,4.814019
2023-05-25 17:37:55.745350,25.76,30.924479166666675,5.99975E+05,1.5662262E-09,1.0210000000000113e-11,1.1038E-12,1.9338464102667606e-09,19.271636318179844,1.9972692971088888,4.849645
2023-05-25 17:38:18.491310,25.87,30.924479166666675,5.99975E+05,1.5662331E-09,1.0390000000000002e-11,1.1063E-12,1.934175489950688e-09,17.709071211300397,1.990484008690373,4.906217
2023-05-25 17:38:41.789421,26.11,32.55208333333334,5.99975E+05,1.5645058E-09,1.0470000000000068e-11,1.1291E-12,1.9325103736956554e-09,17.01459783046539,1.9707932369563796,4.935222
2023-05-25 17:39:04.474452,26.11,32.55208333333334,5.99975E+05,1.5644401E-09,1.1320000000000122e-11,1.2811E-12,1.9326992357316046e-09,17.88268955650892,1.9631109626231438,4.870078
2023-05-25 17:39:27.081709,26.3,32.55208333333334,5.99975E+05,1.5647417E-09,1.1779999999999932e-11,1.1831E-12,1.93250008160016e-09,18.056307901717446,1.9766979176451056,4.796137
2023-05-25 17:39:49.825709,26.3,32.55208333333334,5.99975E+05,1.5647802E-09,1.105999999999996e-11,1.1950E-12,1.9325094135862883e-09,16.840979485255957,1.9850585258739992,4.830979
2023-05-25 17:40:12.431984,26.31,32.55208333333334,5.99975E+05,1.5645332E-09,1.0819999999999969e-11,1.1521E-12,1.9324515014509843e-09,19.09801797297132,1.9735982525057703,4.832705
