Time,Legal,wasIllegal,LOLs,Valid,Slides,N reset,Temp,ambient T,N,Mean [s],Range [s],StdD [s],N C,Mean C,Range C,StdD C,N fo,Mean fo,Range fo,StdD fo,ddmtd,range dd,stdD dd,timeTook (100k),avgFi,avgFd
2023-06-29 11:16:44.908123,0,True,0,0,24,0,626,26.03,2.75931E+05,3.6824467E-09,6.763000000000011e-11,8.5473E-12,2.75931E+05,2.5305721E-09,1.212000000000016e-11,1.4237E-12,2.75931E+05,4.718028E-10,1.1680000000000005e-11,1.2338E-12,1.3971853011238747e-09,17.709071211300397,2.052548463929804,4.732831,0.0,0.0
2023-06-29 11:17:06.504691,0,True,0,0,24,0,626,26.03,2.67933E+05,3.6821573E-09,6.415000000000003e-11,8.4970E-12,2.67933E+05,2.5304982E-09,1.5120000000000254e-11,1.6333E-12,2.67933E+05,4.717051E-10,1.2320000000000015e-11,1.2399E-12,1.3969552550802996e-09,18.22992624692688,2.0503308180577333,4.73908,0.0,0.0
2023-06-29 11:17:28.569993,0,True,0,0,24,0,626,26.06,2.75931E+05,3.6823797E-09,6.517999999999998e-11,8.5397E-12,2.75931E+05,2.5305818E-09,1.7330000000000394e-11,1.7250E-12,2.75931E+05,4.717767E-10,1.1460000000000082e-11,1.2392E-12,1.3971374154480409e-09,21.528674805894298,2.1728207911438155,4.733394,0.0,0.0
2023-06-29 11:17:50.624436,0,True,0,0,24,0,626,26.13,2.75931E+05,3.6822097E-09,6.283000000000029e-11,8.5566E-12,2.75931E+05,2.5305930E-09,1.5459999999999862e-11,1.5522E-12,2.75931E+05,4.716941E-10,1.1529999999999959e-11,1.2316E-12,1.3971997218635857e-09,19.44525466338837,2.1032616607175405,4.697778,0.0,0.0
2023-06-29 11:18:12.681034,0,True,0,0,24,0,626,26.13,2.75931E+05,3.6822896E-09,6.366000000000017e-11,8.3862E-12,2.75931E+05,2.5308219E-09,1.1319999999999915e-11,1.3297E-12,2.75931E+05,4.717761E-10,1.1359999999999948e-11,1.2418E-12,1.3971695244248765e-09,19.09801797297041,2.130131275921485,4.724258,0.0,0.0
2023-06-29 11:18:34.770224,0,True,0,0,24,0,626,26.09,2.75931E+05,3.6819363E-09,6.79900000000003e-11,8.5160E-12,2.75931E+05,2.5301929E-09,1.449000000000002e-11,1.5096E-12,2.75931E+05,4.718147E-10,1.1749999999999985e-11,1.2704E-12,1.3973868077838695e-09,19.792491353806327,2.059766220961792,4.782774,0.0,0.0
2023-06-29 11:18:56.840991,0,True,0,0,24,0,626,25.94,2.75931E+05,3.6821042E-09,6.600999999999986e-11,8.3342E-12,2.75931E+05,2.5305887E-09,1.1659999999999937e-11,1.4150E-12,2.75931E+05,4.718478E-10,1.0900000000000035e-11,1.2116E-12,1.3971663055407545e-09,17.535452866091873,2.0309818341138715,4.803191,0.0,0.0
2023-06-29 11:19:18.932208,0,True,0,0,24,0,627,25.96,2.75931E+05,3.6825389E-09,6.258e-11,8.3253E-12,2.75931E+05,2.5303135E-09,1.3440000000000318e-11,1.5707E-12,2.75931E+05,4.716272E-10,1.1489999999999926e-11,1.2258E-12,1.3971442490661552e-09,17.188216175674825,2.052449749380092,4.759657,0.0,0.0
2023-06-29 11:19:41.024988,0,True,0,0,24,0,627,25.93,2.75931E+05,3.6815169E-09,6.769000000000021e-11,8.2024E-12,2.75931E+05,2.5302023E-09,1.0860000000000105e-11,1.3053E-12,2.75931E+05,4.716909E-10,1.1360000000000052e-11,1.2298E-12,1.3976327277527645e-09,17.36183452088244,2.0404447219085387,4.775609,0.0,0.0
2023-06-29 11:20:03.295230,0,True,0,0,24,0,627,26.0,2.79930E+05,3.6817530E-09,6.231000000000038e-11,8.2124E-12,2.79930E+05,2.5300022E-09,1.1480000000000047e-11,1.3758E-12,2.79930E+05,4.717126E-10,1.1770000000000053e-11,1.2269E-12,1.397709593802708e-09,18.403544592136313,2.066864108569745,4.704641,0.0,0.0
2023-06-29 11:20:24.876227,0,True,0,0,24,0,627,26.06,2.67933E+05,3.6820649E-09,6.223999999999998e-11,8.3829E-12,2.67933E+05,2.5303760E-09,1.0780000000000246e-11,1.3037E-12,2.67933E+05,4.717981E-10,1.2150000000000005e-11,1.2300E-12,1.397161451171746e-09,19.96610969901485,2.1115180257648016,4.693712,0.0,0.0
2023-06-29 11:20:46.939432,0,True,0,0,24,0,627,26.09,2.75931E+05,3.6822135E-09,6.54599999999999e-11,8.3543E-12,2.75931E+05,2.5300745E-09,1.2320000000000222e-11,1.3696E-12,2.75931E+05,4.717985E-10,1.058999999999996e-11,1.2167E-12,1.397246010250664e-09,18.056307901718355,2.04891820651396,4.854478,0.0,0.0
2023-06-29 11:21:08.958578,0,True,0,0,24,0,627,26.06,2.75931E+05,3.6816492E-09,6.205000000000021e-11,8.3755E-12,2.75931E+05,2.5300513E-09,1.1330000000000208e-11,1.3756E-12,2.75931E+05,4.718478E-10,1.18e-11,1.2370E-12,1.3978813058185104e-09,18.22992624692688,2.0520796990262977,4.947525,0.0,0.0
2023-06-29 11:21:31.028015,0,True,0,0,24,0,626,26.06,2.75931E+05,3.6818151E-09,6.973000000000034e-11,8.4259E-12,2.75931E+05,2.5304472E-09,1.0839999999999934e-11,1.3638E-12,2.75931E+05,4.717658E-10,1.1790000000000018e-11,1.2319E-12,1.3971877421977941e-09,17.88268955650892,2.062487583976053,4.720237,0.0,0.0
2023-06-29 11:21:53.065455,0,True,0,0,24,0,626,26.0,2.75931E+05,3.6817113E-09,6.391999999999992e-11,8.3066E-12,2.75931E+05,2.5302105E-09,1.1599999999999836e-11,1.3716E-12,2.75931E+05,4.716653E-10,1.0860000000000002e-11,1.2164E-12,1.3978292116340392e-09,18.056307901718355,2.0512269843788227,4.798558,0.0,0.0
2023-06-29 11:22:15.129204,0,True,0,0,24,0,626,26.07,2.75931E+05,3.6819379E-09,6.688999999999996e-11,8.3791E-12,2.75931E+05,2.5304663E-09,1.0989999999999773e-11,1.2895E-12,2.75931E+05,4.716425E-10,1.1650000000000058e-11,1.2243E-12,1.397448008250546e-09,17.709071211300397,2.0615373492089963,4.728643,0.0,0.0
2023-06-29 11:22:37.189895,0,True,0,0,24,0,626,26.12,2.75931E+05,3.6812282E-09,6.560999999999974e-11,8.3717E-12,2.75931E+05,2.5296881E-09,1.466999999999991e-11,1.4731E-12,2.75931E+05,4.717122E-10,1.1270000000000003e-11,1.2300E-12,1.3980982940263171e-09,19.618873008597802,2.1225548852209504,4.724958,0.0,0.0
2023-06-29 11:22:59.233978,0,True,0,0,24,0,626,26.1,2.75931E+05,3.6814282E-09,6.699999999999987e-11,8.3652E-12,2.75931E+05,2.5299496E-09,1.2440000000000011e-11,1.3661E-12,2.75931E+05,4.715882E-10,1.169999999999997e-11,1.2303E-12,1.397557502396126e-09,19.792491353806327,2.1024783671323615,4.72723,0.0,0.0
2023-06-29 11:23:21.263028,0,True,0,0,24,0,626,26.12,2.75931E+05,3.6812390E-09,6.408000000000005e-11,8.3454E-12,2.75931E+05,2.5299406E-09,1.705000000000006e-11,1.6342E-12,2.75931E+05,4.715694E-10,1.1670000000000023e-11,1.2338E-12,1.3974538748144602e-09,20.139728044224285,2.130293801485224,4.716384,0.0,0.0
2023-06-29 11:23:43.314390,0,True,0,0,24,0,626,26.16,2.75931E+05,3.6817943E-09,6.528999999999989e-11,8.3718E-12,2.75931E+05,2.5300676E-09,1.185000000000012e-11,1.3655E-12,2.75931E+05,4.715321E-10,1.1030000000000013e-11,1.2205E-12,1.397290670097558e-09,18.22992624692779,2.0442650456052625,4.704257,0.0,0.0
2023-06-29 11:24:05.318605,0,True,0,0,24,0,626,26.16,2.75931E+05,3.6819057E-09,6.89799999999999e-11,8.3677E-12,2.75931E+05,2.5298665E-09,1.4019999999999916e-11,1.5458E-12,2.75931E+05,4.715461E-10,1.1099999999999993e-11,1.2405E-12,1.3970842153147651e-09,20.139728044223375,2.1120327564706973,4.716994,0.0,0.0
2023-06-29 11:24:27.336167,0,True,0,0,24,0,626,26.13,2.75931E+05,3.6819486E-09,6.531999999999994e-11,8.4543E-12,2.75931E+05,2.5305388E-09,1.3060000000000366e-11,1.4474E-12,2.75931E+05,4.716412E-10,1.2170000000000073e-11,1.2368E-12,1.3974448588137755e-09,19.96610969901485,2.061945452033157,4.713326,0.0,0.0
2023-06-29 11:24:49.396642,0,True,0,0,24,0,626,26.08,2.75931E+05,3.6814093E-09,6.506000000000019e-11,8.3168E-12,2.75931E+05,2.5299864E-09,1.3040000000000195e-11,1.4403E-12,2.75931E+05,4.716396E-10,1.0910000000000017e-11,1.2104E-12,1.3977645457451926e-09,19.271636318180754,2.0571808741941893,4.67435,0.0,0.0
2023-06-29 11:25:11.476481,0,True,0,0,24,0,626,26.09,2.75931E+05,3.6816303E-09,6.278000000000007e-11,8.4482E-12,2.75931E+05,2.5302625E-09,1.1610000000000128e-11,1.3882E-12,2.75931E+05,4.716901E-10,1.1610000000000025e-11,1.2906E-12,1.3975382637472953e-09,19.96610969901485,2.0459651913809744,4.844136,0.0,0.0
2023-06-29 11:25:33.567090,0,True,0,0,24,0,626,26.0,2.75931E+05,3.6815126E-09,6.439000000000002e-11,8.4495E-12,2.75931E+05,2.5300546E-09,1.1380000000000017e-11,1.3199E-12,2.75931E+05,4.715611E-10,1.1750000000000037e-11,1.2176E-12,1.3976605049518637e-09,17.88268955650983,2.073810989643505,4.754535,0.0,0.0
2023-06-29 11:25:55.643152,0,True,0,0,24,0,626,26.12,2.75931E+05,3.6815074E-09,6.352999999999968e-11,8.4356E-12,2.75931E+05,2.5299401E-09,1.2190000000000141e-11,1.3957E-12,2.75931E+05,4.716437E-10,1.092e-11,1.2296E-12,1.3975104049476185e-09,20.139728044224285,2.056499979040849,4.694916,0.0,0.0
2023-06-29 11:26:17.713386,0,True,0,0,24,0,626,26.13,2.75931E+05,3.6817516E-09,6.487e-11,8.4138E-12,2.75931E+05,2.5301898E-09,1.2870000000000184e-11,1.4461E-12,2.75931E+05,4.717368E-10,1.2039999999999992e-11,1.2467E-12,1.3975373696128182e-09,18.403544592136313,2.049827825411284,4.695632,0.0,0.0
2023-06-29 11:26:39.763182,0,True,0,0,24,0,626,26.12,2.75931E+05,3.6814611E-09,6.459999999999996e-11,8.4755E-12,2.75931E+05,2.5301145E-09,1.466999999999991e-11,1.6142E-12,2.75931E+05,4.718571E-10,1.2009999999999993e-11,1.2210E-12,1.3973329044962108e-09,18.750781282553362,2.112700599836803,4.717603,0.0,0.0
2023-06-29 11:27:01.851459,0,True,0,0,24,0,626,26.1,2.75931E+05,3.6813494E-09,6.248999999999985e-11,8.4808E-12,2.75931E+05,2.5300717E-09,1.1510000000000098e-11,1.3765E-12,2.75931E+05,4.717698E-10,1.0769999999999954e-11,1.2266E-12,1.3976495826216797e-09,18.22992624692688,2.0542745617119977,4.777552,0.0,0.0
2023-06-29 11:27:23.918109,0,True,0,0,24,0,626,26.13,2.75931E+05,3.6809884E-09,6.398000000000002e-11,8.4460E-12,2.75931E+05,2.5298290E-09,1.2789999999999911e-11,1.4516E-12,2.75931E+05,4.717198E-10,1.2429999999999977e-11,1.2314E-12,1.397380633915488e-09,17.709071211300397,2.0584080322000666,4.722724,0.0,0.0
2023-06-29 11:27:51.078972,0,True,0,0,14,1,626,26.1,2.75931E+05,3.6816113E-09,6.133000000000024e-11,8.3894E-12,2.75931E+05,2.5306812E-09,1.149000000000034e-11,1.3339E-12,2.75931E+05,4.717371E-10,1.0629999999999993e-11,1.2338E-12,1.3971446640140075e-09,20.83420142505929,2.1600861324861156,4.729249,0.0,0.0
2023-06-29 11:28:13.118060,0,True,0,0,14,1,626,26.13,2.75931E+05,3.6809067E-09,6.464999999999977e-11,8.5150E-12,2.75931E+05,2.5298793E-09,1.1969999999999908e-11,1.2971E-12,2.75931E+05,4.716667E-10,1.1279999999999986e-11,1.2392E-12,1.3976434278513826e-09,16.49374279483891,2.0386412214634886,4.6917,0.0,0.0
2023-06-29 11:28:35.144389,0,True,0,0,14,1,626,26.03,2.75931E+05,3.6816340E-09,6.145999999999991e-11,8.4771E-12,2.75931E+05,2.5302762E-09,1.1489999999999926e-11,1.3362E-12,2.75931E+05,4.717390E-10,1.1749999999999985e-11,1.2378E-12,1.3973467071546982e-09,19.792491353806327,2.0274203119779473,4.72431,0.0,0.0
2023-06-29 11:28:57.163757,0,True,0,0,14,1,626,26.09,2.75931E+05,3.6813602E-09,6.314000000000026e-11,8.3358E-12,2.75931E+05,2.5301409E-09,1.2410000000000374e-11,1.4769E-12,2.75931E+05,4.717936E-10,1.1640000000000024e-11,1.2284E-12,1.397684740336592e-09,18.924399627761886,2.045117325126127,4.751174,0.0,0.0
2023-06-29 11:29:19.211181,0,True,0,0,14,1,627,26.09,2.75931E+05,3.6816376E-09,6.354999999999985e-11,8.3397E-12,2.75931E+05,2.5303713E-09,1.283999999999972e-11,1.4844E-12,2.75931E+05,4.718148E-10,1.166000000000004e-11,1.2301E-12,1.3969836590415345e-09,18.22992624692688,2.013459341693862,4.697646,0.0,0.0
2023-06-29 11:29:41.262145,0,True,0,0,14,1,626,26.12,2.75931E+05,3.6820716E-09,6.152000000000001e-11,8.4019E-12,2.75931E+05,2.5304710E-09,1.4820000000000162e-11,1.4842E-12,2.75931E+05,4.717804E-10,1.162999999999999e-11,1.2334E-12,1.397146134561347e-09,18.056307901718355,2.031898921424079,4.744348,0.0,0.0
2023-06-29 11:30:03.335422,0,True,0,0,14,1,627,26.19,2.75931E+05,3.6813587E-09,6.914999999999991e-11,8.4487E-12,2.75931E+05,2.5298150E-09,1.3120000000000054e-11,1.3515E-12,2.75931E+05,4.718035E-10,1.1500000000000012e-11,1.2495E-12,1.3978206973904018e-09,20.31334638943281,2.0743668326680034,4.711276,0.0,0.0
2023-06-29 11:30:25.420984,0,True,0,0,14,1,627,26.12,2.75931E+05,3.6814550E-09,6.481999999999978e-11,8.3890E-12,2.75931E+05,2.5298541E-09,1.0909999999999914e-11,1.2884E-12,2.75931E+05,4.717773E-10,1.1069999999999942e-11,1.2419E-12,1.3979617813939229e-09,20.139728044223375,2.106337727807769,4.721546,0.0,0.0
2023-06-29 11:30:47.439608,0,True,0,0,14,1,627,26.12,2.75931E+05,3.6817320E-09,6.347999999999987e-11,8.2956E-12,2.75931E+05,2.5305841E-09,1.1550000000000027e-11,1.3388E-12,2.75931E+05,4.718410E-10,1.1190000000000041e-11,1.2487E-12,1.397197381488372e-09,19.445254663389278,2.0958050803116737,4.810073,0.0,0.0
2023-06-29 11:31:09.515509,0,True,0,0,14,1,627,26.12,2.75931E+05,3.6814443E-09,6.401999999999995e-11,8.1683E-12,2.75931E+05,2.5305819E-09,1.1579999999999664e-11,1.3416E-12,2.75931E+05,4.719330E-10,1.1349999999999966e-11,1.2461E-12,1.3975858664251882e-09,18.056307901717446,2.0391723384984592,4.754503,0.0,0.0
2023-06-29 11:31:31.562145,0,True,0,0,14,1,627,26.12,2.75931E+05,3.6815366E-09,6.448000000000017e-11,8.2887E-12,2.75931E+05,2.5302649E-09,1.0979999999999894e-11,1.3461E-12,2.75931E+05,4.719181E-10,1.0910000000000017e-11,1.2217E-12,1.3980307078769132e-09,19.271636318179844,2.017915283480023,4.751296,0.0,0.0
2023-06-29 11:31:53.583223,0,True,0,0,14,1,627,26.09,2.75931E+05,3.6819704E-09,6.360000000000007e-11,8.2058E-12,2.75931E+05,2.5308979E-09,1.26199999999999e-11,1.3791E-12,2.75931E+05,4.719073E-10,1.1550000000000027e-11,1.2276E-12,1.3973788907873508e-09,18.403544592135404,2.049699678624769,4.789112,0.0,0.0
2023-06-29 11:32:15.651836,0,True,0,0,14,1,627,26.15,2.75931E+05,3.6818858E-09,6.562999999999991e-11,8.2770E-12,2.75931E+05,2.5304369E-09,1.1759999999999968e-11,1.3753E-12,2.75931E+05,4.719310E-10,1.1180000000000059e-11,1.2311E-12,1.3970996326238358e-09,18.577162937343928,2.0271946509565693,4.686842,0.0,0.0
2023-06-29 11:32:37.692540,0,True,0,0,14,1,627,26.07,2.75931E+05,3.6816204E-09,6.773000000000014e-11,8.2175E-12,2.75931E+05,2.5304061E-09,1.1240000000000056e-11,1.3204E-12,2.75931E+05,4.719200E-10,1.1549999999999924e-11,1.2654E-12,1.397510283414851e-09,18.924399627761886,2.038441616827111,4.734781,0.0,0.0
2023-06-29 11:32:59.764483,0,True,0,0,14,1,627,26.09,2.75931E+05,3.6818869E-09,6.377999999999996e-11,8.3048E-12,2.75931E+05,2.5305302E-09,1.1729999999999917e-11,1.3682E-12,2.75931E+05,4.719541E-10,1.135000000000007e-11,1.2234E-12,1.3975700480577667e-09,19.44525466338837,2.030762092308575,4.706772,0.0,0.0
2023-06-29 11:33:21.823279,0,True,0,0,14,1,627,26.11,2.75931E+05,3.6818578E-09,6.350999999999992e-11,8.2827E-12,2.75931E+05,2.5305610E-09,1.1519999999999977e-11,1.2995E-12,2.75931E+05,4.719347E-10,1.2140000000000022e-11,1.2511E-12,1.3973047158217267e-09,20.31334638943281,2.094710902624086,4.783289,0.0,0.0
2023-06-29 11:33:43.868350,0,True,0,0,14,1,627,26.12,2.75931E+05,3.6821918E-09,6.219000000000018e-11,8.1244E-12,2.75931E+05,2.5307132E-09,1.1250000000000349e-11,1.3523E-12,2.75931E+05,4.718000E-10,1.301999999999992e-11,1.2678E-12,1.3972087309195464e-09,18.577162937344838,2.0286946911044583,4.70733,0.0,0.0
2023-06-29 11:34:05.936561,0,True,0,0,14,1,627,26.19,2.75931E+05,3.6825518E-09,6.630000000000007e-11,8.3392E-12,2.75931E+05,2.5311999E-09,1.4540000000000241e-11,1.4582E-12,2.75931E+05,4.719977E-10,1.1460000000000082e-11,1.2480E-12,1.3968444310181123e-09,19.09801797297041,2.034192913183651,4.772901,0.0,0.0
2023-06-29 11:34:27.087572,0,True,0,0,14,1,627,26.13,2.67933E+05,3.6817646E-09,6.632000000000024e-11,8.1905E-12,2.67933E+05,2.5308114E-09,1.1960000000000029e-11,1.4264E-12,2.67933E+05,4.718266E-10,1.1109999999999975e-11,1.2237E-12,1.3969042737893754e-09,17.188216175673006,2.034974135676598,4.722669,0.0,0.0
2023-06-29 11:34:49.157340,0,True,0,0,14,1,627,26.13,2.75931E+05,3.6822319E-09,6.165000000000009e-11,8.2490E-12,2.75931E+05,2.5306883E-09,1.1239999999999643e-11,1.3127E-12,2.75931E+05,4.719081E-10,1.2439999999999959e-11,1.2380E-12,1.3971927701850688e-09,20.660583079850767,2.0998522538562856,4.739622,0.0,0.0
2023-06-29 11:35:11.193877,0,True,0,0,14,1,627,26.18,2.75931E+05,3.6812307E-09,6.400000000000019e-11,8.2754E-12,2.75931E+05,2.5300295E-09,1.3719999999999824e-11,1.3218E-12,2.75931E+05,4.719220E-10,1.0569999999999996e-11,1.2226E-12,1.3980017882691856e-09,18.403544592135404,2.013214336619243,4.708762,0.0,0.0
2023-06-29 11:35:33.249930,0,True,0,0,14,1,627,26.22,2.75931E+05,3.6822058E-09,6.408000000000005e-11,8.1765E-12,2.75931E+05,2.5308863E-09,1.5330000000000194e-11,1.5032E-12,2.75931E+05,4.719271E-10,1.1759999999999968e-11,1.2385E-12,1.3973373456535177e-09,17.535452866090964,2.023967644854399,4.672224,0.0,0.0
2023-06-29 11:35:54.367466,0,True,0,0,14,1,627,26.19,2.67933E+05,3.6826558E-09,6.473000000000004e-11,8.2288E-12,2.67933E+05,2.5312292E-09,1.495999999999971e-11,1.7491E-12,2.67933E+05,4.719189E-10,1.119999999999992e-11,1.2436E-12,1.3971223748908314e-09,17.36183452088244,2.0298379581791206,4.693695,0.0,0.0
2023-06-29 11:36:16.420564,0,True,0,0,14,1,627,26.16,2.75931E+05,3.6819040E-09,6.628999999999978e-11,8.3064E-12,2.75931E+05,2.5304193E-09,1.6160000000000077e-11,1.5881E-12,2.75931E+05,4.719300E-10,1.1720000000000038e-11,1.2480E-12,1.3976290748228073e-09,21.007819770267815,2.1123970449131755,4.708133,0.0,0.0
2023-06-29 11:36:38.498661,0,True,0,0,14,1,627,26.17,2.75931E+05,3.6824494E-09,6.162000000000004e-11,8.1824E-12,2.75931E+05,2.5310468E-09,1.1390000000000309e-11,1.3224E-12,2.75931E+05,4.717895E-10,1.1700000000000022e-11,1.2339E-12,1.3968613188746257e-09,19.44525466338837,2.0262087646230627,4.734613,0.0,0.0
2023-06-29 11:37:00.581027,0,True,0,0,14,1,627,26.19,2.75931E+05,3.6822883E-09,6.48099999999999e-11,8.2378E-12,2.75931E+05,2.5309168E-09,1.227e-11,1.3023E-12,2.75931E+05,4.718536E-10,1.2870000000000029e-11,1.2519E-12,1.397127470589263e-09,19.09801797297132,2.031177239070992,4.726396,0.0,0.0
2023-06-29 11:37:22.619066,0,True,0,0,14,1,627,26.13,2.75931E+05,3.6831025E-09,6.593999999999988e-11,8.2814E-12,2.75931E+05,2.5314643E-09,1.5799999999999883e-11,1.4917E-12,2.75931E+05,4.719480E-10,1.129999999999995e-11,1.2448E-12,1.396488584594049e-09,20.31334638943281,2.146726204978154,4.7202,0.0,0.0
2023-06-29 11:37:44.698324,0,True,0,0,14,1,628,26.17,2.75931E+05,3.6825079E-09,6.209999999999961e-11,8.2463E-12,2.75931E+05,2.5312988E-09,1.220000000000002e-11,1.3799E-12,2.75931E+05,4.719217E-10,1.2419999999999943e-11,1.2589E-12,1.3966736669585666e-09,22.223148186730214,2.103341800679699,4.697106,0.0,0.0
2023-06-29 11:38:05.818457,0,True,0,0,14,1,627,26.13,2.67933E+05,3.6819993E-09,6.440999999999978e-11,8.2115E-12,2.67933E+05,2.5303669E-09,1.1869999999999877e-11,1.3268E-12,2.67933E+05,4.719627E-10,1.0569999999999996e-11,1.2306E-12,1.3976422194677015e-09,21.007819770268725,2.022127227851984,4.676639,0.0,0.0
2023-06-29 11:38:27.173160,0,True,0,0,14,1,627,26.18,2.67933E+05,3.6828636E-09,6.74600000000001e-11,8.1033E-12,2.67933E+05,2.5309382E-09,1.4040000000000088e-11,1.4238E-12,2.67933E+05,4.717819E-10,1.092e-11,1.2306E-12,1.3969240089866908e-09,18.22992624692688,2.10412908966723,4.71255,0.0,0.0
2023-06-29 11:38:54.308454,0,True,0,0,16,2,628,26.21,2.75931E+05,3.6823172E-09,6.381000000000001e-11,8.1686E-12,2.75931E+05,2.5314421E-09,1.1969999999999908e-11,1.2919E-12,2.75931E+05,4.718850E-10,1.186999999999998e-11,1.2426E-12,1.3968504573109483e-09,18.403544592135404,2.0368666389686347,4.732769,0.0,0.0
2023-06-29 11:39:16.146645,0,True,0,0,16,2,628,26.19,2.71932E+05,3.6830213E-09,6.904e-11,8.3282E-12,2.71932E+05,2.5315129E-09,1.0920000000000206e-11,1.3515E-12,2.71932E+05,4.720136E-10,1.1630000000000093e-11,1.2527E-12,1.3966198417991455e-09,19.271636318180754,2.0920675458873834,4.722363,0.0,0.0
2023-06-29 11:39:38.159631,0,True,0,0,16,2,628,26.22,2.75931E+05,3.6826675E-09,6.297000000000025e-11,8.1906E-12,2.75931E+05,2.5314157E-09,1.1710000000000159e-11,1.3547E-12,2.75931E+05,4.719058E-10,1.1530000000000063e-11,1.2208E-12,1.396292809075564e-09,19.09801797297132,2.045198933874287,4.741137,0.0,0.0
2023-06-29 11:40:00.276716,0,True,0,0,16,2,628,26.22,2.75931E+05,3.6823411E-09,7.09800000000001e-11,8.2492E-12,2.75931E+05,2.5310241E-09,1.3670000000000016e-11,1.3914E-12,2.75931E+05,4.718610E-10,1.2309999999999981e-11,1.2478E-12,1.3969037598790916e-09,17.88268955650892,2.047374240608873,4.713074,0.0,0.0
2023-06-29 11:40:22.371030,0,True,0,0,16,2,627,26.25,2.75931E+05,3.6823607E-09,6.397000000000014e-11,8.2907E-12,2.75931E+05,2.5306519E-09,1.1449999999999997e-11,1.3733E-12,2.75931E+05,4.718978E-10,1.2129999999999936e-11,1.2325E-12,1.3971340107923435e-09,18.056307901717446,2.058159732277548,4.714091,0.0,0.0
2023-06-29 11:40:43.697426,0,True,0,0,16,2,627,26.28,2.67933E+05,3.6821451E-09,6.941999999999995e-11,8.1660E-12,2.67933E+05,2.5307221E-09,1.2179999999999848e-11,1.3812E-12,2.67933E+05,4.718989E-10,1.2310000000000033e-11,1.2483E-12,1.396802583788376e-09,20.31334638943372,2.087863113760538,4.760924,0.0,0.0
2023-06-29 11:41:05.746433,0,True,0,0,16,2,627,26.24,2.75931E+05,3.6823812E-09,6.49300000000001e-11,8.2075E-12,2.75931E+05,2.5311136E-09,1.1489999999999926e-11,1.3536E-12,2.75931E+05,4.718661E-10,1.1689999999999988e-11,1.2454E-12,1.3968072992627406e-09,19.96610969901576,2.0654761286294545,4.708714,0.0,0.0
2023-06-29 11:41:27.792930,0,True,0,0,16,2,627,26.27,2.75931E+05,3.6821877E-09,6.415999999999991e-11,8.3035E-12,2.75931E+05,2.5308018E-09,1.223999999999995e-11,1.4158E-12,2.75931E+05,4.719655E-10,1.1910000000000014e-11,1.2396E-12,1.3971650016669529e-09,20.486964734641333,2.0897501528704083,4.688486,0.0,0.0
2023-06-29 11:41:48.930622,0,True,0,0,16,2,627,26.38,2.67933E+05,3.6823756E-09,7.300999999999994e-11,8.3469E-12,2.67933E+05,2.5306410E-09,1.2190000000000141e-11,1.3822E-12,2.67933E+05,4.718433E-10,1.1119999999999957e-11,1.2487E-12,1.3968742499689183e-09,18.403544592135404,2.0338998594345346,4.713654,0.0,0.0
2023-06-29 11:42:10.978731,0,True,0,0,16,2,627,26.35,2.75931E+05,3.6821097E-09,6.452999999999998e-11,8.2225E-12,2.75931E+05,2.5310543E-09,1.149000000000034e-11,1.3042E-12,2.75931E+05,4.718241E-10,1.1999999999999959e-11,1.2281E-12,1.3966954386990307e-09,21.70229315110373,2.119043832839102,4.774559,0.0,0.0
2023-06-29 11:42:33.011487,0,True,0,0,16,2,627,26.31,2.75931E+05,3.6821347E-09,6.53999999999998e-11,8.2670E-12,2.75931E+05,2.5311253E-09,1.1539999999999735e-11,1.2357E-12,2.75931E+05,4.718025E-10,1.1580000000000078e-11,1.2455E-12,1.3967830360989373e-09,17.709071211300397,2.0551551943404824,4.808181,0.0,0.0
2023-06-29 11:42:55.080264,0,True,0,0,16,2,627,26.22,2.75931E+05,3.6827851E-09,6.372000000000027e-11,8.2350E-12,2.75931E+05,2.5310077E-09,1.1279999999999986e-11,1.3343E-12,2.75931E+05,4.718916E-10,1.105999999999996e-11,1.2418E-12,1.3967474929512941e-09,19.618873008597802,2.054160425927147,4.734245,0.0,0.0
2023-06-29 11:43:17.165076,0,True,0,0,16,2,627,26.2,2.75931E+05,3.6826548E-09,6.248999999999985e-11,8.2058E-12,2.75931E+05,2.5313604E-09,1.1370000000000138e-11,1.3260E-12,2.75931E+05,4.717256E-10,1.1060000000000063e-11,1.2163E-12,1.3964602986932404e-09,19.792491353806327,2.0293553631067183,4.72318,0.0,0.0
2023-06-29 11:43:39.288236,0,True,0,0,16,2,628,26.18,2.75931E+05,3.6822719E-09,6.549999999999983e-11,8.0601E-12,2.75931E+05,2.5311053E-09,1.701000000000013e-11,1.5591E-12,2.75931E+05,4.717527E-10,1.0779999999999936e-11,1.2099E-12,1.396533892037371e-09,20.83420142505929,2.1256857639755475,4.783344,0.0,0.0
2023-06-29 11:44:01.297612,0,True,0,0,16,2,628,26.19,2.75931E+05,3.6826037E-09,6.428999999999999e-11,8.2474E-12,2.75931E+05,2.5313964E-09,1.1859999999999998e-11,1.3855E-12,2.75931E+05,4.716844E-10,1.1950000000000047e-11,1.2780E-12,1.3959951768825337e-09,18.22992624692779,2.0391958801638714,4.772259,0.0,0.0
2023-06-29 11:44:23.352600,0,True,0,0,16,2,628,26.33,2.75931E+05,3.6820733E-09,6.524000000000008e-11,8.2068E-12,2.75931E+05,2.5312049E-09,1.240999999999996e-11,1.3095E-12,2.75931E+05,4.716032E-10,1.0929999999999982e-11,1.2283E-12,1.396355822117854e-09,18.22992624692688,2.035919786550536,4.808144,0.0,0.0
2023-06-29 11:44:45.406610,0,True,0,0,16,2,627,26.25,2.75931E+05,3.6822361E-09,6.625999999999973e-11,8.2387E-12,2.75931E+05,2.5309422E-09,1.0800000000000004e-11,1.3650E-12,2.75931E+05,4.717664E-10,1.1319999999999915e-11,1.2363E-12,1.3968495735935366e-09,18.577162937344838,2.0461363134595736,4.709245,0.0,0.0
2023-06-29 11:45:07.476527,0,True,0,0,16,2,627,26.3,2.75931E+05,3.6825937E-09,6.336999999999996e-11,8.3027E-12,2.75931E+05,2.5310069E-09,1.2850000000000012e-11,1.4170E-12,2.75931E+05,4.718919E-10,1.1039999999999995e-11,1.2380E-12,1.3970298745088148e-09,20.31334638943372,2.03600946203595,4.765287,0.0,0.0
2023-06-29 11:45:29.745019,0,True,0,0,16,2,627,26.2,2.79930E+05,3.6819775E-09,6.509000000000024e-11,8.1982E-12,2.79930E+05,2.5308158E-09,1.0979999999999894e-11,1.3230E-12,2.79930E+05,4.718433E-10,1.1939999999999961e-11,1.2368E-12,1.3970072867621742e-09,19.09801797297132,2.0562847582619437,4.728007,0.0,0.0
2023-06-29 11:45:51.816863,0,True,0,0,16,2,627,26.28,2.75931E+05,3.6819706E-09,6.563999999999979e-11,8.1505E-12,2.75931E+05,2.5309578E-09,1.1379999999999603e-11,1.3459E-12,2.75931E+05,4.716379E-10,1.041999999999995e-11,1.2256E-12,1.3966669027878308e-09,19.44525466338837,2.0413604504184906,4.725847,0.0,0.0
2023-06-29 11:46:13.859058,0,True,0,0,16,2,627,26.25,2.75931E+05,3.6818857E-09,6.343999999999994e-11,8.0970E-12,2.75931E+05,2.5301789E-09,1.156000000000032e-11,1.4005E-12,2.75931E+05,4.717102E-10,1.1839999999999982e-11,1.2553E-12,1.3973500215289017e-09,19.445254663389278,2.0436741966585883,4.728308,0.0,0.0
2023-06-29 11:46:35.945464,0,True,0,0,16,2,627,26.38,2.75931E+05,3.6818037E-09,6.572999999999994e-11,8.2137E-12,2.75931E+05,2.5304798E-09,1.2030000000000009e-11,1.4715E-12,2.75931E+05,4.717196E-10,1.1849999999999964e-11,1.2337E-12,1.3974712644279166e-09,18.750781282553362,2.03042285522138,4.756385,0.0,0.0
2023-06-29 11:46:58.012899,0,True,0,0,16,2,627,26.32,2.75931E+05,3.6814173E-09,6.521000000000003e-11,8.3026E-12,2.75931E+05,2.5297977E-09,1.1149999999999905e-11,1.4190E-12,2.75931E+05,4.718840E-10,1.058999999999996e-11,1.2433E-12,1.3980972297459083e-09,17.88268955650892,2.0455880236870745,4.744119,0.0,0.0
2023-06-29 11:47:20.039895,0,True,0,0,16,2,627,26.19,2.75931E+05,3.6819299E-09,6.312999999999997e-11,8.2337E-12,2.75931E+05,2.5305615E-09,1.1240000000000056e-11,1.4134E-12,2.75931E+05,4.717842E-10,1.1630000000000042e-11,1.2585E-12,1.3975719196635282e-09,18.924399627761886,2.0451722552410954,4.728498,0.0,0.0
2023-06-29 11:47:42.144016,0,True,0,0,16,2,627,26.17,2.75931E+05,3.6817340E-09,6.501999999999984e-11,8.3987E-12,2.75931E+05,2.5305913E-09,1.1649999999999644e-11,1.4094E-12,2.75931E+05,4.718461E-10,1.1219999999999988e-11,1.2388E-12,1.397177170576793e-09,17.36183452088244,2.037501834201503,4.713304,0.0,0.0
2023-06-29 11:48:04.209162,0,True,0,0,16,2,627,26.16,2.75931E+05,3.6811709E-09,6.623999999999997e-11,8.1947E-12,2.75931E+05,2.5298592E-09,1.1680000000000109e-11,1.4413E-12,2.75931E+05,4.717712E-10,1.0629999999999993e-11,1.2379E-12,1.397769169201676e-09,19.09801797297132,2.055823385566329,4.723711,0.0,0.0
2023-06-29 11:48:26.254849,0,True,0,0,16,2,627,26.19,2.75931E+05,3.6820551E-09,6.757e-11,8.2476E-12,2.75931E+05,2.5307843E-09,1.1189999999999834e-11,1.3517E-12,2.75931E+05,4.717111E-10,1.0909999999999914e-11,1.2379E-12,1.3968478391463476e-09,19.792491353806327,2.074579975150302,4.798429,0.0,0.0
2023-06-29 11:48:48.104726,0,True,0,0,16,2,627,26.16,2.71932E+05,3.6824742E-09,6.32900000000001e-11,8.2959E-12,2.71932E+05,2.5312121E-09,1.2330000000000101e-11,1.4410E-12,2.71932E+05,4.717871E-10,1.109000000000001e-11,1.2320E-12,1.3966283265277034e-09,17.188216175674825,2.022157583284614,4.727005,0.0,0.0
2023-06-29 11:49:10.134128,0,True,0,0,16,2,627,26.2,2.75931E+05,3.6823989E-09,6.346000000000011e-11,8.0811E-12,2.75931E+05,2.5310999E-09,1.1619999999999594e-11,1.2954E-12,2.75931E+05,4.718104E-10,1.128000000000009e-11,1.2224E-12,1.3964965988168443e-09,17.188216175673915,2.045450405321923,4.748613,0.0,0.0
2023-06-29 11:49:32.228313,0,True,0,0,16,2,628,26.41,2.75931E+05,3.6829378E-09,6.439000000000002e-11,8.2010E-12,2.75931E+05,2.5308724E-09,1.0889999999999742e-11,1.2844E-12,2.75931E+05,4.718193E-10,1.1499999999999909e-11,1.2459E-12,1.3968295501897719e-09,18.056307901718355,2.0411180472738852,4.718764,0.0,0.0
2023-06-29 11:49:59.391975,0,True,0,0,32,3,627,26.41,2.75931E+05,3.6822595E-09,6.257000000000013e-11,8.3824E-12,2.75931E+05,2.5310361E-09,1.5310000000000023e-11,1.3709E-12,2.75931E+05,4.717938E-10,1.1429999999999928e-11,1.2342E-12,1.3962848226317343e-09,17.88268955650892,2.037240004542715,4.695338,0.0,0.0
2023-06-29 11:50:21.430580,0,True,0,0,32,3,627,26.26,2.75931E+05,3.6821750E-09,6.354999999999985e-11,8.2800E-12,2.75931E+05,2.5309393E-09,1.1680000000000109e-11,1.4318E-12,2.75931E+05,4.717971E-10,1.055000000000003e-11,1.2258E-12,1.3967554585609298e-09,19.445254663389278,2.047565621775751,4.71038,0.0,0.0
2023-06-29 11:50:43.494069,0,True,0,0,32,3,627,26.26,2.75931E+05,3.6823624E-09,6.487e-11,8.1885E-12,2.75931E+05,2.5309452E-09,1.1650000000000058e-11,1.3503E-12,2.75931E+05,4.718206E-10,1.1600000000000043e-11,1.2284E-12,1.3970232943736341e-09,19.09801797297132,2.034162767077574,4.751069,0.0,0.0
2023-06-29 11:51:04.846600,0,True,0,0,32,3,627,26.25,2.67933E+05,3.6824374E-09,6.627000000000002e-11,8.2231E-12,2.67933E+05,2.5310840E-09,1.1929999999999978e-11,1.4273E-12,2.67933E+05,4.718074E-10,1.1599999999999991e-11,1.2304E-12,1.3967396714448443e-09,21.875911496312256,2.1046900720424095,4.706791,0.0,0.0
2023-06-29 11:51:26.875443,0,True,0,0,32,3,627,26.18,2.75931E+05,3.6817760E-09,6.285999999999993e-11,8.2682E-12,2.75931E+05,2.5305016E-09,1.1319999999999915e-11,1.4697E-12,2.75931E+05,4.718337E-10,1.233999999999998e-11,1.2719E-12,1.3971645884552598e-09,17.88268955650892,2.0375974399868833,4.772457,0.0,0.0
2023-06-29 11:51:48.966026,0,True,0,0,32,3,627,26.25,2.75931E+05,3.6821184E-09,6.465000000000019e-11,8.2075E-12,2.75931E+05,2.5310107E-09,1.1470000000000168e-11,1.3143E-12,2.75931E+05,4.718497E-10,1.1290000000000072e-11,1.2410E-12,1.396910636901796e-09,18.22992624692688,2.0493886666023937,4.719597,0.0,0.0
2023-06-29 11:52:11.041719,0,True,0,0,32,3,627,26.28,2.75931E+05,3.6817059E-09,6.263000000000023e-11,8.1034E-12,2.75931E+05,2.5305551E-09,1.233999999999998e-11,1.3514E-12,2.75931E+05,4.718596E-10,1.0900000000000035e-11,1.2259E-12,1.3973021219636441e-09,18.577162937344838,2.021731571763349,4.726798,0.0,0.0
2023-06-29 11:52:33.103035,0,True,0,0,32,3,627,26.16,2.75931E+05,3.6822455E-09,6.702999999999992e-11,8.1418E-12,2.75931E+05,2.5310319E-09,1.1580000000000078e-11,1.3062E-12,2.75931E+05,4.717978E-10,1.0970000000000015e-11,1.2147E-12,1.3971468325071266e-09,18.403544592136313,2.015124377128043,4.7209,0.0,0.0
2023-06-29 11:52:55.183175,0,True,0,0,32,3,627,26.1,2.75931E+05,3.6824143E-09,6.574000000000023e-11,8.1560E-12,2.75931E+05,2.5311391E-09,1.1650000000000058e-11,1.3232E-12,2.75931E+05,4.717573E-10,1.1479999999999944e-11,1.2341E-12,1.39656268663997e-09,18.577162937344838,2.074797377822993,4.723029,0.0,0.0
2023-06-29 11:53:17.443637,0,True,0,0,32,3,628,26.15,2.79930E+05,3.6824390E-09,6.401000000000007e-11,8.0598E-12,2.79930E+05,2.5312940E-09,1.4749999999999768e-11,1.4229E-12,2.79930E+05,4.716864E-10,1.1289999999999968e-11,1.2435E-12,1.3967936198732897e-09,20.31334638943281,2.0936454072430664,4.706252,0.0,0.0
2023-06-29 11:53:39.511086,0,True,0,0,32,3,628,26.13,2.75931E+05,3.6818832E-09,6.297999999999971e-11,7.9033E-12,2.75931E+05,2.5310640E-09,1.1820000000000069e-11,1.3232E-12,2.75931E+05,4.718796E-10,1.2440000000000011e-11,1.2531E-12,1.3969067738935538e-09,18.22992624692688,1.9992299000885652,4.763888,0.0,0.0
2023-06-29 11:54:01.606552,0,True,0,0,32,3,628,26.18,2.75931E+05,3.6817950E-09,6.302000000000006e-11,8.1433E-12,2.75931E+05,2.5304633E-09,1.1489999999999926e-11,1.3152E-12,2.75931E+05,4.718797E-10,1.1519999999999977e-11,1.2481E-12,1.3974531786049188e-09,17.36183452088244,2.0274745509760206,4.711303,0.0,0.0
2023-06-29 11:54:23.636848,0,True,0,0,32,3,628,26.18,2.75931E+05,3.6824553E-09,6.551000000000012e-11,7.9600E-12,2.75931E+05,2.5314230E-09,1.1049999999999874e-11,1.2871E-12,2.75931E+05,4.718372E-10,1.1140000000000026e-11,1.2296E-12,1.396562469617024e-09,22.223148186730214,2.0746656962194594,4.740644,0.0,0.0
2023-06-29 11:54:45.656072,0,True,0,0,32,3,628,26.18,2.75931E+05,3.6827612E-09,6.543999999999972e-11,8.0993E-12,2.75931E+05,2.5314603E-09,1.581999999999964e-11,1.5389E-12,2.75931E+05,4.717642E-10,1.1200000000000023e-11,1.2569E-12,1.396599301012742e-09,22.04952984152169,2.0984367782187388,4.78148,0.0,0.0
2023-06-29 11:55:07.729520,0,True,0,0,32,3,628,26.15,2.75931E+05,3.6824469E-09,6.336999999999996e-11,8.0963E-12,2.75931E+05,2.5310399E-09,1.1689999999999988e-11,1.3321E-12,2.75931E+05,4.717233E-10,1.1979999999999994e-11,1.2275E-12,1.3966765681210985e-09,20.660583079850767,2.0907358270256737,4.751869,0.0,0.0
2023-06-29 11:55:29.547412,0,True,0,0,32,3,628,26.09,2.71932E+05,3.6819802E-09,6.659000000000028e-11,7.9928E-12,2.71932E+05,2.5311782E-09,1.1620000000000007e-11,1.3757E-12,2.71932E+05,4.717438E-10,1.1700000000000022e-11,1.2388E-12,1.397034685473293e-09,19.96610969901485,2.085519018358935,4.743977,0.0,0.0
2023-06-29 11:55:51.598333,0,True,0,0,32,3,628,26.12,2.75931E+05,3.6824534E-09,6.694999999999965e-11,8.0228E-12,2.75931E+05,2.5314874E-09,1.3390000000000095e-11,1.3777E-12,2.75931E+05,4.716334E-10,1.1430000000000032e-11,1.2347E-12,1.3963371963417361e-09,20.486964734642243,2.0779770857229227,4.711516,0.0,0.0
2023-06-29 11:56:13.655071,0,True,0,0,32,3,629,26.16,2.75931E+05,3.6825343E-09,6.606999999999996e-11,7.9290E-12,2.75931E+05,2.5317043E-09,1.508999999999979e-11,1.4745E-12,2.75931E+05,4.716576E-10,1.156000000000001e-11,1.2323E-12,1.3960970977959573e-09,18.577162937344838,2.001251992769066,4.702061,0.0,0.0
2023-06-29 11:56:35.802479,0,True,0,0,32,3,629,26.16,2.75931E+05,3.6817165E-09,6.466999999999994e-11,7.9954E-12,2.75931E+05,2.5309817E-09,1.0900000000000035e-11,1.2643E-12,2.75931E+05,4.715752E-10,1.1720000000000038e-11,1.2919E-12,1.3963022417602431e-09,18.403544592135404,1.9991277268239547,4.761494,0.0,0.0
2023-06-29 11:56:57.857939,0,True,0,0,32,3,629,26.18,2.75931E+05,3.6815994E-09,6.491000000000035e-11,7.8861E-12,2.75931E+05,2.5306158E-09,1.2819999999999962e-11,1.3960E-12,2.75931E+05,4.715440E-10,1.1979999999999994e-11,1.2445E-12,1.3970966637500302e-09,19.445254663389278,1.9895028259614267,4.788194,0.0,0.0
2023-06-29 11:57:19.922097,0,True,0,0,32,3,629,26.21,2.75931E+05,3.6823730E-09,6.439000000000002e-11,8.0978E-12,2.75931E+05,2.5315042E-09,1.0990000000000186e-11,1.3075E-12,2.75931E+05,4.716447E-10,1.1489999999999926e-11,1.2343E-12,1.3962823294722895e-09,19.618873008596893,2.0300453059411963,4.767252,0.0,0.0
2023-06-29 11:57:41.966593,0,True,0,0,32,3,628,26.28,2.75931E+05,3.6823234E-09,6.459999999999996e-11,8.0382E-12,2.75931E+05,2.5314683E-09,1.1500000000000219e-11,1.3243E-12,2.75931E+05,4.716200E-10,1.1759999999999968e-11,1.2244E-12,1.3963578447715724e-09,21.528674805895207,2.1556691967298236,4.692913,0.0,0.0
2023-06-29 11:58:04.020969,0,True,0,0,32,3,628,26.41,2.75931E+05,3.6823935E-09,6.196999999999994e-11,8.1400E-12,2.75931E+05,2.5311032E-09,1.2509999999999991e-11,1.4158E-12,2.75931E+05,4.716412E-10,1.102000000000003e-11,1.2161E-12,1.3966102042448618e-09,18.22992624692688,2.0336956391216137,4.683462,0.0,0.0
2023-06-29 11:58:26.119079,0,True,0,0,32,3,628,26.28,2.75931E+05,3.6823400E-09,6.237000000000006e-11,8.2476E-12,2.75931E+05,2.5311207E-09,1.49099999999999e-11,1.5257E-12,2.75931E+05,4.716737E-10,1.1219999999999988e-11,1.2295E-12,1.3965105386337874e-09,19.44525466338837,2.1190815288940374,4.716039,0.0,0.0
2023-06-29 11:58:48.220411,0,True,0,0,32,3,627,26.28,2.75931E+05,3.6819231E-09,6.547000000000019e-11,8.2425E-12,2.75931E+05,2.5307960E-09,1.1589999999999957e-11,1.2771E-12,2.75931E+05,4.717191E-10,1.065999999999994e-11,1.2425E-12,1.3968851080602508e-09,19.618873008597802,2.0978820157942106,4.704824,0.0,0.0
2023-06-29 11:59:10.048555,0,True,0,0,32,3,627,26.3,2.71932E+05,3.6819492E-09,6.54599999999999e-11,8.2329E-12,2.71932E+05,2.5308783E-09,1.1929999999999978e-11,1.4401E-12,2.71932E+05,4.717533E-10,1.0649999999999958e-11,1.2399E-12,1.3970119484147407e-09,17.709071211300397,2.037525152278454,4.703654,0.0,0.0
2023-06-29 11:59:32.134554,0,True,0,0,32,3,627,26.4,2.75931E+05,3.6820399E-09,6.391000000000004e-11,8.1449E-12,2.75931E+05,2.5306359E-09,1.216999999999997e-11,1.4028E-12,2.75931E+05,4.718048E-10,1.2540000000000041e-11,1.2689E-12,1.397266375682522e-09,18.403544592135404,2.0406056046758567,4.719911,0.0,0.0
2023-06-29 11:59:54.171464,0,True,0,0,32,3,627,26.31,2.75931E+05,3.6822459E-09,6.93299999999998e-11,8.2905E-12,2.75931E+05,2.5309515E-09,1.508999999999979e-11,1.7007E-12,2.75931E+05,4.718252E-10,1.1189999999999938e-11,1.2248E-12,1.396891443393656e-09,18.577162937344838,2.0544328608224443,4.80979,0.0,0.0
2023-06-29 12:00:15.766243,0,True,0,0,32,3,627,26.16,2.67933E+05,3.6820328E-09,6.612000000000018e-11,8.2194E-12,2.67933E+05,2.5309122E-09,1.1020000000000237e-11,1.2820E-12,2.67933E+05,4.717951E-10,1.1650000000000058e-11,1.2605E-12,1.396744001486414e-09,20.660583079850767,2.0414812104491533,4.784582,0.0,0.0
2023-06-29 12:00:37.825950,0,True,0,0,32,3,627,26.19,2.75931E+05,3.6818471E-09,7.035999999999974e-11,8.1684E-12,2.75931E+05,2.5309342E-09,1.1790000000000018e-11,1.3714E-12,2.75931E+05,4.718704E-10,1.2070000000000042e-11,1.2493E-12,1.3970023855162939e-09,18.577162937344838,2.0283044039558686,4.644307,0.0,0.0
2023-06-29 12:01:04.957211,0,True,0,0,0,4,627,26.22,2.75931E+05,3.6822602E-09,6.359999999999966e-11,8.2076E-12,2.75931E+05,2.5315356E-09,1.227e-11,1.2712E-12,2.75931E+05,4.718505E-10,1.2359999999999997e-11,1.2373E-12,1.3965613845023241e-09,19.271636318180754,2.075897561427164,4.879535,0.0,0.0
2023-06-29 12:01:27.003199,0,True,0,0,0,4,627,26.22,2.75931E+05,3.6811802E-09,6.763999999999999e-11,8.1899E-12,2.75931E+05,2.5311014E-09,1.4940000000000364e-11,1.4205E-12,2.75931E+05,4.718832E-10,1.1370000000000034e-11,1.2275E-12,1.3967774507967633e-09,18.924399627761886,2.045113500590535,4.729937,0.0,0.0
2023-06-29 12:01:49.245836,0,True,0,0,0,4,628,26.22,2.79930E+05,3.6815553E-09,6.268999999999991e-11,8.0589E-12,2.79930E+05,2.5309431E-09,1.0930000000000085e-11,1.2620E-12,2.79930E+05,4.718984E-10,1.1829999999999948e-11,1.2479E-12,1.3968666940985808e-09,19.96610969901485,2.02963126788342,4.692812,0.0,0.0
2023-06-29 12:02:11.295928,0,True,0,0,0,4,628,26.16,2.75931E+05,3.6823551E-09,6.75200000000002e-11,8.0399E-12,2.75931E+05,2.5314026E-09,1.486999999999997e-11,1.5857E-12,2.75931E+05,4.719356E-10,1.1039999999999995e-11,1.2307E-12,1.3963611817161357e-09,17.709071211300397,2.048789406077921,4.707721,0.0,0.0
2023-06-29 12:02:33.372285,0,True,0,0,0,4,627,26.18,2.75931E+05,3.6819206E-09,6.55699999999998e-11,8.1051E-12,2.75931E+05,2.5313530E-09,1.0669999999999923e-11,1.2974E-12,2.75931E+05,4.719112E-10,1.078000000000004e-11,1.2329E-12,1.3967168180620449e-09,20.139728044223375,2.090723955109596,4.752154,0.0,0.0
2023-06-29 12:02:54.445165,0,True,0,0,0,4,627,26.22,2.67933E+05,3.6820782E-09,6.435999999999997e-11,8.1435E-12,2.67933E+05,2.5312794E-09,1.216999999999997e-11,1.4111E-12,2.67933E+05,4.718802E-10,1.1529999999999959e-11,1.2309E-12,1.396580126602709e-09,18.750781282553362,2.030233756832949,4.762392,0.0,0.0
2023-06-29 12:03:16.547480,0,True,0,0,0,4,627,26.18,2.75931E+05,3.6825395E-09,6.213000000000007e-11,8.1614E-12,2.75931E+05,2.5315105E-09,1.188000000000017e-11,1.3105E-12,2.75931E+05,4.718495E-10,1.1210000000000006e-11,1.2568E-12,1.3963764653390073e-09,19.271636318179844,2.0912992371350523,4.852999,0.0,0.0
2023-06-29 12:03:38.616489,0,True,0,0,0,4,627,26.18,2.75931E+05,3.6824052E-09,6.576999999999987e-11,8.1044E-12,2.75931E+05,2.5315711E-09,1.5449999999999983e-11,1.5493E-12,2.75931E+05,4.718542E-10,1.1309999999999933e-11,1.2347E-12,1.3964138366878432e-09,19.792491353806327,2.0965561101451833,4.749962,0.0,0.0
2023-06-29 12:04:00.661048,0,True,0,0,0,4,628,26.32,2.75931E+05,3.6823609E-09,6.463000000000001e-11,7.9847E-12,2.75931E+05,2.5311431E-09,1.1699999999999867e-11,1.2947E-12,2.75931E+05,4.717304E-10,1.1109999999999975e-11,1.2133E-12,1.3966935705656417e-09,20.139728044224285,2.0043770656940807,4.810194,0.0,0.0
2023-06-29 12:04:22.722881,0,True,0,0,0,4,628,26.35,2.75931E+05,3.6825261E-09,6.55699999999998e-11,8.1763E-12,2.75931E+05,2.5313579E-09,1.4070000000000139e-11,1.4687E-12,2.75931E+05,4.717259E-10,1.135000000000007e-11,1.2392E-12,1.3965077364336654e-09,17.535452866090964,2.030243422169248,4.765883,0.0,0.0
2023-06-29 12:04:44.787549,0,True,0,0,0,4,628,26.33,2.75931E+05,3.6814639E-09,6.497999999999991e-11,8.0422E-12,2.75931E+05,2.5303842E-09,1.0679999999999802e-11,1.1839E-12,2.75931E+05,4.716362E-10,1.1550000000000027e-11,1.2321E-12,1.3970657510037416e-09,21.528674805894298,2.1008544997176193,4.712046,0.0,0.0
2023-06-29 12:05:05.884189,0,True,0,0,0,4,628,26.43,2.67933E+05,3.6820255E-09,6.289999999999986e-11,7.9741E-12,2.67933E+05,2.5310875E-09,1.1659999999999937e-11,1.3816E-12,2.67933E+05,4.718422E-10,1.1070000000000046e-11,1.2404E-12,1.3966794484494518e-09,18.22992624692688,2.014172079761156,4.717327,0.0,0.0
2023-06-29 12:05:27.952774,0,True,0,0,0,4,628,26.22,2.75931E+05,3.6814550E-09,6.770999999999997e-11,8.0430E-12,2.75931E+05,2.5308099E-09,1.1639999999999765e-11,1.3142E-12,2.75931E+05,4.718465E-10,1.3190000000000034e-11,1.2288E-12,1.3967989829439416e-09,22.04952984152169,2.040115606769092,4.730713,0.0,0.0
2023-06-29 12:05:49.516275,0,True,0,0,0,4,628,26.25,2.67933E+05,3.6822605E-09,6.432000000000004e-11,7.9266E-12,2.67933E+05,2.5312151E-09,1.1519999999999977e-11,1.2683E-12,2.67933E+05,4.719290E-10,1.1979999999999994e-11,1.2647E-12,1.3966725245498476e-09,20.660583079850767,2.0695800419208563,4.719567,0.0,0.0
2023-06-29 12:06:11.590471,0,True,0,0,0,4,628,26.34,2.75931E+05,3.6815625E-09,6.893000000000009e-11,7.9827E-12,2.75931E+05,2.5304591E-09,1.4049999999999967e-11,1.4190E-12,2.75931E+05,4.717764E-10,1.1399999999999981e-11,1.2602E-12,1.397324725336055e-09,19.618873008596893,2.0583638483026014,4.727713,0.0,0.0
2023-06-29 12:06:33.715262,0,True,0,0,0,4,628,26.36,2.75931E+05,3.6817878E-09,6.710999999999978e-11,8.0123E-12,2.75931E+05,2.5312037E-09,1.4400000000000281e-11,1.5020E-12,2.75931E+05,4.717398E-10,1.109000000000001e-11,1.2186E-12,1.3967967745186255e-09,18.403544592135404,2.017911014689246,4.715551,0.0,0.0
2023-06-29 12:06:55.793723,0,True,0,0,0,4,628,26.28,2.75931E+05,3.6819064E-09,6.422999999999989e-11,8.0638E-12,2.75931E+05,2.5305271E-09,1.160000000000025e-11,1.2836E-12,2.75931E+05,4.716946E-10,1.2790000000000015e-11,1.2620E-12,1.397239308582523e-09,20.139728044223375,2.079558355663015,4.70171,0.0,0.0
2023-06-29 12:07:17.836681,0,True,0,0,0,4,628,26.19,2.75931E+05,3.6817028E-09,6.505000000000031e-11,8.0321E-12,2.75931E+05,2.5306739E-09,1.1400000000000188e-11,1.3433E-12,2.75931E+05,4.717203E-10,1.1270000000000003e-11,1.2186E-12,1.3971668576470964e-09,18.750781282553362,2.045363262268194,4.713134,0.0,0.0
2023-06-29 12:07:39.956030,0,True,0,0,0,4,628,26.28,2.75931E+05,3.6813738E-09,7.114000000000023e-11,8.0815E-12,2.75931E+05,2.5304687E-09,1.39200000000003e-11,1.4237E-12,2.75931E+05,4.717194E-10,1.1470000000000065e-11,1.2310E-12,1.3979172309265127e-09,18.056307901718355,2.0233416555818384,4.685334,0.0,0.0
2023-06-29 12:08:02.033850,0,True,0,0,0,4,628,26.3,2.75931E+05,3.6816431E-09,6.839000000000001e-11,8.0973E-12,2.75931E+05,2.5304179E-09,1.4880000000000263e-11,1.5467E-12,2.75931E+05,4.718643E-10,1.1460000000000082e-11,1.2605E-12,1.3973323332919011e-09,19.271636318179844,2.0751310231361835,4.709181,0.0,0.0
2023-06-29 12:08:23.381032,0,True,0,0,0,4,627,26.41,2.67933E+05,3.6811917E-09,6.497000000000004e-11,8.0648E-12,2.67933E+05,2.5300885E-09,1.173000000000033e-11,1.2721E-12,2.67933E+05,4.719015E-10,1.2220000000000088e-11,1.2311E-12,1.3977810273347334e-09,20.3133463894319,2.0947193661036883,4.738918,0.0,0.0
2023-06-29 12:08:45.402128,0,True,0,0,0,4,627,26.46,2.75931E+05,3.6815536E-09,6.602999999999962e-11,8.2233E-12,2.75931E+05,2.5301974E-09,1.3689999999999774e-11,1.4543E-12,2.75931E+05,4.718534E-10,1.1959999999999926e-11,1.2549E-12,1.3972257420450568e-09,21.875911496312256,2.1648889946960224,4.764606,0.0,0.0
2023-06-29 12:09:07.474702,0,True,0,0,0,4,627,26.51,2.75931E+05,3.6814667E-09,6.483000000000007e-11,8.2408E-12,2.75931E+05,2.5303492E-09,1.1709999999999746e-11,1.3664E-12,2.75931E+05,4.718323E-10,1.1290000000000072e-11,1.2315E-12,1.3974027893525854e-09,20.83420142505929,2.1176649531093004,4.731172,0.0,0.0
2023-06-29 12:09:29.488044,0,True,0,0,0,4,627,26.44,2.75931E+05,3.6819803E-09,6.381000000000001e-11,8.1985E-12,2.75931E+05,2.5304922E-09,1.3299999999999944e-11,1.4580E-12,2.75931E+05,4.716371E-10,1.1539999999999942e-11,1.2131E-12,1.397424873606064e-09,18.22992624692688,2.056987135274173,4.745646,0.0,0.0
2023-06-29 12:09:51.517459,0,True,0,0,0,4,627,26.31,2.75931E+05,3.6817370E-09,6.723999999999986e-11,8.3420E-12,2.75931E+05,2.5305278E-09,1.2400000000000081e-11,1.4015E-12,2.75931E+05,4.718074E-10,1.1210000000000006e-11,1.2119E-12,1.3970943580984987e-09,20.83420142505929,2.1011889322087662,4.789942,0.0,0.0
