verilog xil_defaultlib --include "../../../../../../src/ip/udp_bridge/MAC_AXIS_ILA/hdl/verilog" \
"../../../../../../src/ip/udp_bridge/MAC_AXIS_ILA/MAC_AXIS_ILA_sim_netlist.v" \

verilog xil_defaultlib "glbl.v"

nosort
