verilog xil_defaultlib --include "../../../../../../src/ip/vio_1/hdl/verilog" --include "../../../../../../src/ip/vio_1/hdl" \
"../../../../../../src/ip/vio_1/vio_1_sim_netlist.v" \

verilog xil_defaultlib "glbl.v"

nosort
