Time,ambient T,step,ddmtd,range,stdDev,timeTook
2023-05-18 17:39:12.632693,25.44,0,2.306841814589284e-09,14.41032265233298,1.4349399755146652,4.656995
2023-05-18 17:39:19.625601,25.41,0,2.3067672975955157e-09,14.063085961915021,1.431565037920166,4.726385
2023-05-18 17:39:26.547196,25.4,0,2.315789626650909e-09,14.583940997541504,1.4321066570242278,4.660559
2023-05-18 17:39:33.505542,25.33,0,2.3093456515548063e-09,12.500520855035575,1.4384590143639335,4.698011
2023-05-18 17:39:40.417836,25.38,0,2.320417201410975e-09,13.368612581080015,1.4386097326383274,4.642856
2023-05-18 17:39:57.480651,25.33,1,2.3301500444455482e-09,15.278414378376965,1.4114899590860013,4.658135
2023-05-18 17:40:04.383523,25.42,1,2.3213892731633085e-09,15.625651068794468,1.41449137181438,4.644688
2023-05-18 17:40:11.346817,25.44,1,2.3191529820679993e-09,13.021375890662057,1.4108835919197655,4.704601
2023-05-18 17:40:18.239991,25.34,1,2.313526678194147e-09,15.278414378376965,1.4124222759810785,4.634975
2023-05-18 17:40:25.176673,25.37,1,2.311943759808686e-09,14.063085961915021,1.4048347506062309,4.678713
2023-05-18 17:40:42.220179,25.41,2,2.3166384953528306e-09,13.889467616706497,1.4203736547890686,4.651312
2023-05-18 17:40:49.140912,25.42,2,2.321075692388807e-09,14.410322652332525,1.418053287461553,4.643219
2023-05-18 17:40:56.132317,25.51,2,2.3215308415617074e-09,14.063085961915021,1.4089132288196364,4.72823
2023-05-18 17:41:03.053418,25.51,2,2.320956642289468e-09,14.410322652332525,1.4181211126071063,4.660303
2023-05-18 17:41:09.987871,25.44,2,2.3277942067019265e-09,13.889467616706497,1.411762593724658,4.672105
2023-05-18 17:41:27.124326,25.51,3,2.3143753663342857e-09,13.021375890662057,1.4270601944197132,4.719665
2023-05-18 17:41:34.136922,25.51,3,2.3132824510045514e-09,13.889467616706042,1.4321057966743347,4.748856
2023-05-18 17:41:41.050395,25.63,3,2.314274593038227e-09,13.889467616706042,1.4294890666013018,4.654733
2023-05-18 17:41:48.081793,25.57,3,2.3118417069456477e-09,12.847757545453078,1.4268880329899423,4.773212
2023-05-18 17:41:55.033085,25.42,3,2.323412628303478e-09,13.715849271497518,1.4297788811067134,4.693247
2023-05-18 17:42:12.135032,25.49,4,2.3178913444309757e-09,12.674139200244099,1.4424166897643864,4.732519
2023-05-18 17:42:19.061883,25.54,4,2.307425517729881e-09,12.847757545453078,1.442650993997566,4.67068
2023-05-18 17:42:26.080544,25.68,4,2.312965113129701e-09,13.021375890662057,1.455926365294998,4.762462
2023-05-18 17:42:33.034555,25.63,4,2.3072363032487325e-09,12.847757545453078,1.4461110629255602,4.696717
2023-05-18 17:42:39.966898,25.67,4,2.316499894092849e-09,12.847757545453078,1.4507217883312074,4.671133
2023-05-18 17:42:57.010344,25.5,5,2.298736252899175e-09,13.54223092628854,1.472571374731878,4.691377
2023-05-18 17:43:04.005619,25.54,5,2.308524155520165e-09,15.799269414002993,1.4684488485933715,4.735817
2023-05-18 17:43:10.956382,25.55,5,2.3078675882326956e-09,11.45881078378261,1.4686125847966995,4.689446
2023-05-18 17:43:17.846644,25.51,5,2.3066034921592403e-09,14.063085961915021,1.4629955313677812,4.632001
2023-05-18 17:43:24.802156,25.51,5,2.3004836434155185e-09,13.194994235871036,1.4621835274961708,4.699885
2023-05-18 17:43:41.864552,25.42,6,2.296141431239457e-09,11.979665819409092,1.4833632036277915,4.663253
2023-05-18 17:43:48.835541,25.37,6,2.3021742121192806e-09,13.36861258107956,1.4718754740082938,4.714685
2023-05-18 17:43:55.816063,25.31,6,2.301791232620096e-09,13.194994235870581,1.4751546460818705,4.720491
2023-05-18 17:44:02.780361,25.27,6,2.301218516048606e-09,13.54223092628854,1.4729294982749903,4.705968
2023-05-18 17:44:09.721233,25.34,6,2.3088750451400997e-09,12.500520855035575,1.4726631448604193,4.681443
2023-05-18 17:44:26.822643,25.54,7,2.2953069763319344e-09,12.847757545453533,1.4698937825849645,4.728629
2023-05-18 17:44:33.771375,25.59,7,2.291079227259066e-09,13.021375890662057,1.4679098961359165,4.680555
2023-05-18 17:44:40.727148,25.54,7,2.299474087461546e-09,12.153284164618071,1.4732491638132934,4.69458
2023-05-18 17:44:47.733226,25.41,7,2.2967875293411025e-09,13.021375890662057,1.460086303276945,4.747838
2023-05-18 17:44:54.704876,25.37,7,2.307496708195659e-09,15.278414378376965,1.472191239161572,4.71395
2023-05-18 17:45:11.749227,25.34,8,2.291699176701838e-09,12.847757545453533,1.439893344911024,4.676894
2023-05-18 17:45:18.720263,25.48,8,2.2937559255940928e-09,14.41032265233298,1.4406669067570002,4.713982
2023-05-18 17:45:25.614765,25.51,8,2.297158202772341e-09,14.063085961915021,1.4371098606995316,4.637137
2023-05-18 17:45:32.604696,25.58,8,2.2852167381974064e-09,14.583940997541504,1.4518203000560044,4.734057
2023-05-18 17:45:39.565703,25.53,8,2.2954609758045367e-09,14.063085961915021,1.4373279640267473,4.705829
2023-05-18 17:45:56.685677,25.52,9,2.3024027025427845e-09,13.54223092628854,1.402339710691832,4.727239
2023-05-18 17:46:03.653929,25.64,9,2.2891089246771893e-09,16.493742794838454,1.4090220580262318,4.710997
2023-05-18 17:46:10.589390,25.63,9,2.2907262229674303e-09,14.236704307124,1.4071627729373566,4.681523
2023-05-18 17:46:17.550312,25.54,9,2.296371289775592e-09,13.36861258107956,1.3957198458188984,4.703603
2023-05-18 17:46:24.613270,25.57,9,2.2939810339316525e-09,14.583940997541504,1.3982801476910414,4.808114
2023-05-18 17:46:41.689040,25.5,10,2.3049903416104873e-09,13.36861258107956,1.3960865252265522,4.689407
2023-05-18 17:46:48.700154,25.49,10,2.2965108476732702e-09,13.368612581080015,1.4038842561544238,4.753599
2023-05-18 17:46:55.628146,25.45,10,2.301380326609853e-09,13.194994235871036,1.3999546451462133,4.670491
2023-05-18 17:47:02.615238,25.44,10,2.296430030069758e-09,14.236704307124,1.4159730915202653,4.729802
2023-05-18 17:47:09.510338,25.38,10,2.3015649471496237e-09,14.583940997541504,1.4035528114542484,4.634466
2023-05-18 17:47:47.349664,25.38,11,2.3056847490163707e-09,14.063085961915021,1.4120128968139822,4.658041
2023-05-18 17:47:54.329155,25.41,11,2.308427517812296e-09,13.889467616706042,1.4205039049841452,4.718327
2023-05-18 17:48:01.252179,25.45,11,2.309475766350366e-09,13.194994235870581,1.410428453424384,4.662824
2023-05-18 17:48:08.287447,25.49,11,2.3133669302183575e-09,13.194994235871036,1.4090548898790556,4.766707
2023-05-18 17:48:15.196887,25.38,11,2.3107372199526706e-09,14.063085961915021,1.4167423346833106,4.653811
2023-05-18 17:48:32.191731,25.38,12,2.3105712720667963e-09,13.021375890662057,1.449082933087811,4.637937
2023-05-18 17:48:39.098530,25.31,12,2.3073652964704855e-09,13.889467616706042,1.4461600017776535,4.647079
2023-05-18 17:48:46.062726,25.23,12,2.3131818148670758e-09,13.36861258107956,1.441384808543727,4.708449
2023-05-18 17:48:53.003777,25.32,12,2.320064665888656e-09,13.36861258107956,1.4513872475200231,4.680332
2023-05-18 17:48:59.984571,25.41,12,2.314559261149644e-09,12.847757545453078,1.454980883367338,4.72005
2023-05-18 17:49:16.957971,25.32,13,2.31082156721807e-09,12.500520855035575,1.4609398128928646,4.640771
2023-05-18 17:49:23.855696,25.38,13,2.3179252816089533e-09,12.153284164617617,1.461007540145751,4.637416
2023-05-18 17:49:30.775983,25.41,13,2.3247542710113177e-09,13.36861258107956,1.4608858127634974,4.644855
2023-05-18 17:49:37.706274,25.35,13,2.324110015000578e-09,11.979665819409092,1.4555715026463316,4.673543
2023-05-18 17:49:44.637087,25.29,13,2.3202788727307175e-09,13.36861258107956,1.467320341105591,4.676425
2023-05-18 17:50:01.658668,25.2,14,2.3170885974409822e-09,12.153284164618071,1.4827063395907867,4.674339
2023-05-18 17:50:08.581874,25.19,14,2.3250285688981477e-09,11.806047474200568,1.4825730374984423,4.664882
2023-05-18 17:50:15.629132,25.24,14,2.313154445670835e-09,11.806047474200113,1.4679913858188776,4.791096
2023-05-18 17:50:22.523574,25.21,14,2.3269826607353024e-09,12.153284164617617,1.470070303999375,4.634742
2023-05-18 17:50:29.451765,25.21,14,2.3222939757900587e-09,13.021375890662057,1.4703560686676445,4.667568
2023-05-18 17:50:46.441327,25.18,15,2.311519434837151e-09,12.326902509826596,1.470352147818503,4.692988
2023-05-18 17:50:53.398606,25.28,15,2.3187003191101353e-09,11.111574093365107,1.4663123344054243,4.692474
2023-05-18 17:51:00.292127,25.21,15,2.315207881925296e-09,11.632429128991589,1.4591158340351453,4.629293
2023-05-18 17:51:07.353721,25.21,15,2.3164893033734215e-09,11.979665819409092,1.4696689194195682,4.737955
2023-05-18 17:51:14.400206,25.19,15,2.3138772934978478e-09,12.153284164618071,1.4694535229219767,4.787559
2023-05-18 17:51:31.417643,25.38,14,2.3165378644243367e-09,13.889467616706042,1.4703498469809135,4.665715
2023-05-18 17:51:38.314606,25.29,14,2.310737983873762e-09,13.36861258107956,1.482047847054448,4.638766
2023-05-18 17:51:45.248336,25.32,14,2.317481198868807e-09,12.326902509826596,1.4753818497846234,4.672486
2023-05-18 17:51:52.110330,25.18,14,2.321001725765826e-09,14.236704307123546,1.4750143798331494,4.604339
2023-05-18 17:51:59.042866,25.15,14,2.3146163416526935e-09,14.236704307124,1.4676664855599788,4.675436
2023-05-18 17:52:16.026670,25.17,13,2.3205601830630627e-09,14.757559342750483,1.4572780498774474,4.695727
2023-05-18 17:52:22.962157,25.18,13,2.322691627776008e-09,10.937955748156128,1.4727135620802965,4.675371
2023-05-18 17:52:29.969700,25.23,13,2.3196461779655583e-09,14.757559342750483,1.4636703670909732,4.748646
2023-05-18 17:52:36.927950,25.21,13,2.3216686025110725e-09,13.194994235871036,1.4631338849225262,4.697315
2023-05-18 17:52:43.855553,25.19,13,2.3145640530159514e-09,11.632429128991589,1.4536563269820924,4.650995
2023-05-18 17:53:00.866579,25.03,12,2.3195732200647144e-09,12.847757545453078,1.450985424549806,4.677277
2023-05-18 17:53:07.810487,25.1,12,2.321167671916891e-09,13.021375890662057,1.456802751595645,4.681786
2023-05-18 17:53:14.799050,25.12,12,2.3168886255677336e-09,12.847757545453078,1.4595051236659755,4.733359
2023-05-18 17:53:21.749203,25.14,12,2.3226521487007113e-09,12.847757545453078,1.451656352390767,4.690553
2023-05-18 17:53:28.712483,25.18,12,2.3184607917691225e-09,14.410322652332525,1.4412465589771388,4.703649
2023-05-18 17:54:06.525876,25.11,11,2.312460512243069e-09,13.715849271497518,1.4389653621862581,4.67123
2023-05-18 17:54:13.562283,25.13,11,2.3091373737789608e-09,13.889467616706042,1.4326395712268776,4.773334
2023-05-18 17:54:20.504216,25.14,11,2.3114201459779186e-09,13.715849271497518,1.434667722269157,4.68533
2023-05-18 17:54:27.561231,25.07,11,2.3188849153431015e-09,13.021375890662057,1.4285513964335286,4.797384
2023-05-18 17:54:34.509753,25.08,11,2.3065700115972027e-09,14.063085961915021,1.4332240955422733,4.692899
2023-05-18 17:54:51.451795,25.1,10,2.3026642620515518e-09,14.063085961915021,1.4163205130970942,4.647433
2023-05-18 17:54:58.468716,25.15,10,2.3053254527956345e-09,14.063085961915021,1.4090727649963382,4.759973
2023-05-18 17:55:05.409356,25.11,10,2.308908918078904e-09,13.36861258107956,1.4106935302207901,4.683447
2023-05-18 17:55:12.373668,25.16,10,2.309927859840295e-09,26.04275178132457,1.4044084310227376,4.703045
2023-05-18 17:55:19.382893,25.23,10,2.304759882355171e-09,13.54223092628854,1.4022557788999843,4.752996
2023-05-18 17:55:36.474936,25.06,9,2.3032188528682706e-09,13.54223092628854,1.4028309527286893,4.715103
2023-05-18 17:55:43.424717,25.06,9,2.3081837298769938e-09,14.063085961915021,1.405609598858021,4.690973
2023-05-18 17:55:50.378314,25.02,9,2.295016151714103e-09,13.54223092628854,1.3973727594173748,4.693065
2023-05-18 17:55:57.308562,25.03,9,2.297036194215964e-09,13.715849271497518,1.4046664370960962,4.671734
2023-05-18 17:56:04.305657,25.08,9,2.2994712036606312e-09,14.063085961915021,1.4066082374516546,4.735147
2023-05-18 17:56:21.310237,25.16,8,2.2911351549370388e-09,13.021375890662057,1.433616400404394,4.676821
2023-05-18 17:56:28.303070,25.05,8,2.29813445178268e-09,13.715849271497063,1.4277451880374679,4.735695
2023-05-18 17:56:35.317957,25.0,8,2.2996797870049884e-09,13.715849271497518,1.4457263642852847,4.75735
2023-05-18 17:56:42.312700,25.03,8,2.3057275598288484e-09,13.715849271497518,1.4391526320547878,4.734074
2023-05-18 17:56:49.251955,25.02,8,2.3005020539049777e-09,13.021375890662057,1.4295733588486972,4.680651
2023-05-18 17:57:06.298721,25.06,7,2.295869932080235e-09,12.674139200244554,1.4636571976447157,4.685511
2023-05-18 17:57:13.280842,25.09,7,2.30014846104665e-09,12.32690250982705,1.4620853757482664,4.719414
2023-05-18 17:57:20.235385,25.06,7,2.303899455879868e-09,12.32690250982705,1.452849232316163,4.697664
2023-05-18 17:57:27.217017,25.03,7,2.2942541598952404e-09,12.153284164617617,1.458168005346384,4.723388
2023-05-18 17:57:34.177137,25.06,7,2.301474132602426e-09,12.847757545453533,1.4592431448098113,4.701881
2023-05-18 17:57:51.287251,24.93,6,2.308811707431494e-09,11.806047474200113,1.479100972754062,4.708697
2023-05-18 17:57:58.195595,24.92,6,2.304373374931571e-09,14.410322652332525,1.471156303885437,4.650458
2023-05-18 17:58:05.170631,24.86,6,2.2984008153110045e-09,13.021375890662057,1.470323743840958,4.718905
2023-05-18 17:58:12.122423,24.88,6,2.3065918302144007e-09,12.500520855035575,1.4679521211621647,4.694521
2023-05-18 17:58:19.088050,25.02,6,2.3002349715953854e-09,12.153284164618071,1.4783177484530838,4.707454
2023-05-18 17:58:36.204715,24.94,5,2.3112324089889337e-09,12.153284164618071,1.4627171991296133,4.733474
2023-05-18 17:58:43.163491,24.97,5,2.3104133904882463e-09,11.806047474200113,1.4663934899361393,4.696894
2023-05-18 17:58:50.152602,24.98,5,2.3053481429778458e-09,10.764337402947604,1.469147558203021,4.709348
2023-05-18 17:58:57.112828,25.02,5,2.2989652815391218e-09,12.500520855035575,1.474331420018291,4.703042
2023-05-18 17:59:04.047797,24.98,5,2.312989548175296e-09,12.32690250982705,1.4613745040681074,4.676224
2023-05-18 17:59:21.197933,24.93,4,2.313644698737417e-09,13.021375890662057,1.4548331020189864,4.670039
2023-05-18 17:59:28.162468,24.9,4,2.3128928965790204e-09,14.236704307123546,1.45512345110812,4.704468
2023-05-18 17:59:35.162689,24.9,4,2.3138627338639084e-09,11.979665819409092,1.4457633870379079,4.739758
2023-05-18 17:59:42.080521,24.86,4,2.3189022181479917e-09,12.847757545453078,1.4440572200493917,4.656981
2023-05-18 17:59:48.968393,24.89,4,2.314802014320048e-09,11.806047474200113,1.4487759259958524,4.628444
2023-05-18 18:00:06.040926,25.0,3,2.319648737099618e-09,13.715849271497063,1.4270600760668093,4.672488
2023-05-18 18:00:12.994801,25.05,3,2.323105386334968e-09,13.889467616706497,1.4398663286224058,4.695271
2023-05-18 18:00:19.996108,24.93,3,2.3173216331924838e-09,13.889467616706042,1.4342748753083434,4.737698
2023-05-18 18:00:26.975429,24.87,3,2.316618860854548e-09,13.54223092628854,1.437814530087144,4.717649
2023-05-18 18:00:33.992232,24.92,3,2.3137753378607366e-09,12.847757545453078,1.4361478108103394,4.753532
2023-05-18 18:00:51.097890,25.1,2,2.3227952761909776e-09,13.36861258107956,1.4004377544013646,4.726735
2023-05-18 18:00:58.146140,25.03,2,2.3180560005961765e-09,14.236704307124,1.4173495299661374,4.785469
2023-05-18 18:01:05.096090,25.0,2,2.3267930191524077e-09,13.36861258107956,1.4200255772639347,4.688086
2023-05-18 18:01:12.088685,24.97,2,2.3199366188858485e-09,13.368612581080015,1.419663225933737,4.732769
2023-05-18 18:01:19.028616,24.96,2,2.3194345979682868e-09,15.27841437837651,1.4203913678155289,4.681884
2023-05-18 18:01:36.119986,24.96,1,2.3202434181276227e-09,14.410322652332525,1.4045029785668828,4.652332
2023-05-18 18:01:43.080886,24.93,1,2.3214059509413995e-09,13.194994235871036,1.4089175283509805,4.701707
2023-05-18 18:01:50.062265,24.96,1,2.3163704946029564e-09,14.063085961915021,1.4161745264149863,4.722432
2023-05-18 18:01:57.076134,25.06,1,2.322325560439064e-09,14.41032265233298,1.4233365037102539,4.7297
2023-05-18 18:02:04.029733,25.1,1,2.3209471818263046e-09,12.847757545453078,1.4105211860033093,4.692278
2023-05-18 18:02:21.039986,24.94,0,2.314315896842651e-09,14.236704307124,1.4240507874120238,4.667735
2023-05-18 18:02:28.005362,24.93,0,2.3196110983788244e-09,14.063085961915021,1.4337684305423586,4.702995
2023-05-18 18:02:34.972584,24.96,0,2.3234785008400667e-09,14.757559342750483,1.4272145069640472,4.704788
2023-05-18 18:02:41.968520,25.03,0,2.319683134366436e-09,13.889467616706042,1.4226093038596102,4.732779
2023-05-18 18:02:48.990961,24.93,0,2.3184235020206254e-09,13.889467616706042,1.4268786025336992,4.75776
