verilog xil_defaultlib  \
"../../../../m_top.gen/sources_1/ip/m_gth/sim/gtwizard_ultrascale_v1_7_gthe3_channel.v" \
"../../../../m_top.gen/sources_1/ip/m_gth/sim/m_gth_gthe3_channel_wrapper.v" \
"../../../../m_top.gen/sources_1/ip/m_gth/sim/m_gth_gtwizard_gthe3.v" \
"../../../../m_top.gen/sources_1/ip/m_gth/sim/m_gth_gtwizard_top.v" \
"../../../../m_top.gen/sources_1/ip/m_gth/sim/m_gth.v" \

verilog xil_defaultlib "glbl.v"

nosort
