Design Route Status
                                               :      # nets :
   ------------------------------------------- : ----------- :
   # of logical nets.......................... :        2912 :
       # of nets not needing routing.......... :         737 :
           # of internally routed nets........ :         710 :
           # of nets with no loads............ :          27 :
       # of routable nets..................... :        2175 :
           # of fully routed nets............. :        2175 :
       # of nets with routing errors.......... :           0 :
   ------------------------------------------- : ----------- :

