Time,Legal,wasIllegal,LOLs,Valid,Slides,N reset,Temp,ambient T,N,Mean [s],Range [s],StdD [s],N C,Mean C,Range C,StdD C,N fo,Mean fo,Range fo,StdD fo,ddmtd,range dd,stdD dd,timeTook 100k,txpi_steps,desired_shift,step_done,ali_done,undo_step,undo,dmtd c,range dd c,stdD dd c,timeTook c
2023-07-29 16:05:39.283083,1,True,0,1,36,0,620,27.55,1.80000E+05,1.8739195E-09,2.5170000000000235e-11,2.7105E-12,1.80000E+05,5.930681E-10,9.669999999999926e-12,1.1321E-12,1.80000E+05,2.0156333E-09,6.84499999999997e-11,9.0379E-12,2.510894551161423e-12,16.320124449629475,2.441166695215417,4.880528,0,0,0,0,0,0,7.786066606943377e-11,15.625651068794923,1.8861748613408846,4.962341
2023-07-29 16:06:25.272120,1,True,0,1,22,1,620,27.49,1.84000E+05,1.8790774E-09,2.3979999999999746e-11,2.5618E-12,1.84000E+05,5.985079E-10,9.98e-12,1.2250E-12,1.83954E+05,2.47283776E-08,6.883000000000089e-11,8.9264E-12,3.3300425330224296e-09,20.486964734641333,2.7684193709928864,5.002154,0,0,0,0,0,0,7.815950143757815e-11,15.799269414003447,1.9097302234378395,4.891475
2023-07-29 16:07:10.980300,1,True,0,1,26,2,620,27.48,1.76000E+05,1.8800812E-09,2.5089999999999962e-11,2.5404E-12,1.76000E+05,5.991265E-10,9.580000000000085e-12,1.1352E-12,1.76000E+05,5.7709924E-09,6.940999999999966e-11,9.0398E-12,-4.143525077434301e-12,17.01459783046539,2.5229543124937055,5.023753,0,0,0,0,0,0,7.76147599900136e-11,16.840979485256412,2.0232166069427455,4.976361
2023-07-29 16:07:58.926053,1,True,0,1,8,3,620,27.58,1.84000E+05,1.8738379E-09,2.5640000000000337e-11,2.8281E-12,1.84000E+05,5.930140E-10,1.0430000000000035e-11,1.1202E-12,1.83954E+05,1.70151751E-08,7.272000000000014e-11,9.1531E-12,2.710888653346786e-09,22.04952984152078,2.8823128044334028,4.996868,0,0,0,0,0,0,7.811260017780098e-11,15.799269414003902,1.9965670501135813,4.976473
2023-07-29 16:08:43.980298,1,True,0,1,12,4,620,27.55,1.80000E+05,1.8797530E-09,2.990000000000007e-11,3.0252E-12,1.80000E+05,5.985408E-10,9.210000000000013e-12,1.1137E-12,1.79955E+05,1.80617718E-08,7.20099999999988e-11,9.1334E-12,1.4548437955747337e-09,19.79249135380678,2.807210767639119,4.98075,0,0,0,0,0,0,7.82485068822462e-11,18.750781282553817,1.9227378826208543,4.947186
2023-07-29 16:09:28.719735,1,True,0,1,12,5,620,27.53,1.80000E+05,1.8799249E-09,2.880000000000015e-11,2.8627E-12,1.80000E+05,5.983415E-10,9.450000000000004e-12,1.0466E-12,1.80000E+05,5.1451347E-09,6.644999999999991e-11,9.0842E-12,-3.595781768685294e-12,19.271636318179844,2.511214320076761,4.943508,0,0,0,0,0,0,7.763041689238265e-11,14.931177687959462,1.873404049850014,4.989466
2023-07-29 16:10:16.622691,1,True,0,1,28,6,620,27.55,1.84000E+05,1.8813913E-09,2.6739999999999848e-11,3.2107E-12,1.84000E+05,5.995590E-10,9.240000000000063e-12,1.0781E-12,1.83954E+05,1.34798597E-08,7.008000000000065e-11,9.2062E-12,2.0354114407544956e-10,19.96610969901485,2.708808159720421,4.866855,0,0,0,0,0,0,7.785298866620743e-11,15.799269414003447,2.018628377834136,4.951496
2023-07-29 16:11:05.196551,1,True,0,1,6,7,620,27.49,1.80000E+05,1.8739893E-09,2.7430000000000183e-11,3.1280E-12,1.80000E+05,5.926083E-10,9.680000000000012e-12,1.1610E-12,1.79955E+05,2.43069136E-08,7.178000000000159e-11,9.3284E-12,3.960788255066606e-09,21.181438115476794,2.774078484127917,4.967721,0,0,0,0,0,0,7.790368175064323e-11,15.799269414003447,1.9103268755106613,4.977645
2023-07-29 16:11:53.141563,1,True,0,1,8,8,620,27.49,1.84000E+05,1.8746856E-09,2.5970000000000066e-11,3.0394E-12,1.84000E+05,5.929224E-10,9.619999999999911e-12,1.1183E-12,1.83954E+05,1.74315627E-08,7.131000000000066e-11,9.1192E-12,4.187614101976416e-10,19.792491353806327,2.71825888957199,4.894123,0,0,0,0,0,0,7.733648971486082e-11,15.625651068794468,1.922299778983771,4.968076
2023-07-29 16:12:40.574079,1,True,0,1,34,9,620,27.53,1.84000E+05,1.8812739E-09,2.71199999999998e-11,3.1099E-12,1.84000E+05,5.994622E-10,9.819999999999972e-12,1.0615E-12,1.83954E+05,1.38968638E-08,7.067000000000013e-11,9.1600E-12,3.3297491214913605e-09,21.18143811547725,2.737391244966455,4.951158,0,0,0,0,0,0,7.756200431963808e-11,16.320124449629475,1.8934744838820197,4.959943
2023-07-29 16:13:27.338016,1,True,0,1,10,10,620,27.47,1.76000E+05,1.8740624E-09,2.7650000000000003e-11,3.0086E-12,1.76000E+05,5.928830E-10,9.560000000000017e-12,1.1025E-12,1.76000E+05,9.725635E-10,7.242000000000005e-11,9.0790E-12,3.3356201595208536e-09,19.271636318179844,2.8227061983372574,4.906114,0,0,0,0,0,0,7.828537126548603e-11,14.931177687959462,1.976976568570187,4.964105
2023-07-29 16:14:13.121014,1,True,0,1,18,11,620,27.43,1.80000E+05,1.8805400E-09,2.7300000000000102e-11,3.0037E-12,1.80000E+05,5.993925E-10,1.065999999999994e-11,1.2124E-12,1.79955E+05,2.20214714E-08,6.945e-11,9.1496E-12,3.746585711905034e-09,21.007819770267815,2.7987440469105778,4.862695,0,0,0,0,0,0,7.827377529621123e-11,15.278414378376965,1.9415920368430422,4.981987
2023-07-29 16:14:59.206974,1,True,0,1,32,12,620,27.49,1.84000E+05,1.8752574E-09,2.8190000000000086e-11,2.9312E-12,1.84000E+05,5.937290E-10,9.940000000000071e-12,1.1521E-12,1.83954E+05,1.34735470E-08,7.018999999999932e-11,9.0720E-12,2.9187059842773113e-09,20.486964734642243,2.808353249768285,4.912982,0,0,0,0,0,0,7.783210758783211e-11,15.972887759212426,1.911543210265659,5.00016
2023-07-29 16:15:47.459602,1,True,0,1,28,13,620,27.57,1.84000E+05,1.8811873E-09,2.5469999999999913e-11,2.8398E-12,1.84000E+05,6.003664E-10,9.500000000000019e-12,1.0518E-12,1.83954E+05,2.45219059E-08,7.389999999999909e-11,9.0768E-12,2.703857579135304e-09,23.0912399127742,2.780853456101544,4.976388,0,0,0,0,0,0,7.83606487076036e-11,15.972887759211972,1.9265093917738496,5.02998
2023-07-29 16:16:34.829834,1,True,0,1,22,14,620,27.48,1.76000E+05,1.8747718E-09,2.669000000000004e-11,3.0736E-12,1.76000E+05,5.930739E-10,9.780000000000043e-12,1.1682E-12,1.76000E+05,2.8491213E-09,7.160000000000004e-11,9.1296E-12,2.295092771226624e-09,21.00781977026827,2.793314912193067,5.007781,0,0,0,0,0,0,7.785997159605406e-11,15.972887759212426,1.8971875386082329,4.975464
2023-07-29 16:17:23.589339,1,True,0,1,4,15,620,27.5,1.84000E+05,1.8811623E-09,2.5830000000000106e-11,3.0731E-12,1.84000E+05,5.997428E-10,8.69999999999998e-12,1.0729E-12,1.84000E+05,9.792512E-10,6.960000000000005e-11,9.1842E-12,3.1214779018573017e-09,20.13972804422383,2.702705328083657,5.00749,0,0,0,0,0,0,7.818452331348826e-11,15.972887759212426,1.8970477395778182,5.010564
2023-07-29 16:18:11.574338,1,True,0,1,22,16,620,27.49,1.84000E+05,1.8812971E-09,2.699000000000013e-11,3.1793E-12,1.84000E+05,5.997014E-10,9.699999999999977e-12,1.0519E-12,1.83954E+05,1.05635118E-08,7.478000000000003e-11,9.1538E-12,2.2885896443601673e-09,19.618873008596893,2.816694279981127,4.872011,0,0,0,0,0,0,7.804010410157609e-11,15.104796033167986,1.939444429570353,5.0395
2023-07-29 16:18:59.150477,1,True,0,1,30,17,620,27.52,1.84000E+05,1.8797310E-09,2.5759999999999713e-11,3.3072E-12,1.84000E+05,5.979685E-10,9.629999999999997e-12,1.0723E-12,1.83954E+05,1.45195923E-08,7.297000000000042e-11,9.1355E-12,2.9133906742644716e-09,19.792491353806327,2.7400933232529265,5.007749,0,0,0,0,0,0,7.810000243067533e-11,15.625651068794468,1.881736495300489,5.023376
2023-07-29 16:19:44.528444,1,True,0,1,8,18,620,27.55,1.76000E+05,1.8734865E-09,2.686000000000005e-11,3.3618E-12,1.76000E+05,5.917819E-10,9.529999999999966e-12,1.1358E-12,1.75956E+05,1.20131073E-08,7.341999999999994e-11,9.1789E-12,3.961648164160096e-09,20.660583079850767,2.735209598605056,4.952589,0,0,0,0,0,0,7.774781240886574e-11,15.27841437837651,1.9215035304259693,5.017582
2023-07-29 16:20:32.031393,1,True,0,1,8,19,620,27.49,1.76000E+05,1.8816551E-09,2.7760000000000326e-11,3.1965E-12,1.76000E+05,5.999520E-10,9.210000000000013e-12,1.0906E-12,1.76000E+05,5.1470127E-09,7.54899999999997e-11,9.0974E-12,3.746316978485639e-09,19.271636318179844,2.793197097922335,4.989364,0,0,0,0,0,0,7.784884786867646e-11,15.45203272358549,1.9972346338732792,5.027434
2023-07-29 16:21:19.302989,1,True,0,1,16,20,620,27.55,1.76000E+05,1.8803028E-09,2.700999999999989e-11,3.3068E-12,1.76000E+05,5.981707E-10,1.0339999999999987e-11,1.1387E-12,1.75956E+05,2.18114389E-08,7.325000000000034e-11,9.1144E-12,3.747031176646702e-09,20.139728044224285,2.817623253824767,4.972267,0,0,0,0,0,0,7.767340132229201e-11,15.972887759211972,1.9573143255985122,4.967062
2023-07-29 16:22:08.471422,1,True,0,1,8,21,620,27.57,1.84000E+05,1.8804141E-09,2.8099999999999934e-11,3.3924E-12,1.84000E+05,5.984545E-10,8.870000000000094e-12,1.1140E-12,1.83954E+05,1.36871184E-08,7.464000000000006e-11,9.1887E-12,2.040938372432279e-10,19.96610969901576,2.7470243849497744,4.895537,0,0,0,0,0,0,7.787203980722977e-11,15.625651068794468,1.9492320507562308,5.011361
2023-07-29 16:22:55.360772,1,True,0,1,0,22,620,27.58,1.80000E+05,1.8745077E-09,2.8539999999999986e-11,3.3967E-12,1.80000E+05,5.925659E-10,9.310000000000043e-12,1.1815E-12,1.79955E+05,1.49317927E-08,7.191999999999989e-11,9.1000E-12,2.7106534456298326e-09,19.96610969901576,2.8768165461034423,4.875301,0,0,0,0,0,0,7.785549050656287e-11,15.625651068794923,1.9930374862476086,4.978708
2023-07-29 16:23:43.325649,1,True,0,1,20,23,620,27.49,1.84000E+05,1.8743618E-09,2.659000000000001e-11,3.4162E-12,1.84000E+05,5.927345E-10,9.539999999999948e-12,1.0825E-12,1.84000E+05,8.4732964E-09,7.286999999999998e-11,9.1934E-12,3.752749371502019e-09,20.660583079850767,2.8917156819854704,4.894431,0,0,0,0,0,0,7.812266309709084e-11,16.49374279483891,1.9647196381189125,4.98706
2023-07-29 16:24:28.541020,1,True,0,1,10,24,620,27.5,1.76000E+05,1.8801125E-09,2.7850000000000064e-11,3.4072E-12,1.76000E+05,5.985254E-10,1.0360000000000055e-11,1.1619E-12,1.75956E+05,1.43116727E-08,6.880000000000125e-11,9.1875E-12,4.1327557398220206e-10,18.403544592135404,2.6673861008590762,4.936518,0,0,0,0,0,0,7.832271309917374e-11,15.972887759212426,1.9765792386627514,5.007214
2023-07-29 16:25:16.142116,1,True,0,1,20,25,620,27.46,1.76000E+05,1.8750148E-09,2.9389999999999627e-11,3.4055E-12,1.76000E+05,5.929766E-10,9.299999999999958e-12,1.0507E-12,1.75956E+05,1.61825135E-08,7.023000000000049e-11,9.2606E-12,1.0446706025944165e-09,20.13972804422383,2.7515348603010965,4.94145,0,0,0,0,0,0,7.793532369405895e-11,15.799269414003902,1.9633263030211556,5.022579
2023-07-29 16:26:02.975205,1,True,0,1,32,26,620,27.55,1.76000E+05,1.8740426E-09,2.7570000000000144e-11,3.4333E-12,1.76000E+05,5.925867E-10,9.519999999999984e-12,1.1043E-12,1.75956E+05,1.99312831E-08,6.835000000000008e-11,9.2157E-12,1.878155121046671e-09,19.098017972970865,2.811516586323726,4.984484,0,0,0,0,0,0,7.838325555233503e-11,16.667361140047433,1.9783656263191267,4.970733
2023-07-29 16:26:48.684468,1,True,0,1,38,27,620,27.54,1.84000E+05,1.8746122E-09,2.941000000000021e-11,3.3722E-12,1.84000E+05,5.929139E-10,9.819999999999972e-12,1.0761E-12,1.83954E+05,2.03486713E-08,7.440999999999954e-11,9.1741E-12,1.0443458286454916e-09,20.486964734641788,2.757639549767463,4.993348,0,0,0,0,0,0,7.802374404490622e-11,15.625651068794468,1.886238991200561,4.895712
2023-07-29 16:27:36.779000,1,True,0,1,36,28,620,27.56,1.84000E+05,1.8740978E-09,2.6609999999999766e-11,3.3081E-12,1.84000E+05,5.921749E-10,1.0649999999999958e-11,1.2084E-12,1.84000E+05,3.475615E-10,7.068999999999999e-11,9.1527E-12,2.085271032126395e-09,18.92439962776234,2.79585797046762,4.938543,0,0,0,0,0,0,7.751405961360635e-11,17.709071211300852,1.9224387900091129,4.971542
2023-07-29 16:28:24.869393,1,True,0,1,12,29,620,27.57,1.84000E+05,1.8792955E-09,2.935999999999999e-11,3.3393E-12,1.84000E+05,5.977830E-10,9.579999999999981e-12,1.1279E-12,1.84000E+05,1.6024535E-09,7.391e-11,9.1750E-12,3.5402266222899574e-09,19.792491353806327,2.7034038282172363,4.933018,0,0,0,0,0,0,7.83043668486371e-11,14.583940997541504,1.9260982007121745,4.974083
2023-07-29 16:29:11.896185,1,True,0,1,30,30,620,27.57,1.80000E+05,1.8738679E-09,2.7089999999999955e-11,3.3471E-12,1.80000E+05,5.924076E-10,9.399999999999988e-12,1.1251E-12,1.79955E+05,1.13894823E-08,6.829999999999903e-11,9.1621E-12,1.0440823610704548e-09,19.966109699015306,2.7460013639499166,4.983808,0,0,0,0,0,0,7.81032768726638e-11,14.583940997541504,1.8475478863882724,4.90684
2023-07-29 16:29:57.186506,1,True,0,1,8,31,620,27.48,1.80000E+05,1.8746746E-09,2.7669999999999968e-11,3.3623E-12,1.80000E+05,5.925246E-10,9.469999999999968e-12,1.1017E-12,1.79955E+05,1.43062750E-08,7.0899999999999e-11,9.1183E-12,6.270983165964287e-10,19.618873008597802,2.865258336068944,4.87165,0,0,0,0,0,0,7.829175521204016e-11,15.625651068794468,2.0288630731724586,5.064596
2023-07-29 16:30:45.401445,1,True,0,1,12,32,620,27.45,1.76000E+05,1.8805732E-09,2.5409999999999812e-11,3.3398E-12,1.76000E+05,5.989671E-10,9.089999999999914e-12,1.0612E-12,1.75956E+05,1.82717287E-08,7.36100000000026e-11,9.1777E-12,1.6616533675012868e-09,20.660583079850767,2.8005080211977544,4.883711,0,0,0,0,0,0,7.803932455520725e-11,15.27841437837651,1.921480556375243,5.012507
2023-07-29 16:31:32.536249,1,True,0,1,24,33,620,27.49,1.84000E+05,1.8733159E-09,2.6809999999999828e-11,3.2066E-12,1.84000E+05,5.917223E-10,9.920000000000003e-12,1.1192E-12,1.83954E+05,1.55550150E-08,7.136000000000005e-11,9.1752E-12,2.7108136345960495e-09,20.31334638943281,2.8811495115372825,4.977708,0,0,0,0,0,0,7.819800477799327e-11,15.278414378376965,1.9494843627195264,4.943627
2023-07-29 16:32:19.478616,1,True,0,1,2,34,620,27.49,1.76000E+05,1.8797184E-09,2.68900000000001e-11,2.7599E-12,1.76000E+05,5.986182E-10,9.490000000000037e-12,1.1193E-12,1.75956E+05,2.09788555E-08,7.117999999999892e-11,9.2423E-12,2.288121985985541e-09,19.792491353806327,2.738274481184547,4.934545,0,0,0,0,0,0,7.84475985110698e-11,16.493742794838454,2.0032388301310258,4.970603
2023-07-29 16:33:06.797272,1,True,0,1,8,35,620,27.41,1.76000E+05,1.8794062E-09,2.6359999999999897e-11,2.6739E-12,1.76000E+05,5.985641E-10,9.049999999999984e-12,1.0615E-12,1.76000E+05,1.445048E-10,6.945e-11,9.1127E-12,3.3291882960404622e-09,19.098017972970865,2.7811173925429196,4.966504,0,0,0,0,0,0,7.899098920790648e-11,17.01459783046539,2.0060726623945118,4.944527
2023-07-29 16:33:50.973166,1,True,0,1,24,36,620,27.48,1.80000E+05,1.8791770E-09,2.5159999999999942e-11,2.7294E-12,1.80000E+05,5.988226E-10,9.680000000000012e-12,1.1125E-12,1.79955E+05,2.36865292E-08,7.340000000000184e-11,9.1299E-12,3.120766523258116e-09,20.139728044224285,2.687776520767445,4.982664,0,0,0,0,0,0,7.867152103561779e-11,14.236704307123546,1.921307887177809,4.891602
2023-07-29 16:34:35.921285,1,True,0,1,22,37,620,27.48,1.76000E+05,1.8791504E-09,2.7969999999999853e-11,2.6330E-12,1.76000E+05,5.986629E-10,9.620000000000014e-12,1.0318E-12,1.76000E+05,2.6447013E-09,7.064999999999996e-11,9.1981E-12,1.871737574134994e-09,20.139728044224285,2.8104699922492995,4.998504,0,0,0,0,0,0,7.901622984293439e-11,16.49374279483891,1.9301285126090333,4.970927
2023-07-29 16:35:20.756009,1,True,0,1,38,38,620,27.53,1.76000E+05,1.8797732E-09,2.626000000000028e-11,2.6832E-12,1.76000E+05,5.987328E-10,9.440000000000021e-12,1.0608E-12,1.75956E+05,1.84796171E-08,7.542000000000055e-11,9.2509E-12,2.912278930025059e-09,21.528674805894298,2.7969239600660174,4.865435,0,0,0,0,0,0,7.82734020167701e-11,16.14650610442095,1.9578977738449017,4.976706
2023-07-29 16:36:07.800271,1,True,0,1,24,39,620,27.54,1.76000E+05,1.8797002E-09,2.7230000000000122e-11,2.7084E-12,1.76000E+05,5.992248E-10,1.0420000000000053e-11,1.2571E-12,1.75956E+05,2.13959951E-08,7.150999999999824e-11,9.0262E-12,1.0369134720889123e-09,20.486964734641333,2.7659705379962984,4.981507,0,0,0,0,0,0,7.865290046809594e-11,14.757559342750483,1.9186313030514073,4.97986
2023-07-29 16:36:53.959408,1,True,0,1,14,40,620,27.48,1.84000E+05,1.8739318E-09,2.6219999999999936e-11,2.3711E-12,1.84000E+05,5.932415E-10,1.0330000000000005e-11,1.0934E-12,1.83954E+05,1.28481401E-08,6.68200000000004e-11,9.1417E-12,1.4603360956011238e-09,22.04952984152078,2.851435326634864,5.056876,0,0,0,0,0,0,7.808440803090974e-11,15.972887759211517,1.9599252225007897,4.958447
2023-07-29 16:37:44.661953,1,True,0,1,4,41,620,27.49,1.84000E+05,1.8794915E-09,2.4870000000000143e-11,2.5337E-12,1.84000E+05,5.992937E-10,1.0260000000000025e-11,1.0496E-12,1.83954E+05,1.26450365E-08,8.104000000000037e-11,9.0637E-12,2.7039241791325708e-09,21.355056460685773,2.8282897273708327,4.870195,0,0,0,0,0,0,7.928542335099756e-11,14.583940997541504,1.89057206597584,4.996145
2023-07-29 16:38:31.596519,1,True,0,1,2,42,620,27.53,1.76000E+05,1.8736673E-09,2.710999999999992e-11,2.8507E-12,1.76000E+05,5.924374E-10,9.27000000000001e-12,1.0478E-12,1.76000E+05,8.4717846E-09,7.409999999999998e-11,9.0004E-12,2.094403933497864e-10,20.486964734642243,2.7615186961720344,4.891125,0,0,0,0,0,0,7.870535577873505e-11,15.799269414003447,1.9460516724620702,4.975892
2023-07-29 16:39:18.961280,1,True,0,1,38,43,620,27.45,1.80000E+05,1.8797508E-09,2.5940000000000016e-11,3.0753E-12,1.80000E+05,5.982550E-10,8.850000000000026e-12,1.0790E-12,1.79955E+05,2.45207391E-08,6.82399999999981e-11,9.1783E-12,3.329402787616327e-09,20.486964734641788,2.750577360988341,4.972562,0,0,0,0,0,0,7.821926260818107e-11,14.757559342750483,1.925561339459516,4.955512
2023-07-29 16:40:04.782982,1,True,0,1,24,44,620,27.55,1.80000E+05,1.8809719E-09,2.776999999999979e-11,3.1382E-12,1.80000E+05,5.996177E-10,1.041000000000007e-11,1.1081E-12,1.79955E+05,2.09793057E-08,7.661999999999927e-11,9.1629E-12,3.7457667871581395e-09,21.355056460684864,2.7620310231397176,4.903912,0,0,0,0,0,0,7.858717377114988e-11,14.757559342750483,1.8730460175664736,4.97702
2023-07-29 16:40:51.602432,1,True,0,1,28,45,620,27.49,1.76000E+05,1.8802825E-09,2.6029999999999754e-11,3.2821E-12,1.76000E+05,5.985261E-10,9.749999999999992e-12,1.1998E-12,1.75956E+05,1.34798237E-08,7.564999999999942e-11,9.2007E-12,2.2884764625609213e-09,20.31334638943281,2.753529547360097,4.86101,0,0,0,0,0,0,7.798308783700967e-11,15.972887759212426,1.9052357072331592,4.974817
2023-07-29 16:41:41.164433,1,True,0,1,18,46,620,27.48,1.76000E+05,1.8817043E-09,2.710000000000004e-11,3.3012E-12,1.76000E+05,5.997327E-10,9.680000000000012e-12,1.1698E-12,1.76000E+05,5.5634180E-09,7.084000000000055e-11,9.2931E-12,4.1274107775319224e-10,19.098017972970865,2.727083086555244,4.975251,0,0,0,0,0,0,7.788137352946783e-11,14.931177687959007,1.8871510251580927,4.989459
2023-07-29 16:42:27.052573,1,True,0,1,14,47,620,27.43,1.76000E+05,1.8745271E-09,2.8239999999999894e-11,3.3776E-12,1.76000E+05,5.926203E-10,9.860000000000005e-12,1.1077E-12,1.75956E+05,1.93073104E-08,7.327999999999998e-11,9.2038E-12,4.1865167645872837e-10,19.96610969901576,2.6909130415612883,4.879781,0,0,0,0,0,0,7.781879279693713e-11,16.32012444962993,1.8994646024440998,5.028699
2023-07-29 16:43:14.153369,1,True,0,1,32,48,620,27.42,1.76000E+05,1.8810591E-09,2.714999999999985e-11,3.3680E-12,1.76000E+05,5.995487E-10,8.969999999999918e-12,1.0253E-12,1.76000E+05,6.3970691E-09,7.796999999999947e-11,9.1577E-12,3.539035119519162e-09,20.83420142505929,2.739994979692276,4.896798,0,0,0,0,0,0,7.823415038128327e-11,15.799269414002993,1.8679111376070001,4.968214
2023-07-29 16:44:03.529227,1,True,0,1,30,49,620,27.39,1.84000E+05,1.8738924E-09,2.884999999999975e-11,3.4019E-12,1.84000E+05,5.924290E-10,8.809999999999993e-12,1.0063E-12,1.84000E+05,2.6398894E-09,6.921999999999989e-11,9.2048E-12,4.195050852813285e-10,20.139728044224285,2.7297772033264263,4.968522,0,0,0,0,0,0,7.798857764908563e-11,14.931177687959007,1.9090440609593229,5.025649
2023-07-29 16:44:48.823231,1,True,0,1,18,50,620,27.42,1.76000E+05,1.8799489E-09,2.7729999999999862e-11,3.3913E-12,1.76000E+05,5.984597E-10,9.84000000000004e-12,1.1858E-12,1.75956E+05,1.43114235E-08,7.606000000000108e-11,9.1434E-12,1.0372137988386462e-09,19.792491353806327,2.7179982956025226,4.941352,0,0,0,0,0,0,7.82528230343112e-11,17.361834520882894,1.8908069949254775,4.963379
2023-07-29 16:45:34.114988,1,True,0,1,16,51,620,27.49,1.76000E+05,1.8807472E-09,2.8250000000000187e-11,3.3281E-12,1.76000E+05,5.989484E-10,8.440000000000025e-12,1.0113E-12,1.76000E+05,1.8129855E-09,7.040999999999997e-11,9.2389E-12,6.204995034513735e-10,20.486964734641788,2.819696227360668,4.972436,0,0,0,0,0,0,7.765481721462021e-11,16.146506104421405,1.895407248901001,5.006082
2023-07-29 16:46:20.914068,1,True,0,1,38,52,620,27.45,1.88000E+05,1.8745821E-09,2.686000000000005e-11,3.4128E-12,1.88000E+05,5.930630E-10,8.759999999999978e-12,1.0436E-12,1.87953E+05,1.22241036E-08,6.866999999999952e-11,9.2981E-12,3.1267486839731665e-09,19.618873008597802,2.751667770046119,4.928865,0,0,0,0,0,0,7.798442122589855e-11,15.625651068794923,1.86552855492477,4.951632
2023-07-29 16:47:06.918707,1,True,0,1,12,53,620,27.42,1.84000E+05,1.8803279E-09,2.997000000000005e-11,3.4206E-12,1.84000E+05,5.983275E-10,8.829999999999958e-12,1.0663E-12,1.83954E+05,1.01461823E-08,6.92800000000004e-11,9.1614E-12,8.292597382528077e-10,19.96610969901576,2.6863249474040516,4.905468,0,0,0,0,0,0,7.726210814340594e-11,14.757559342750028,1.9147140149749742,4.878837
2023-07-29 16:47:54.378793,1,True,0,1,4,54,620,27.49,1.84000E+05,1.8808465E-09,2.8390000000000147e-11,3.3523E-12,1.84000E+05,5.991333E-10,9.240000000000063e-12,1.0884E-12,1.83954E+05,2.32707681E-08,7.297000000000042e-11,9.2378E-12,1.2465010868506605e-09,18.92439962776234,2.7670457286746504,4.949739,0,0,0,0,0,0,7.80689230106975e-11,16.146506104421405,1.9976614443481102,4.996061
2023-07-29 16:48:40.173409,1,True,0,1,30,55,620,27.49,1.76000E+05,1.8746740E-09,2.6769999999999898e-11,3.4152E-12,1.76000E+05,5.931288E-10,1.0490000000000033e-11,1.1736E-12,1.76000E+05,6.3903174E-09,7.020000000000003e-11,9.2029E-12,3.545895318555391e-09,19.792491353806327,2.669364456493257,4.98015,0,0,0,0,0,0,7.777171444644927e-11,14.41032265233298,1.8682198465976372,4.952707
2023-07-29 16:49:24.801710,1,True,0,1,10,56,620,27.46,1.76000E+05,1.8746238E-09,2.724e-11,3.4545E-12,1.76000E+05,5.927721E-10,1.0009999999999948e-11,1.1880E-12,1.76000E+05,5.9736059E-09,7.420999999999948e-11,9.2704E-12,2.0845656763475862e-09,20.486964734640424,2.698202089711302,4.982669,0,0,0,0,0,0,7.727746642222302e-11,15.972887759211517,1.91430396687682,4.918949
2023-07-29 16:50:11.291434,1,True,0,1,2,57,620,27.3,1.84000E+05,1.8745258E-09,2.748999999999987e-11,3.3932E-12,1.84000E+05,5.926131E-10,1.0699999999999973e-11,1.1543E-12,1.83954E+05,2.15982938E-08,6.910000000000093e-11,9.2354E-12,3.752291083309596e-09,19.792491353806327,2.7770552497795498,4.980056,0,0,0,0,0,0,7.777420239733894e-11,15.625651068794923,1.9357190548871106,5.06106
2023-07-29 16:50:58.291438,1,True,0,1,34,58,620,27.43,1.80000E+05,1.8751203E-09,2.693999999999991e-11,3.3839E-12,1.80000E+05,5.931924E-10,9.489999999999933e-12,1.1304E-12,1.79955E+05,2.22234826E-08,6.961000000000138e-11,9.1415E-12,2.709966491659533e-09,20.31334638943281,2.89985261430852,4.960986,0,0,0,0,0,0,7.792788241178407e-11,15.452032723585944,1.9585625791401098,5.018268
2023-07-29 16:51:46.103433,1,True,0,1,2,59,620,27.46,1.84000E+05,1.8813305E-09,2.5780000000000298e-11,3.3076E-12,1.84000E+05,5.997051E-10,9.459999999999986e-12,1.0855E-12,1.84000E+05,6.8139937E-09,7.01499999999998e-11,9.1687E-12,4.116517545869462e-10,19.271636318179844,2.648843055045607,4.886964,0,0,0,0,0,0,7.824512306070312e-11,15.104796033167986,1.8822486912351322,5.010148
2023-07-29 16:52:31.225431,1,True,0,1,4,60,620,27.33,1.80000E+05,1.8818617E-09,2.98799999999999e-11,3.3164E-12,1.80000E+05,5.999389E-10,9.109999999999982e-12,1.1206E-12,1.79955E+05,2.24389612E-08,7.321000000000083e-11,9.1517E-12,3.953755248483206e-09,19.271636318179844,2.7715649126670585,4.975881,0,0,0,0,0,0,7.82028140061548e-11,17.18821617567437,1.885315370787633,5.218818
2023-07-29 16:53:18.016549,1,True,0,1,12,61,620,27.43,1.84000E+05,1.8811109E-09,2.672000000000009e-11,3.3155E-12,1.84000E+05,5.991996E-10,9.639999999999979e-12,1.0870E-12,1.84000E+05,1.6046095E-09,7.47400000000001e-11,9.1694E-12,2.704115598566746e-09,20.486964734641788,2.8056248544474562,4.967697,0,0,0,0,0,0,7.827003034850864e-11,14.931177687959007,1.9025415746206074,5.009707
2023-07-29 16:54:04.105266,1,True,0,1,20,62,620,27.42,1.80000E+05,1.8803248E-09,2.8590000000000208e-11,3.2774E-12,1.80000E+05,5.985342E-10,9.519999999999984e-12,1.0528E-12,1.79955E+05,2.26459470E-08,6.893999999999956e-11,9.1316E-12,3.328670376891054e-09,19.09801797297132,2.7387382318116944,4.938291,0,0,0,0,0,0,7.797559794159606e-11,14.931177687959462,1.9249980011289674,5.008484
2023-07-29 16:54:50.915263,1,True,0,1,16,63,620,27.47,1.80000E+05,1.8738267E-09,2.8409999999999905e-11,3.3970E-12,1.80000E+05,5.918973E-10,9.769999999999957e-12,1.1696E-12,1.80000E+05,5.5551678E-09,7.150000000000001e-11,9.1363E-12,2.2950130578358795e-09,19.098017972970865,2.8247756375566926,4.964105,0,0,0,0,0,0,7.82155992611004e-11,15.972887759212426,1.9079929283219406,4.967749
2023-07-29 16:55:36.226269,1,True,0,1,0,64,620,27.52,1.76000E+05,1.8750099E-09,2.721999999999983e-11,3.3395E-12,1.76000E+05,5.932009E-10,9.84000000000004e-12,1.1753E-12,1.75956E+05,9.7234378E-09,6.693000000000072e-11,9.1297E-12,2.100817499340865e-10,19.792491353806298,2.795637153018474,5.002317,0,0,0,0,0,0,7.825442900400507e-11,15.799269414002993,1.9555099215856269,4.974641
2023-07-29 16:56:21.051742,1,True,0,1,6,65,620,27.56,1.76000E+05,1.8741253E-09,2.7920000000000044e-11,3.2194E-12,1.76000E+05,5.921648E-10,9.320000000000026e-12,1.0873E-12,1.75956E+05,1.07636819E-08,7.516000000000039e-11,9.0857E-12,3.335568289303979e-09,19.618873008597348,2.706036258589005,5.046619,0,0,0,0,0,0,7.831157374614692e-11,14.931177687959462,1.9390207617992212,5.011717
2023-07-29 16:57:08.201590,1,True,0,1,14,66,620,27.49,1.84000E+05,1.8762343E-09,2.6180000000000007e-11,3.2564E-12,1.84000E+05,5.943042E-10,9.989999999999983e-12,1.1741E-12,1.83954E+05,1.28498010E-08,7.083999999999973e-11,9.0847E-12,2.7096164545052153e-09,24.480186674444667,2.961266903142964,4.951281,0,0,0,0,0,0,7.756816603470922e-11,15.104796033167986,1.9342928401316668,4.958718
2023-07-29 16:57:55.800550,1,True,0,1,14,67,620,27.41,1.76000E+05,1.8757054E-09,2.7660000000000295e-11,3.3334E-12,1.76000E+05,5.941787E-10,1.0020000000000034e-11,1.1431E-12,1.75956E+05,2.34748761E-08,7.186000000000062e-11,9.1445E-12,1.0431187601565068e-09,20.139728044224285,2.723338205402324,4.883631,0,0,0,0,0,0,7.822024181565006e-11,15.972887759212426,2.010055181132886,4.971214
2023-07-29 16:58:42.841417,1,True,0,1,14,68,620,27.46,1.76000E+05,1.8744885E-09,2.8039999999999833e-11,3.2857E-12,1.76000E+05,5.928436E-10,9.450000000000004e-12,1.0305E-12,1.76000E+05,7.4320596E-09,7.467999999999958e-11,9.3027E-12,3.960177851160884e-09,20.834201425059746,2.718348049579875,4.976641,0,0,0,0,0,0,7.783597754074708e-11,15.10479603316844,1.975150852404526,4.947573
2023-07-29 16:59:28.891232,1,True,0,1,6,69,620,27.49,1.84000E+05,1.8751424E-09,2.710999999999992e-11,3.2571E-12,1.84000E+05,5.930661E-10,1.0319999999999919e-11,1.1838E-12,1.83954E+05,2.43074273E-08,7.013999999999827e-11,9.1763E-12,4.1880239975275223e-10,19.09801797297132,2.7267076501156144,4.900422,0,0,0,0,0,0,7.75846302623865e-11,16.840979485255957,1.9811524767134607,4.976897
2023-07-29 17:00:16.397644,1,True,0,1,14,70,620,27.49,1.84000E+05,1.8804935E-09,2.6310000000000088e-11,3.2958E-12,1.84000E+05,5.987570E-10,9.240000000000063e-12,1.1004E-12,1.83954E+05,2.30629251E-08,6.840000000000278e-11,9.1888E-12,1.870442520174369e-09,21.00781977026827,2.7674455152273554,4.987697,0,0,0,0,0,0,7.81812072030951e-11,15.972887759212426,1.962505383174704,5.00891
2023-07-29 17:01:02.484180,1,True,0,1,26,71,620,27.44,1.76000E+05,1.8811821E-09,2.8349999999999804e-11,3.3572E-12,1.76000E+05,5.996198E-10,9.640000000000083e-12,1.1249E-12,1.76000E+05,9.793323E-10,7.014000000000013e-11,9.0565E-12,2.2884364990902388e-09,21.18143811547725,2.76927950683151,4.958785,0,0,0,0,0,0,7.843511882441315e-11,16.49374279483891,1.9966782099276188,4.990841
2023-07-29 17:01:48.695013,1,True,0,1,18,72,620,27.55,1.80000E+05,1.8818309E-09,2.8670000000000067e-11,3.2823E-12,1.80000E+05,5.997707E-10,9.420000000000056e-12,1.0364E-12,1.80000E+05,2.4387413E-09,7.213999999999971e-11,9.0904E-12,1.8704895481755585e-09,20.31334638943281,2.8043339296373144,4.957824,0,0,0,0,0,0,7.763074850342146e-11,15.278414378376965,1.942298051982645,4.97252
2023-07-29 17:02:36.858921,1,True,0,1,36,73,620,27.47,1.80000E+05,1.8742474E-09,2.8160000000000035e-11,3.1520E-12,1.80000E+05,5.923262E-10,8.869999999999991e-12,1.0573E-12,1.79955E+05,2.18063733E-08,7.006999999999912e-11,9.1160E-12,4.1908447747821936e-10,22.570384877147717,2.728109904670725,4.949791,0,0,0,0,0,0,7.745599643041858e-11,15.972887759212426,1.91259148232419,4.949374
2023-07-29 17:03:22.953326,1,True,0,1,6,74,620,27.49,1.76000E+05,1.8803579E-09,2.834000000000034e-11,3.3222E-12,1.76000E+05,5.987218E-10,9.070000000000052e-12,1.0953E-12,1.76000E+05,7.0203418E-09,7.236000000000036e-11,9.1095E-12,2.0794392683028184e-09,21.70229315110373,2.7247383701721044,4.951317,0,0,0,0,0,0,7.827658964958609e-11,14.583940997541504,1.9288414947944277,4.978702
2023-07-29 17:04:10.262281,1,True,0,1,26,75,620,27.5,1.84000E+05,1.8750453E-09,2.8139999999999864e-11,3.1897E-12,1.84000E+05,5.933941E-10,9.629999999999997e-12,1.0751E-12,1.83954E+05,1.47244032E-08,7.388999999999921e-11,9.2684E-12,2.502424137464165e-09,19.09801797297132,2.755595854910172,4.959586,0,0,0,0,0,0,7.792404023780285e-11,15.452032723585944,1.9297601235160629,5.002468
2023-07-29 17:04:57.533674,1,True,0,1,4,76,620,27.52,1.84000E+05,1.8743858E-09,2.6819999999999707e-11,3.1913E-12,1.84000E+05,5.925681E-10,9.839999999999937e-12,1.0662E-12,1.83954E+05,2.24322896E-08,7.253999999999901e-11,9.1112E-12,3.5454687504345827e-09,19.271636318179844,2.628556015059267,4.979986,0,0,0,0,0,0,7.726304221010243e-11,16.493742794838454,1.8949449106339515,4.954502
2023-07-29 17:05:44.762492,1,True,0,1,16,77,620,27.49,1.80000E+05,1.8735948E-09,2.693000000000003e-11,3.0526E-12,1.80000E+05,5.922343E-10,9.759999999999975e-12,1.1071E-12,1.79955E+05,2.22222198E-08,7.045000000000114e-11,9.1151E-12,2.0853417190994327e-09,19.618873008597802,2.75781635783693,5.012191,0,0,0,0,0,0,7.792673826688813e-11,15.972887759212426,1.9684683380448311,4.943856
2023-07-29 17:06:31.693246,1,True,0,1,10,78,620,27.48,1.76000E+05,1.8809405E-09,2.5590000000000115e-11,3.0018E-12,1.76000E+05,5.994594E-10,1.0390000000000002e-11,1.1960E-12,1.76000E+05,7.4381438E-09,6.925999999999982e-11,9.2139E-12,3.9535377237946734e-09,20.486964734641788,2.7299282393399475,4.92164,0,0,0,0,0,0,7.737643061517478e-11,15.799269414003902,1.9416288644484925,5.031757
2023-07-29 17:07:17.560299,1,True,0,1,18,79,620,27.43,1.76000E+05,1.8802794E-09,2.669000000000004e-11,2.9490E-12,1.76000E+05,5.992835E-10,9.47999999999995e-12,1.0898E-12,1.75956E+05,1.26466529E-08,7.300999999999994e-11,9.1195E-12,1.6620692893452733e-09,21.528674805894752,2.792646882921474,4.988607,0,0,0,0,0,0,7.779563210968649e-11,14.41032265233298,1.8946569674102534,5.001784
2023-07-29 17:08:02.900728,1,True,0,1,30,80,620,27.5,1.76000E+05,1.8808315E-09,2.6329999999999846e-11,2.9999E-12,1.76000E+05,5.995052E-10,9.000000000000072e-12,1.0284E-12,1.75956E+05,1.55625824E-08,7.317000000000131e-11,9.1233E-12,3.953421533189319e-09,20.83420142505929,2.7206916829742664,4.947229,0,0,0,0,0,0,7.820020625861187e-11,15.10479603316844,1.9427393856701674,5.017907
2023-07-29 17:08:51.197940,1,True,0,1,10,81,620,27.49,1.76000E+05,1.8807745E-09,2.6529999999999907e-11,3.1226E-12,1.76000E+05,5.989979E-10,9.070000000000052e-12,1.0819E-12,1.75956E+05,1.36885685E-08,7.220999999999969e-11,9.1997E-12,3.9539784261848654e-09,19.792491353806327,2.7320904787771143,4.919874,0,0,0,0,0,0,7.809212710253562e-11,17.014597830464936,1.9561356207860223,4.992095
2023-07-29 17:09:37.992407,1,True,0,1,14,82,620,27.58,1.84000E+05,1.8794818E-09,2.662000000000006e-11,2.8717E-12,1.84000E+05,5.981544E-10,9.319999999999922e-12,1.0845E-12,1.83954E+05,1.36871978E-08,7.161000000000033e-11,9.1683E-12,3.329384121908168e-09,21.007819770267815,2.757486005971636,5.013493,0,0,0,0,0,0,7.808639943332807e-11,15.625651068794923,1.9224561608825246,4.938981
2023-07-29 17:10:25.150401,1,True,0,1,0,83,620,27.52,1.84000E+05,1.8750276E-09,2.5770000000000005e-11,2.9665E-12,1.84000E+05,5.940094E-10,9.1e-12,1.0037E-12,1.83954E+05,1.26404464E-08,6.849000000000004e-11,9.1640E-12,1.2513108185057977e-12,17.36183452088244,2.4241022543044917,4.942578,0,0,0,0,0,0,7.86828756753967e-11,16.667361140047888,1.9906552221168385,4.978722
2023-07-29 17:11:09.359155,1,True,0,1,38,84,620,27.41,1.76000E+05,1.8749039E-09,2.516999999999982e-11,3.0540E-12,1.76000E+05,5.938899E-10,9.589999999999964e-12,1.0702E-12,1.75956E+05,2.07658497E-08,7.58299999999989e-11,9.2458E-12,1.2525358764947472e-09,20.31334638943281,2.8134140381109374,5.015705,0,0,0,0,0,0,7.853653450840363e-11,16.32012444962993,1.9757719589495322,5.004777
2023-07-29 17:11:57.159991,1,True,0,1,2,85,620,27.45,1.84000E+05,1.8724573E-09,2.7099999999999834e-11,2.9053E-12,1.84000E+05,5.917084E-10,1.0159999999999994e-11,1.1279E-12,1.84000E+05,7.635402E-10,7.541000000000005e-11,9.1134E-12,2.29533324478803e-09,20.139728044224285,2.788646665168449,4.938104,0,0,0,0,0,0,7.879830583221008e-11,15.104796033167986,1.9251158137078206,4.992355
2023-07-29 17:12:45.187275,1,True,0,1,8,86,620,27.5,1.88000E+05,1.8739444E-09,2.8400000000000026e-11,3.0692E-12,1.88000E+05,5.924208E-10,9.620000000000014e-12,1.1736E-12,1.87953E+05,1.97236023E-08,6.944000000000012e-11,9.1538E-12,1.4604672173840174e-09,20.486964734641788,2.7948855057134327,5.030768,0,0,0,0,0,0,7.800299144410242e-11,15.799269414003902,1.9541619693273526,5.019537
2023-07-29 17:13:31.496321,1,True,0,1,34,87,620,27.48,1.76000E+05,1.8796383E-09,2.6949999999999788e-11,3.1186E-12,1.76000E+05,5.983820E-10,9.080000000000035e-12,1.0794E-12,1.75956E+05,1.43121414E-08,6.810000000000145e-11,9.2416E-12,8.294119407751221e-10,20.486964734642243,2.7003997262006414,4.931744,0,0,0,0,0,0,7.887397391560248e-11,15.104796033167986,1.9860010361395966,5.023921
2023-07-29 17:14:17.847708,1,True,0,1,20,88,620,27.52,1.84000E+05,1.8803689E-09,2.704999999999982e-11,3.1356E-12,1.84000E+05,5.990482E-10,8.980000000000004e-12,1.0318E-12,1.83954E+05,2.09800915E-08,7.125999999999795e-11,9.2170E-12,8.299292887201927e-10,19.271636318179844,2.711303753196326,4.943833,0,0,0,0,0,0,7.81839000236309e-11,16.840979485255957,1.9107006990445852,4.991139
2023-07-29 17:15:08.390142,1,True,0,1,2,89,620,27.55,1.84000E+05,1.8735636E-09,2.835000000000001e-11,3.0640E-12,1.84000E+05,5.924261E-10,9.179999999999962e-12,1.1008E-12,1.83954E+05,1.63895977E-08,7.541000000000067e-11,9.2283E-12,1.877005399530519e-09,19.098017972970865,2.7928076865632327,4.922887,0,0,0,0,0,0,7.84142603164233e-11,16.146506104421405,1.9005957918327652,4.993016
2023-07-29 17:15:54.748214,1,True,0,1,18,90,620,27.57,1.80000E+05,1.8746110E-09,2.7549999999999972e-11,3.0654E-12,1.80000E+05,5.930982E-10,9.419999999999953e-12,1.1168E-12,1.80000E+05,8.2650705E-09,7.601999999999991e-11,9.2090E-12,8.351033810435062e-10,18.403544592136313,2.7734145591815116,4.962338,0,0,0,0,0,0,7.790678257429078e-11,17.014597830464936,1.9825840781940873,4.98599
2023-07-29 17:16:41.108764,1,True,0,1,14,91,620,27.55,1.80000E+05,1.8744428E-09,2.5929999999999723e-11,3.1674E-12,1.80000E+05,5.925439E-10,1.0020000000000034e-11,1.1402E-12,1.79955E+05,2.47241996E-08,7.191999999999989e-11,9.2781E-12,8.358469345943461e-10,21.00781977026827,2.7815540638606744,4.969902,0,0,0,0,0,0,7.755043265692845e-11,15.972887759211972,1.9344985682693567,4.962378
2023-07-29 17:17:27.798352,1,True,0,1,38,92,620,27.49,1.84000E+05,1.8811190E-09,2.9029999999999847e-11,3.1403E-12,1.84000E+05,5.998001E-10,9.84000000000004e-12,1.1667E-12,1.84000E+05,3.4805732E-09,7.049000000000024e-11,9.1386E-12,-4.397834284762494e-12,16.667361140047433,2.515346122270924,4.990906,0,0,0,0,0,0,7.799640957263659e-11,17.188216175673915,1.917150897870216,4.969703
2023-07-29 17:18:14.656550,1,True,0,1,0,93,620,27.54,1.84000E+05,1.8735497E-09,2.7549999999999972e-11,2.8724E-12,1.84000E+05,5.922292E-10,9.159999999999997e-12,1.0796E-12,1.84000E+05,6.3897636E-09,6.776999999999965e-11,9.1162E-12,6.27719420600752e-10,21.702293151103277,2.865552718956291,5.004148,0,0,0,0,0,0,7.757932622193858e-11,14.583940997541504,1.9615848252917412,5.010882
2023-07-29 17:18:59.695979,1,True,0,1,28,94,620,27.45,1.80000E+05,1.8729080E-09,2.91800000000001e-11,2.9478E-12,1.80000E+05,5.918759E-10,9.900000000000038e-12,1.1714E-12,1.79955E+05,2.24304674E-08,7.067000000000178e-11,9.1221E-12,1.4611230988790598e-09,20.31334638943281,2.8125794382049887,4.973253,0,0,0,0,0,0,7.80729526924896e-11,16.14650610442095,1.9561988005600366,4.977975
2023-07-29 17:19:46.497955,1,True,0,1,20,95,620,27.53,1.76000E+05,1.8747271E-09,2.8439999999999956e-11,3.0671E-12,1.76000E+05,5.932601E-10,1.0430000000000035e-11,1.2162E-12,1.75956E+05,1.34744326E-08,6.80500000000004e-11,9.1004E-12,3.3349822388435982e-09,21.18143811547725,2.722108715624465,4.978361,0,0,0,0,0,0,7.783892384406472e-11,16.667361140047433,2.0165938846677887,4.950509
2023-07-29 17:20:35.058999,1,True,0,1,6,96,620,27.4,1.84000E+05,1.8807247E-09,2.745999999999982e-11,3.1545E-12,1.84000E+05,5.988141E-10,9.599999999999946e-12,1.1261E-12,1.84000E+05,3.4797563E-09,7.690000000000001e-11,9.1405E-12,3.746698405836755e-09,20.486964734641788,2.779042213302431,4.945999,0,0,0,0,0,0,7.744300630582996e-11,15.625651068794923,1.9109351780510648,5.023003
2023-07-29 17:21:20.019565,1,True,0,1,26,97,620,27.44,1.84000E+05,1.8812674E-09,2.8230000000000015e-11,3.1861E-12,1.84000E+05,5.992040E-10,8.829999999999958e-12,1.0303E-12,1.83954E+05,1.55641522E-08,7.59699999999972e-11,9.1416E-12,6.200540786420123e-10,17.88268955650892,2.6763659552467747,4.938798,0,0,0,0,0,0,7.754691688543692e-11,17.36183452088244,1.9731417484434617,4.932997
2023-07-29 17:22:07.661732,1,True,0,1,32,98,620,27.55,1.84000E+05,1.8810742E-09,2.8350000000000217e-11,3.2601E-12,1.84000E+05,5.988747E-10,8.749999999999996e-12,1.1017E-12,1.83954E+05,1.34806615E-08,6.821000000000012e-11,9.1144E-12,1.0374295439391363e-09,20.660583079850312,2.7759762797548198,4.970303,0,0,0,0,0,0,7.793367605596121e-11,17.18821617567437,2.048380745052763,4.99028
2023-07-29 17:22:53.301598,1,True,0,1,38,99,620,27.56,1.76000E+05,1.8747192E-09,2.646000000000034e-11,3.1444E-12,1.76000E+05,5.927836E-10,8.469999999999972e-12,1.0752E-12,1.76000E+05,1.1823922E-09,7.303000000000011e-11,9.1347E-12,4.190177646290773e-10,18.577162937344838,2.7721451354436355,4.932854,0,0,0,0,0,0,7.808634213927489e-11,17.014597830464936,1.9750439058945235,4.979657
2023-07-29 17:23:40.227014,1,True,0,1,26,100,620,27.55,1.76000E+05,1.8792686E-09,2.7789999999999963e-11,3.0973E-12,1.76000E+05,5.979788E-10,8.889999999999956e-12,1.0275E-12,1.75956E+05,1.63953897E-08,7.136000000000005e-11,9.1278E-12,2.7046180795728723e-09,20.660583079850312,2.819720410545786,4.969973,0,0,0,0,0,0,7.832443018461065e-11,17.709071211300852,1.8831028394846865,4.980368
2023-07-29 17:24:27.515067,1,True,0,1,28,101,620,27.53,1.84000E+05,1.8741035E-09,2.8129999999999985e-11,3.2732E-12,1.84000E+05,5.925162E-10,9.689999999999994e-12,1.1138E-12,1.83954E+05,1.97232256E-08,7.424999999999817e-11,9.1722E-12,3.960759948331772e-09,20.486964734641788,2.7259710792225174,4.951633,0,0,0,0,0,0,7.829592552469409e-11,15.625651068794923,1.8572861785014991,4.993128
2023-07-29 17:25:15.223627,1,True,0,1,32,102,620,27.56,1.84000E+05,1.8812325E-09,2.998999999999981e-11,3.3513E-12,1.84000E+05,5.991985E-10,9.480000000000054e-12,1.0686E-12,1.83954E+05,1.91044420E-08,7.236000000000119e-11,9.1027E-12,-4.2993440698923375e-12,18.22992624692688,2.5041370103044196,5.03923,0,0,0,0,0,0,7.798639873885231e-11,15.452032723585944,1.958483467593579,4.995692
2023-07-29 17:26:01.881000,1,True,0,1,0,103,620,27.55,1.76000E+05,1.8811949E-09,2.6189999999999886e-11,3.3371E-12,1.76000E+05,5.994154E-10,9.320000000000026e-12,1.0624E-12,1.76000E+05,4.3142494E-09,7.000999999999984e-11,9.1844E-12,6.209689362055009e-10,20.660583079850767,2.697946185572876,4.92506,0,0,0,0,0,0,7.79949859022065e-11,16.32012444962993,1.9417834721190728,4.99086
2023-07-29 17:26:48.476365,1,True,0,1,30,104,620,27.53,1.84000E+05,1.8742845E-09,2.7580000000000023e-11,3.3407E-12,1.84000E+05,5.925730E-10,8.949999999999954e-12,1.1304E-12,1.84000E+05,1.405988E-10,7.427e-11,9.2095E-12,2.9193510528217763e-09,21.007819770268725,2.835807493043772,4.964284,0,0,0,0,0,0,7.80394756031667e-11,15.27841437837742,1.8773490667926658,4.948226
2023-07-29 17:27:35.633924,1,True,0,1,34,105,620,27.43,1.76000E+05,1.8819995E-09,2.7690000000000346e-11,3.3012E-12,1.76000E+05,5.997187E-10,8.650000000000068e-12,1.0128E-12,1.76000E+05,4.9387900E-09,6.802999999999982e-11,9.1773E-12,2.288341022889841e-09,21.007819770268725,2.7690147914084235,4.982053,0,0,0,0,0,0,7.7580753364733e-11,17.709071211300397,1.935255919545456,5.011168
2023-07-29 17:28:23.633641,1,True,0,1,18,106,620,27.4,1.84000E+05,1.8737843E-09,2.6389999999999947e-11,3.2911E-12,1.84000E+05,5.922774E-10,9.900000000000038e-12,1.1509E-12,1.83954E+05,1.49303161E-08,6.814999999999919e-11,9.2868E-12,6.273782813866243e-10,21.18143811547725,2.8693410510361983,4.955519,0,0,0,0,0,0,7.830150040976024e-11,15.625651068794923,1.9144727424246633,5.015563
2023-07-29 17:29:11.564667,1,True,0,1,10,107,620,27.42,1.84000E+05,1.8802622E-09,2.6259999999999866e-11,3.2161E-12,1.84000E+05,5.983431E-10,8.66999999999993e-12,1.0268E-12,1.83954E+05,2.16036130E-08,7.536000000000128e-11,9.2479E-12,2.2889196581107308e-09,20.486964734642243,2.752950089450708,4.93661,0,0,0,0,0,0,7.785925455228575e-11,16.14650610442095,1.901805570158821,4.961819
2023-07-29 17:30:00.444320,1,True,0,1,4,108,620,27.52,1.84000E+05,1.8735226E-09,2.7799999999999842e-11,3.2394E-12,1.84000E+05,5.920738E-10,9.279999999999993e-12,1.0751E-12,1.84000E+05,7.6382672E-09,6.80500000000004e-11,9.1367E-12,2.9188031237414067e-09,19.44525466338837,2.8514554558331353,4.920164,0,0,0,0,0,0,7.802978596331934e-11,15.799269414002993,1.926886771069665,4.964697
2023-07-29 17:30:45.483470,1,True,0,1,38,109,620,27.46,1.76000E+05,1.8821271E-09,2.7340000000000032e-11,3.3018E-12,1.76000E+05,6.002576E-10,1.0150000000000011e-11,1.0556E-12,1.75956E+05,1.59813969E-08,7.027999999999989e-11,9.2144E-12,2.704355877675511e-09,20.486964734641788,2.7773826890433844,4.958109,0,0,0,0,0,0,7.779551752157858e-11,15.27841437837742,1.9156514595064222,5.00742
2023-07-29 17:31:32.474275,1,True,0,1,28,110,620,27.47,1.76000E+05,1.8806852E-09,2.703999999999994e-11,3.3495E-12,1.76000E+05,5.988207E-10,9.80999999999999e-12,1.1473E-12,1.75956E+05,1.01464407E-08,7.567000000000084e-11,9.2193E-12,3.5393631679100284e-09,18.577162937344838,2.695338448048002,4.995672,0,0,0,0,0,0,7.784014785339893e-11,18.0563079017179,1.942317970826128,5.036661
2023-07-29 17:32:19.735663,1,True,0,1,6,111,620,27.39,1.76000E+05,1.8806191E-09,2.8010000000000196e-11,3.4414E-12,1.76000E+05,5.993156E-10,1.0939999999999964e-11,1.1691E-12,1.75956E+05,2.24376210E-08,7.28799999999982e-11,9.2597E-12,8.28696621039581e-10,19.271636318179844,2.656409933610105,4.921956,0,0,0,0,0,0,7.887158319098757e-11,15.104796033167986,1.9720382998721748,4.973913
2023-07-29 17:33:04.569443,1,True,0,1,10,112,620,27.42,1.76000E+05,1.8739594E-09,2.685000000000017e-11,3.3856E-12,1.76000E+05,5.922198E-10,1.027999999999999e-11,9.951E-13,1.75956E+05,2.13896300E-08,7.179000000000147e-11,9.3012E-12,3.753228851549915e-09,20.139728044224285,2.811107973723258,4.988624,0,0,0,0,0,0,7.828262115089811e-11,16.14650610442095,1.9250305649409971,5.054511
2023-07-29 17:33:53.107360,1,True,0,1,12,113,620,27.52,1.80000E+05,1.8815464E-09,2.731999999999986e-11,3.3497E-12,1.80000E+05,5.995894E-10,9.569999999999999e-12,1.1352E-12,1.80000E+05,5.3555473E-09,7.518000000000015e-11,9.2656E-12,-3.4388134227820633e-12,18.750781282553362,2.508493693577791,4.920651,0,0,0,0,0,0,7.82307978110384e-11,16.840979485256412,1.9266779045256437,4.997958
2023-07-29 17:34:38.548733,1,True,0,1,26,114,620,27.56,1.84000E+05,1.8803298E-09,2.6100000000000148e-11,3.3925E-12,1.84000E+05,5.991541E-10,9.70999999999996e-12,1.1329E-12,1.84000E+05,4.5204520E-09,6.87500000000002e-11,9.0485E-12,2.288527681708988e-09,21.355056460685773,2.740273091066962,4.955715,0,0,0,0,0,0,7.895505715518263e-11,14.931177687959462,1.9245598689627867,4.998382
2023-07-29 17:35:26.943336,1,True,0,1,32,115,620,27.52,1.84000E+05,1.8755577E-09,2.7549999999999972e-11,3.4825E-12,1.84000E+05,5.938034E-10,9.519999999999984e-12,1.2126E-12,1.83954E+05,1.01405795E-08,6.905999999999976e-11,9.1396E-12,4.195636502215363e-10,20.31334638943281,2.7296968841628635,4.918044,0,0,0,0,0,0,7.867018070199353e-11,17.36183452088335,1.9880356076290744,4.991883
2023-07-29 17:36:11.983376,1,True,0,1,38,116,620,27.51,1.84000E+05,1.8746474E-09,2.7260000000000173e-11,3.3984E-12,1.84000E+05,5.934715E-10,9.680000000000012e-12,1.1050E-12,1.83954E+05,2.01408069E-08,7.674000000000112e-11,9.2251E-12,6.277985193826557e-10,22.223148186730214,2.874342956228078,5.032262,0,0,0,0,0,0,7.882899287472561e-11,17.188216175673915,1.9601518315305115,4.979263
2023-07-29 17:36:59.088736,1,True,0,1,30,117,620,27.54,1.76000E+05,1.8805592E-09,2.8249999999999773e-11,3.4147E-12,1.76000E+05,5.992811E-10,8.759999999999978e-12,1.0463E-12,1.75956E+05,1.28545776E-08,7.011000000000029e-11,9.2084E-12,4.1221856466235477e-10,20.486964734642243,2.6860614967938106,4.909159,0,0,0,0,0,0,7.871629547066561e-11,15.625651068794923,1.9698747817485023,4.976387
2023-07-29 17:37:45.974799,1,True,0,1,38,118,620,27.54,1.80000E+05,1.8806540E-09,2.959999999999998e-11,3.3878E-12,1.80000E+05,5.993594E-10,9.1e-12,1.0991E-12,1.79955E+05,1.59796948E-08,8.132999999999852e-11,9.1770E-12,1.2466747486004458e-09,20.139728044224285,2.7710004899424683,4.992521,0,0,0,0,0,0,7.871096365128327e-11,15.104796033167986,1.9709018695999587,4.957226
2023-07-29 17:38:34.254026,1,True,0,1,16,119,620,27.49,1.84000E+05,1.8809057E-09,2.710000000000004e-11,3.3683E-12,1.84000E+05,5.990468E-10,9.250000000000046e-12,1.0608E-12,1.84000E+05,4.9376657E-09,7.03199999999994e-11,9.1712E-12,2.703939954095425e-09,19.618873008597348,2.74512339701196,4.956797,0,0,0,0,0,0,7.831690209316124e-11,15.799269414003447,1.9350518896920947,4.998703
2023-07-29 17:39:21.846831,1,True,0,1,26,120,620,27.43,1.84000E+05,1.8739893E-09,2.8810000000000028e-11,3.4604E-12,1.84000E+05,5.926577E-10,9.920000000000003e-12,1.0919E-12,1.84000E+05,2.8474218E-09,6.901999999999983e-11,9.1517E-12,2.2943075666347797e-09,20.486964734641788,2.8209416356001906,4.959231,0,0,0,0,0,0,7.85555804408739e-11,15.278414378376965,1.9572633920616918,4.956856
2023-07-29 17:40:08.522440,1,True,0,1,6,121,620,27.48,1.84000E+05,1.8809189E-09,2.5539999999999893e-11,3.0011E-12,1.84000E+05,5.998187E-10,8.889999999999956e-12,1.0076E-12,1.84000E+05,3.4801745E-09,6.984000000000025e-11,9.1537E-12,-3.782987485590268e-12,17.709071211300397,2.5065940506364814,5.022235,0,0,0,0,0,0,7.845063856829441e-11,16.14650610442095,1.8952984430927744,4.98072
2023-07-29 17:40:53.485775,1,True,0,1,28,122,620,27.43,1.84000E+05,1.8747933E-09,2.627000000000016e-11,3.3018E-12,1.84000E+05,5.930507E-10,9.920000000000003e-12,1.0957E-12,1.84000E+05,5.7655850E-09,6.82300000000007e-11,9.1585E-12,2.0953912836651548e-10,19.09801797297132,2.778586636162902,4.970005,0,0,0,0,0,0,7.810126463604361e-11,15.625651068794468,1.946234614040163,4.956392
2023-07-29 17:41:40.488281,1,True,0,1,0,123,620,27.46,1.76000E+05,1.8805895E-09,2.7050000000000232e-11,3.4356E-12,1.76000E+05,5.987604E-10,1.0109999999999979e-11,1.1212E-12,1.75956E+05,1.30635139E-08,6.983000000000037e-11,9.0853E-12,-3.707694417823574e-12,19.445254663389278,2.5128332830548246,4.983616,0,0,0,0,0,0,7.830444150452576e-11,16.667361140047433,1.9721226862747594,4.952744
2023-07-29 17:42:26.458273,1,True,0,1,8,124,620,27.39,1.76000E+05,1.8743729E-09,2.727999999999993e-11,3.4190E-12,1.76000E+05,5.930492E-10,8.850000000000026e-12,1.0515E-12,1.76000E+05,4.3075433E-09,7.123999999999985e-11,9.2392E-12,2.294072685320224e-09,20.8342014250602,2.787349871313588,4.907494,0,0,0,0,0,0,7.805933406949242e-11,16.667361140047888,1.9486854122429071,4.962537
2023-07-29 17:43:12.016491,1,True,0,1,2,125,620,27.39,1.76000E+05,1.8755565E-09,2.681000000000024e-11,3.4093E-12,1.76000E+05,5.937278E-10,1.0099999999999996e-11,1.1499E-12,1.75956E+05,2.40993543E-08,6.845999999999875e-11,9.1694E-12,3.752272389822232e-09,19.96610969901485,2.872574654925887,4.918091,0,0,0,0,0,0,7.790231016571806e-11,17.361834520882894,1.9768701283822925,4.992992
2023-07-29 17:43:57.912782,1,True,0,1,32,126,620,27.43,1.76000E+05,1.8749024E-09,2.7740000000000154e-11,3.3923E-12,1.76000E+05,5.935569E-10,9.140000000000033e-12,1.0627E-12,1.75956E+05,2.18069149E-08,6.813999999999931e-11,9.1898E-12,8.343519556368825e-10,20.31334638943281,2.7641757008023315,4.902842,0,0,0,0,0,0,7.803490944068847e-11,14.583940997541504,1.947870177769778,4.944873
2023-07-29 17:44:44.218843,1,True,0,1,32,127,620,27.42,1.88000E+05,1.8809584E-09,2.707999999999987e-11,3.3148E-12,1.88000E+05,5.990005E-10,1.0779999999999936e-11,1.1256E-12,1.87953E+05,2.38962481E-08,7.266000000000086e-11,9.1727E-12,1.6624770997401296e-09,19.792491353806327,2.788309350691849,5.030875,0,0,0,0,0,0,7.777068488966307e-11,15.625651068794923,2.0426916726904003,4.979644
2023-07-29 17:45:31.315456,1,True,0,1,38,128,620,27.37,1.84000E+05,1.8755726E-09,2.8699999999999704e-11,3.3128E-12,1.84000E+05,5.939978E-10,9.519999999999984e-12,1.0929E-12,1.84000E+05,5.581781E-10,6.886999999999999e-11,9.1376E-12,2.9183124817702777e-09,19.792491353806327,2.727149676889139,4.944266,0,0,0,0,0,0,7.811800318070568e-11,15.972887759212426,1.9973108048943744,4.960774
2023-07-29 17:46:18.919001,1,True,0,1,2,129,620,27.33,1.84000E+05,1.8740113E-09,2.759000000000011e-11,3.3779E-12,1.84000E+05,5.927162E-10,1.0629999999999993e-11,1.1019E-12,1.84000E+05,8.8902692E-09,7.647000000000108e-11,9.2008E-12,1.459910772323773e-09,20.83420142505929,2.717468601609782,4.917787,0,0,0,0,0,0,7.805483040961835e-11,15.625651068794468,1.9184734298430275,4.973848
2023-07-29 17:47:07.363579,1,True,0,1,18,130,620,27.3,1.88000E+05,1.8805271E-09,2.8230000000000015e-11,3.3648E-12,1.88000E+05,5.986253E-10,1.0020000000000034e-11,1.2112E-12,1.87953E+05,1.05631239E-08,7.095000000000005e-11,9.2607E-12,3.121521415823131e-09,19.618873008597348,2.6943179869929943,5.055006,0,0,0,0,0,0,7.765514014474149e-11,15.625651068794468,1.99823557407086,5.19469
2023-07-29 17:47:54.090953,1,True,0,1,16,131,620,27.45,1.76000E+05,1.8810925E-09,2.8020000000000075e-11,3.3647E-12,1.76000E+05,5.996134E-10,9.250000000000046e-12,1.0764E-12,1.75956E+05,1.36885787E-08,7.041999999999985e-11,9.2041E-12,3.747081253385981e-09,20.834201425059746,2.8170174049426486,4.995459,0,0,0,0,0,0,7.825252788312548e-11,18.750781282553362,1.9886846640890559,5.019119
2023-07-29 17:48:41.424445,1,True,0,1,24,132,620,27.49,1.80000E+05,1.8745924E-09,2.972000000000018e-11,3.3922E-12,1.80000E+05,5.925360E-10,9.470000000000072e-12,1.1337E-12,1.79955E+05,2.38899902E-08,7.120000000000199e-11,9.1468E-12,1.8774688164090305e-09,20.139728044224285,2.8825773384620974,5.163283,0,0,0,0,0,0,7.747464824924292e-11,17.014597830464936,1.9698872686717455,5.161995
2023-07-29 17:49:29.450307,1,True,0,1,6,133,620,27.46,1.76000E+05,1.8809158E-09,2.5639999999999924e-11,3.2422E-12,1.76000E+05,5.993450E-10,9.119999999999964e-12,1.1153E-12,1.75956E+05,1.68130135E-08,7.205000000000163e-11,9.1999E-12,2.28765125803852e-09,20.486964734641788,2.728534236879254,4.991975,0,0,0,0,0,0,7.834390669057525e-11,15.799269414003447,1.9039362498723444,4.954731
2023-07-29 17:50:16.098507,1,True,0,1,14,134,621,27.59,1.76000E+05,1.8742395E-09,2.6459999999999927e-11,3.1528E-12,1.76000E+05,5.925169E-10,9.560000000000017e-12,1.1655E-12,1.76000E+05,7.0156245E-09,7.608000000000001e-11,9.1159E-12,1.4603403891828273e-09,19.96610969901485,2.7313075426820452,4.911865,0,0,0,0,0,0,7.768922316208929e-11,15.27841437837742,1.9928000533913364,4.994329
2023-07-29 17:50:59.639498,1,True,0,1,2,135,621,27.43,1.76000E+05,1.8741823E-09,2.5399999999999933e-11,2.9219E-12,1.76000E+05,5.932082E-10,9.579999999999981e-12,1.0631E-12,1.76000E+05,1.5991069E-09,7.281000000000008e-11,9.1706E-12,1.8769781657569657e-09,19.618873008597348,2.8483423178876337,5.020933,0,0,0,0,0,0,7.807267490313565e-11,16.667361140047433,1.920441875562096,4.974493
2023-07-29 17:51:44.626427,1,True,0,1,12,136,620,27.4,1.84000E+05,1.8798303E-09,2.704999999999982e-11,2.9272E-12,1.84000E+05,5.989668E-10,9.610000000000032e-12,1.1369E-12,1.83954E+05,1.38960793E-08,6.87500000000002e-11,9.1255E-12,1.4545709664984072e-09,20.31334638943281,2.820248914395147,4.948156,0,0,0,0,0,0,7.792599344418661e-11,15.799269414003447,1.9292073055289676,4.966322
2023-07-29 17:52:30.577556,1,True,0,1,38,137,620,27.43,1.80000E+05,1.8746874E-09,2.7159999999999728e-11,2.9843E-12,1.80000E+05,5.934857E-10,9.659999999999944e-12,1.1022E-12,1.80000E+05,8.6825170E-09,7.616999999999975e-11,9.1998E-12,1.044332631915079e-09,20.13972804422383,2.735378103868785,4.936357,0,0,0,0,0,0,7.797991235747573e-11,15.625651068794468,1.9484290917353309,4.987186
2023-07-29 17:53:15.312316,1,True,0,1,4,138,620,27.39,1.84000E+05,1.8809528E-09,2.7199999999999658e-11,3.0148E-12,1.84000E+05,5.997328E-10,9.320000000000026e-12,1.1711E-12,1.84000E+05,2.8554417E-09,6.650000000000013e-11,9.1275E-12,2.0278594767837084e-10,19.618873008596893,2.725297906702469,4.927847,0,0,0,0,0,0,7.796412524134616e-11,14.931177687959007,1.9275905607111168,4.977351
2023-07-29 17:54:01.940072,1,True,0,1,18,139,620,27.52,1.76000E+05,1.8801804E-09,2.8309999999999874e-11,3.0932E-12,1.76000E+05,5.987392E-10,1.0680000000000009e-11,1.1780E-12,1.75956E+05,1.68128223E-08,6.807000000000016e-11,9.1568E-12,4.1314335840375634e-10,18.750781282553362,2.6814709236668204,4.879466,0,0,0,0,0,0,7.839744190731811e-11,16.667361140047433,2.02394087286246,4.991663
2023-07-29 17:54:46.864010,1,True,0,1,38,140,620,27.43,1.76000E+05,1.8805219E-09,2.68900000000001e-11,2.9962E-12,1.76000E+05,5.992358E-10,8.829999999999958e-12,1.0411E-12,1.75956E+05,1.76476835E-08,6.998000000000021e-11,9.1914E-12,1.6635463161658558e-09,19.445254663388823,2.8507993358501347,5.006081,0,0,0,0,0,0,7.79281983971722e-11,17.014597830464936,2.0576417965807376,4.967189
2023-07-29 17:55:36.043631,1,True,0,1,26,141,620,27.55,1.84000E+05,1.8803306E-09,2.7050000000000232e-11,3.2102E-12,1.84000E+05,5.983876E-10,1.0469999999999965e-11,1.2105E-12,1.83954E+05,1.45211569E-08,6.969999999999863e-11,9.1797E-12,4.1400255739818377e-10,19.618873008597802,2.666998378503344,4.904544,0,0,0,0,0,0,7.771335611207432e-11,14.931177687959007,1.930108624906736,5.018809
2023-07-29 17:56:23.932589,1,True,0,1,10,142,620,27.52,1.76000E+05,1.8749737E-09,2.6839999999999878e-11,3.1863E-12,1.76000E+05,5.933801E-10,9.580000000000085e-12,1.1205E-12,1.75956E+05,1.38913753E-08,6.844000000000064e-11,9.1890E-12,6.274810426127798e-10,19.09801797297132,2.836594783180172,4.911741,0,0,0,0,0,0,7.754306429435794e-11,15.104796033167986,1.9773184589672979,5.006454
2023-07-29 17:57:13.388462,1,True,0,1,2,143,620,27.45,1.84000E+05,1.8745050E-09,2.7680000000000053e-11,3.2527E-12,1.84000E+05,5.924747E-10,9.159999999999997e-12,1.1351E-12,1.83954E+05,1.65992623E-08,7.476000000000192e-11,9.1555E-12,1.460847898176243e-09,19.445254663388823,2.7294482306124976,4.940063,0,0,0,0,0,0,7.734784782700543e-11,17.535452866091873,2.006222670299175,4.984814
2023-07-29 17:58:00.391000,1,True,0,1,32,144,621,27.4,1.76000E+05,1.8815129E-09,2.6049999999999926e-11,3.2625E-12,1.76000E+05,5.994097E-10,9.500000000000019e-12,1.0927E-12,1.75956E+05,1.51471472E-08,6.820999999999846e-11,9.0177E-12,3.3285501131994795e-09,22.396766531938738,2.7673633646515974,4.988062,0,0,0,0,0,0,7.758022903733267e-11,15.972887759212426,1.9324241779514475,4.993726
2023-07-29 17:58:48.401306,1,True,0,1,34,145,620,27.4,1.84000E+05,1.8810545E-09,2.720999999999995e-11,3.3021E-12,1.84000E+05,5.993598E-10,1.0039999999999998e-11,1.1221E-12,1.83954E+05,2.22299565E-08,7.325999999999691e-11,9.1509E-12,3.745335710168892e-09,20.660583079849857,2.7710645418856403,4.898439,0,0,0,0,0,0,7.80361803269738e-11,15.972887759211972,2.010633879576679,4.993586
2023-07-29 17:59:35.321836,1,True,0,1,14,146,620,27.36,1.84000E+05,1.8744060E-09,2.6570000000000044e-11,3.3398E-12,1.84000E+05,5.924255E-10,9.67000000000003e-12,1.0715E-12,1.84000E+05,3.491877E-10,7.379999999999999e-11,9.3687E-12,1.0441476676110175e-09,20.31334638943281,2.746268150488305,5.025406,0,0,0,0,0,0,7.723498374933281e-11,15.799269414003447,1.936623265562924,4.977769
2023-07-29 18:00:19.597872,1,True,0,1,12,147,620,27.37,1.76000E+05,1.8799617E-09,2.7510000000000043e-11,3.3576E-12,1.76000E+05,5.985971E-10,9.869999999999988e-12,1.0928E-12,1.75956E+05,2.22284941E-08,7.11899999999988e-11,9.0798E-12,3.5395927694906907e-09,19.792491353806327,2.7278612239087434,4.93569,0,0,0,0,0,0,7.84887495312527e-11,15.45203272358549,1.9622731147361538,5.005883
2023-07-29 18:01:04.228888,1,True,0,1,10,148,620,27.36,1.76000E+05,1.8804259E-09,2.736999999999967e-11,3.4603E-12,1.76000E+05,5.990214E-10,9.560000000000017e-12,1.1198E-12,1.76000E+05,7.6458134E-09,6.80500000000004e-11,9.1297E-12,2.91204402614011e-09,19.792491353806327,2.7554060551861657,4.910831,0,0,0,0,0,0,7.814683771547762e-11,17.361834520882894,1.928120077719841,4.962447
2023-07-29 18:01:51.507435,1,True,0,1,36,149,620,27.38,1.76000E+05,1.8739256E-09,2.7630000000000038e-11,3.4011E-12,1.76000E+05,5.924693E-10,9.660000000000047e-12,1.0394E-12,1.76000E+05,1.1810403E-09,7.341000000000006e-11,9.1213E-12,2.294590255496811e-09,19.445254663388823,2.818260587589664,4.984832,0,0,0,0,0,0,7.805984277124387e-11,15.625651068794468,1.9065229491069464,4.995827
2023-07-29 18:02:36.162297,1,True,0,1,8,150,620,27.43,1.76000E+05,1.8807621E-09,2.8190000000000086e-11,3.4073E-12,1.76000E+05,5.987694E-10,9.930000000000089e-12,1.1215E-12,1.76000E+05,5.3553402E-09,7.33900000000003e-11,9.2312E-12,3.120947098490472e-09,19.792491353806327,2.6874298847225644,4.979905,0,0,0,0,0,0,7.813262705392436e-11,15.799269414002993,1.931922751351082,4.983223
2023-07-29 18:03:22.302420,1,True,0,1,32,151,620,27.4,1.84000E+05,1.8810769E-09,2.6319999999999967e-11,3.3948E-12,1.84000E+05,5.991788E-10,8.949999999999954e-12,1.0148E-12,1.84000E+05,5.9797244E-09,7.246999999999985e-11,9.2551E-12,2.2889143401808887e-09,21.00781977026827,2.7877405153053236,5.010072,0,0,0,0,0,0,7.760645408837764e-11,16.493742794838454,1.9048108824444865,5.005699
2023-07-29 18:04:06.639020,1,True,0,1,6,152,620,27.47,1.76000E+05,1.8743227E-09,2.5420000000000105e-11,3.4241E-12,1.76000E+05,5.924579E-10,9.939999999999968e-12,1.0724E-12,1.75956E+05,1.05569986E-08,6.746000000000092e-11,9.2142E-12,2.91871716877117e-09,19.098017972970865,2.7614248684536937,5.004173,0,0,0,0,0,0,7.703138846063974e-11,14.236704307123546,1.9226068579909998,4.950482
2023-07-29 18:04:49.983373,1,True,0,1,0,153,620,27.4,1.76000E+05,1.8749612E-09,2.7400000000000133e-11,3.4720E-12,1.76000E+05,5.936475E-10,9.629999999999997e-12,1.1783E-12,1.75956E+05,2.18068096E-08,7.128000000000102e-11,9.1451E-12,3.5449292765674682e-09,19.618873008597802,2.7841325460275166,4.879321,0,0,0,0,0,0,7.81740766976598e-11,16.667361140047433,1.9123540136085926,5.030711
2023-07-29 18:05:37.095653,1,True,0,1,30,154,620,27.43,1.80000E+05,1.8810435E-09,2.7390000000000254e-11,3.3983E-12,1.80000E+05,5.994906E-10,1.0030000000000016e-11,1.1124E-12,1.79955E+05,1.18129356E-08,7.027999999999989e-11,9.1181E-12,3.328689568662892e-09,20.139728044224285,2.766159987919755,4.952399,0,0,0,0,0,0,7.77941702432183e-11,15.972887759212426,1.9162083807699875,4.987777
2023-07-29 18:06:24.648204,1,True,0,1,26,155,620,27.46,1.84000E+05,1.8810207E-09,2.7680000000000053e-11,3.3890E-12,1.84000E+05,5.989822E-10,8.589999999999967e-12,9.865E-13,1.83954E+05,1.43128809E-08,7.327999999999998e-11,9.0928E-12,4.130743277497112e-10,20.313346389433264,2.7044902495766383,4.952069,0,0,0,0,0,0,7.759772629416408e-11,15.972887759212426,1.9653636302364839,4.977302
2023-07-29 18:07:12.091638,1,True,0,1,34,156,620,27.34,1.76000E+05,1.8810063E-09,2.7959999999999974e-11,3.3724E-12,1.76000E+05,5.994117E-10,9.569999999999999e-12,1.0958E-12,1.75956E+05,1.20212030E-08,7.595000000000076e-11,9.1894E-12,2.912939601650268e-09,19.792491353806327,2.757928557623172,4.991868,0,0,0,0,0,0,7.820489916248042e-11,16.320124449629475,2.0394879232014596,4.972192
2023-07-29 18:07:57.123614,1,True,0,1,38,157,620,27.32,1.76000E+05,1.8811857E-09,2.6369999999999776e-11,3.3923E-12,1.76000E+05,5.993440E-10,8.90999999999992e-12,1.0581E-12,1.75956E+05,1.68126844E-08,6.904000000000166e-11,9.1038E-12,2.4967050693084976e-09,21.00781977026827,2.7804406341685306,5.024211,0,0,0,0,0,0,7.830983235414402e-11,16.49374279483891,1.9729513144812978,4.972601
2023-07-29 18:08:46.239375,1,True,0,1,16,158,620,27.46,1.88000E+05,1.8729241E-09,2.6509999999999943e-11,3.4292E-12,1.88000E+05,5.913920E-10,9.399999999999988e-12,1.0673E-12,1.87953E+05,1.20134845E-08,6.787000000000092e-11,9.1370E-12,6.280195251189862e-10,18.22992624692688,2.825812479190289,4.907486,0,0,0,0,0,0,7.785392967764067e-11,15.625651068794923,1.9218893450339993,4.978536
2023-07-29 18:09:34.207291,1,True,0,1,2,159,620,27.45,1.84000E+05,1.8740748E-09,2.7719999999999983e-11,3.4430E-12,1.84000E+05,5.925806E-10,9.389999999999902e-12,1.0054E-12,1.83954E+05,2.45149992E-08,6.926999999999887e-11,9.0670E-12,3.3347851212554873e-09,19.96610969901485,2.812063196509761,4.883181,0,0,0,0,0,0,7.778664562413789e-11,16.320124449630384,1.8931418605669654,4.942821
2023-07-29 18:10:21.173496,1,True,0,1,0,160,620,27.52,1.84000E+05,1.8809149E-09,2.7689999999999932e-11,3.4441E-12,1.84000E+05,5.990117E-10,9.33999999999999e-12,1.0392E-12,1.83954E+05,1.28547226E-08,6.849000000000004e-11,9.1789E-12,1.8701877960193056e-09,20.83420142505929,2.815420234832837,4.981305,0,0,0,0,0,0,7.75457119741222e-11,15.104796033167986,1.9227529898898075,5.05651
2023-07-29 18:11:06.065443,1,True,0,1,32,161,620,27.43,1.76000E+05,1.8739526E-09,2.7549999999999972e-11,3.4453E-12,1.76000E+05,5.920448E-10,9.539999999999948e-12,1.1635E-12,1.76000E+05,1.8064501E-09,7.411999999999995e-11,9.0876E-12,2.098471811326131e-10,19.445254663389278,2.7898156254852347,4.919176,0,0,0,0,0,0,7.742204709919663e-11,15.27841437837651,1.9241853390714345,4.905799
2023-07-29 18:11:51.795309,1,True,0,1,24,162,620,27.43,1.84000E+05,1.8751209E-09,2.7590000000000315e-11,3.4372E-12,1.84000E+05,5.934920E-10,9.999999999999965e-12,1.1874E-12,1.84000E+05,2.4334860E-09,7.156999999999999e-11,9.2342E-12,2.2949571145326138e-09,21.00781977026827,2.8278617214002733,4.993863,0,0,0,0,0,0,7.805866563886294e-11,16.667361140047433,1.9181181905113067,4.991373
2023-07-29 18:12:37.388262,1,True,0,1,4,163,620,27.53,1.76000E+05,1.8743768E-09,2.7680000000000053e-11,3.4237E-12,1.76000E+05,5.929403E-10,9.040000000000002e-12,1.0590E-12,1.76000E+05,2.8485054E-09,7.365000000000005e-11,9.2102E-12,2.4371206439152756e-12,18.22992624692688,2.4795434128855187,4.916231,0,0,0,0,0,0,7.838452643862199e-11,16.14650610442095,2.0275077996783444,4.992957
2023-07-29 18:13:24.298051,1,True,0,1,38,164,620,27.5,1.76000E+05,1.8739896E-09,2.706999999999999e-11,3.3983E-12,1.76000E+05,5.923844E-10,1.0770000000000057e-11,1.1411E-12,1.75956E+05,1.15978646E-08,7.078000000000045e-11,9.0475E-12,8.361810613635421e-10,18.577162937344838,2.756037281931702,4.898253,0,0,0,0,0,0,7.824709710128574e-11,15.278414378376965,1.909339041743118,5.000717
2023-07-29 18:14:12.061376,1,True,0,1,16,165,620,27.56,1.84000E+05,1.8744029E-09,2.7750000000000033e-11,3.3715E-12,1.84000E+05,5.923815E-10,1.0290000000000075e-11,1.1538E-12,1.83954E+05,9.7229899E-09,6.941000000000049e-11,9.0791E-12,8.364012545660421e-10,20.139728044224285,2.799896765027531,4.928706,0,0,0,0,0,0,7.759260802534531e-11,15.799269414003447,1.8882213026173083,5.006548
2023-07-29 18:14:58.818351,1,True,0,1,12,166,620,27.48,1.84000E+05,1.8803123E-09,2.689999999999998e-11,3.4722E-12,1.84000E+05,5.986635E-10,9.150000000000015e-12,1.0994E-12,1.84000E+05,5.633152E-10,6.804e-11,9.1925E-12,4.134247069321875e-10,18.577162937344838,2.702001406852494,4.958512,0,0,0,0,0,0,7.783338889121982e-11,15.972887759211972,1.9065850910705233,4.976129
2023-07-29 18:15:46.459046,1,True,0,1,22,167,620,27.47,1.84000E+05,1.8811040E-09,2.7740000000000154e-11,3.4725E-12,1.84000E+05,5.993128E-10,1.0090000000000014e-11,1.1066E-12,1.84000E+05,5.3561934E-09,7.113000000000035e-11,9.2297E-12,3.746550715655177e-09,19.09801797297132,2.8026913767260706,4.979447,0,0,0,0,0,0,7.803407260026494e-11,16.49374279483891,1.9396643114591294,5.017286
2023-07-29 18:16:30.781143,1,True,0,1,32,168,621,27.55,1.76000E+05,1.8810184E-09,2.7659999999999882e-11,3.4318E-12,1.76000E+05,5.987919E-10,8.910000000000024e-12,1.0742E-12,1.75956E+05,2.49383447E-08,7.013999999999827e-11,9.0870E-12,2.040587246690899e-10,20.139728044224285,2.768849551435765,4.846569,0,0,0,0,0,0,7.720923614873623e-11,17.88268955650892,2.0261675174564977,4.991009
2023-07-29 18:17:14.840176,1,True,0,1,28,169,621,27.62,1.76000E+05,1.8809321E-09,2.7719999999999983e-11,3.4318E-12,1.76000E+05,5.987093E-10,9.059999999999967e-12,1.0914E-12,1.75956E+05,2.26469926E-08,7.174999999999864e-11,8.9832E-12,1.6627745999832197e-09,19.445254663388823,2.8667084041950353,5.009224,0,0,0,0,0,0,7.675784581302594e-11,14.931177687958552,1.8546628988103138,4.90268
2023-07-29 18:18:01.778544,1,True,0,1,6,170,621,27.51,1.76000E+05,1.8814419E-09,2.755999999999985e-11,3.4677E-12,1.76000E+05,5.991572E-10,9.490000000000037e-12,1.0530E-12,1.75956E+05,1.41067092E-08,7.689999999999919e-11,9.1237E-12,1.6634638075197035e-09,23.78571329360966,2.852091623319685,4.931502,0,0,0,0,0,0,7.691381932581304e-11,14.931177687959462,1.8918852663116439,4.921493
2023-07-29 18:18:48.789193,1,True,0,1,10,171,621,27.52,1.80000E+05,1.8748768E-09,2.696999999999996e-11,3.4644E-12,1.80000E+05,5.930558E-10,1.0259999999999921e-11,1.1600E-12,1.79955E+05,1.28491510E-08,7.395000000000014e-11,9.0941E-12,3.33448699945865e-09,19.618873008597348,2.7211477570440996,4.941801,0,0,0,0,0,0,7.706646978347121e-11,16.667361140047433,1.889610131805504,4.999175
2023-07-29 18:19:34.892361,1,True,0,1,20,172,620,27.53,1.76000E+05,1.8820033E-09,2.8899999999999766e-11,3.4337E-12,1.76000E+05,5.997505E-10,8.670000000000033e-12,1.0317E-12,1.75956E+05,2.43149232E-08,7.247999999999973e-11,9.0928E-12,2.9126797870051496e-09,20.486964734641333,2.8291377203269303,4.865004,0,0,0,0,0,0,7.707832444408208e-11,16.320124449630384,1.916642158010441,4.968176
2023-07-29 18:20:20.619270,1,True,0,1,2,173,621,27.56,1.76000E+05,1.8743294E-09,2.8460000000000127e-11,3.4282E-12,1.76000E+05,5.924339E-10,9.349999999999973e-12,1.1887E-12,1.76000E+05,2.2235726E-09,7.230000000000026e-11,9.0717E-12,2.5020638932873056e-09,20.13972804422383,2.737171936758895,4.977326,0,0,0,0,0,0,7.766470130701346e-11,16.840979485255957,1.9150554459018523,4.961932
2023-07-29 18:21:08.473112,1,True,0,1,26,174,620,27.43,1.76000E+05,1.8741905E-09,2.720999999999995e-11,3.2470E-12,1.76000E+05,5.924603E-10,1.122999999999997e-11,1.1612E-12,1.76000E+05,6.1819416E-09,7.660000000000034e-11,9.1114E-12,1.8778451393808246e-09,19.79249135380678,2.8564204819987813,4.945313,0,0,0,0,0,0,7.7907956234304e-11,15.27841437837651,1.8965063240623004,4.988277
2023-07-29 18:21:54.249436,1,True,0,1,22,175,620,27.57,1.80000E+05,1.8810937E-09,2.8210000000000257e-11,3.2104E-12,1.80000E+05,5.993459E-10,9.659999999999944e-12,1.1265E-12,1.79955E+05,2.41048133E-08,6.971000000000017e-11,9.0841E-12,3.3287476196928135e-09,20.486964734641788,2.8044826425204343,5.002246,0,0,0,0,0,0,7.737884738253956e-11,16.320124449629475,1.8953462880430079,4.974539
2023-07-29 18:22:41.957851,1,True,0,1,12,176,620,27.57,1.84000E+05,1.8819973E-09,2.741999999999989e-11,3.3901E-12,1.84000E+05,5.998641E-10,8.829999999999958e-12,1.0604E-12,1.83954E+05,1.36893240E-08,7.412999999999962e-11,9.0903E-12,3.745920316124718e-09,19.098017972970865,2.786675106113547,4.964317,0,0,0,0,0,0,7.737247558927163e-11,15.972887759212426,1.899706677125605,4.989581
2023-07-29 18:23:28.850340,1,True,0,1,24,177,621,27.58,1.76000E+05,1.8810638E-09,2.6699999999999918e-11,3.3749E-12,1.76000E+05,5.992826E-10,9.090000000000017e-12,1.0700E-12,1.75956E+05,1.24388673E-08,7.603999999999967e-11,8.9895E-12,3.5389500413214403e-09,19.09801797297132,2.7575397604672576,4.918045,0,0,0,0,0,0,7.761574614221224e-11,17.188216175673915,1.8961483535494439,4.979781
2023-07-29 18:24:17.065672,1,True,0,1,12,178,620,27.47,1.76000E+05,1.8740704E-09,2.669000000000004e-11,3.3200E-12,1.76000E+05,5.922646E-10,9.009999999999951e-12,1.0321E-12,1.75956E+05,2.28479600E-08,7.09499999999984e-11,9.0389E-12,2.7115107660737874e-09,20.139728044224285,2.870285118762981,4.979704,0,0,0,0,0,0,7.762329159549746e-11,15.104796033167986,1.8877040872313766,5.081667
2023-07-29 18:25:05.672046,1,True,0,1,12,179,620,27.55,1.84000E+05,1.8814440E-09,2.7959999999999974e-11,3.3489E-12,1.84000E+05,5.995403E-10,9.53000000000007e-12,1.1315E-12,1.84000E+05,5.7727329E-09,7.150000000000001e-11,9.0597E-12,1.2477527501144107e-09,20.486964734641333,2.803270836279737,4.975695,0,0,0,0,0,0,7.757437983528627e-11,17.01459783046539,1.9036335933676902,5.036371
2023-07-29 18:25:51.605301,1,True,0,1,12,180,620,27.42,1.84000E+05,1.8816932E-09,2.8519999999999815e-11,3.3207E-12,1.84000E+05,5.994718E-10,9.249999999999942e-12,1.1438E-12,1.83954E+05,1.93144925E-08,7.014000000000158e-11,9.0834E-12,3.5384391814940537e-09,21.007819770267815,2.7179561024321672,4.913815,0,0,0,0,0,0,7.741164736031611e-11,15.104796033167986,1.9128308515101504,4.992134
2023-07-29 18:26:40.304319,1,True,0,1,24,181,621,27.45,1.84000E+05,1.8745913E-09,2.693999999999991e-11,3.3367E-12,1.84000E+05,5.930771E-10,9.579999999999981e-12,1.1502E-12,1.83954E+05,2.40993768E-08,7.469000000000277e-11,9.1480E-12,6.271649165936311e-10,20.31334638943281,2.8436788982727603,4.975761,0,0,0,0,0,0,7.764221425893935e-11,17.014597830464936,2.0168027492512595,4.999651
2023-07-29 18:27:25.903038,1,True,0,1,32,182,621,27.53,1.76000E+05,1.8830287E-09,2.703000000000006e-11,3.3271E-12,1.76000E+05,6.008234E-10,9.47999999999995e-12,1.1624E-12,1.75956E+05,1.70237927E-08,7.111999999999965e-11,9.0419E-12,3.3282765288833708e-09,19.44525466338837,2.7912475392425544,4.991348,0,0,0,0,0,0,7.7266061433126e-11,17.361834520882894,1.966125298707188,5.010158
2023-07-29 18:28:09.402752,1,True,0,1,18,183,620,27.58,1.76000E+05,1.8809394E-09,2.7850000000000064e-11,3.2499E-12,1.76000E+05,5.990678E-10,9.40999999999997e-12,1.1022E-12,1.76000E+05,1.1890743E-09,7.82600000000001e-11,9.2022E-12,-4.151304915483115e-12,18.577162937343928,2.560341136833045,5.009863,0,0,0,0,0,0,7.763958567719482e-11,16.146506104421405,2.046068612615997,5.011066
2023-07-29 18:28:53.736719,1,True,0,1,24,184,620,27.5,1.76000E+05,1.8760011E-09,2.665999999999999e-11,3.2290E-12,1.76000E+05,5.937561E-10,8.939999999999971e-12,1.0138E-12,1.76000E+05,3.2669529E-09,7.610000000000018e-11,9.1812E-12,2.294638665499972e-09,19.09801797297132,2.768141397161114,5.009507,0,0,0,0,0,0,7.6816829173444e-11,14.41032265233207,1.898393617937738,4.936555
2023-07-29 18:29:39.868999,1,True,0,1,26,185,620,27.52,1.84000E+05,1.8743018E-09,2.8889999999999887e-11,3.3955E-12,1.84000E+05,5.925461E-10,9.74000000000001e-12,1.0851E-12,1.83954E+05,1.90990707E-08,7.176000000000183e-11,9.1569E-12,1.2532302526492962e-09,19.098017972970865,2.7546858043255584,5.015773,0,0,0,0,0,0,7.806930149869195e-11,14.583940997541504,1.8705992116520331,4.998856
2023-07-29 18:30:27.785423,1,True,0,1,8,186,620,27.49,1.76000E+05,1.8805028E-09,2.8129999999999985e-11,3.4291E-12,1.76000E+05,5.989085E-10,9.589999999999964e-12,1.0378E-12,1.76000E+05,3.543042E-10,6.833000000000001e-11,8.9998E-12,1.0377668218812992e-09,20.31334638943281,2.7659766354305475,4.979892,0,0,0,0,0,0,7.810564155452822e-11,17.01459783046539,2.0351749413940317,5.037657
2023-07-29 18:31:16.330716,1,True,0,1,0,187,620,27.52,1.84000E+05,1.8820241E-09,2.8740000000000048e-11,3.4243E-12,1.84000E+05,6.003112E-10,9.470000000000072e-12,1.0991E-12,1.83954E+05,2.13983901E-08,7.18200000000011e-11,9.1864E-12,1.4530943702513624e-09,22.223148186730214,2.7342212022962005,4.890048,0,0,0,0,0,0,7.795282442325589e-11,15.972887759211972,1.8872847002180089,4.999018
2023-07-29 18:32:02.137387,1,True,0,1,0,188,620,27.56,1.80000E+05,1.8806303E-09,2.6609999999999766e-11,3.3539E-12,1.80000E+05,5.984536E-10,9.929999999999985e-12,1.1550E-12,1.79955E+05,1.61885620E-08,7.35599999999999e-11,9.0900E-12,2.7046407923248162e-09,20.31334638943281,2.8222239201251162,4.970692,0,0,0,0,0,0,7.760095385920089e-11,15.799269414003447,1.8894111296013143,5.007049
2023-07-29 18:32:46.790288,1,True,0,1,20,189,621,27.48,1.76000E+05,1.8814204E-09,2.8600000000000087e-11,3.2789E-12,1.76000E+05,5.992927E-10,9.47999999999995e-12,1.1257E-12,1.75956E+05,2.28559306E-08,7.223999999999933e-11,9.1436E-12,1.0383008423960284e-09,23.0912399127742,2.7804952574023942,5.024987,0,0,0,0,0,0,7.765774615610355e-11,17.709071211300397,1.9034903927078217,5.021493
2023-07-29 18:33:31.137049,1,True,0,1,0,190,620,27.49,1.76000E+05,1.8742255E-09,2.683e-11,3.1548E-12,1.76000E+05,5.925627E-10,9.860000000000005e-12,1.1862E-12,1.75956E+05,2.05577144E-08,7.054999999999993e-11,9.1532E-12,1.8770283240968705e-09,21.528674805894752,2.8748619323310662,5.001215,0,0,0,0,0,0,7.789399384698143e-11,16.49374279483891,1.92015005886157,4.968003
2023-07-29 18:34:18.946879,1,True,0,1,18,191,620,27.49,1.84000E+05,1.8748084E-09,2.5740000000000368e-11,2.7957E-12,1.84000E+05,5.937497E-10,9.929999999999985e-12,1.1135E-12,1.84000E+05,3.2657345E-09,7.252999999999996e-11,9.0769E-12,3.751796968971351e-09,20.660583079850767,2.7962856898997273,4.971118,0,0,0,0,0,0,7.785180111672809e-11,15.799269414002993,2.007537866168639,4.980413
2023-07-29 18:35:04.991924,1,True,0,1,20,192,620,27.5,1.80000E+05,1.8736538E-09,2.7570000000000144e-11,2.7588E-12,1.80000E+05,5.929593E-10,9.699999999999977e-12,1.1070E-12,1.79955E+05,1.49318904E-08,7.234999999999965e-11,8.9953E-12,3.960917399336537e-09,21.181438115476794,2.7081930032925348,4.940344,0,0,0,0,0,0,7.830114796451658e-11,15.799269414002993,2.0491204372579497,4.984125
2023-07-29 18:35:48.982793,1,True,0,1,22,193,620,27.33,1.76000E+05,1.8821400E-09,2.730999999999998e-11,3.2992E-12,1.76000E+05,6.004561E-10,1.0090000000000014e-11,1.2003E-12,1.75956E+05,1.63987274E-08,6.786999999999927e-11,9.2281E-12,3.328339920413612e-09,20.660583079850767,2.785187471811913,4.880761,0,0,0,0,0,0,7.814828916484264e-11,16.667361140047433,1.9926788881832607,4.963799
2023-07-29 18:36:35.448185,1,True,0,1,8,194,620,27.56,1.84000E+05,1.8816751E-09,2.7789999999999963e-11,3.1825E-12,1.84000E+05,5.996682E-10,8.680000000000016e-12,1.1003E-12,1.83954E+05,1.03554332E-08,7.587999999999995e-11,9.1408E-12,1.6613864831172612e-09,20.139728044224285,2.77780729517327,4.921199,0,0,0,0,0,0,7.756781358946692e-11,15.452032723585944,1.8966431890061801,5.006783
2023-07-29 18:37:23.502235,1,True,0,1,30,195,620,27.52,1.84000E+05,1.8818676E-09,2.6919999999999737e-11,3.2319E-12,1.84000E+05,5.997177E-10,9.299999999999958e-12,1.0719E-12,1.83954E+05,1.72313768E-08,7.341999999999828e-11,9.1276E-12,1.453184519840955e-09,20.31334638943281,2.822596251261464,5.023918,0,0,0,0,0,0,7.737288012001598e-11,15.972887759211972,1.8838616995251691,5.053276
2023-07-29 18:38:12.506085,1,True,0,1,2,196,621,27.53,1.84000E+05,1.8755504E-09,2.7999999999999903e-11,3.3506E-12,1.84000E+05,5.933052E-10,1.0160000000000097e-11,1.1851E-12,1.83954E+05,1.34744170E-08,7.069999999999977e-11,9.0572E-12,3.3348509382338755e-09,20.31334638943281,2.717842749811137,5.024618,0,0,0,0,0,0,7.732742162868828e-11,15.452032723585944,1.8866312380433903,5.063364
2023-07-29 18:38:59.873693,1,True,0,1,2,197,620,27.59,1.84000E+05,1.8824204E-09,2.755999999999985e-11,3.2922E-12,1.84000E+05,6.000772E-10,8.939999999999971e-12,1.1239E-12,1.83954E+05,1.76487338E-08,6.68900000000012e-11,9.1601E-12,1.246749411433632e-09,20.486964734641333,2.8388921290307607,4.995924,0,0,0,0,0,0,7.684378515772051e-11,15.104796033167986,1.9003439809438958,5.005757
2023-07-29 18:39:46.388951,1,True,0,1,14,198,620,27.52,1.80000E+05,1.8816857E-09,2.665999999999999e-11,3.0954E-12,1.80000E+05,6.000312E-10,8.869999999999991e-12,1.0442E-12,1.79955E+05,2.26472130E-08,7.175999999999852e-11,9.0178E-12,3.953234716377569e-09,19.271636318179844,2.732403058272347,5.006312,0,0,0,0,0,0,7.776653714739742e-11,15.27841437837651,1.902759431274984,5.017515
2023-07-29 18:40:31.376145,1,True,0,1,32,199,620,27.4,1.84000E+05,1.8760376E-09,2.6980000000000252e-11,3.0394E-12,1.84000E+05,5.944070E-10,9.869999999999988e-12,1.1436E-12,1.83954E+05,1.03502134E-08,6.972000000000004e-11,8.9992E-12,3.1270051026434753e-09,18.750781282553362,2.7440513796728694,5.106948,0,0,0,0,0,0,7.72822582885503e-11,16.14650610442095,1.9729620567125372,4.991769
