Time,Legal,wasIllegal,LOLs,Valid,Slides,N reset,Temp,ambient T,N,Mean [s],Range [s],StdD [s],N C,Mean C,Range C,StdD C,N fo,Mean fo,Range fo,StdD fo,ddmtd,range dd,stdD dd,timeTook 100k,txpi_steps,desired_shift,step_done,ali_done,undo_step,undo,dmtd c,range dd c,stdD dd c,timeTook c
2023-07-23 03:00:54.251589,1,True,0,1,10,0,618,26.41,1.83954E+05,4.1329664E-09,1.855000000000052e-11,2.5124E-12,1.83954E+05,1.1070641E-09,9.98e-12,1.1282E-12,1.83954E+05,1.32108221E-08,7.158999999999892e-11,8.8836E-12,2.431187434893563e-09,21.007819770268725,2.6907725490939205,4.976535,21,34.86179806132718,1,1,0,0,3.5553687809909986e-09,20.660583079850312,2.9336112522774376,5.079608
2023-07-23 03:01:11.495111,1,True,0,1,10,0,618,26.57,1.75956E+05,4.1328265E-09,1.7620000000000194e-11,2.5366E-12,1.75956E+05,1.1072670E-09,9.469999999999968e-12,1.2403E-12,1.75956E+05,1.32106249E-08,6.985000000000013e-11,8.7276E-12,2.4309812110230785e-09,20.31334638943281,2.6893794671684046,4.947266,0,34.86179806132718,0,1,0,0,3.5554057669072228e-09,20.486964734641788,2.9516525966982012,4.93269
2023-07-23 03:01:29.536472,1,True,0,1,10,0,618,26.89,1.83954E+05,4.1327778E-09,1.8819999999999734e-11,2.5289E-12,1.83954E+05,1.1070569E-09,9.179999999999962e-12,1.1630E-12,1.83954E+05,1.32099152E-08,6.986999999999988e-11,8.7836E-12,2.431224245455085e-09,19.618873008597802,2.7033847923888086,4.918924,0,34.86179806132718,0,1,0,0,3.5553389880830243e-09,22.04952984152078,2.9203333198550423,4.963336
2023-07-23 03:02:08.917409,1,True,0,1,18,1,618,26.43,1.75956E+05,1.4252287E-09,1.6559999999999992e-11,2.3956E-12,1.75956E+05,1.1028802E-09,9.890000000000056e-12,1.1247E-12,1.75956E+05,7.108786E-10,6.987999999999997e-11,8.7954E-12,3.893768287220195e-09,19.271636318179844,2.724694699761494,4.890728,24,39.15995110897906,1,1,0,0,8.460469672347038e-10,24.132949984027164,3.0287199961048623,4.979081
2023-07-23 03:02:26.882139,1,True,0,1,18,1,618,26.35,1.83954E+05,1.4254150E-09,1.7039999999999974e-11,2.3841E-12,1.83954E+05,1.1030397E-09,1.0180000000000062e-11,1.1262E-12,1.83954E+05,7.114753E-10,6.966000000000005e-11,8.7917E-12,3.893661324429954e-09,20.31334638943281,2.7463533796904165,4.853621,0,39.15995110897906,0,1,0,0,8.458154193923817e-10,22.570384877147717,3.0185515206584483,4.987063
2023-07-23 03:02:44.877380,1,True,0,1,18,1,618,26.54,1.83954E+05,1.4253297E-09,1.7039999999999974e-11,2.3689E-12,1.83954E+05,1.1031117E-09,9.87999999999997e-12,1.1880E-12,1.83954E+05,7.109936E-10,7.261000000000002e-11,8.8246E-12,3.89335370744598e-09,19.271636318179844,2.726345438159413,4.858805,0,39.15995110897906,0,1,0,0,8.457434441712085e-10,22.396766531938738,3.001568677759448,4.940033
2023-07-23 03:03:26.088257,1,True,0,1,2,2,618,26.4,1.83954E+05,1.8408419E-09,1.7650000000000037e-11,2.4961E-12,1.83954E+05,1.1076435E-09,1.0030000000000016e-11,1.2184E-12,1.83954E+05,1.32098474E-08,6.749000000000056e-11,8.8231E-12,1.3734537202933029e-10,18.403544592135404,2.675449577988025,4.862833,20,32.82401523668965,1,1,0,0,1.2631954873119826e-09,22.74400322235624,2.99823579926276,4.958641
2023-07-23 03:03:42.602210,1,True,0,1,2,2,618,26.53,1.75956E+05,1.8407999E-09,1.802000000000011e-11,2.4739E-12,1.75956E+05,1.1075144E-09,1.0200000000000027e-11,1.1477E-12,1.75956E+05,1.32097163E-08,6.781e-11,8.8204E-12,1.375039706514964e-10,20.31334638943281,2.696472435899733,4.938749,0,32.82401523668965,0,1,0,0,1.2630405537730656e-09,21.702293151103277,2.987941841440446,5.065071
2023-07-23 03:03:59.482097,1,True,0,1,2,2,618,26.38,1.75956E+05,1.8407464E-09,1.8660000000000016e-11,2.4904E-12,1.75956E+05,1.1070586E-09,9.539999999999948e-12,1.1613E-12,1.75956E+05,1.32091007E-08,7.066000000000025e-11,8.7572E-12,1.3809008535072303e-10,19.271636318179844,2.676503098439391,4.880322,0,32.82401523668965,0,1,0,0,1.263697596774889e-09,23.95933163881864,3.001495093687705,5.051688
2023-07-23 03:04:39.509323,1,True,0,1,2,3,618,26.34,1.83954E+05,7.988032E-10,1.9579999999999947e-11,2.5106E-12,1.83954E+05,1.1021440E-09,1.0749999999999989e-11,1.3085E-12,1.83954E+05,9.0420388E-09,7.929000000000004e-11,8.7918E-12,3.26788158707965e-09,18.577162937344838,2.673564873990837,4.924806,23,38.132427392314796,1,1,0,0,2.2195682459003535e-10,22.049529841521235,3.025036079390111,4.980257
2023-07-23 03:04:57.509132,1,True,0,1,2,3,618,26.39,1.83954E+05,7.989185E-10,1.7749999999999965e-11,2.4955E-12,1.83954E+05,1.1018491E-09,9.91000000000002e-12,1.2507E-12,1.83954E+05,9.0414939E-09,6.824999999999964e-11,8.6645E-12,3.2676521730067245e-09,18.577162937344838,2.7241216211399957,4.947175,0,38.132427392314796,0,1,0,0,2.2209331291593792e-10,22.744003222356696,3.0185871545353122,4.996106
2023-07-23 03:05:15.529431,1,True,0,1,2,3,618,26.46,1.83954E+05,7.988114E-10,1.7870000000000063e-11,2.4899E-12,1.83954E+05,1.1022073E-09,9.419999999999953e-12,1.1517E-12,1.83954E+05,9.0418251E-09,6.900000000000049e-11,8.8050E-12,3.267667687542261e-09,19.098017972970865,2.6882148714695053,5.068985,0,38.132427392314796,0,1,0,0,2.2179241496185715e-10,22.91762156756522,2.999379640468676,4.937237
2023-07-23 03:05:56.716256,1,True,0,1,32,4,618,26.4,1.83954E+05,3.9240340E-09,1.9500000000000605e-11,2.5549E-12,1.83954E+05,1.1068731E-09,9.909999999999814e-12,1.1073E-12,1.83954E+05,9.0430031E-09,7.824000000000117e-11,9.0164E-12,2.221293998361411e-09,19.09801797297132,2.729444803269689,4.947515,21,34.1467075020886,1,1,0,0,3.3463157718382853e-09,22.396766531938738,2.9453131018290986,4.99599
2023-07-23 03:06:14.732031,1,True,0,1,32,4,618,26.29,1.83954E+05,3.9238372E-09,1.8899999999999594e-11,2.5673E-12,1.83954E+05,1.1067300E-09,9.829999999999955e-12,1.1789E-12,1.83954E+05,9.0426650E-09,6.708000000000056e-11,8.8012E-12,2.2219533070825975e-09,19.792491353806327,2.7269906179001113,4.981294,0,34.1467075020886,0,1,0,0,3.346780614123307e-09,21.528674805894298,2.9427292888449617,4.968789
2023-07-23 03:06:31.655340,1,True,0,1,32,4,618,26.32,1.75956E+05,3.9238413E-09,1.8650000000000137e-11,2.5144E-12,1.75956E+05,1.1068925E-09,9.179999999999962e-12,1.1210E-12,1.75956E+05,9.0431025E-09,6.735999999999882e-11,8.7992E-12,2.2214546526247775e-09,18.577162937344383,2.7416424650612217,4.961783,0,34.1467075020886,0,1,0,0,3.3464480464469834e-09,22.91762156756522,2.929787500596322,4.953691
