Time,Legal,wasIllegal,LOLs,Valid,Slides,N reset,Temp,ambient T,N,Mean [s],Range [s],StdD [s],N C,Mean C,Range C,StdD C,N fo,Mean fo,Range fo,StdD fo,ddmtd,range dd,stdD dd,timeTook 100k,txpi_steps,desired_shift,step_done,ali_done,undo_step,undo,dmtd c,range dd c,stdD dd c,timeTook c
2023-07-26 14:47:58.358473,1,True,0,1,24,0,617,25.89,1.84000E+05,2.4119756E-09,3.0340000000000125e-11,4.2543E-12,1.84000E+05,6.066393E-10,1.1330000000000001e-11,1.4519E-12,1.84000E+05,6.4718246E-09,7.225000000000003e-11,9.3887E-12,1.0068995201191856e-09,21.00781977026827,2.7999535585661737,4.979816,43,69.35141568429988,1,1,0,0,4.956438601609116e-10,24.13294998402671,3.1657584028140064,4.92749
2023-07-26 14:48:30.483363,1,True,0,1,10,1,617,25.96,1.84000E+05,2.4113873E-09,3.64e-11,4.1882E-12,1.84000E+05,6.118188E-10,1.1709999999999952e-11,1.6019E-12,1.84000E+05,6.4712621E-09,7.250999999999937e-11,9.5141E-12,2.8766755107850164e-09,19.618873008597802,2.8094213422624605,4.964486,40,64.48985895228257,1,1,0,0,2.370841328457945e-09,21.702293151103277,3.04805286288421,4.946099
2023-07-26 14:49:02.769251,1,True,0,1,6,2,617,25.86,1.80000E+05,2.4097963E-09,3.205000000000011e-11,4.0540E-12,1.80000E+05,6.068548E-10,1.0239999999999956e-11,1.3998E-12,1.79955E+05,2.31369001E-08,7.029999999999964e-11,9.3412E-12,2.2565409461502378e-09,20.660583079850312,2.853543767324562,5.015947,42,69.09797109572209,1,1,0,0,1.747448128046728e-09,21.875911496312256,2.9982474109482493,4.984004
2023-07-26 14:49:35.186689,1,True,0,1,26,3,617,25.96,1.84000E+05,2.4116468E-09,3.161000000000006e-11,4.1471E-12,1.84000E+05,6.135412E-10,1.1030000000000013e-11,1.3849E-12,1.83954E+05,1.35938846E-08,7.573999999999999e-11,9.4341E-12,2.876447940538895e-09,20.31334638943281,2.796192506870137,4.861438,39,63.72908072527922,1,1,0,0,2.3723650221535576e-09,23.264858257982723,3.0667953057958517,4.881168
2023-07-26 14:50:06.215380,1,True,0,1,36,4,617,25.97,1.76000E+05,2.4116635E-09,3.1359999999999776e-11,4.2463E-12,1.76000E+05,6.080877E-10,1.122999999999997e-11,1.4431E-12,1.75956E+05,1.48050802E-08,7.412999999999962e-11,9.3913E-12,1.7200075003132945e-10,21.70229315110373,2.9274852772967317,4.835814,42,68.1358476742892,1,1,0,0,3.828928441463088e-09,24.132949984027164,2.988863148810542,4.892716
2023-07-26 14:50:38.696379,1,True,0,1,10,5,617,26.05,1.84000E+05,2.4099037E-09,3.171000000000009e-11,4.2501E-12,1.84000E+05,6.132477E-10,1.1070000000000046e-11,1.3162E-12,1.83954E+05,1.89701536E-08,7.645999999999789e-11,9.4204E-12,3.749244829644733e-10,20.660583079850767,2.827938275897369,4.867901,38,62.44510882388401,1,1,0,0,4.039008533341966e-09,21.355056460685773,3.0520528981590624,4.954132
2023-07-26 14:51:09.816320,1,True,0,1,10,6,617,26.08,1.76000E+05,2.4109136E-09,3.0270000000000145e-11,4.2187E-12,1.76000E+05,6.073769E-10,1.206000000000006e-11,1.5194E-12,1.75956E+05,1.48045668E-08,7.218000000000005e-11,9.3789E-12,2.464760417100405e-09,19.96610969901485,2.7799211109783903,4.868804,42,68.62601045848218,1,1,0,0,1.9551736061917173e-09,21.528674805894752,3.0116214529807963,4.922755
2023-07-26 14:51:42.286107,1,True,0,1,26,7,618,26.06,1.84000E+05,2.4121704E-09,3.0450000000000034e-11,3.9809E-12,1.84000E+05,6.144395E-10,1.0369999999999934e-11,1.3488E-12,1.84000E+05,2.3060009E-09,7.064999999999996e-11,9.4139E-12,1.4172891665628193e-09,20.13972804422383,2.8118515988411095,4.945777,39,63.29547758966784,1,1,0,0,9.133826860842902e-10,21.875911496312256,3.055935841483031,4.977633
2023-07-26 14:52:14.781421,1,True,0,1,26,8,617,25.96,1.84000E+05,2.4108509E-09,2.8929999999999816e-11,4.0374E-12,1.84000E+05,6.131010E-10,1.1099999999999993e-11,1.4024E-12,1.84000E+05,1.06380330E-08,7.367000000000022e-11,9.3446E-12,3.917096703681963e-09,20.83420142505929,2.763890590250759,4.842611,39,63.628932455633404,1,1,0,0,3.4140084343793027e-09,22.570384877147262,3.053629395516809,4.976078
2023-07-26 14:52:47.213556,1,True,0,1,6,9,618,25.99,1.84000E+05,2.4127358E-09,2.922999999999991e-11,3.9219E-12,1.84000E+05,6.135427E-10,1.1389999999999999e-11,1.2944E-12,1.83954E+05,1.89735481E-08,7.365000000000212e-11,9.3975E-12,2.8769282036055522e-09,19.2716363181803,2.7779264150363834,4.877061,40,64.36280678341369,1,1,0,0,2.3712467741709978e-09,22.91762156756522,3.047118970378039,4.987597
2023-07-26 14:53:19.383210,1,True,0,1,14,10,618,25.99,1.80000E+05,2.4122396E-09,3.0909999999999845e-11,4.0380E-12,1.80000E+05,6.073482E-10,1.0660000000000044e-11,1.4483E-12,1.79955E+05,1.48064405E-08,7.377000000000067e-11,9.4224E-12,2.048897724904859e-09,20.31334638943281,2.811041698116819,4.849603,43,69.6255833573616,1,1,0,0,1.5379052547325297e-09,26.216370126533093,3.1340608978219704,4.943729
2023-07-26 14:53:51.059035,1,True,0,1,22,11,618,25.99,1.76000E+05,2.4115750E-09,3.0580000000000116e-11,4.2813E-12,1.76000E+05,6.131125E-10,1.0119999999999961e-11,1.4160E-12,1.75956E+05,1.48053687E-08,7.165999999999973e-11,9.4553E-12,2.4590448890228047e-09,19.96610969901576,2.8478824156923612,4.813741,39,62.69788498092616,1,1,0,0,1.9549066714583038e-09,22.744003222356696,3.0467036954941054,4.915883
