Time,Legal,wasIllegal,LOLs,Valid,Slides,N reset,Temp,ambient T,N,Mean [s],Range [s],StdD [s],N C,Mean C,Range C,StdD C,N fo,Mean fo,Range fo,StdD fo,ddmtd,range dd,stdD dd,timeTook 100k,txpi_steps,desired_shift,step_done,ali_done,undo_step,undo,dmtd c,range dd c,stdD dd c,timeTook c
2023-07-24 23:54:08.257501,1,True,0,1,36,0,618,26.24,1.80000E+05,2.1582014E-09,1.985999999999997e-11,2.0731E-12,1.80000E+05,6.389222E-10,1.0409999999999967e-11,1.2621E-12,1.79955E+05,2.28199615E-08,6.922999999999936e-11,8.8189E-12,5.075800588913933e-10,19.96610969901485,2.7204158127685987,4.960641,56,91.42546217205984,1,1,0,0,3.644993089987922e-10,21.702293151103277,2.981036803566374,5.00784
2023-07-24 23:54:53.886076,1,True,0,1,16,1,618,26.24,1.80000E+05,2.1546194E-09,2.169000000000016e-11,1.9895E-12,1.80000E+05,6.384962E-10,9.640000000000083e-12,1.1068E-12,1.80000E+05,1.9820682E-09,6.849999999999992e-11,8.9398E-12,2.5912748968706684e-09,20.486964734641333,2.661184747577239,4.989224,54,88.07053071648795,1,1,0,0,2.451587861299326e-09,22.917621567565675,2.9573251774407754,5.057279
2023-07-24 23:55:39.901352,1,True,0,1,8,2,618,26.33,1.80000E+05,2.1583054E-09,1.8310000000000116e-11,1.9957E-12,1.80000E+05,6.340196E-10,1.0789999999999918e-11,1.1619E-12,1.79955E+05,1.86527945E-08,6.835999999999996e-11,8.9180E-12,2.3876531782574876e-09,21.18143811547816,2.734935697724169,4.969323,59,96.4269726516138,1,1,0,0,2.2390312738721345e-09,22.049529841521235,3.041429599863835,5.046506
2023-07-24 23:56:24.500485,1,True,0,1,12,3,618,26.34,1.80000E+05,2.1573665E-09,2.187999999999993e-11,2.0841E-12,1.80000E+05,6.336271E-10,1.0929999999999982e-11,1.4334E-12,1.80000E+05,1.03195221E-08,6.749000000000056e-11,9.0171E-12,2.804775681625727e-09,19.966109699015306,2.713517576285659,5.074365,59,96.40891808001882,1,1,0,0,2.6575798991620725e-09,24.306568329236143,2.946315176150389,5.090652
2023-07-24 23:57:09.788365,1,True,0,1,36,4,618,26.38,1.80000E+05,2.1598607E-09,1.978000000000011e-11,1.9590E-12,1.80000E+05,6.401388E-10,9.359999999999955e-12,1.1609E-12,1.80000E+05,6.1550458E-09,7.176000000000017e-11,8.8815E-12,9.03381061016201e-11,19.09801797297041,2.6681674951295875,4.935786,56,90.62306241924082,1,1,0,0,4.113767047585283e-09,21.18143811547634,2.985916220107272,5.03157
2023-07-24 23:57:54.320407,1,True,0,1,8,5,618,26.26,1.80000E+05,2.1598433E-09,1.937999999999999e-11,1.9149E-12,1.80000E+05,6.400981E-10,9.929999999999985e-12,1.0816E-12,1.79955E+05,1.44878065E-08,7.027000000000001e-11,8.8626E-12,2.7989551457005502e-09,19.966109699015306,2.6947191845129312,5.032262,56,90.53405697464135,1,1,0,0,2.655219304276178e-09,23.091239912774654,2.9175366205664073,5.043028
2023-07-24 23:58:40.302380,1,True,0,1,38,6,618,26.24,1.80000E+05,2.1562488E-09,1.7210000000000192e-11,1.8384E-12,1.80000E+05,6.397199E-10,9.20000000000003e-12,1.0820E-12,1.79955E+05,2.28178312E-08,7.154000000000118e-11,8.8758E-12,2.799749529494347e-09,19.271636318179844,2.688654857309885,5.059594,54,88.34489284275244,1,1,0,0,2.658991836465041e-09,22.396766531938738,2.968312353881992,5.062872
2023-07-24 23:59:26.318923,1,True,0,1,28,7,618,26.17,1.80000E+05,2.1575371E-09,2.0390000000000175e-11,1.9764E-12,1.80000E+05,6.340540E-10,1.1480000000000047e-11,1.3876E-12,1.79955E+05,2.28198019E-08,7.128000000000102e-11,9.0388E-12,2.388153782449244e-09,20.660583079850312,2.6978028248481554,5.032349,59,96.25481617288935,1,1,0,0,2.2394652120917453e-09,22.22314818672976,3.046669694789893,5.060555
2023-07-25 00:00:12.339306,1,True,0,1,32,8,618,26.22,1.80000E+05,2.1554219E-09,1.6619999999999887e-11,1.8092E-12,1.80000E+05,6.334684E-10,1.0239999999999956e-11,1.1475E-12,1.79955E+05,1.44849018E-08,6.706999999999902e-11,8.7901E-12,2.8057492030919303e-09,19.271636318178935,2.683815994715739,4.941853,58,94.96313214444584,1,1,0,0,2.6596387575172885e-09,22.223148186730214,2.95190740136873,5.018263
2023-07-25 00:00:58.381342,1,True,0,1,24,9,618,26.19,1.80000E+05,2.1571487E-09,1.680000000000019e-11,1.9077E-12,1.80000E+05,6.337508E-10,1.0520000000000084e-11,1.3474E-12,1.80000E+05,1.03196694E-08,6.874000000000032e-11,8.8492E-12,9.645522903728203e-11,21.00781977026827,2.7096481048553667,5.02056,59,96.21699168016943,1,1,0,0,4.116699756587049e-09,21.875911496312256,2.911165497087119,5.063114
2023-07-25 00:01:44.423345,1,True,0,1,20,10,618,26.09,1.80000E+05,2.1575736E-09,1.958999999999993e-11,1.9101E-12,1.80000E+05,6.341468E-10,1.0759999999999971e-11,1.2263E-12,1.79955E+05,2.28197480E-08,7.072999999999775e-11,8.7828E-12,5.114261549091022e-10,22.04952984152078,2.8038815481245996,4.995411,59,95.96547946427182,1,1,0,0,3.6443691751023776e-10,24.82742336486217,3.071944561526231,5.068729
2023-07-25 00:02:29.028795,1,True,0,1,12,11,618,26.25,1.72000E+05,2.1582399E-09,1.768999999999976e-11,1.8533E-12,1.72000E+05,6.349022E-10,9.890000000000056e-12,1.2044E-12,1.72000E+05,6.1538984E-09,6.993999999999986e-11,9.0260E-12,1.346788479033636e-09,20.139728044224285,2.7552137263257976,5.084064,59,96.44250281240733,1,1,0,0,1.1993428059504344e-09,25.69551509090661,3.0623430607938156,5.061634
2023-07-25 00:03:14.720124,1,True,0,1,22,12,618,26.26,1.80000E+05,2.1593570E-09,1.722000000000007e-11,1.8737E-12,1.80000E+05,6.399863E-10,9.359999999999955e-12,1.1713E-12,1.79955E+05,1.44875278E-08,7.330000000000139e-11,8.9389E-12,3.216320377932547e-09,19.445254663388823,2.7401011766734267,5.001368,56,90.96148450659197,1,1,0,0,3.0732912847059576e-09,21.355056460685773,2.998755523171795,5.031839
2023-07-25 00:04:00.690280,1,True,0,1,22,13,618,26.11,1.80000E+05,2.1569554E-09,1.930000000000013e-11,1.8389E-12,1.80000E+05,6.396513E-10,9.730000000000027e-12,1.2258E-12,1.80000E+05,1.03187649E-08,6.69400000000006e-11,8.7757E-12,3.4239769695267956e-09,19.44525466338837,2.655001156655868,5.014494,55,90.0786386934974,1,1,0,0,3.283003911621173e-09,22.744003222356696,2.9264519904821507,5.035983
2023-07-25 00:04:46.986315,1,True,0,1,24,14,618,26.18,1.84000E+05,2.1571039E-09,1.746999999999994e-11,1.9093E-12,1.84000E+05,6.392060E-10,1.1260000000000021e-11,1.2858E-12,1.84000E+05,1.03186242E-08,7.222999999999945e-11,8.9077E-12,2.9891086260531743e-10,18.750781282553362,2.664840847536162,4.939549,55,90.30533911129422,1,1,0,0,1.5628440594750877e-10,21.87591149631271,2.995842440348729,5.032648
2023-07-25 00:05:32.679271,1,True,0,1,34,15,618,26.15,1.80000E+05,2.1582344E-09,1.726999999999988e-11,1.8350E-12,1.80000E+05,6.395147E-10,9.660000000000047e-12,1.2026E-12,1.80000E+05,6.1535329E-09,7.065000000000037e-11,8.8503E-12,3.4254534355601275e-09,21.528674805894752,2.682320232333886,5.062105,56,91.32135714015249,1,1,0,0,3.283226858410524e-09,22.744003222356696,2.9090076765974544,5.019763
2023-07-25 00:06:18.679370,1,True,0,1,12,16,618,26.15,1.80000E+05,2.1582103E-09,1.715999999999997e-11,1.8204E-12,1.80000E+05,6.392889E-10,9.320000000000026e-12,1.1611E-12,1.79955E+05,1.44866237E-08,7.15800000000007e-11,8.8001E-12,1.9659420114725238e-09,19.445254663388823,2.8054123502617334,5.074052,56,91.44305839119002,1,1,0,0,1.8234555241888982e-09,21.18143811547725,2.9711031478376406,5.044269
2023-07-25 00:07:04.640213,1,True,0,1,8,17,617,26.06,1.80000E+05,2.1561937E-09,1.6260000000000107e-11,1.7936E-12,1.80000E+05,6.387789E-10,9.430000000000039e-12,1.1374E-12,1.79955E+05,1.86508976E-08,6.901999999999859e-11,8.8791E-12,9.02107032237261e-11,18.577162937344838,2.6694772217494176,4.982056,55,89.65911600481554,1,1,0,0,4.115414437407172e-09,23.959331638818185,3.3085828813652554,5.019925
2023-07-25 00:07:49.233191,1,True,0,1,38,18,617,26.13,1.72000E+05,2.1555952E-09,1.5900000000000328e-11,1.7676E-12,1.72000E+05,6.332675E-10,1.0399999999999985e-11,1.1410E-12,1.71957E+05,1.86500017E-08,6.871999999999891e-11,8.8404E-12,3.221346016153583e-09,20.83420142505929,2.668742574088731,4.956176,58,94.5543321250669,1,1,0,0,3.0761100080556105e-09,22.91762156756522,2.9624288607683567,5.021286
2023-07-25 00:08:35.290140,1,True,0,1,38,19,618,26.12,1.80000E+05,2.1566739E-09,1.7170000000000262e-11,1.7866E-12,1.80000E+05,6.334781E-10,1.0299999999999954e-11,1.1886E-12,1.79955E+05,2.28185485E-08,7.133000000000041e-11,8.8454E-12,1.7632665458282132e-09,19.445254663388823,2.7025375004535745,4.983652,59,95.76031119340382,1,1,0,0,1.6158352552887466e-09,21.528674805894298,2.9567637304076912,5.064298
2023-07-25 00:09:20.527039,1,True,0,1,12,20,618,26.12,1.72000E+05,2.1563327E-09,1.7350000000000152e-11,1.8312E-12,1.72000E+05,6.386561E-10,1.0820000000000072e-11,1.1997E-12,1.71957E+05,1.86519252E-08,7.210000000000102e-11,8.6490E-12,3.8413405923166895e-09,17.88268955650983,2.6703704808495603,4.941237,55,90.02830499900557,1,1,0,0,3.6998752152866803e-09,21.181438115476794,2.9451852081553564,5.01925
2023-07-25 00:10:05.098785,1,True,0,1,36,21,618,26.18,1.72000E+05,2.1572534E-09,1.5689999999999974e-11,1.8054E-12,1.72000E+05,6.334793E-10,9.560000000000017e-12,1.0968E-12,1.72000E+05,1.9853849E-09,6.791000000000003e-11,8.8206E-12,1.9708642582329308e-09,19.96610969901485,2.7489123287273705,4.981364,59,95.45689750955322,1,1,0,0,1.8242142867068643e-09,23.264858257982723,2.978384795486939,5.035808
