Time,Legal,wasIllegal,LOLs,Valid,Slides,N reset,Temp,ambient T,N,Mean [s],Range [s],StdD [s],N C,Mean C,Range C,StdD C,N fo,Mean fo,Range fo,StdD fo,ddmtd,range dd,stdD dd,timeTook 100k,txpi_steps,desired_shift,step_done,ali_done,undo_step,undo,dmtd c,range dd c,stdD dd c,timeTook c
2023-07-26 17:51:07.281305,1,True,0,1,6,0,619,26.5,1.72000E+05,2.4109842E-09,2.3219999999999843e-11,2.1241E-12,1.72000E+05,6.334166E-10,1.1449999999999997e-11,1.5196E-12,1.71957E+05,2.31388207E-08,7.149000000000179e-11,9.2331E-12,1.7162906805149026e-09,20.31334638943281,2.9344290245989573,5.013254,30,49.63551606350461,1,1,0,0,1.27812979360248e-09,25.348278400489107,3.190853431105637,5.041581
2023-07-26 17:51:44.007020,1,True,0,1,24,1,619,26.46,1.80000E+05,2.4110588E-09,2.6110000000000027e-11,2.0356E-12,1.80000E+05,6.399184E-10,1.0699999999999973e-11,1.2608E-12,1.80000E+05,6.4716064E-09,7.131999999999971e-11,9.1891E-12,2.5124058641344324e-10,21.181438115476794,2.8123679913509205,4.988308,26,42.591276372749235,1,1,0,0,3.985394667485749e-09,23.61209494840068,3.1090161089195143,4.980203
2023-07-26 17:52:20.799743,1,True,0,1,14,2,619,26.44,1.80000E+05,2.4115623E-09,2.3879999999999715e-11,2.2063E-12,1.80000E+05,6.343511E-10,1.0839999999999934e-11,1.4725E-12,1.79955E+05,2.31392407E-08,6.894999999999944e-11,9.2351E-12,2.5485142436485346e-09,19.966109699015306,2.9069741332589656,4.940527,30,48.66626387165968,1,1,0,0,2.1105546654724143e-09,25.348278400488653,3.076755648631765,5.000221
2023-07-26 17:52:57.228315,1,True,0,1,10,3,619,26.42,1.80000E+05,2.4126980E-09,2.2050000000000353e-11,2.0692E-12,1.80000E+05,6.355825E-10,1.078000000000004e-11,1.3568E-12,1.79955E+05,1.48065398E-08,6.794999999999996e-11,9.1432E-12,3.3822473471114336e-09,19.2716363181803,2.8244870115276934,4.928811,30,48.986702570772195,1,1,0,0,2.943840135700311e-09,22.57038487714817,3.0758973110500105,4.988337
2023-07-26 17:53:34.043721,1,True,0,1,38,4,619,26.43,1.80000E+05,2.4122637E-09,2.513999999999977e-11,2.0885E-12,1.80000E+05,6.333318E-10,1.0890000000000052e-11,1.3423E-12,1.79955E+05,1.89727591E-08,6.563999999999979e-11,9.0680E-12,3.174658681958703e-09,19.618873008597348,2.8154309029491653,4.93722,31,49.71756982901556,1,1,0,0,2.7342511858138075e-09,22.04952984152078,3.124231026700798,4.966266
2023-07-26 17:54:10.762034,1,True,0,1,2,5,619,26.41,1.80000E+05,2.4121801E-09,2.423000000000003e-11,1.9765E-12,1.80000E+05,6.410961E-10,9.98e-12,1.2386E-12,1.79955E+05,1.89734357E-08,6.796000000000149e-11,9.2880E-12,1.5009826121229698e-09,22.91762156756522,2.881904290615864,5.001653,26,42.99305526637781,1,1,0,0,1.0692984481992027e-09,23.264858257982723,3.0757604339584277,4.950378
2023-07-26 17:54:47.395432,1,True,0,1,2,6,619,26.38,1.80000E+05,2.4113835E-09,2.471000000000001e-11,1.9787E-12,1.80000E+05,6.403228E-10,1.0429999999999932e-11,1.2915E-12,1.80000E+05,6.4720598E-09,6.706999999999985e-11,9.2072E-12,3.7924998038111485e-09,20.834201425059746,2.8378006806597083,4.887845,26,42.67334576425566,1,1,0,0,3.3606945931771183e-09,23.438476603191702,3.13313971891591,5.018172
2023-07-26 17:55:23.141037,1,True,0,1,24,7,619,26.34,1.72000E+05,2.4108726E-09,2.2690000000000053e-11,2.0769E-12,1.72000E+05,6.332173E-10,1.1440000000000014e-11,1.4509E-12,1.72000E+05,6.4719011E-09,6.808999999999992e-11,9.2342E-12,1.924251324708375e-09,20.31334638943281,2.860045483530323,4.986212,30,49.48359827534219,1,1,0,0,1.485589529772163e-09,23.78571329360966,3.118175440196135,4.95596
2023-07-26 17:55:59.915832,1,True,0,1,0,8,619,26.43,1.80000E+05,2.4097293E-09,2.4980000000000052e-11,2.1120E-12,1.80000E+05,6.326626E-10,1.0610000000000029e-11,1.4080E-12,1.80000E+05,2.3037045E-09,6.774000000000002e-11,9.2337E-12,2.758190523563018e-09,22.570384877147717,2.896766731632098,4.956588,30,49.5323086373983,1,1,0,0,2.3201341323252327e-09,23.61209494840068,3.106811233140661,4.943843
2023-07-26 17:56:36.633455,1,True,0,1,10,9,619,26.45,1.80000E+05,2.4099571E-09,2.6569999999999837e-11,2.2297E-12,1.80000E+05,6.343253E-10,1.0720000000000042e-11,1.3839E-12,1.79955E+05,1.48032587E-08,7.969000000000017e-11,9.3424E-12,2.965034952844906e-09,20.31334638943281,2.799487892588626,4.909395,29,47.90931045719816,1,1,0,0,2.5288733558345913e-09,24.82742336486217,3.105291371583549,4.966079
2023-07-26 17:57:13.396745,1,True,0,1,14,10,619,26.53,1.80000E+05,2.4114218E-09,2.3670000000000188e-11,2.1512E-12,1.80000E+05,6.403154E-10,9.749999999999992e-12,1.3117E-12,1.79955E+05,1.89716926E-08,7.238000000000094e-11,9.2286E-12,1.917256755490142e-09,21.528674805894752,2.8292248922102146,4.952205,26,42.59883050718,1,1,0,0,1.4860079013709519e-09,22.396766531938738,3.120646353379308,4.963352
2023-07-26 17:57:50.064054,1,True,0,1,16,11,619,26.49,1.80000E+05,2.4125929E-09,2.0700000000000146e-11,2.2923E-12,1.80000E+05,6.411705E-10,1.0869999999999984e-11,1.3083E-12,1.79955E+05,1.89732253E-08,7.01800000000011e-11,9.1874E-12,4.218255621762708e-11,18.22992624692688,2.6896838946192996,4.828399,26,42.06528917872429,1,1,0,0,3.7775007552394386e-09,22.570384877147717,3.062139616649935,4.953892
2023-07-26 17:58:26.745062,1,True,0,1,28,12,619,26.41,1.80000E+05,2.4117525E-09,2.457000000000005e-11,2.4188E-12,1.80000E+05,6.357506E-10,1.2959999999999922e-11,1.5761E-12,1.79955E+05,1.48056613E-08,7.131000000000066e-11,9.2735E-12,4.006059209064174e-09,19.792491353806327,2.808012947314376,4.884718,29,47.84891731586728,1,1,0,0,3.5703227165710736e-09,24.13294998402671,3.1132924556011017,5.009683
2023-07-26 17:59:03.496588,1,True,0,1,12,13,619,26.48,1.80000E+05,2.4121994E-09,2.3529999999999814e-11,2.4191E-12,1.80000E+05,6.343730E-10,9.820000000000076e-12,1.3489E-12,1.79955E+05,2.31395952E-08,7.190000000000013e-11,9.2153E-12,4.6456425094086713e-10,21.528674805894298,2.9744526907155993,4.873427,30,48.277933455425455,1,1,0,0,2.7194204272403115e-11,22.570384877147262,3.13859549874075,4.976652
2023-07-26 17:59:40.154790,1,True,0,1,22,14,619,26.5,1.80000E+05,2.4134301E-09,2.3799999999999856e-11,2.4602E-12,1.80000E+05,6.352860E-10,1.1399999999999981e-11,1.3082E-12,1.79955E+05,1.89738476E-08,6.963000000000113e-11,9.3522E-12,1.7153520077229214e-09,21.70229315110373,2.8173283835100356,4.893137,30,48.26042057338668,1,1,0,0,1.2780785119518964e-09,23.95933163881864,3.1283966551891007,4.944152
2023-07-26 18:00:16.533389,1,True,0,1,8,15,619,26.44,1.76000E+05,2.4131240E-09,2.246999999999982e-11,2.4652E-12,1.76000E+05,6.332673E-10,1.0910000000000017e-11,1.3390E-12,1.75956E+05,1.48068680E-08,6.922999999999936e-11,9.1534E-12,3.3832082690944625e-09,19.966109699015306,2.803552254685601,4.975095,31,49.85756350940119,1,1,0,0,2.9437532727059578e-09,22.744003222356696,3.0632885502356713,5.051156
2023-07-26 18:00:53.297273,1,True,0,1,26,16,619,26.4,1.80000E+05,2.4133407E-09,2.3200000000000085e-11,2.5562E-12,1.80000E+05,6.398425E-10,1.2030000000000009e-11,1.5025E-12,1.79955E+05,1.89726603E-08,6.85800000000006e-11,9.1783E-12,2.335586892509644e-09,21.528674805894752,2.888632902031602,4.938315,27,43.87072725272148,1,1,0,0,1.9020260861565814e-09,24.827423364862625,3.129840894198133,4.975731
2023-07-26 18:01:29.987358,1,True,0,1,22,17,619,26.37,1.80000E+05,2.4126631E-09,2.3349999999999925e-11,2.6313E-12,1.80000E+05,6.401511E-10,1.0560000000000013e-11,1.3448E-12,1.79955E+05,2.31379276E-08,6.874999999999855e-11,9.1748E-12,2.960034843465348e-09,20.660583079850312,2.8230527740272766,4.965019,26,42.967489964464846,1,1,0,0,2.5280570509886623e-09,22.396766531939193,3.0460790921820755,4.972445
2023-07-26 18:02:06.762416,1,True,0,1,24,18,619,26.43,1.80000E+05,2.4122109E-09,2.4209999999999857e-11,2.6676E-12,1.80000E+05,6.334604E-10,1.109000000000001e-11,1.3669E-12,1.79955E+05,1.89711528E-08,7.345000000000123e-11,9.2283E-12,2.965705965178763e-09,21.702293151103277,2.8453014371126737,4.910486,30,48.50397585976879,1,1,0,0,2.5277413451258926e-09,23.264858257983178,3.1097630389053568,5.00014
2023-07-26 18:02:43.503030,1,True,0,1,38,19,619,26.44,1.80000E+05,2.4134513E-09,2.302999999999966e-11,2.7559E-12,1.80000E+05,6.391029E-10,1.1709999999999952e-11,1.3938E-12,1.80000E+05,2.3048775E-09,6.756000000000013e-11,9.2393E-12,3.794051564648418e-09,21.355056460685773,2.8563137143825896,4.966146,27,43.96118241032747,1,1,0,0,3.360775122573989e-09,23.61209494840068,3.1256072181362704,4.932252
2023-07-26 18:03:20.147993,1,True,0,1,4,20,619,26.5,1.80000E+05,2.4118882E-09,2.1669999999999988e-11,2.4887E-12,1.80000E+05,6.336648E-10,1.0059999999999963e-11,1.2478E-12,1.80000E+05,2.3037611E-09,6.801999999999994e-11,9.1793E-12,2.9648970286952568e-09,21.007819770268725,2.7888830209795423,4.847536,30,48.32996340088738,1,1,0,0,2.5271492944153493e-09,24.827423364862625,3.112490001700231,4.941986
2023-07-26 18:03:56.901313,1,True,0,1,24,21,619,26.5,1.80000E+05,2.4121815E-09,2.447000000000002e-11,2.2051E-12,1.80000E+05,6.347143E-10,1.0539999999999945e-11,1.2713E-12,1.79955E+05,2.31383312E-08,7.039999999999843e-11,9.3192E-12,1.5080219818189762e-09,20.31334638943281,2.9685797167392702,4.93515,30,49.594779991128775,1,1,0,0,1.0699360129588515e-09,22.396766531938738,3.130771860823131,4.997348
2023-07-26 18:04:33.590032,1,True,0,1,32,22,619,26.58,1.80000E+05,2.4123811E-09,2.1539999999999907e-11,2.0352E-12,1.80000E+05,6.397812E-10,1.0939999999999964e-11,1.2935E-12,1.80000E+05,2.3063923E-09,6.655999999999982e-11,9.1702E-12,1.2932762493578088e-09,20.139728044223375,2.8426701637868965,4.934634,27,43.247647471604694,1,1,0,0,8.601694914371776e-10,23.78571329360966,3.125873488289633,4.97029
2023-07-26 18:05:09.909398,1,True,0,1,22,23,619,26.47,1.80000E+05,2.4113735E-09,2.449000000000019e-11,2.1229E-12,1.80000E+05,6.340778E-10,1.1429999999999928e-11,1.4296E-12,1.79955E+05,1.06383826E-08,7.050000000000053e-11,9.2462E-12,4.900168409793744e-11,18.577162937344838,2.7536693847417033,4.899725,30,48.57225301053108,1,1,0,0,3.778236528952333e-09,24.13294998402671,3.2011028905449015,4.978011
2023-07-26 18:05:46.654098,1,True,0,1,22,24,619,26.5,1.80000E+05,2.4110027E-09,2.127000000000028e-11,2.2256E-12,1.80000E+05,6.337526E-10,1.0840000000000037e-11,1.4186E-12,1.79955E+05,1.89716529E-08,6.801000000000088e-11,9.2008E-12,2.54863351945175e-09,21.355056460685773,2.910592371206463,4.934401,30,48.775688569818044,1,1,0,0,2.1110810867121843e-09,27.258080197785603,3.085131464856288,5.000113
2023-07-26 18:06:23.444306,1,True,0,1,24,25,619,26.47,1.80000E+05,2.4125752E-09,2.197999999999996e-11,2.0644E-12,1.80000E+05,6.338556E-10,1.0470000000000068e-11,1.3260E-12,1.79955E+05,2.31389770E-08,6.87699999999983e-11,9.1640E-12,2.132992701084816e-09,20.13972804422383,2.858629258850552,4.990546,31,49.68471082141156,1,1,0,0,1.693462043557423e-09,22.91762156756522,3.1216933817989836,4.964527
2023-07-26 18:07:00.537307,1,True,0,1,22,26,619,26.4,1.84000E+05,2.4100988E-09,2.278999999999967e-11,2.0721E-12,1.84000E+05,6.328279E-10,1.1179999999999955e-11,1.2435E-12,1.83954E+05,2.31360397E-08,6.79499999999983e-11,9.0876E-12,2.572953820991282e-10,21.00781977026827,2.79511739646661,4.937254,30,49.0561203937643,1,1,0,0,3.986019582412843e-09,25.00104171007115,3.139416197883024,4.946976
2023-07-26 18:07:37.223102,1,True,0,1,14,27,619,26.44,1.80000E+05,2.4100864E-09,2.3729999999999876e-11,2.1266E-12,1.80000E+05,6.329537E-10,1.1260000000000021e-11,1.3615E-12,1.80000E+05,2.3022135E-09,6.726999999999991e-11,9.1864E-12,8.81728299443133e-10,20.660583079850767,2.7831677459201747,4.870785,30,48.684780268704685,1,1,0,0,4.447697230441389e-10,25.348278400489107,3.1875393712178233,5.035011
2023-07-26 18:08:13.486301,1,True,0,1,2,28,618,26.56,1.76000E+05,2.4122685E-09,2.170000000000004e-11,2.0964E-12,1.76000E+05,6.412228E-10,1.1859999999999998e-11,1.3416E-12,1.75956E+05,1.48038746E-08,7.263000000000123e-11,9.0705E-12,1.7086948970098258e-09,19.271636318178935,2.847354552233016,4.92864,26,41.95575510119261,1,1,0,0,1.2777266361792497e-09,23.61209494840068,3.2158496285051252,4.958626
2023-07-26 18:08:50.144681,1,True,0,1,34,29,618,26.52,1.80000E+05,2.4100116E-09,2.5220000000000043e-11,2.1487E-12,1.80000E+05,6.393354E-10,1.0139999999999926e-11,1.3972E-12,1.79955E+05,1.06359300E-08,7.218000000000005e-11,9.1951E-12,4.594096385959469e-10,20.83420142505929,2.8944392917503383,4.898533,26,42.954737697277494,1,1,0,0,2.8759127116412507e-11,23.612094948401136,3.0954605534717654,4.94663
2023-07-26 18:09:26.458899,1,True,0,1,10,30,619,26.5,1.76000E+05,2.4119182E-09,2.4379999999999868e-11,2.1744E-12,1.76000E+05,6.406036E-10,1.112999999999994e-11,1.5367E-12,1.75956E+05,2.31381025E-08,7.015999999999803e-11,9.1083E-12,2.3348844569915488e-09,21.007819770267815,2.8590302872372986,4.893814,26,42.72326103902216,1,1,0,0,1.9022739541232934e-09,22.74400322235624,3.048638679919956,4.960818
2023-07-26 18:10:01.769806,1,True,0,1,30,31,619,26.47,1.72000E+05,2.4126793E-09,2.214999999999997e-11,1.9968E-12,1.72000E+05,6.341695E-10,9.899999999999935e-12,1.3433E-12,1.72000E+05,6.4724919E-09,7.074999999999999e-11,9.0831E-12,1.29846749864599e-09,21.70229315110373,2.9763066463341654,4.914879,30,48.26150221557822,1,1,0,0,8.586758597581011e-10,24.306568329235688,3.1588095705239336,5.017659
2023-07-26 18:10:38.542530,1,True,0,1,28,32,619,26.47,1.80000E+05,2.4135826E-09,2.211999999999992e-11,2.0257E-12,1.80000E+05,6.349259E-10,1.1180000000000059e-11,1.3785E-12,1.79955E+05,2.31397470E-08,7.429000000000099e-11,9.1578E-12,2.568850698639196e-10,22.570384877147717,2.824042628682744,4.948605,30,48.749378446214024,1,1,0,0,3.983431262760612e-09,23.78571329360966,3.092997536150695,5.005398
2023-07-26 18:11:15.140186,1,True,0,1,20,33,619,26.48,1.80000E+05,2.4134680E-09,2.3480000000000006e-11,2.0900E-12,1.80000E+05,6.412141E-10,1.173000000000002e-11,1.3959E-12,1.79955E+05,1.06397702E-08,6.716999999999947e-11,9.2056E-12,8.754826173312927e-10,21.18143811547725,2.780305326406798,4.889861,26,41.91949664569222,1,1,0,0,4.4227020570310957e-10,21.702293151103277,3.092903864005351,4.988637
2023-07-26 18:11:50.315112,1,True,0,1,24,34,619,26.46,1.72000E+05,2.4125392E-09,2.430000000000001e-11,1.9801E-12,1.72000E+05,6.411854E-10,1.0509999999999998e-11,1.2793E-12,1.71957E+05,1.89723353E-08,6.594000000000277e-11,9.1250E-12,2.5413686855008034e-09,21.875911496312256,2.76828563719503,4.923999,25,41.316669444583454,1,1,0,0,2.1101915670099752e-09,22.570384877147262,2.9739106212671476,4.967589
2023-07-26 18:12:26.361514,1,True,0,1,4,35,619,26.47,1.72000E+05,2.4146524E-09,2.416000000000005e-11,2.0005E-12,1.72000E+05,6.338019E-10,1.1809999999999983e-11,1.2637E-12,1.72000E+05,6.4736931E-09,6.733000000000001e-11,9.1843E-12,2.9664610660857686e-09,19.618873008597348,2.7945477920125743,4.941043,31,50.182604830512616,1,1,0,0,2.523754053988713e-09,22.74400322235624,3.1254603564993646,5.003014
2023-07-26 18:13:03.083611,1,True,0,1,26,36,619,26.53,1.80000E+05,2.4144473E-09,2.644000000000017e-11,2.0031E-12,1.80000E+05,6.350386E-10,1.0629999999999993e-11,1.3382E-12,1.80000E+05,6.4744247E-09,7.396000000000002e-11,9.1186E-12,2.7569967759069503e-09,20.660583079850767,2.8510201802973953,4.969006,30,48.320265080086784,1,1,0,0,2.3165693258054086e-09,25.17466005528013,3.078896331778132,4.935038
2023-07-26 18:13:39.748988,1,True,0,1,2,37,619,26.44,1.80000E+05,2.4122567E-09,2.298999999999973e-11,2.0104E-12,1.80000E+05,6.333790E-10,1.1169999999999973e-11,1.3570E-12,1.79955E+05,1.89720670E-08,6.958999999999831e-11,9.2040E-12,1.0906366168036218e-09,21.528674805894298,2.8368810849705612,4.866894,30,49.09669847370154,1,1,0,0,6.507192313568955e-10,24.82742336486217,3.2211734137555172,4.942045
2023-07-26 18:14:16.217816,1,True,0,1,20,38,619,26.44,1.76000E+05,2.4133445E-09,2.204999999999994e-11,1.9771E-12,1.76000E+05,6.345085E-10,9.749999999999992e-12,1.2726E-12,1.75956E+05,1.48062742E-08,6.619999999999963e-11,9.0950E-12,2.7565290741275965e-09,22.396766531938738,2.856024835320521,4.941224,30,48.239966595353536,1,1,0,0,2.3164848570082056e-09,25.17466005528013,3.181961028167143,4.950057
2023-07-26 18:14:52.868001,1,True,0,1,2,39,619,26.45,1.80000E+05,2.4115380E-09,2.5989999999999824e-11,1.9501E-12,1.80000E+05,6.350448E-10,9.899999999999935e-12,1.2516E-12,1.80000E+05,6.4704926E-09,6.770999999999955e-11,9.0607E-12,2.548048536744054e-09,20.660583079850767,2.909704613634453,4.793752,29,47.62280893596187,1,1,0,0,2.1103714547136036e-09,23.78571329360966,3.0730461420804507,4.93138
2023-07-26 18:15:29.596306,1,True,0,1,38,40,619,26.5,1.80000E+05,2.4119645E-09,2.4209999999999857e-11,1.9800E-12,1.80000E+05,6.339627E-10,1.1389999999999999e-11,1.2807E-12,1.79955E+05,1.89716338E-08,6.971000000000017e-11,9.1646E-12,4.006494956387141e-09,21.18143811547725,2.8482370246870237,4.888493,30,48.05009757352079,1,1,0,0,3.5675703605702383e-09,22.570384877147717,3.086818258357072,4.912072
2023-07-26 18:16:06.298431,1,True,0,1,36,41,619,26.5,1.80000E+05,2.4119373E-09,2.421000000000027e-11,1.9083E-12,1.80000E+05,6.394469E-10,1.0299999999999954e-11,1.2186E-12,1.79955E+05,1.89718080E-08,6.904000000000166e-11,9.2378E-12,2.9588263260965473e-09,20.486964734641788,2.867732852851066,4.970394,26,41.835856007432255,1,1,0,0,2.5249016538886926e-09,22.917621567565675,3.11657142312565,4.994267
2023-07-26 18:16:42.944251,1,True,0,1,34,42,619,26.53,1.80000E+05,2.4130526E-09,2.4870000000000143e-11,2.0003E-12,1.80000E+05,6.339779E-10,1.1219999999999988e-11,1.3295E-12,1.79955E+05,2.31399507E-08,6.734999999999895e-11,9.1949E-12,4.816346861673316e-11,18.924399627762796,2.739614932353163,4.790353,30,48.15364355457914,1,1,0,0,3.774611770281712e-09,25.869133436115135,3.1389469080393377,4.942075
2023-07-26 18:17:19.675770,1,True,0,1,4,43,619,26.53,1.80000E+05,2.4150223E-09,2.3680000000000067e-11,2.0679E-12,1.80000E+05,6.400515E-10,1.0890000000000052e-11,1.4127E-12,1.79955E+05,1.89746056E-08,6.722000000000052e-11,9.1942E-12,2.7523697515169752e-09,20.83420142505929,2.851168797020518,4.954021,27,43.47561009439417,1,1,0,0,2.3164715144382697e-09,23.959331638818185,3.16466313191606,4.977247
2023-07-26 18:17:56.388293,1,True,0,1,10,44,619,26.64,1.80000E+05,2.4127519E-09,2.3899999999999886e-11,2.0300E-12,1.80000E+05,6.328209E-10,1.0639999999999976e-11,1.3220E-12,1.79955E+05,1.06393918E-08,7.493999999999974e-11,9.2189E-12,8.822599587483592e-10,21.18143811547725,2.7684198730783205,4.868938,30,48.563881134003964,1,1,0,0,4.40809476436597e-10,23.78571329360966,3.2118000433521354,4.998082
2023-07-26 18:18:33.035299,1,True,0,1,26,45,619,26.53,1.80000E+05,2.4130907E-09,2.2640000000000244e-11,2.0723E-12,1.80000E+05,6.393537E-10,1.162999999999999e-11,1.3009E-12,1.80000E+05,2.3054745E-09,6.950000000000023e-11,9.1794E-12,6.680242510103871e-10,19.792491353806327,2.8349571256676054,4.942586,26,42.69761066426642,1,1,0,0,2.3311204286293463e-10,24.82742336486217,3.1730040418956764,4.957093
