Time,Legal,wasIllegal,LOLs,Valid,Slides,N reset,Temp,ambient T,N,Mean [s],Range [s],StdD [s],N C,Mean C,Range C,StdD C,N fo,Mean fo,Range fo,StdD fo,ddmtd,range dd,stdD dd,timeTook 100k,txpi_steps,desired_shift,step_done,ali_done,dd_adj_meas,first_m,dmtd h,range dd h,error,error_h,dmtd range preadj,corr
2023-08-13 15:34:35.392363,0,False,0,0,32,0,613,23.42,1.39965E+05,2.8844186E-09,9.21000000000022e-12,1.0812E-12,1.39965E+05,9.183592E-10,9.110000000000085e-12,1.0315E-12,1.39965E+05,1.6386533E-09,1.4279999999999872e-11,1.6899E-12,3.6934746534583353e-09,13.368612581080015,1.741263495509566,5.083851,-3,-4.6712623438129555,1,1,3693.6013809607107,3698.355976637857,0,0,False,False,0,-42.38240829478978
2023-08-13 15:34:55.814226,0,True,0,0,32,0,613,23.43,1.39965E+05,2.8844460E-09,9.339999999999887e-12,1.0969E-12,1.39965E+05,9.179238E-10,9.299999999999958e-12,1.1613E-12,1.39965E+05,1.6383201E-09,1.799000000000006e-11,1.8675E-12,3.6938024535748477e-09,13.889467616706497,1.7588435106905433,5.147903,0,-4.6712623438129555,0,1,3693.6013809607107,3698.355976637857,0,0,False,False,0,-42.38240829478978
2023-08-13 15:35:16.642492,0,True,0,0,32,0,613,23.45,1.43964E+05,2.8845087E-09,9.819999999999869e-12,1.0593E-12,1.43964E+05,9.184681E-10,9.40999999999997e-12,1.0995E-12,1.43964E+05,1.6389633E-09,1.608000000000001e-11,1.7745E-12,3.693269035515916e-09,13.889467616706497,1.7256192558717185,5.097226,0,-4.6712623438129555,0,1,3693.6013809607107,3698.355976637857,0,0,False,False,0,-42.38240829478978
2023-08-13 15:35:38.748150,0,False,0,0,32,0,613,23.42,1.51962E+05,2.8843804E-09,1.0100000000000203e-11,1.0853E-12,1.51962E+05,9.185143E-10,8.639999999999983e-12,9.858E-13,1.51962E+05,1.6388694E-09,1.3940000000000057e-11,1.5935E-12,3.69337672576685e-09,13.368612581080015,1.7393591662428758,5.141476,0,-4.6712623438129555,0,1,3693.6013809607107,3698.355976637857,0,0,False,False,0,-42.38240829478978
2023-08-13 15:36:00.035268,0,True,0,0,32,0,613,23.42,1.43964E+05,2.8842050E-09,9.94999999999995e-12,1.0901E-12,1.43964E+05,9.189512E-10,8.66000000000005e-12,1.0852E-12,1.43964E+05,1.6391650E-09,1.4780000000000025e-11,1.7574E-12,3.6930956914876873e-09,12.500520855035575,1.735890861314543,5.114602,0,-4.6712623438129555,0,1,3693.6013809607107,3698.355976637857,0,0,False,False,0,-42.38240829478978
2023-08-13 15:36:21.765699,0,False,0,0,32,0,613,23.39,1.47963E+05,2.8842440E-09,9.2800000000002e-12,1.0717E-12,1.47963E+05,9.185180E-10,8.889999999999956e-12,9.763E-13,1.47963E+05,1.6388271E-09,1.3910000000000007e-11,1.6134E-12,3.692897179744229e-09,13.194994235871036,1.7303875946666814,5.082842,0,-4.6712623438129555,0,1,3693.6013809607107,3698.355976637857,0,0,False,False,0,-42.38240829478978
2023-08-13 15:36:43.474698,0,False,0,0,32,0,613,23.36,1.47963E+05,2.8844048E-09,9.289999999999665e-12,1.0598E-12,1.47963E+05,9.178287E-10,9.269999999999907e-12,1.1405E-12,1.47963E+05,1.6379880E-09,1.4149999999999998e-11,1.6538E-12,3.6944923573207056e-09,13.715849271497518,1.7202590981029044,5.185415,0,-4.6712623438129555,0,1,3693.6013809607107,3698.355976637857,0,0,False,False,0,-42.38240829478978
2023-08-13 15:37:04.747897,0,False,0,0,32,0,613,23.48,1.47963E+05,2.8842826E-09,1.0390000000000002e-11,1.0931E-12,1.47963E+05,9.188883E-10,8.869999999999991e-12,1.0336E-12,1.47963E+05,1.6391074E-09,1.5120000000000047e-11,1.6469E-12,3.6929550675728596e-09,14.063085961915021,1.7191787751531145,5.114772,0,-4.6712623438129555,0,1,3693.6013809607107,3698.355976637857,0,0,False,False,0,-42.38240829478978
2023-08-13 15:37:26.034384,0,False,0,0,32,0,613,23.39,1.43964E+05,2.8842206E-09,1.0140000000000132e-11,1.0743E-12,1.43964E+05,9.188514E-10,8.289999999999979e-12,9.962E-13,1.43964E+05,1.6391125E-09,1.6500000000000098e-11,1.6655E-12,3.69312315096514e-09,12.847757545453533,1.7173567082922703,5.116425,0,-4.6712623438129555,0,1,3693.6013809607107,3698.355976637857,0,0,False,False,0,-42.38240829478978
2023-08-13 15:37:47.321094,0,False,0,0,32,0,613,23.45,1.43964E+05,2.8843481E-09,9.220000000000098e-12,1.0838E-12,1.43964E+05,9.189619E-10,8.589999999999967e-12,1.0329E-12,1.43964E+05,1.6394620E-09,1.473999999999989e-11,1.6975E-12,3.6932620439050706e-09,15.278414378376965,1.705178310992219,5.206046,0,-4.6712623438129555,0,1,3693.6013809607107,3698.355976637857,0,0,False,False,0,-42.38240829478978
2023-08-13 15:38:07.736578,0,False,0,0,32,0,613,23.41,1.43964E+05,2.8843739E-09,1.0420000000000053e-11,1.0949E-12,1.43964E+05,9.188563E-10,9.1e-12,1.0856E-12,1.43964E+05,1.6388514E-09,1.7659999999999916e-11,1.7335E-12,3.6935829722076005e-09,13.715849271497518,1.7256508059146227,5.179939,0,-4.6712623438129555,0,1,3693.6013809607107,3698.355976637857,0,0,False,False,0,-42.38240829478978
2023-08-13 15:38:29.829884,0,False,0,0,32,0,613,23.4,1.51962E+05,2.8843335E-09,8.929999999999885e-12,1.0745E-12,1.51962E+05,9.185200E-10,9.049999999999984e-12,1.0652E-12,1.51962E+05,1.6387974E-09,1.473999999999989e-11,1.7546E-12,3.6930873213474278e-09,14.063085961915021,1.7434786259691797,5.120191,0,-4.6712623438129555,0,1,3693.6013809607107,3698.355976637857,0,0,False,False,0,-42.38240829478978
2023-08-13 15:38:52.012251,0,False,0,0,32,0,613,23.41,1.51962E+05,2.8842995E-09,9.369999999999938e-12,1.0880E-12,1.51962E+05,9.189351E-10,9.210000000000013e-12,1.0537E-12,1.51962E+05,1.6391638E-09,1.712000000000004e-11,1.7557E-12,3.6930820277240092e-09,13.021375890662057,1.719910474315645,5.15114,0,-4.6712623438129555,0,1,3693.6013809607107,3698.355976637857,0,0,False,False,0,-42.38240829478978
2023-08-13 15:39:14.147687,0,False,0,0,32,0,613,23.42,1.51962E+05,2.8843464E-09,9.549999999999827e-12,1.0653E-12,1.51962E+05,9.184625E-10,9.629999999999997e-12,1.1252E-12,1.51962E+05,1.6386292E-09,1.6020000000000116e-11,1.8711E-12,3.6934972203706536e-09,13.194994235871036,1.7390410615077923,5.138646,0,-4.6712623438129555,0,1,3693.6013809607107,3698.355976637857,0,0,False,False,0,-42.38240829478978
2023-08-13 15:39:36.313475,0,False,0,0,32,0,613,23.44,1.51962E+05,2.8842954E-09,1.1319999999999915e-11,1.0646E-12,1.51962E+05,9.191052E-10,9.860000000000005e-12,1.1508E-12,1.51962E+05,1.6391014E-09,1.601999999999991e-11,1.6788E-12,3.6937334142398523e-09,14.757559342750483,1.6959257180768113,5.20909,0,-4.6712623438129555,0,1,3693.6013809607107,3698.355976637857,0,0,False,False,0,-42.38240829478978
2023-08-13 15:39:56.306468,0,False,0,0,32,0,613,23.44,1.39965E+05,2.8842525E-09,1.0210000000000113e-11,1.0836E-12,1.39965E+05,9.183653E-10,8.230000000000084e-12,1.0430E-12,1.39965E+05,1.6386375E-09,1.5790000000000004e-11,1.6936E-12,3.693668520911103e-09,13.021375890662057,1.7445909190539624,5.123534,0,-4.6712623438129555,0,1,3693.6013809607107,3698.355976637857,0,0,False,False,0,-42.38240829478978
2023-08-13 15:40:16.701386,0,False,0,0,32,0,613,23.42,1.43964E+05,2.8842772E-09,9.74000000000001e-12,1.0868E-12,1.43964E+05,9.188535E-10,8.570000000000002e-12,1.0782E-12,1.43964E+05,1.6390023E-09,1.6230000000000057e-11,1.7464E-12,3.6929219446650427e-09,13.194994235871036,1.7087013540222018,5.111835,0,-4.6712623438129555,0,1,3693.6013809607107,3698.355976637857,0,0,False,False,0,-42.38240829478978
2023-08-13 15:40:38.846521,0,True,0,0,32,0,613,23.48,1.51962E+05,2.8843799E-09,9.190000000000048e-12,1.0925E-12,1.51962E+05,9.184763E-10,8.929999999999989e-12,1.0474E-12,1.51962E+05,1.6388082E-09,1.573999999999999e-11,1.7229E-12,3.6934643092773235e-09,12.847757545453078,1.7175814259574838,5.485897,0,-4.6712623438129555,0,1,3693.6013809607107,3698.355976637857,0,0,False,False,0,-42.38240829478978
2023-08-13 15:40:59.263681,0,False,0,0,32,0,613,23.45,1.39965E+05,2.8841318E-09,1.0010000000000051e-11,1.0666E-12,1.39965E+05,9.185876E-10,9.349999999999973e-12,1.0912E-12,1.39965E+05,1.6387021E-09,1.5399999999999967e-11,1.7313E-12,3.6939999409701286e-09,13.36861258107956,1.730024568515662,5.114187,0,-4.6712623438129555,0,1,3693.6013809607107,3698.355976637857,0,0,False,False,0,-42.38240829478978
2023-08-13 15:41:19.657690,0,False,0,0,32,0,613,23.45,1.43964E+05,2.8844016E-09,9.66000000000015e-12,1.0900E-12,1.43964E+05,9.186989E-10,9.939999999999968e-12,1.0759E-12,1.43964E+05,1.6387480E-09,1.5059999999999946e-11,1.7057E-12,3.693956673542246e-09,14.583940997541504,1.7109200512674354,5.34021,0,-4.6712623438129555,0,1,3693.6013809607107,3698.355976637857,0,0,False,False,0,-42.38240829478978
2023-08-13 15:41:40.932559,0,False,0,0,32,0,613,23.46,1.43964E+05,2.8842947E-09,9.249999999999735e-12,1.0867E-12,1.43964E+05,9.187210E-10,8.42000000000006e-12,1.0342E-12,1.43964E+05,1.6388689E-09,1.625000000000002e-11,1.7055E-12,3.693267358362767e-09,14.931177687959462,1.7379601937501354,5.191634,0,-4.6712623438129555,0,1,3693.6013809607107,3698.355976637857,0,0,False,False,0,-42.38240829478978
2023-08-13 15:42:02.657587,0,False,0,0,32,0,613,23.48,1.47963E+05,2.8842921E-09,9.91000000000002e-12,1.0851E-12,1.47963E+05,9.186174E-10,8.300000000000064e-12,1.0489E-12,1.47963E+05,1.6388441E-09,1.5159999999999977e-11,1.7576E-12,3.693638052627757e-09,14.063085961915021,1.7676619189447869,5.42605,0,-4.6712623438129555,0,1,3693.6013809607107,3698.355976637857,0,0,False,False,0,-42.38240829478978
2023-08-13 15:42:24.783304,0,False,0,0,32,0,613,23.45,1.51962E+05,2.8842122E-09,9.330000000000008e-12,1.0817E-12,1.51962E+05,9.184323E-10,9.260000000000028e-12,1.0923E-12,1.51962E+05,1.6388862E-09,1.424000000000015e-11,1.7210E-12,3.6934711567848597e-09,13.021375890662057,1.7191953020206132,5.423853,0,-4.6712623438129555,0,1,3693.6013809607107,3698.355976637857,0,0,False,False,0,-42.38240829478978
2023-08-13 15:42:46.900014,0,False,0,0,32,0,613,23.42,1.51962E+05,2.8842815E-09,9.399999999999988e-12,1.0844E-12,1.51962E+05,9.185963E-10,9.210000000000013e-12,1.0644E-12,1.51962E+05,1.6388447E-09,1.5190000000000027e-11,1.6826E-12,3.6938563794329266e-09,16.32012444962993,1.7227375321401157,5.474888,0,-4.6712623438129555,0,1,3693.6013809607107,3698.355976637857,0,0,False,False,0,-42.38240829478978
2023-08-13 15:43:07.311638,0,False,0,0,32,0,613,23.43,1.43964E+05,2.8843563E-09,1.0080000000000031e-11,1.0859E-12,1.43964E+05,9.186209E-10,9.150000000000015e-12,1.1412E-12,1.43964E+05,1.6389025E-09,1.4099999999999982e-11,1.6752E-12,3.6934015254112636e-09,12.500520855035575,1.7291637988867419,5.160962,0,-4.6712623438129555,0,1,3693.6013809607107,3698.355976637857,0,0,False,False,0,-42.38240829478978
2023-08-13 15:43:29.024717,0,False,0,0,32,0,613,23.41,1.47963E+05,2.8842596E-09,9.299999999999958e-12,1.0727E-12,1.47963E+05,9.183774E-10,9.459999999999986e-12,1.0473E-12,1.47963E+05,1.6387097E-09,1.3269999999999893e-11,1.5615E-12,3.6935912711646595e-09,14.757559342750483,1.7721781180953764,5.099064,0,-4.6712623438129555,0,1,3693.6013809607107,3698.355976637857,0,0,False,False,0,-42.38240829478978
2023-08-13 15:43:49.412199,0,False,0,0,32,0,613,23.38,1.43964E+05,2.8842774E-09,9.229999999999977e-12,1.0822E-12,1.43964E+05,9.184115E-10,9.550000000000034e-12,1.0721E-12,1.43964E+05,1.6386985E-09,1.4320000000000008e-11,1.7084E-12,3.6938762951933586e-09,13.54223092628854,1.7068630136775413,6.697757,0,-4.6712623438129555,0,1,3693.6013809607107,3698.355976637857,0,0,False,False,0,-42.38240829478978
2023-08-13 15:44:09.798611,0,False,0,0,32,0,613,23.38,1.43964E+05,2.8843074E-09,1.0119999999999961e-11,1.0910E-12,1.43964E+05,9.184628E-10,8.270000000000014e-12,1.0346E-12,1.43964E+05,1.6384781E-09,1.5050000000000067e-11,1.6513E-12,3.6938164576305e-09,13.542230926288994,1.7375796027520232,7.092036,0,-4.6712623438129555,0,1,3693.6013809607107,3698.355976637857,0,0,False,False,0,-42.38240829478978
2023-08-13 15:44:31.945341,0,False,0,0,32,0,613,23.45,1.51962E+05,2.8842772E-09,9.49000000000014e-12,1.0883E-12,1.51962E+05,9.187670E-10,1.0260000000000025e-11,1.2166E-12,1.51962E+05,1.6390272E-09,1.6939999999999944e-11,1.8433E-12,3.693160704613302e-09,14.236704307124,1.7164999755270711,5.282754,0,-4.6712623438129555,0,1,3693.6013809607107,3698.355976637857,0,0,False,False,0,-42.38240829478978
2023-08-13 15:44:51.935541,0,False,0,0,32,0,613,23.36,1.39965E+05,2.8842708E-09,1.0380000000000123e-11,1.1152E-12,1.39965E+05,9.185580E-10,8.709999999999963e-12,1.0506E-12,1.39965E+05,1.6387021E-09,1.625000000000002e-11,1.7889E-12,3.693604111977392e-09,14.063085961915476,1.7296352543542215,5.281752,0,-4.6712623438129555,0,1,3693.6013809607107,3698.355976637857,0,0,False,False,0,-42.38240829478978
2023-08-13 15:45:14.090280,0,False,0,0,32,0,613,23.41,1.51962E+05,2.8844240E-09,1.016999999999977e-11,1.0871E-12,1.51962E+05,9.185268E-10,8.600000000000053e-12,1.0853E-12,1.51962E+05,1.6387109E-09,1.4080000000000018e-11,1.7840E-12,3.6939412301906114e-09,14.757559342750483,1.7203013649113856,5.338792,0,-4.6712623438129555,0,1,3693.6013809607107,3698.355976637857,0,0,False,False,0,-42.38240829478978
2023-08-13 15:45:34.932100,0,False,0,0,32,0,613,23.38,1.43964E+05,2.8842720E-09,9.859999999999798e-12,1.0898E-12,1.43964E+05,9.186632E-10,9.459999999999986e-12,1.0903E-12,1.43964E+05,1.6389018E-09,1.4500000000000105e-11,1.6957E-12,3.693499725683497e-09,13.54223092628854,1.7435928702064538,5.238722,0,-4.6712623438129555,0,1,3693.6013809607107,3698.355976637857,0,0,False,False,0,-42.38240829478978
2023-08-13 15:45:57.071812,0,False,0,0,32,0,613,23.48,1.51962E+05,2.8841959E-09,9.91000000000002e-12,1.0903E-12,1.51962E+05,9.188281E-10,8.730000000000031e-12,1.0486E-12,1.51962E+05,1.6388540E-09,1.5619999999999994e-11,1.7780E-12,3.6932980124179495e-09,14.410322652332525,1.7482253587281895,5.388633,0,-4.6712623438129555,0,1,3693.6013809607107,3698.355976637857,0,0,False,False,0,-42.38240829478978
2023-08-13 15:46:19.230552,0,False,0,0,32,0,613,23.47,1.51962E+05,2.8843625E-09,9.159999999999997e-12,1.0521E-12,1.51962E+05,9.189301E-10,9.1e-12,1.0408E-12,1.51962E+05,1.6390022E-09,1.4269999999999993e-11,1.6201E-12,3.6931269532069853e-09,15.799269414003447,1.7222909242749025,5.286756,0,-4.6712623438129555,0,1,3693.6013809607107,3698.355976637857,0,0,False,False,0,-42.38240829478978
2023-08-13 15:46:40.071622,0,False,0,0,32,0,613,23.47,1.43964E+05,2.8844044E-09,9.850000000000333e-12,1.0988E-12,1.43964E+05,9.190211E-10,8.860000000000009e-12,1.0917E-12,1.43964E+05,1.6390597E-09,1.653999999999982e-11,1.8478E-12,3.6931774987157797e-09,13.368612581080015,1.715756117298679,5.244187,0,-4.6712623438129555,0,1,3693.6013809607107,3698.355976637857,0,0,False,False,0,-42.38240829478978
2023-08-13 15:47:02.225155,0,False,0,0,32,0,613,23.45,1.51962E+05,2.8843243E-09,9.649999999999858e-12,1.1110E-12,1.51962E+05,9.190630E-10,8.980000000000004e-12,1.1220E-12,1.51962E+05,1.6390793E-09,1.593000000000017e-11,1.7028E-12,3.6929383828498793e-09,12.153284164618071,1.6979002296888979,5.273621,0,-4.6712623438129555,0,1,3693.6013809607107,3698.355976637857,0,0,False,False,0,-42.38240829478978
2023-08-13 15:47:24.348584,0,False,0,0,32,0,613,23.42,1.51962E+05,2.8843712E-09,9.020000000000037e-12,1.0695E-12,1.51962E+05,9.192814E-10,9.450000000000004e-12,1.1033E-12,1.51962E+05,1.6395429E-09,1.4780000000000025e-11,1.7378E-12,3.692529766865915e-09,14.757559342750483,1.7032284407412195,5.149657,0,-4.6712623438129555,0,1,3693.6013809607107,3698.355976637857,0,0,False,False,0,-42.38240829478978
2023-08-13 15:47:46.456664,0,False,0,0,32,0,613,23.38,1.51962E+05,2.8843850E-09,9.699999999999667e-12,1.0885E-12,1.51962E+05,9.189934E-10,9.350000000000076e-12,1.0241E-12,1.51962E+05,1.6391323E-09,1.521999999999987e-11,1.6677E-12,3.6930546984602397e-09,14.063085961915021,1.711814970907877,6.028282,0,-4.6712623438129555,0,1,3693.6013809607107,3698.355976637857,0,0,False,False,0,-42.38240829478978
2023-08-13 15:48:06.839435,0,False,0,0,32,0,613,23.47,1.43964E+05,2.8842982E-09,9.500000000000019e-12,1.0827E-12,1.43964E+05,9.187357E-10,9.660000000000047e-12,1.1765E-12,1.43964E+05,1.6389754E-09,1.570999999999994e-11,1.8000E-12,3.6934256479440314e-09,12.674139200244554,1.7063846343291793,5.346797,0,-4.6712623438129555,0,1,3693.6013809607107,3698.355976637857,0,0,False,False,0,-42.38240829478978
2023-08-13 15:48:28.552204,0,False,0,0,32,0,613,23.44,1.51962E+05,2.8842552E-09,1.0680000000000215e-11,1.1080E-12,1.51962E+05,9.191493E-10,1.0540000000000048e-11,1.1493E-12,1.51962E+05,1.6391161E-09,1.5330000000000194e-11,1.8496E-12,3.6931382002033824e-09,12.847757545453078,1.7199806174118486,5.212653,0,-4.6712623438129555,0,1,3693.6013809607107,3698.355976637857,0,0,False,False,0,-42.38240829478978
2023-08-13 15:48:50.723020,0,False,0,0,32,0,613,23.42,1.51962E+05,2.8842675E-09,9.360000000000059e-12,1.0907E-12,1.51962E+05,9.186499E-10,8.959999999999936e-12,1.0695E-12,1.51962E+05,1.6387655E-09,1.524999999999992e-11,1.7508E-12,3.6932926580279225e-09,13.368612581080015,1.7136028404529664,5.150036,0,-4.6712623438129555,0,1,3693.6013809607107,3698.355976637857,0,0,False,False,0,-42.38240829478978
2023-08-13 15:49:11.570371,0,False,0,0,32,0,613,23.44,1.43964E+05,2.8842263E-09,9.539999999999948e-12,1.0820E-12,1.43964E+05,9.190908E-10,9.040000000000002e-12,9.917E-13,1.43964E+05,1.6392348E-09,1.53199999999999e-11,1.7374E-12,3.692923939539839e-09,12.847757545453533,1.705458070284043,5.22471,0,-4.6712623438129555,0,1,3693.6013809607107,3698.355976637857,0,0,False,False,0,-42.38240829478978
2023-08-13 15:49:33.669801,0,False,0,0,32,0,613,23.45,1.51962E+05,2.8842032E-09,1.0710000000000266e-11,1.0623E-12,1.51962E+05,9.188453E-10,9.259999999999925e-12,1.1143E-12,1.51962E+05,1.6388986E-09,1.5020000000000016e-11,1.6160E-12,3.693341923969547e-09,13.368612581080015,1.723701007663186,5.404491,0,-4.6712623438129555,0,1,3693.6013809607107,3698.355976637857,0,0,False,False,0,-42.38240829478978
2023-08-13 15:49:54.050386,0,False,0,0,32,0,613,23.45,1.43964E+05,2.8841500E-09,9.159999999999997e-12,1.0871E-12,1.43964E+05,9.189861E-10,8.910000000000024e-12,1.0639E-12,1.43964E+05,1.6390884E-09,1.6900000000000014e-11,1.7051E-12,3.6933512681089104e-09,12.847757545453533,1.7203561614616094,5.303751,0,-4.6712623438129555,0,1,3693.6013809607107,3698.355976637857,0,0,False,False,0,-42.38240829478978
2023-08-13 15:50:15.777568,0,False,0,0,32,0,613,23.45,1.47963E+05,2.8841166E-09,9.74000000000001e-12,1.0937E-12,1.47963E+05,9.173478E-10,9.33999999999999e-12,1.0818E-12,1.47963E+05,1.6375782E-09,1.4850000000000006e-11,1.6849E-12,3.69431578919992e-09,12.50052085503603,1.7619427355017954,5.189655,0,-4.6712623438129555,0,1,3693.6013809607107,3698.355976637857,0,0,False,False,0,-42.38240829478978
2023-08-13 15:50:36.576718,0,False,0,0,32,0,613,23.5,1.43964E+05,2.8842935E-09,9.299999999999958e-12,1.0686E-12,1.43964E+05,9.191378E-10,9.33999999999999e-12,1.0086E-12,1.43964E+05,1.6394488E-09,1.4519999999999863e-11,1.6078E-12,3.692900877814966e-09,14.583940997541504,1.7166919864156827,5.260753,0,-4.6712623438129555,0,1,3693.6013809607107,3698.355976637857,0,0,False,False,0,-42.38240829478978
2023-08-13 15:50:58.719518,0,True,0,0,32,0,613,23.44,1.51962E+05,2.8843646E-09,9.719999999999838e-12,1.0883E-12,1.51962E+05,9.188773E-10,1.1060000000000063e-11,1.1556E-12,1.51962E+05,1.6387683E-09,1.5780000000000125e-11,1.6549E-12,3.693314092948764e-09,12.847757545453533,1.7354301726951709,5.298041,0,-4.6712623438129555,0,1,3693.6013809607107,3698.355976637857,0,0,False,False,0,-42.38240829478978
2023-08-13 15:51:20.432941,0,False,0,0,32,0,613,23.51,1.47963E+05,2.8843473E-09,9.519999999999777e-12,1.0949E-12,1.47963E+05,9.191204E-10,9.899999999999935e-12,1.0516E-12,1.47963E+05,1.6391752E-09,1.8250000000000015e-11,1.8116E-12,3.6929690160706916e-09,12.153284164618071,1.7209251030352855,5.528927,0,-4.6712623438129555,0,1,3693.6013809607107,3698.355976637857,0,0,False,False,0,-42.38240829478978
2023-08-13 15:51:42.584675,0,False,0,0,32,0,613,23.48,1.51962E+05,2.8841823E-09,9.70999999999996e-12,1.0585E-12,1.51962E+05,9.184914E-10,9.03000000000002e-12,1.0862E-12,1.51962E+05,1.6383786E-09,1.5750000000000075e-11,1.6751E-12,3.6933981485344927e-09,12.847757545453533,1.7173777351102706,5.495904,0,-4.6712623438129555,0,1,3693.6013809607107,3698.355976637857,0,0,False,False,0,-42.38240829478978
2023-08-13 15:52:03.397461,0,False,0,0,32,0,613,23.46,1.43964E+05,2.8842268E-09,9.330000000000008e-12,1.1041E-12,1.43964E+05,9.187115E-10,9.019999999999934e-12,1.0598E-12,1.43964E+05,1.6386859E-09,1.3739999999999996e-11,1.6724E-12,3.6931705887056926e-09,12.847757545453533,1.73568155228833,6.880888,0,-4.6712623438129555,0,1,3693.6013809607107,3698.355976637857,0,0,False,False,0,-42.38240829478978
2023-08-13 15:52:25.087870,0,True,0,0,32,0,613,23.42,1.47963E+05,2.8842737E-09,9.84999999999992e-12,1.0814E-12,1.47963E+05,9.188281E-10,8.19999999999993e-12,9.712E-13,1.47963E+05,1.6390333E-09,1.4910000000000107e-11,1.6790E-12,3.6932281431869533e-09,13.194994235871036,1.7414097733653948,5.256734,0,-4.6712623438129555,0,1,3693.6013809607107,3698.355976637857,0,0,False,False,0,-42.38240829478978
2023-08-13 15:52:47.238601,0,False,0,0,32,0,613,23.45,1.51962E+05,2.8843075E-09,9.509999999999898e-12,1.0966E-12,1.51962E+05,9.188118E-10,9.330000000000008e-12,1.0593E-12,1.51962E+05,1.6392372E-09,1.5069999999999825e-11,1.7894E-12,3.693120534536698e-09,13.715849271497518,1.7207323267427475,5.317777,0,-4.6712623438129555,0,1,3693.6013809607107,3698.355976637857,0,0,False,False,0,-42.38240829478978
2023-08-13 15:53:08.513731,0,False,0,0,32,0,613,23.42,1.43964E+05,2.8842356E-09,9.409999999999867e-12,1.1033E-12,1.43964E+05,9.183804E-10,9.590000000000067e-12,1.1343E-12,1.43964E+05,1.6383740E-09,1.6509999999999977e-11,1.7789E-12,3.6933783942392555e-09,13.54223092628854,1.7283427634947823,5.358559,0,-4.6712623438129555,0,1,3693.6013809607107,3698.355976637857,0,0,False,False,0,-42.38240829478978
2023-08-13 15:53:30.694486,0,False,0,0,32,0,613,23.45,1.51962E+05,2.8843385E-09,1.012999999999984e-11,1.0766E-12,1.51962E+05,9.187092E-10,8.640000000000086e-12,1.0204E-12,1.51962E+05,1.6389237E-09,1.473000000000001e-11,1.6978E-12,3.6934647693658454e-09,13.54223092628854,1.7173941469441163,5.354804,0,-4.6712623438129555,0,1,3693.6013809607107,3698.355976637857,0,0,False,False,0,-42.38240829478978
2023-08-13 15:53:52.428048,0,False,0,0,32,0,613,23.4,1.47963E+05,2.8841629E-09,1.012999999999984e-11,1.1033E-12,1.47963E+05,9.186734E-10,8.570000000000002e-12,9.829E-13,1.47963E+05,1.6387173E-09,1.4030000000000002e-11,1.6832E-12,3.6930582524277465e-09,12.32690250982705,1.7123988380920492,5.1721,0,-4.6712623438129555,0,1,3693.6013809607107,3698.355976637857,0,0,False,False,0,-42.38240829478978
2023-08-13 15:54:14.141273,0,False,0,0,32,0,613,23.42,1.47963E+05,2.8842867E-09,9.430000000000039e-12,1.0660E-12,1.47963E+05,9.187477E-10,9.40999999999997e-12,1.0810E-12,1.47963E+05,1.6389039E-09,1.553000000000005e-11,1.8300E-12,3.6929411902584526e-09,13.021375890662057,1.700672804419981,5.376458,0,-4.6712623438129555,0,1,3693.6013809607107,3698.355976637857,0,0,False,False,0,-42.38240829478978
2023-08-13 15:54:35.815370,0,True,0,0,32,0,613,23.43,1.47963E+05,2.8842597E-09,9.320000000000129e-12,1.0959E-12,1.47963E+05,9.185986E-10,9.210000000000013e-12,1.0575E-12,1.47963E+05,1.6387959E-09,1.5569999999999978e-11,1.7104E-12,3.6929464699922414e-09,13.021375890662057,1.7066877768813022,5.215698,0,-4.6712623438129555,0,1,3693.6013809607107,3698.355976637857,0,0,False,False,0,-42.38240829478978
2023-08-13 15:54:57.564491,0,False,0,0,32,0,613,23.45,1.47963E+05,2.8842247E-09,9.679999999999909e-12,1.0823E-12,1.47963E+05,9.185863E-10,9.399999999999988e-12,1.0224E-12,1.47963E+05,1.6387995E-09,1.4610000000000015e-11,1.6861E-12,3.6931035980672047e-09,13.54223092628854,1.747324177227666,5.295762,0,-4.6712623438129555,0,1,3693.6013809607107,3698.355976637857,0,0,False,False,0,-42.38240829478978
2023-08-13 15:55:17.985364,0,False,0,0,32,0,613,23.45,1.43964E+05,2.8842338E-09,9.819999999999869e-12,1.0842E-12,1.43964E+05,9.185000E-10,8.980000000000004e-12,1.1729E-12,1.43964E+05,1.6388174E-09,1.594000000000005e-11,1.8617E-12,3.693299357959864e-09,13.889467616706042,1.7253577610510678,5.18769,0,-4.6712623438129555,0,1,3693.6013809607107,3698.355976637857,0,0,False,False,0,-42.38240829478978
2023-08-13 15:55:38.397209,0,False,0,0,32,0,613,23.38,1.43964E+05,2.8842234E-09,9.990000000000293e-12,1.0830E-12,1.43964E+05,9.184477E-10,1.102000000000003e-11,1.0857E-12,1.43964E+05,1.6386470E-09,1.462999999999998e-11,1.7217E-12,3.6930421302281605e-09,13.542230926288994,1.704631240665221,5.149074,0,-4.6712623438129555,0,1,3693.6013809607107,3698.355976637857,0,0,False,False,0,-42.38240829478978
2023-08-13 15:56:00.538419,0,False,0,0,32,0,613,23.39,1.51962E+05,2.8841429E-09,9.80999999999999e-12,1.0909E-12,1.51962E+05,9.186348E-10,9.430000000000039e-12,1.0305E-12,1.51962E+05,1.6388321E-09,1.8530000000000142e-11,1.8825E-12,3.6930289317615593e-09,13.368612581080015,1.7243459710327584,5.189036,0,-4.6712623438129555,0,1,3693.6013809607107,3698.355976637857,0,0,False,False,0,-42.38240829478978
2023-08-13 15:56:21.789268,0,False,0,0,32,0,613,23.45,1.43964E+05,2.8840972E-09,1.0289999999999972e-11,1.0908E-12,1.43964E+05,9.186966E-10,8.500000000000022e-12,9.943E-13,1.43964E+05,1.6388192E-09,1.4950000000000036e-11,1.5904E-12,3.692804273095287e-09,13.368612581080015,1.6819472853492248,5.199,0,-4.6712623438129555,0,1,3693.6013809607107,3698.355976637857,0,0,False,False,0,-42.38240829478978
2023-08-13 15:56:42.209591,0,False,0,0,32,0,613,23.45,1.43964E+05,2.8841703E-09,9.45000000000021e-12,1.0953E-12,1.43964E+05,9.186839E-10,8.63e-12,1.0853E-12,1.43964E+05,1.6389118E-09,1.503999999999998e-11,1.6539E-12,3.6932047064465174e-09,13.542230926288994,1.72816196607051,5.093314,0,-4.6712623438129555,0,1,3693.6013809607107,3698.355976637857,0,0,False,False,0,-42.38240829478978
2023-08-13 15:57:05.692977,0,False,0,0,32,0,613,23.38,1.59960E+05,2.8841495E-09,1.002999999999981e-11,1.0850E-12,1.59960E+05,9.184840E-10,9.430000000000039e-12,1.0896E-12,1.59960E+05,1.6385280E-09,1.532000000000011e-11,1.6465E-12,3.692971804381194e-09,13.368612581080015,1.702777259430784,5.453873,0,-4.6712623438129555,0,1,3693.6013809607107,3698.355976637857,0,0,False,False,0,-42.38240829478978
2023-08-13 15:57:26.560800,0,False,0,0,32,0,613,23.35,1.43964E+05,2.8842490E-09,9.49000000000014e-12,1.0854E-12,1.43964E+05,9.186315E-10,9.260000000000028e-12,1.0629E-12,1.43964E+05,1.6387735E-09,1.6720000000000124e-11,1.7555E-12,3.69324411607488e-09,13.889467616706042,1.7333827927749366,7.059014,0,-4.6712623438129555,0,1,3693.6013809607107,3698.355976637857,0,0,False,False,0,-42.38240829478978
2023-08-13 15:57:48.245220,0,False,0,0,32,0,613,23.42,1.47963E+05,2.8842507E-09,1.0060000000000273e-11,1.0873E-12,1.47963E+05,9.183852E-10,1.0190000000000044e-11,1.1606E-12,1.47963E+05,1.6385703E-09,1.7079999999999904e-11,1.9231E-12,3.6932763083883864e-09,13.54223092628854,1.7384930767352513,5.523924,0,-4.6712623438129555,0,1,3693.6013809607107,3698.355976637857,0,0,False,False,0,-42.38240829478978
2023-08-13 15:58:09.060006,0,False,0,0,32,0,613,23.45,1.43964E+05,2.8843965E-09,9.209999999999806e-12,1.0637E-12,1.43964E+05,9.188816E-10,8.929999999999989e-12,1.1392E-12,1.43964E+05,1.6389362E-09,1.441000000000016e-11,1.7127E-12,3.6928428684533497e-09,14.583940997541958,1.7180656497915818,5.153682,0,-4.6712623438129555,0,1,3693.6013809607107,3698.355976637857,0,0,False,False,0,-42.38240829478978
2023-08-13 15:58:30.766407,0,False,0,0,32,0,613,23.41,1.47963E+05,2.8842533E-09,9.509999999999898e-12,1.0901E-12,1.47963E+05,9.188875E-10,9.490000000000037e-12,1.0891E-12,1.47963E+05,1.6389076E-09,1.4049999999999967e-11,1.5637E-12,3.6923173048882523e-09,14.063085961915476,1.7092594991109566,5.181672,0,-4.6712623438129555,0,1,3693.6013809607107,3698.355976637857,0,0,False,False,0,-42.38240829478978