Time,Legal,wasIllegal,LOLs,Valid,Slides,N reset,Temp,ambient T,N,Mean [s],Range [s],StdD [s],N C,Mean C,Range C,StdD C,N fo,Mean fo,Range fo,StdD fo,ddmtd,range dd,stdD dd,timeTook 100k,txpi_steps,desired_shift,step_done,ali_done,dd_adj_meas,first_m,dmtd h,range dd h,error,error_h,dmtd range preadj,corr
2023-08-13 09:52:53.821889,1,True,0,0,20,0,612,23.29,9.9975E+04,8.0528608E-09,4.6031099999999994e-09,5.804301E-10,9.9975E+04,5.016299E-10,1.0399999999999985e-11,1.1677E-12,9.9975E+04,1.1088721E-09,1.5339999999999866e-11,1.8133E-12,5.208333333332289e-11,0.0,0.0,4.948793,0,0.08333333331766823,1,1,52.08333333332289,52.08333333333856,0,0,False,False,0,-52.083333333333336
2023-08-13 09:53:12.912599,1,True,0,0,20,0,612,23.29,1.03974E+05,7.8584650E-09,4.6017900000000005e-09,1.2120437E-09,1.03974E+05,5.014948E-10,1.0169999999999976e-11,1.1270E-12,1.03974E+05,1.1089321E-09,1.4989999999999966e-11,1.7188E-12,5.208333333332289e-11,0.0,0.0,5.02757,0,0.08333333331766823,0,1,52.08333333332289,52.08333333333856,0,0,False,False,0,-52.083333333333336
2023-08-13 09:53:31.933100,1,True,0,0,20,0,612,23.26,1.03974E+05,7.6350844E-09,4.605220000000001e-09,1.3572190E-09,1.03974E+05,5.013956E-10,9.999999999999965e-12,1.1485E-12,1.03974E+05,1.1087095E-09,1.6480000000000133e-11,1.8014E-12,5.208333333332289e-11,0.0,0.0,4.997548,0,0.08333333331766823,0,1,52.08333333332289,52.08333333333856,0,0,False,False,0,-52.083333333333336
2023-08-13 09:53:51.084039,1,True,0,0,20,0,612,23.22,1.03974E+05,7.7583798E-09,4.603880000000001e-09,1.2175929E-09,1.03974E+05,5.010555E-10,9.070000000000052e-12,1.1171E-12,1.03974E+05,1.1082073E-09,1.587999999999995e-11,1.6315E-12,5.208333333332289e-11,0.0,0.0,4.987792,0,0.08333333331766823,0,1,52.08333333332289,52.08333333333856,0,0,False,False,0,-52.083333333333336
2023-08-13 09:54:10.171816,1,True,0,0,20,0,613,23.28,1.03974E+05,7.5014510E-09,4.606080000000001e-09,1.4870008E-09,1.03974E+05,5.012120E-10,8.659999999999947e-12,1.0461E-12,1.03974E+05,1.1086505E-09,1.553000000000005e-11,1.6994E-12,5.208333333332289e-11,0.0,0.0,4.987131,0,0.08333333331766823,0,1,52.08333333332289,52.08333333333856,0,0,False,False,0,-52.083333333333336
2023-08-13 09:54:29.388709,1,True,0,0,20,0,612,23.29,1.03974E+05,7.7902400E-09,4.602440000000001e-09,1.1773990E-09,1.03974E+05,5.013713E-10,8.519999999999987e-12,1.1546E-12,1.03974E+05,1.1093860E-09,1.5960000000000015e-11,1.8134E-12,5.208333333332289e-11,0.0,0.0,4.949462,0,0.08333333331766823,0,1,52.08333333332289,52.08333333333856,0,0,False,False,0,-52.083333333333336
2023-08-13 09:54:48.574359,1,True,0,0,20,0,612,23.26,1.03974E+05,7.8597099E-09,4.60084e-09,8.898137E-10,1.03974E+05,5.012638E-10,9.279999999999993e-12,1.0809E-12,1.03974E+05,1.1086316E-09,1.3730000000000117e-11,1.6633E-12,5.208333333332289e-11,0.0,0.0,5.002229,0,0.08333333331766823,0,1,52.08333333332289,52.08333333333856,0,0,False,False,0,-52.083333333333336
2023-08-13 09:55:07.610308,1,True,0,0,20,0,612,23.29,1.03974E+05,7.3710289E-09,4.607559999999999e-09,1.6607047E-09,1.03974E+05,5.013310E-10,1.041000000000007e-11,1.1797E-12,1.03974E+05,1.1084927E-09,1.5030000000000102e-11,1.7737E-12,5.208333333332289e-11,0.0,0.0,5.004306,0,0.08333333331766823,0,1,52.08333333332289,52.08333333333856,0,0,False,False,0,-52.083333333333336
2023-08-13 09:55:26.650187,1,True,0,1,20,0,612,23.3,1.03974E+05,7.2272360E-09,4.60486e-09,1.8011099E-09,1.03974E+05,5.013643E-10,9.40999999999997e-12,1.0906E-12,1.03974E+05,1.1086893E-09,1.5120000000000047e-11,1.6775E-12,5.208333333332289e-11,0.0,0.0,4.996115,0,0.08333333331766823,0,1,52.08333333332289,52.08333333333856,0,0,False,False,0,-52.083333333333336
2023-08-13 09:55:44.436856,1,True,0,1,20,0,613,23.29,9.5976E+04,7.7977925E-09,4.60512e-09,1.1421706E-09,9.5976E+04,5.014185E-10,9.649999999999962e-12,1.1865E-12,9.5976E+04,1.1087622E-09,1.4059999999999846e-11,1.5800E-12,5.208333333332289e-11,0.0,0.0,4.932766,0,0.08333333331766823,0,1,52.08333333332289,52.08333333333856,0,0,False,False,0,-52.083333333333336
2023-08-13 09:56:03.519492,1,True,0,0,20,0,613,23.36,1.03974E+05,7.7743333E-09,4.6027e-09,1.1273603E-09,1.03974E+05,5.011589E-10,9.699999999999977e-12,1.1174E-12,1.03974E+05,1.1086150E-09,1.632999999999988e-11,1.7059E-12,5.208333333332289e-11,0.0,0.0,5.064577,0,0.08333333331766823,0,1,52.08333333332289,52.08333333333856,0,0,False,False,0,-52.083333333333336
2023-08-13 09:56:22.593995,1,True,0,0,20,0,612,23.32,1.03974E+05,7.2225681E-09,4.60491e-09,1.7739551E-09,1.03974E+05,5.010106E-10,9.800000000000008e-12,1.1789E-12,1.03974E+05,1.1084162E-09,1.6969999999999994e-11,1.8203E-12,5.208333333332289e-11,0.0,0.0,4.911444,0,0.08333333331766823,0,1,52.08333333332289,52.08333333333856,0,0,False,False,0,-52.083333333333336
2023-08-13 09:56:41.591036,1,True,0,0,20,0,612,23.33,1.03974E+05,7.4627121E-09,4.6047e-09,1.6204674E-09,1.03974E+05,5.010237E-10,8.299999999999961e-12,1.0049E-12,1.03974E+05,1.1080419E-09,1.4179999999999841e-11,1.6182E-12,5.208333333332289e-11,0.0,0.0,4.967988,0,0.08333333331766823,0,1,52.08333333332289,52.08333333333856,0,0,False,False,0,-52.083333333333336
2023-08-13 09:56:58.781415,1,True,0,0,20,0,612,23.27,9.5976E+04,7.2971737E-09,4.60559e-09,1.7273893E-09,9.5976E+04,5.011349E-10,9.500000000000019e-12,1.1054E-12,9.5976E+04,1.1085345E-09,1.4400000000000074e-11,1.7128E-12,5.208333333332289e-11,0.0,0.0,4.985349,0,0.08333333331766823,0,1,52.08333333332289,52.08333333333856,0,0,False,False,0,-52.083333333333336
2023-08-13 09:57:17.675433,1,True,0,0,20,0,612,23.29,1.03974E+05,7.0898170E-09,7.888800000000001e-09,2.1488658E-09,1.03974E+05,5.008105E-10,9.699999999999977e-12,1.2822E-12,1.03974E+05,1.1082922E-09,1.472000000000013e-11,1.6570E-12,5.208333333332289e-11,0.0,0.0,4.978453,0,0.08333333331766823,0,1,52.08333333332289,52.08333333333856,0,0,False,False,0,-52.083333333333336
2023-08-13 09:57:36.689985,1,True,0,0,20,0,612,23.36,1.03974E+05,7.8208208E-09,4.6013999999999994e-09,1.1153216E-09,1.03974E+05,5.008142E-10,8.749999999999996e-12,1.0889E-12,1.03974E+05,1.1084118E-09,1.4429999999999918e-11,1.7119E-12,5.208333333332289e-11,0.0,0.0,4.988973,0,0.08333333331766823,0,1,52.08333333332289,52.08333333333856,0,0,False,False,0,-52.083333333333336
2023-08-13 09:57:55.299190,1,True,0,0,20,0,613,23.36,9.9975E+04,7.7150788E-09,4.60507e-09,1.1864940E-09,9.9975E+04,5.006033E-10,8.850000000000026e-12,1.0245E-12,9.9975E+04,1.1077906E-09,1.4960000000000122e-11,1.6282E-12,5.208333333332289e-11,0.0,0.0,4.972599,0,0.08333333331766823,0,1,52.08333333332289,52.08333333333856,0,0,False,False,0,-52.083333333333336
2023-08-13 09:58:14.451292,1,True,0,0,20,0,612,23.29,1.03974E+05,7.6939555E-09,4.607680000000001e-09,1.2509674E-09,1.03974E+05,5.008876E-10,9.789999999999922e-12,1.2528E-12,1.03974E+05,1.1081363E-09,1.5150000000000098e-11,1.6283E-12,5.208333333332289e-11,0.0,0.0,5.056497,0,0.08333333331766823,0,1,52.08333333332289,52.08333333333856,0,0,False,False,0,-52.083333333333336
2023-08-13 09:58:32.151341,1,True,0,0,20,0,613,23.3,9.9975E+04,7.4350895E-09,4.60548e-09,1.6461247E-09,9.9975E+04,5.010296E-10,9.059999999999967e-12,1.0745E-12,9.9975E+04,1.1085531E-09,1.3929999999999972e-11,1.6088E-12,5.208333333332289e-11,0.0,0.0,4.949117,0,0.08333333331766823,0,1,52.08333333332289,52.08333333333856,0,0,False,False,0,-52.083333333333336
2023-08-13 09:58:51.230177,1,True,0,0,20,0,613,23.26,1.03974E+05,7.3709135E-09,4.60587e-09,1.8085823E-09,1.03974E+05,5.011321E-10,9.490000000000037e-12,1.2476E-12,1.03974E+05,1.1083979E-09,1.570999999999994e-11,1.7889E-12,5.208333333332289e-11,0.0,0.0,4.961961,0,0.08333333331766823,0,1,52.08333333332289,52.08333333333856,0,0,False,False,0,-52.083333333333336
2023-08-13 09:59:09.624743,1,True,0,0,20,0,613,23.24,9.9975E+04,7.4701354E-09,4.60762e-09,1.5914075E-09,9.9975E+04,5.009576E-10,9.360000000000059e-12,1.0819E-12,9.9975E+04,1.1081271E-09,1.8329999999999874e-11,1.8150E-12,5.208333333332289e-11,0.0,0.0,4.97668,0,0.08333333331766823,0,1,52.08333333332289,52.08333333333856,0,0,False,False,0,-52.083333333333336
2023-08-13 09:59:28.567322,1,True,0,0,20,0,613,23.26,1.03974E+05,7.5598374E-09,4.601409999999999e-09,1.4215816E-09,1.03974E+05,5.011436E-10,9.440000000000021e-12,1.1082E-12,1.03974E+05,1.1083502E-09,1.535999999999983e-11,1.7146E-12,5.208333333332289e-11,0.0,0.0,5.033763,0,0.08333333331766823,0,1,52.08333333332289,52.08333333333856,0,0,False,False,0,-52.083333333333336
2023-08-13 09:59:45.768291,1,True,0,0,20,0,613,23.22,9.5976E+04,7.9228319E-09,4.604230000000001e-09,8.572524E-10,9.5976E+04,5.007723E-10,9.119999999999964e-12,1.0765E-12,9.5976E+04,1.1084384E-09,1.4200000000000013e-11,1.5891E-12,5.208333333332289e-11,0.0,0.0,5.048692,0,0.08333333331766823,0,1,52.08333333332289,52.08333333333856,0,0,False,False,0,-52.083333333333336
2023-08-13 10:00:04.839023,1,True,0,1,20,0,613,23.24,1.03974E+05,7.3700094E-09,4.60499e-09,1.6815869E-09,1.03974E+05,5.011078E-10,9.20000000000003e-12,1.0976E-12,1.03974E+05,1.1082747E-09,1.4179999999999841e-11,1.5631E-12,5.208333333332289e-11,0.0,0.0,4.927965,0,0.08333333331766823,0,1,52.08333333332289,52.08333333333856,0,0,False,False,0,-52.083333333333336
2023-08-13 10:00:23.956247,1,True,0,0,20,0,613,23.27,1.03974E+05,7.3561176E-09,4.60756e-09,1.6296816E-09,1.03974E+05,5.011749E-10,1.0140000000000029e-11,1.2501E-12,1.03974E+05,1.1084742E-09,1.5610000000000115e-11,1.6823E-12,5.208333333332289e-11,0.0,0.0,4.96507,0,0.08333333331766823,0,1,52.08333333332289,52.08333333333856,0,0,False,False,0,-52.083333333333336
2023-08-13 10:00:41.733469,1,True,0,0,20,0,613,23.27,9.5976E+04,7.7561704E-09,4.60316e-09,1.2421419E-09,9.5976E+04,5.015413E-10,8.749999999999996e-12,1.0417E-12,9.5976E+04,1.1088674E-09,1.4960000000000122e-11,1.5668E-12,5.208333333332289e-11,0.0,0.0,4.947079,0,0.08333333331766823,0,1,52.08333333332289,52.08333333333856,0,0,False,False,0,-52.083333333333336
2023-08-13 10:01:00.885334,1,True,0,0,20,0,613,23.26,1.03974E+05,7.9724742E-09,4.6011e-09,8.731259E-10,1.03974E+05,5.014251E-10,8.279999999999996e-12,1.0307E-12,1.03974E+05,1.1086408E-09,1.2980000000000094e-11,1.6208E-12,5.208333333332289e-11,0.0,0.0,4.982315,0,0.08333333331766823,0,1,52.08333333332289,52.08333333333856,0,0,False,False,0,-52.083333333333336
2023-08-13 10:01:19.911102,1,True,0,0,20,0,612,23.3,1.03974E+05,7.2778486E-09,4.6054100000000005e-09,1.7165377E-09,1.03974E+05,5.012438E-10,1.0470000000000068e-11,1.2787E-12,1.03974E+05,1.1088954E-09,1.476000000000006e-11,1.8629E-12,5.208333333332289e-11,0.0,0.0,4.951664,0,0.08333333331766823,0,1,52.08333333332289,52.08333333333856,0,0,False,False,0,-52.083333333333336
2023-08-13 10:01:38.824910,1,True,0,0,20,0,613,23.3,1.03974E+05,7.6272344E-09,4.605380000000001e-09,1.5437852E-09,1.03974E+05,5.009521E-10,9.659999999999944e-12,1.1920E-12,1.03974E+05,1.1083913E-09,1.622999999999985e-11,1.8390E-12,5.208333333332289e-11,0.0,0.0,4.979501,0,0.08333333331766823,0,1,52.08333333332289,52.08333333333856,0,0,False,False,0,-52.083333333333336
2023-08-13 10:01:57.287703,1,True,0,0,20,0,612,23.34,9.9975E+04,7.7845625E-09,4.606220000000001e-09,1.0608779E-09,9.9975E+04,5.012939E-10,1.0229999999999974e-11,1.2978E-12,9.9975E+04,1.1085879E-09,1.517999999999994e-11,1.7757E-12,5.208333333332289e-11,0.0,0.0,4.97309,0,0.08333333331766823,0,1,52.08333333332289,52.08333333333856,0,0,False,False,0,-52.083333333333336
2023-08-13 10:02:16.486041,1,True,0,0,20,0,612,23.28,1.03974E+05,7.7109435E-09,4.60298e-09,1.1159289E-09,1.03974E+05,5.013818E-10,9.019999999999934e-12,1.0370E-12,1.03974E+05,1.1087062E-09,1.3899999999999921e-11,1.6331E-12,5.208333333332289e-11,0.0,0.0,4.936825,0,0.08333333331766823,0,1,52.08333333332289,52.08333333333856,0,0,False,False,0,-52.083333333333336
2023-08-13 10:02:35.519100,1,True,0,0,20,0,613,23.26,1.03974E+05,7.8673522E-09,4.603759999999999e-09,9.726689E-10,1.03974E+05,5.012673E-10,9.070000000000052e-12,1.1587E-12,1.03974E+05,1.1087603E-09,1.6579999999999957e-11,1.7527E-12,5.208333333332289e-11,0.0,0.0,4.943617,0,0.08333333331766823,0,1,52.08333333332289,52.08333333333856,0,0,False,False,0,-52.083333333333336
2023-08-13 10:02:54.426531,1,True,0,0,20,0,612,23.29,1.03974E+05,7.9367815E-09,4.602100000000001e-09,1.1246837E-09,1.03974E+05,5.015227E-10,8.56000000000002e-12,1.0394E-12,1.03974E+05,1.1088801E-09,1.4610000000000015e-11,1.6405E-12,5.208333333332289e-11,0.0,0.0,4.960603,0,0.08333333331766823,0,1,52.08333333332289,52.08333333333856,0,0,False,False,0,-52.083333333333336
2023-08-13 10:03:12.790026,1,True,0,0,20,0,612,23.26,9.9975E+04,7.7868898E-09,4.604009999999999e-09,1.1282815E-09,9.9975E+04,5.012046E-10,9.950000000000054e-12,1.2563E-12,9.9975E+04,1.1083337E-09,1.5229999999999957e-11,1.8320E-12,5.208333333332289e-11,0.0,0.0,5.000082,0,0.08333333331766823,0,1,52.08333333332289,52.08333333333856,0,0,False,False,0,-52.083333333333336
2023-08-13 10:03:31.881837,1,True,0,0,20,0,612,23.29,1.03974E+05,7.5151274E-09,4.606490000000001e-09,1.4729761E-09,1.03974E+05,5.008728E-10,9.699999999999977e-12,1.2110E-12,1.03974E+05,1.1081827E-09,1.4670000000000116e-11,1.7242E-12,5.208333333332289e-11,0.0,0.0,4.969142,0,0.08333333331766823,0,1,52.08333333332289,52.08333333333856,0,0,False,False,0,-52.083333333333336
2023-08-13 10:03:51.085916,1,True,0,0,20,0,612,23.29,1.03974E+05,7.7008507E-09,4.6031699999999995e-09,1.2412446E-09,1.03974E+05,5.011126E-10,9.629999999999997e-12,1.1340E-12,1.03974E+05,1.1084613E-09,1.3009999999999937e-11,1.6483E-12,5.208333333332289e-11,0.0,0.0,4.96433,0,0.08333333331766823,0,1,52.08333333332289,52.08333333333856,0,0,False,False,0,-52.083333333333336
2023-08-13 10:04:10.117352,1,True,0,0,20,0,612,23.24,1.03974E+05,7.3157141E-09,4.605799999999999e-09,1.7285102E-09,1.03974E+05,5.014802E-10,8.899999999999938e-12,1.0833E-12,1.03974E+05,1.1087118E-09,1.3910000000000007e-11,1.6715E-12,5.208333333332289e-11,0.0,0.0,4.952365,0,0.08333333331766823,0,1,52.08333333332289,52.08333333333856,0,0,False,False,0,-52.083333333333336
2023-08-13 10:04:28.709797,1,True,0,0,20,0,612,23.23,9.9975E+04,7.6490786E-09,4.6052700000000006e-09,1.2142202E-09,9.9975E+04,5.014838E-10,9.84000000000004e-12,1.2984E-12,9.9975E+04,1.1088673E-09,1.524999999999992e-11,1.7592E-12,5.208333333332289e-11,0.0,0.0,4.989465,0,0.08333333331766823,0,1,52.08333333332289,52.08333333333856,0,0,False,False,0,-52.083333333333336
2023-08-13 10:04:47.716305,1,True,0,0,20,0,612,23.26,1.03974E+05,7.3043425E-09,4.6053599999999995e-09,1.6997264E-09,1.03974E+05,5.014426E-10,9.94999999999995e-12,1.1693E-12,1.03974E+05,1.1087377E-09,1.632999999999988e-11,1.7292E-12,5.208333333332289e-11,0.0,0.0,5.02676,0,0.08333333331766823,0,1,52.08333333332289,52.08333333333856,0,0,False,False,0,-52.083333333333336
2023-08-13 10:05:06.920008,1,True,0,0,20,0,612,23.26,1.03974E+05,7.6962201E-09,4.60531e-09,1.3019499E-09,1.03974E+05,5.016077E-10,9.03000000000002e-12,1.1496E-12,1.03974E+05,1.1088788E-09,1.376999999999984e-11,1.6573E-12,5.208333333332289e-11,0.0,0.0,5.042582,0,0.08333333331766823,0,1,52.08333333332289,52.08333333333856,0,0,False,False,0,-52.083333333333336
2023-08-13 10:05:24.808633,1,True,0,1,20,0,612,23.29,9.9975E+04,7.6779367E-09,4.60616e-09,1.3804699E-09,9.9975E+04,5.012040E-10,9.410000000000074e-12,1.2290E-12,9.9975E+04,1.1083113E-09,1.493999999999995e-11,1.7341E-12,5.208333333332289e-11,0.0,0.0,5.00061,0,0.08333333331766823,0,1,52.08333333332289,52.08333333333856,0,0,False,False,0,-52.083333333333336
2023-08-13 10:05:42.644183,1,True,0,0,20,0,612,23.31,9.5976E+04,7.7969417E-09,4.60489e-09,1.1453377E-09,9.5976E+04,5.011061E-10,8.809999999999993e-12,1.0540E-12,9.5976E+04,1.1082439E-09,1.6210000000000092e-11,1.6466E-12,5.208333333332289e-11,0.0,0.0,4.984615,0,0.08333333331766823,0,1,52.08333333332289,52.08333333333856,0,0,False,False,0,-52.083333333333336
2023-08-13 10:06:00.023923,1,True,0,0,20,0,612,23.26,9.9975E+04,6.8818368E-09,4.6038400000000005e-09,1.9942341E-09,9.9975E+04,5.009574E-10,1.0399999999999985e-11,1.2494E-12,9.9975E+04,1.1082007E-09,1.563999999999996e-11,1.7632E-12,5.208333333332289e-11,0.0,0.0,5.054572,0,0.08333333331766823,0,1,52.08333333332289,52.08333333333856,0,0,False,False,0,-52.083333333333336
2023-08-13 10:06:17.828193,1,True,0,0,20,0,612,23.26,9.5976E+04,7.2257946E-09,4.6044600000000005e-09,1.8253228E-09,9.5976E+04,5.010854E-10,9.569999999999999e-12,1.0928E-12,9.5976E+04,1.1085578E-09,1.3970000000000108e-11,1.6161E-12,5.208333333332289e-11,0.0,0.0,4.944976,0,0.08333333331766823,0,1,52.08333333332289,52.08333333333856,0,0,False,False,0,-52.083333333333336
2023-08-13 10:06:35.683222,1,True,0,0,20,0,612,23.26,9.5976E+04,7.8865413E-09,4.605190000000001e-09,8.956696E-10,9.5976E+04,5.009882E-10,9.510000000000001e-12,1.2347E-12,9.5976E+04,1.1082660E-09,1.476000000000006e-11,1.7898E-12,5.208333333332289e-11,0.0,0.0,4.989791,0,0.08333333331766823,0,1,52.08333333332289,52.08333333333856,0,0,False,False,0,-52.083333333333336
2023-08-13 10:06:53.458357,1,True,0,1,20,0,612,23.3,9.5976E+04,7.7381585E-09,4.60231e-09,1.2698097E-09,9.5976E+04,5.008471E-10,1.0409999999999967e-11,1.2218E-12,9.5976E+04,1.1080086E-09,1.5850000000000106e-11,1.7448E-12,5.208333333332289e-11,0.0,0.0,4.950019,0,0.08333333331766823,0,1,52.08333333332289,52.08333333333856,0,0,False,False,0,-52.083333333333336
2023-08-13 10:07:12.508090,1,True,0,0,20,0,612,23.26,1.03974E+05,7.7162421E-09,4.6042699999999994e-09,1.1896345E-09,1.03974E+05,5.013391E-10,9.830000000000058e-12,1.1582E-12,1.03974E+05,1.1084967E-09,1.4579999999999964e-11,1.7112E-12,5.208333333332289e-11,0.0,0.0,4.992036,0,0.08333333331766823,0,1,52.08333333332289,52.08333333333856,0,0,False,False,0,-52.083333333333336
2023-08-13 10:07:31.631102,1,True,0,0,20,0,612,23.26,1.03974E+05,7.5198143E-09,4.6058e-09,1.5242931E-09,1.03974E+05,5.015011E-10,9.480000000000054e-12,1.1927E-12,1.03974E+05,1.1087510E-09,1.4789999999999904e-11,1.7918E-12,5.208333333332289e-11,0.0,0.0,4.934152,0,0.08333333331766823,0,1,52.08333333332289,52.08333333333856,0,0,False,False,0,-52.083333333333336
2023-08-13 10:07:50.027794,1,True,0,0,20,0,612,23.29,9.9975E+04,7.5127351E-09,4.604270000000001e-09,1.5983953E-09,9.9975E+04,5.014443E-10,1.0039999999999998e-11,1.3501E-12,9.9975E+04,1.1087449E-09,1.5010000000000137e-11,1.7692E-12,5.208333333332289e-11,0.0,0.0,4.979562,0,0.08333333331766823,0,1,52.08333333332289,52.08333333333856,0,0,False,False,0,-52.083333333333336
2023-08-13 10:08:08.459537,1,True,0,0,20,0,612,23.26,9.9975E+04,7.3847357E-09,4.605299999999999e-09,1.7189796E-09,9.9975E+04,5.011018E-10,8.869999999999991e-12,1.0530E-12,9.9975E+04,1.1082895E-09,1.3000000000000059e-11,1.6227E-12,5.208333333332289e-11,0.0,0.0,4.982709,0,0.08333333331766823,0,1,52.08333333332289,52.08333333333856,0,0,False,False,0,-52.083333333333336
2023-08-13 10:08:26.986640,1,True,0,1,20,0,612,23.26,9.9975E+04,7.5685833E-09,4.60367e-09,1.4499748E-09,9.9975E+04,5.011845E-10,8.920000000000006e-12,1.3087E-12,9.9975E+04,1.1084026E-09,1.6169999999999956e-11,1.8662E-12,5.208333333332289e-11,0.0,0.0,5.017352,0,0.08333333331766823,0,1,52.08333333332289,52.08333333333856,0,0,False,False,0,-52.083333333333336
