xpm_cdc.sv,systemverilog,xpm,../../../../Xilinx/Vivado/2022.1/data/ip/xpm/xpm_cdc/hdl/xpm_cdc.sv,incdir="../../../../../../src/ip/ila_sys/hdl/verilog"
xpm_fifo.sv,systemverilog,xpm,../../../../Xilinx/Vivado/2022.1/data/ip/xpm/xpm_fifo/hdl/xpm_fifo.sv,incdir="../../../../../../src/ip/ila_sys/hdl/verilog"
xpm_memory.sv,systemverilog,xpm,../../../../Xilinx/Vivado/2022.1/data/ip/xpm/xpm_memory/hdl/xpm_memory.sv,incdir="../../../../../../src/ip/ila_sys/hdl/verilog"
xpm_VCOMP.vhd,vhdl,xpm,../../../../Xilinx/Vivado/2022.1/data/ip/xpm/xpm_VCOMP.vhd,incdir="../../../../../../src/ip/ila_sys/hdl/verilog"
ila_sys_sim_netlist.v,verilog,xil_defaultlib,../../../../../../src/ip/ila_sys/ila_sys_sim_netlist.v,incdir="../../../../../../src/ip/ila_sys/hdl/verilog"
glbl.v,Verilog,xil_defaultlib,glbl.v
