Time,ambient T,step,ddmtd,range,stdDev,timeTook,avgFi,avgFd
2023-05-19 18:53:59.123978,24.29,0,2.4809250708409273e-09,9.722627331694184,1.0363507292702263,13.940733,240003487.77901775,239993487.5696648
2023-05-19 18:54:14.545604,24.35,0,2.4809214769228225e-09,10.243482367321121,1.0301563761992225,13.963519,240003489.95368734,239993489.8593661
2023-05-19 18:54:29.934786,24.32,0,2.4811085886601226e-09,9.722627331694639,1.0298785983353242,13.918507,240003491.62228447,239993491.4695998
2023-05-19 18:54:45.176484,24.32,0,2.4811745920317727e-09,10.069864022112142,1.0351238674516716,13.797556,240003488.44467127,239993488.2918394
2023-05-19 18:55:00.479176,24.35,0,2.4812444899762276e-09,9.54900898648566,1.0341311852164574,13.86725,240003486.6052318,239993486.45626092
2023-05-19 18:55:22.922018,24.45,20,2.501160713136191e-09,9.896245676903618,1.083433405090108,13.88372,240003487.62905002,239993487.4431916
2023-05-19 18:55:38.279573,24.38,20,2.501140672296611e-09,9.375390641276681,1.0935473029159357,13.90612,240003487.4663103,239993487.4643391
2023-05-19 18:55:53.865114,24.36,20,2.501228388655511e-09,10.590719057738625,1.097074759824736,14.133825,240003487.39146376,239993487.26467344
2023-05-19 18:56:09.500269,24.33,20,2.5012021668601493e-09,10.764337402947149,1.0885821975459753,14.165204,240003486.87591532,239993486.6549653
2023-05-19 18:56:24.895900,24.22,20,2.5010491793246242e-09,10.590719057738625,1.0935637757666978,13.94142,240003485.2674701,239993485.10487857
2023-05-19 18:56:47.224719,24.34,40,2.5214161744923115e-09,10.243482367321121,1.0776494608120892,13.909323,240003486.80079412,239993486.67803538
2023-05-19 18:57:02.757113,24.37,40,2.5215115620594905e-09,9.375390641276681,1.0731800839095538,14.078146,240003484.4583035,239993484.27861428
2023-05-19 18:57:18.200985,24.32,40,2.521514789699762e-09,10.417100712529646,1.0721821404419711,13.997337,240003481.95733073,239993481.81259227
2023-05-19 18:57:33.626627,24.38,40,2.521546505228256e-09,11.979665819409092,1.0755196854346123,13.977245,240003483.90361518,239993483.73797897
2023-05-19 18:57:49.044906,24.32,40,2.5214927837917047e-09,10.59071905773817,1.0681053429399572,13.954987,240003486.4131028,239993486.20139197
2023-05-19 18:58:11.213102,24.33,60,2.5418412705631512e-09,9.54900898648566,1.105251174948152,13.828689,240003487.17571348,239993486.97780854
2023-05-19 18:58:26.596378,24.38,60,2.541686680009739e-09,10.764337402947149,1.1070198883372984,13.93195,240003489.12845278,239993488.95057142
2023-05-19 18:58:41.963899,24.39,60,2.5418100050874548e-09,11.45881078378261,1.1109828891705331,13.912496,240003488.57994437,239993488.37711614
2023-05-19 18:58:57.342943,24.45,60,2.541794280018586e-09,10.417100712529646,1.107153892611721,13.930233,240003488.30472887,239993488.0209038
2023-05-19 18:59:12.960644,24.37,60,2.5416173075022028e-09,10.937955748156128,1.1116890426167032,14.163515,240003488.3045915,239993488.1763519
2023-05-19 18:59:35.108468,24.38,80,2.5619311516167427e-09,10.069864022112142,1.1318043021226016,13.930946,240003490.35112932,239993490.17657912
2023-05-19 18:59:50.646432,24.51,80,2.5619509270477143e-09,10.937955748156128,1.1288278064519814,14.055732,240003488.70601615,239993488.63583013
2023-05-19 19:00:06.112073,24.45,80,2.561879377440227e-09,10.764337402947149,1.13093486235077,13.996639,240003488.3376888,239993488.1232084
2023-05-19 19:00:21.545326,24.47,80,2.5620685490629954e-09,10.243482367320667,1.1338835508583203,13.966173,240003489.25836986,239993488.99396503
2023-05-19 19:00:36.953217,24.57,80,2.5620212595743714e-09,10.764337402947604,1.1426086466905265,13.938943,240003491.48399004,239993491.21871316
2023-05-19 19:00:58.915938,24.51,100,2.581899362175625e-09,10.937955748156128,1.0938461369833117,13.871605,240003491.95051056,239993491.72803918
2023-05-19 19:01:14.333025,24.51,100,2.5819435111919036e-09,10.243482367320667,1.0894892502627347,13.957825,240003493.5275065,239993493.53464285
2023-05-19 19:01:29.733639,24.46,100,2.581876983350777e-09,10.937955748156128,1.0882649063249665,13.94267,240003490.80899787,239993490.71185893
2023-05-19 19:01:45.172862,24.61,100,2.581778774095057e-09,12.500520855035575,1.0882790791543044,13.9867,240003488.3115955,239993488.25613576
2023-05-19 19:02:00.581679,24.67,100,2.582125803849241e-09,10.59071905773817,1.092181371512212,13.962352,240003488.19884503,239993487.90019807
2023-05-19 19:02:22.398306,24.61,120,2.601347535804743e-09,10.243482367321121,1.1171305770900137,13.854191,240003487.52412754,239993487.41696316
2023-05-19 19:02:37.804664,24.61,120,2.601259287994392e-09,9.722627331694184,1.125906083495964,13.955412,240003488.4415126,239993488.26684693
2023-05-19 19:02:53.290044,24.58,120,2.6011055536486777e-09,9.896245676903163,1.1343174095935171,14.034905,240003488.9563744,239993488.829591
2023-05-19 19:03:08.708112,24.65,120,2.600935458728231e-09,10.417100712529646,1.137446265702611,13.948025,240003487.28763995,239993487.16607654
2023-05-19 19:03:24.128371,24.58,120,2.6011575265061e-09,10.764337402947604,1.1397574201804475,13.966113,240003487.16033217,239993486.87619048
2023-05-19 19:03:45.848610,24.8,140,2.620022170252698e-09,10.243482367321121,1.1140604634817093,13.930655,240003485.2915034,239993485.27886513
2023-05-19 19:04:01.215745,24.93,140,2.619865956071704e-09,10.937955748156128,1.113741507049735,13.900598,240003485.7010307,239993485.48882994
2023-05-19 19:04:16.489119,24.98,140,2.619632650411969e-09,9.722627331694184,1.1071071344876113,13.822704,240003483.48584792,239993483.29813775
2023-05-19 19:04:31.779108,24.87,140,2.619981043092864e-09,10.243482367320667,1.1161901977398516,13.809661,240003481.95293602,239993481.81094438
2023-05-19 19:04:47.138053,24.73,140,2.6199317247180098e-09,11.111574093365107,1.1134128836665858,13.902897,240003480.95287657,239993480.8141266
2023-05-19 19:05:08.727868,24.68,160,2.637894429751351e-09,10.243482367320667,1.1349132726945745,13.892613,240003483.4944999,239993483.30527848
2023-05-19 19:05:24.361251,24.63,160,2.6382055093454096e-09,10.069864022112142,1.128531995212051,14.179509,240003484.2124773,239993484.02649173
2023-05-19 19:05:40.012031,24.65,160,2.6380074570392645e-09,10.764337402947604,1.128821490997106,14.198589,240003484.58822063,239993484.57289454
2023-05-19 19:05:55.465695,24.7,160,2.637958459206567e-09,10.069864022112142,1.1256951328129239,13.987738,240003486.9231579,239993486.75383696
2023-05-19 19:06:10.798106,24.81,160,2.637966642059759e-09,10.590719057738625,1.128663051386615,13.883055,240003490.41018257,239993490.23054653
2023-05-19 19:06:32.190667,24.73,180,2.6560289699499586e-09,10.417100712529646,1.1105599637586039,13.818403,240003490.59077558,239993490.44243383
2023-05-19 19:06:47.553633,24.67,180,2.6561277802044435e-09,10.417100712529646,1.1183755756262996,13.915061,240003496.1735033,239993496.06657952
2023-05-19 19:07:02.950936,24.74,180,2.6558838503053845e-09,9.201772296068157,1.1184079919397776,13.943879,240003495.32615808,239993495.24402282
2023-05-19 19:07:18.424893,24.68,180,2.6558266925846258e-09,9.896245676903163,1.1215471631216525,14.009927,240003498.20836788,239993498.009681
2023-05-19 19:07:33.943899,24.69,180,2.6558775792595237e-09,9.375390641276681,1.11018677986893,14.06365,240003498.96191466,239993498.8437727
2023-05-19 19:07:55.220013,24.6,200,2.6746097757899472e-09,9.896245676903163,1.1202701987043298,13.860305,240003499.44848585,239993499.22442836
2023-05-19 19:08:10.677949,24.71,200,2.674697868027935e-09,10.417100712529646,1.126370448148355,14.003711,240003499.0043506,239993498.81878015
2023-05-19 19:08:26.022875,24.7,200,2.6747534522959237e-09,10.417100712529646,1.1231908103190829,13.891579,240003498.09575474,239993498.02986723
2023-05-19 19:08:41.497272,24.64,200,2.6746619003140893e-09,11.285192438574086,1.1359344684351624,14.022804,240003498.31136775,239993498.11857706
2023-05-19 19:08:56.837892,24.64,200,2.674549722942086e-09,9.896245676903163,1.130726841570409,13.872108,240003495.1536677,239993494.9274964
2023-05-19 19:09:17.999124,24.58,220,2.693354671007553e-09,10.59071905773817,1.1439910445242643,13.86492,240003495.5674523,239993495.35470408
2023-05-19 19:09:33.395525,24.55,220,2.6934316435304496e-09,10.417100712529646,1.1686452350272867,13.924226,240003496.41644555,239993496.347265
2023-05-19 19:09:48.845082,24.56,220,2.6936112104211846e-09,10.417100712529646,1.153861316102547,13.988935,240003493.30543888,239993493.09796
2023-05-19 19:10:04.339249,24.53,220,2.6935229690353674e-09,10.243482367320667,1.149920448532292,14.03122,240003498.8683908,239993498.71826068
2023-05-19 19:10:19.776864,24.68,220,2.6934249246821297e-09,10.590719057738625,1.1547720604484877,13.947451,240003501.91979522,239993501.8533143
2023-05-19 19:10:41.024910,24.64,240,2.7121067355540146e-09,10.417100712529646,1.1416134780189642,14.030716,240003499.51234576,239993499.24942088
2023-05-19 19:10:56.455198,24.63,240,2.712041658142968e-09,10.590719057738625,1.1434210162873883,13.981199,240003502.15999082,239993502.0815429
2023-05-19 19:11:11.765462,24.59,240,2.7118288446198214e-09,10.069864022112142,1.1493822790711676,13.854557,240003501.2860029,239993501.15517095
2023-05-19 19:11:27.216026,24.53,240,2.7118680642446034e-09,9.722627331694639,1.1444517723302408,13.995732,240003498.32606235,239993498.2022059
2023-05-19 19:11:42.719070,24.54,240,2.711978564930724e-09,10.069864022111688,1.1444560518710334,14.01969,240003497.2227282,239993497.18726155
2023-05-19 19:12:03.710880,24.58,260,2.7304141508914666e-09,10.069864022112142,1.1259685525550094,13.965814,240003496.80056623,239993496.6471755
2023-05-19 19:12:19.142070,24.57,260,2.730424691746043e-09,10.069864022112142,1.124767100848815,13.966624,240003496.55652532,239993496.39271846
2023-05-19 19:12:34.493442,24.78,260,2.7302809744511505e-09,10.069864022111688,1.1362767285445703,13.894527,240003495.80270392,239993495.58403122
2023-05-19 19:12:49.896387,24.6,260,2.730187291810205e-09,10.069864022112142,1.1304027760619433,13.94642,240003494.98612133,239993494.8894583
2023-05-19 19:13:05.279776,24.58,260,2.7304655536015884e-09,9.375390641276681,1.1270618695652628,13.927584,240003491.5622699,239993491.42538223
2023-05-19 19:13:26.201297,24.48,280,2.7489492816690377e-09,10.417100712529646,1.1462933715957941,13.972128,240003495.7428267,239993495.47074088
2023-05-19 19:13:41.680819,24.48,280,2.7490386294084428e-09,9.722627331694639,1.1380255835879416,14.028634,240003493.48163724,239993493.30957267
2023-05-19 19:13:57.106170,24.48,280,2.749078294701422e-09,9.54900898648566,1.1446891270546522,13.938816,240003491.57517922,239993491.47234625
2023-05-19 19:14:12.465045,24.61,280,2.7488728516680282e-09,10.069864022112142,1.1499433762667535,13.871358,240003491.52477795,239993491.31758475
2023-05-19 19:14:27.799064,24.62,280,2.748963896832766e-09,10.069864022112142,1.1499614620706058,13.884132,240003487.17392814,239993487.02449787
2023-05-19 19:14:48.425067,24.58,300,2.7685567953386826e-09,10.59071905773817,1.1262237106384965,13.855164,240003479.89115447,239993479.60693207
2023-05-19 19:15:03.711882,24.6,300,2.768281474184892e-09,9.722627331694184,1.1280139288422473,13.83275,240003474.51071906,239993474.42867038
2023-05-19 19:15:19.249381,24.58,300,2.7685106728907517e-09,10.59071905773817,1.149884262114274,14.05911,240003472.08610353,239993471.78316912
2023-05-19 19:15:34.706723,24.61,300,2.768542332292746e-09,10.069864022112142,1.1295625997150414,13.999349,240003469.75226527,239993469.63559622
2023-05-19 19:15:50.065775,24.67,300,2.7686667216573126e-09,10.417100712529646,1.1303630105133022,13.903775,240003469.3647113,239993469.13972783
2023-05-19 19:16:10.507937,24.74,320,2.7895128847818635e-09,11.979665819409092,1.16028517123143,13.801578,240003465.68404782,239993465.51375034
2023-05-19 19:16:25.826342,24.82,320,2.789384854542201e-09,9.54900898648566,1.1592910544867145,13.842077,240003463.79558083,239993463.70398867
2023-05-19 19:16:41.676398,24.62,320,2.7895224825247686e-09,11.285192438574086,1.1613276005954665,14.356065,240003462.69801497,239993462.6320561
2023-05-19 19:16:57.643925,24.68,320,2.789629572223208e-09,9.375390641276681,1.160565372016304,14.512492,240003460.52485657,239993460.45811746
2023-05-19 19:17:12.959745,24.68,320,2.7895577067309636e-09,9.201772296068157,1.16503199363653,13.861847,240003461.8631673,239993461.63633698
2023-05-19 19:17:33.590065,24.53,340,2.811559530436955e-09,9.722627331694184,1.1754744747626096,14.079546,240003458.77386,239993458.71440753
2023-05-19 19:17:49.266960,24.64,340,2.8120201350417377e-09,10.417100712529646,1.1973958158638045,14.210553,240003458.0402268,239993457.92576948
2023-05-19 19:18:04.804309,24.65,340,2.811921441934613e-09,10.937955748156128,1.1749274657253028,14.081576,240003456.74819738,239993456.58372542
2023-05-19 19:18:20.317894,24.55,340,2.8120878649042293e-09,10.069864022112142,1.1826364231776205,14.05935,240003455.21803242,239993455.1131483
2023-05-19 19:18:35.628787,24.42,340,2.8121313427636597e-09,10.069864022112142,1.180564911106245,13.857679,240003453.6701516,239993453.4492224
2023-05-19 19:18:55.770834,24.57,360,2.833354243379416e-09,10.243482367320667,1.1863475416166431,13.768574,240003450.45614627,239993450.36374316
2023-05-19 19:19:11.084926,24.52,360,2.833477481897968e-09,10.590719057738625,1.1785092315258947,13.86232,240003451.61207852,239993451.37662736
2023-05-19 19:19:26.362622,24.54,360,2.8332765836847824e-09,10.764337402947604,1.1787270358135227,13.830283,240003450.91813463,239993450.87650204
2023-05-19 19:19:41.741053,24.43,360,2.833161347662916e-09,11.285192438574086,1.1934058187725172,13.906707,240003448.80224437,239993448.74733052
2023-05-19 19:19:57.196039,24.54,360,2.8332962423762454e-09,9.896245676903163,1.1838163434292153,13.99124,240003447.7918851,239993447.75545654
2023-05-19 19:20:17.520226,24.5,380,2.852808761188549e-09,9.896245676903163,1.170340605367303,14.022709,240003447.1020612,239993447.0415215
2023-05-19 19:20:33.044336,24.49,380,2.8528795508857947e-09,10.243482367320667,1.1770086885102813,14.070916,240003447.8056184,239993447.5601852
2023-05-19 19:20:48.479061,24.52,380,2.85293792954876e-09,10.069864022111688,1.1760063760001769,13.983125,240003447.20423698,239993447.17870578
2023-05-19 19:21:03.844949,24.42,380,2.852962052353308e-09,11.285192438573631,1.1753666563628118,13.912413,240003444.9096764,239993444.85851997
2023-05-19 19:21:19.332828,24.46,380,2.8529306845274194e-09,10.764337402947604,1.1724071506283666,14.030366,240003447.61802146,239993447.49303493
2023-05-19 19:21:39.457421,24.49,400,2.870698863460743e-09,10.243482367321121,1.2257756932899282,13.993216,240003444.65712094,239993444.47333288
2023-05-19 19:21:54.853987,24.49,400,2.8705487521209997e-09,10.937955748156128,1.2201788425613904,13.921619,240003445.88309306,239993445.70551956
2023-05-19 19:22:10.187891,24.48,400,2.8708566323825257e-09,10.417100712529646,1.2296692470353652,13.851431,240003445.49608853,239993445.28737533
2023-05-19 19:22:25.538346,24.35,400,2.8706403146244792e-09,10.069864022111688,1.2261409646018302,13.897518,240003449.3235606,239993449.1921152
2023-05-19 19:22:40.935055,24.42,400,2.8704576574141874e-09,10.069864022111688,1.2219398444278142,13.945156,240003452.2585052,239993452.18503964
2023-05-19 19:23:00.957295,24.49,420,2.8870517587830513e-09,10.069864022111688,1.2391324456420625,13.899945,240003449.40802044,239993449.27189904
2023-05-19 19:23:16.462037,24.58,420,2.8868535627600734e-09,10.764337402947604,1.2353117862024388,14.033087,240003448.81048435,239993448.6819654
2023-05-19 19:23:31.961976,24.68,420,2.886972007647515e-09,10.243482367320667,1.2493730992439316,14.045892,240003448.3863999,239993448.2700006
2023-05-19 19:23:47.517841,24.56,420,2.8869496664606263e-09,10.937955748156128,1.2448288510260717,14.080228,240003449.25681674,239993449.23523417
2023-05-19 19:24:03.167327,24.64,420,2.8870037639117895e-09,10.069864022112142,1.2388869691796545,14.192209,240003448.483769,239993448.28826436
2023-05-19 19:24:23.414959,24.65,440,2.9028594598697423e-09,11.458810783783065,1.2335735439408322,13.982657,240003445.7331254,239993445.56655014
2023-05-19 19:24:38.710742,24.51,440,2.902702885504954e-09,10.764337402947604,1.2306551245489512,13.83955,240003443.69345492,239993443.75308108
2023-05-19 19:24:54.029896,24.41,440,2.9029171636044175e-09,10.937955748156128,1.2368369599694742,13.865241,240003442.30336988,239993442.25600109
2023-05-19 19:25:09.442289,24.44,440,2.902908870451387e-09,10.590719057738625,1.2242944533161162,13.943759,240003444.32546163,239993444.17548233
2023-05-19 19:25:24.932783,24.47,440,2.9026774960791e-09,9.722627331694639,1.226324411697676,14.038647,240003445.4141007,239993445.271034
2023-05-19 19:25:45.201998,24.46,460,2.9189653733730988e-09,11.285192438573631,1.2278430714302593,13.900767,240003444.90885243,239993444.73067355
2023-05-19 19:26:00.566375,24.4,460,2.919127648710478e-09,12.32690250982705,1.2286126133411928,13.913383,240003446.65380615,239993446.51585436
2023-05-19 19:26:15.965807,24.36,460,2.9189037398620933e-09,10.937955748156128,1.2273355011517473,13.948696,240003447.14889178,239993446.95610747
2023-05-19 19:26:31.172287,24.33,460,2.91891219686421e-09,10.417100712529646,1.2240906153575506,13.747798,240003449.65082526,239993449.52814117
2023-05-19 19:26:46.622111,24.35,460,2.9189090774176234e-09,10.590719057738625,1.2221489010103341,13.970865,240003448.48267034,239993448.3425064
2023-05-19 19:27:06.913848,24.46,480,2.9359011007784846e-09,10.590719057738625,1.260619781309796,13.77981,240003449.0558985,239993448.77163643
2023-05-19 19:27:22.306710,24.49,480,2.9361105602643356e-09,10.764337402947604,1.2530449289185852,13.937516,240003445.59922564,239993445.41810545
2023-05-19 19:27:37.663391,24.41,480,2.936022976541727e-09,11.111574093365107,1.2492130886817043,13.900556,240003444.65135294,239993444.53718737
2023-05-19 19:27:53.151111,24.48,480,2.935974248907223e-09,10.937955748156583,1.2477311902941626,14.027848,240003444.17343393,239993444.17218658
2023-05-19 19:28:08.506952,24.42,480,2.9360182529653195e-09,9.896245676903618,1.2498559558364186,13.89878,240003443.2576972,239993443.16191164
2023-05-19 19:28:28.979279,24.45,500,2.954275544384456e-09,10.937955748156128,1.2597148724784164,13.813858,240003445.91124633,239993445.84970728
2023-05-19 19:28:44.301564,24.47,500,2.954110519193053e-09,10.764337402947149,1.2591092194947247,13.874245,240003446.4193786,239993446.3812792
2023-05-19 19:28:59.669996,24.36,500,2.9541866863483757e-09,10.764337402947604,1.2532958565859955,13.91586,240003446.84002975,239993446.62914473
2023-05-19 19:29:14.951878,24.44,500,2.9541581776536983e-09,10.590719057738625,1.261972441017014,13.800403,240003445.80440122,239993445.63013005
2023-05-19 19:29:30.359134,24.49,500,2.954019217092381e-09,11.45881078378261,1.2616522497565081,13.956226,240003445.80192924,239993445.67832994
2023-05-19 19:29:51.338531,24.52,520,2.9722479981338e-09,10.069864022112142,1.2581130956943645,14.160995,240003448.4155145,239993448.19653353
2023-05-19 19:30:06.839094,24.49,520,2.97205566493338e-09,10.069864022112142,1.2531704714940055,14.043972,240003448.48473033,239993448.41844526
2023-05-19 19:30:22.308029,24.46,520,2.972149812309579e-09,11.285192438574086,1.259381078244159,14.014899,240003447.46970177,239993447.30723882
2023-05-19 19:30:37.738902,24.48,520,2.971826869385429e-09,11.979665819409547,1.2500409709910527,13.947496,240003446.80748183,239993446.66045403
2023-05-19 19:30:53.040045,24.54,520,2.9720852209335995e-09,10.243482367321121,1.2553340838593912,13.834036,240003445.79286525,239993445.6884917
2023-05-19 19:31:13.838788,24.61,540,2.9903689763007787e-09,10.417100712529646,1.3185887483127656,13.9329,240003444.90638041,239993444.7161174
2023-05-19 19:31:29.348653,24.66,540,2.990305168826673e-09,10.59071905773817,1.319025040118461,14.057799,240003446.27229494,239993446.20921522
2023-05-19 19:31:44.828168,24.74,540,2.9903451171127797e-09,10.243482367320667,1.3176228878789455,13.998126,240003446.28808823,239993446.10306564
2023-05-19 19:32:00.213520,24.68,540,2.9902826421580955e-09,10.764337402947149,1.324987602656775,13.931203,240003447.61252815,239993447.49317226
2023-05-19 19:32:15.746846,24.64,540,2.990347851404512e-09,10.417100712529646,1.3227533479035134,14.078554,240003447.78735313,239993447.6274728
2023-05-19 19:32:36.637277,24.65,560,3.0085731973030296e-09,10.764337402947604,1.3093558151701121,13.84209,240003445.90341836,239993445.73463175
2023-05-19 19:32:52.073275,24.69,560,3.008689530898222e-09,10.243482367321121,1.3098241059268296,13.983892,240003447.2553249,239993447.07159492
2023-05-19 19:33:07.492902,24.65,560,3.008535204473326e-09,10.937955748156128,1.3041300110727805,13.963438,240003449.53189483,239993449.3471513
2023-05-19 19:33:22.990983,24.67,560,3.008488157011545e-09,11.979665819409547,1.30400744886785,14.024724,240003449.83169287,239993449.79097474
2023-05-19 19:33:38.477090,24.65,560,3.0086879811429845e-09,11.632429128991589,1.3041283939023651,14.027883,240003450.24492803,239993450.04831544
2023-05-19 19:33:59.562801,24.61,580,3.027796477730763e-09,10.417100712529646,1.2890728402350595,13.883352,240003450.9184093,239993450.65088263
2023-05-19 19:34:15.019732,24.65,580,3.027937357335022e-09,9.896245676903163,1.2829350657865104,14.002893,240003453.16723797,239993452.97999445
2023-05-19 19:34:30.345683,24.58,580,3.027923228280511e-09,10.764337402947149,1.2860727936468104,13.874423,240003454.22964644,239993454.1300629
2023-05-19 19:34:45.716455,24.56,580,3.0278243068659764e-09,11.111574093365107,1.2833553992228994,13.913482,240003454.616651,239993454.52129218
2023-05-19 19:35:01.022931,24.65,580,3.0277176688710185e-09,10.069864022112142,1.2830985326322901,13.852109,240003455.0614727,239993454.85937798
2023-05-19 19:35:22.212353,24.65,600,3.0471578031844665e-09,10.417100712529646,1.3082359786324003,13.937559,240003455.47869056,239993455.43379426
2023-05-19 19:35:37.705241,24.71,600,3.047304943692156e-09,11.45881078378261,1.3063354696888374,14.033565,240003455.89261234,239993455.82323834
2023-05-19 19:35:53.289276,24.74,600,3.0474095078301853e-09,11.632429128991589,1.3129645137406143,14.127175,240003456.85586646,239993456.5888063
2023-05-19 19:36:08.748665,24.67,600,3.0473063611184258e-09,10.590719057738625,1.3067809947992355,14.006095,240003458.08403602,239993457.91574505
2023-05-19 19:36:24.259339,24.71,600,3.0472681065374666e-09,10.937955748156583,1.3149840775232127,14.051692,240003459.42509338,239993459.29266888
2023-05-19 19:36:45.468403,24.68,620,3.067536556024434e-09,12.326902509826596,1.302123132682343,13.745248,240003459.10812867,239993459.0172017
2023-05-19 19:37:00.730063,24.84,620,3.0675527932232483e-09,9.896245676903163,1.3001013084408426,13.810642,240003459.49375993,239993459.4358953
2023-05-19 19:37:16.024854,24.74,620,3.0676042044736944e-09,10.243482367320667,1.303039625797138,13.84427,240003459.77790204,239993459.4213392
2023-05-19 19:37:31.501888,24.74,620,3.0674444710962353e-09,9.896245676903163,1.2931301314406247,14.009536,240003459.34557754,239993459.15987885
2023-05-19 19:37:46.894934,24.86,620,3.0674544466635053e-09,10.764337402947604,1.2956472974573594,13.93682,240003460.39768615,239993460.2392268
2023-05-19 19:38:08.145398,24.74,600,3.0472594213668452e-09,10.937955748156128,1.3135422038082745,13.935075,240003462.30743974,239993462.18479955
2023-05-19 19:38:23.521269,24.7,600,3.0473772445682373e-09,10.764337402947604,1.3074005183248876,13.920612,240003462.7412749,239993462.6061023
2023-05-19 19:38:38.957799,24.74,600,3.047200043707802e-09,10.069864022112142,1.3155146690382973,13.983055,240003463.18870604,239993463.03207397
2023-05-19 19:38:54.368660,24.68,600,3.0471872401893336e-09,10.764337402947149,1.3107521705561278,13.957499,240003462.17381468,239993461.94956762
2023-05-19 19:39:09.692844,24.74,600,3.047188931496344e-09,10.59071905773817,1.3134092129260724,13.87186,240003463.23622328,239993463.15250504
2023-05-19 19:39:30.817841,24.68,580,3.0278052016103286e-09,10.937955748156128,1.2855532694741976,13.968256,240003463.14366078,239993463.14454037
2023-05-19 19:39:46.298029,24.8,580,3.0276736680588426e-09,10.069864022111688,1.293122035995716,14.028593,240003463.68955973,239993463.53247398
2023-05-19 19:40:01.718766,24.79,580,3.0278591388018676e-09,10.590719057738625,1.2818433749741822,13.963349,240003465.31132588,239993465.07857814
2023-05-19 19:40:17.323639,24.73,580,3.0278392200423347e-09,10.764337402947149,1.28717556004856,14.120395,240003464.86156008,239993464.71041885
2023-05-19 19:40:32.704652,24.71,580,3.0276499687319413e-09,10.937955748156128,1.2775352231811563,13.929441,240003464.49227148,239993464.36299515
2023-05-19 19:40:53.499622,24.7,560,3.0085970794813916e-09,10.937955748156128,1.3020499003517823,13.786086,240003462.7010363,239993462.57671547
2023-05-19 19:41:08.886556,24.68,560,3.008647681801785e-09,10.417100712529646,1.306730302363596,13.911568,240003463.80601814,239993463.55636793
2023-05-19 19:41:24.320152,24.73,560,3.008815415910433e-09,11.979665819409547,1.3085134462231691,13.966001,240003464.01737374,239993463.80395883
2023-05-19 19:41:39.701041,24.7,560,3.0087467121302643e-09,11.111574093365107,1.3141210154009566,13.894366,240003464.0458017,239993463.92425257
2023-05-19 19:41:55.174760,24.74,560,3.00865567577587e-09,10.764337402947604,1.3132226623995762,14.019395,240003465.05712238,239993464.83469492
2023-05-19 19:42:16.172354,24.74,540,2.9905185314124055e-09,10.590719057738625,1.3234016200008334,14.032123,240003462.3044184,239993462.08771318
2023-05-19 19:42:31.681097,24.6,540,2.990429024353682e-09,10.764337402947604,1.3212505115900186,14.052685,240003460.5420232,239993460.53666553
2023-05-19 19:42:47.084290,24.55,540,2.9903105121097773e-09,11.111574093365107,1.3253283694600921,13.954973,240003466.8664855,239993466.70391688
2023-05-19 19:43:02.327140,24.58,540,2.9902748729421986e-09,10.243482367321121,1.3240196688495918,13.792211,240003468.51036233,239993468.36125153
2023-05-19 19:43:17.656925,24.48,540,2.9900378295074878e-09,10.937955748156128,1.3162631291705607,13.876529,240003477.89213416,239993477.7401817
2023-05-19 19:43:38.172966,24.48,520,2.97185497896745e-09,11.285192438574086,1.249480516570122,13.714777,240003484.25958255,239993484.17699626
2023-05-19 19:43:53.486825,24.55,520,2.971993841173456e-09,10.069864022112142,1.2541528506159971,13.863383,240003480.99366444,239993480.7677119
2023-05-19 19:44:08.858933,24.48,520,2.9718571997586432e-09,11.979665819409092,1.2560302473302043,13.914018,240003481.01989508,239993480.9741063
2023-05-19 19:44:24.382802,24.57,520,2.971827227765071e-09,10.417100712529646,1.2516408409330813,14.037954,240003478.60214618,239993478.4857009
2023-05-19 19:44:40.073278,24.53,520,2.97192320600783e-09,11.111574093365107,1.258472211759257,14.231955,240003475.14712057,239993475.00981557
2023-05-19 19:45:00.773110,24.65,500,2.9539553073803562e-09,10.417100712529646,1.2737686094895024,14.01147,240003474.542855,239993474.2756941
2023-05-19 19:45:16.417950,24.58,500,2.9539934398309086e-09,10.417100712529646,1.2618215142768594,14.190439,240003471.9255612,239993471.82395366
2023-05-19 19:45:32.003888,24.78,500,2.95374003488581e-09,10.417100712529646,1.2744824507363401,14.132839,240003470.68338346,239993470.69132486
2023-05-19 19:45:47.400158,24.64,500,2.9537800311038676e-09,11.111574093364652,1.2606881378457353,13.944616,240003474.9617209,239993474.64728644
2023-05-19 19:46:02.822910,24.72,500,2.9538852683561513e-09,11.111574093365107,1.2682776707638896,13.953986,240003470.14998183,239993469.98233333
2023-05-19 19:46:23.139342,24.61,480,2.935641369494218e-09,9.722627331694639,1.2467397938181972,13.75721,240003468.60512215,239993468.54334003
2023-05-19 19:46:38.394723,24.53,480,2.935749366409816e-09,9.722627331694184,1.2475414727257548,13.804894,240003470.31958815,239993470.23157206
2023-05-19 19:46:53.780792,24.68,480,2.9358162549476985e-09,10.069864022112142,1.2445777964812272,13.93489,240003472.80861288,239993472.6200071
2023-05-19 19:47:09.091927,24.74,480,2.9356075926904684e-09,10.243482367320667,1.2381817632166139,13.859348,240003472.27054188,239993472.07676277
2023-05-19 19:47:24.626314,24.57,480,2.9355477675385434e-09,10.4171007125301,1.2468371024472735,14.077679,240003475.37234682,239993475.13203183
2023-05-19 19:47:45.034522,24.74,460,2.9186712431029426e-09,10.937955748156128,1.2260978273718046,14.034513,240003472.197206,239993472.0612454
2023-05-19 19:48:00.596397,24.8,460,2.9186483483089185e-09,10.417100712529646,1.2289132583995632,14.109878,240003469.8875383,239993469.6119769
2023-05-19 19:48:16.173006,24.96,460,2.9186088627976936e-09,12.32690250982705,1.2335921156927288,14.12188,240003469.50726303,239993469.32016844
2023-05-19 19:48:31.686587,24.8,460,2.9186024087770193e-09,9.896245676903163,1.222740833892058,14.059725,240003467.59805873,239993467.43433058
2023-05-19 19:48:47.224201,24.8,460,2.9187285507382176e-09,9.722627331694639,1.222340026772626,14.083246,240003465.83044487,239993465.57966474
2023-05-19 19:49:07.235293,24.84,440,2.9023893825830626e-09,10.590719057738625,1.2103640112266216,13.780948,240003467.76079842,239993467.64855233
2023-05-19 19:49:22.483497,24.76,440,2.902444809346542e-09,10.4171007125301,1.2271912554090512,13.793583,240003471.60461378,239993471.39207712
2023-05-19 19:49:37.913930,24.64,440,2.9024797080925896e-09,10.590719057738625,1.2234442346657475,13.977063,240003476.0896375,239993475.8896353
2023-05-19 19:49:53.381689,24.73,440,2.9022229676467867e-09,10.4171007125301,1.2238867353553724,14.012731,240003474.4008526,239993474.23916653
2023-05-19 19:50:08.731800,24.82,440,2.90239691263214e-09,10.764337402947604,1.2116248264865783,13.8975,240003476.71367902,239993476.62059838
2023-05-19 19:50:29.025287,24.74,420,2.886543099045991e-09,10.417100712529646,1.2431055787516274,14.136966,240003474.5166244,239993474.33089736
2023-05-19 19:50:44.507129,24.67,420,2.88662092755415e-09,10.764337402947604,1.2438502425594087,14.024214,240003474.30636746,239993474.21801898
2023-05-19 19:50:59.802822,24.74,420,2.8865774506069986e-09,11.632429128991134,1.2374062921231108,13.842855,240003479.16754648,239993478.97236878
2023-05-19 19:51:15.285343,24.73,420,2.886590447511416e-09,11.285192438574086,1.2419612294325508,14.032124,240003480.04853818,239993479.8679805
2023-05-19 19:51:30.675111,24.75,420,2.8864968783522385e-09,10.590719057738625,1.2335709707174343,13.929336,240003482.2361169,239993482.08860877
2023-05-19 19:51:50.563010,24.66,400,2.869788358628311e-09,11.979665819409092,1.222089392153288,13.967246,240003483.48131588,239993483.3238169
2023-05-19 19:52:05.966112,24.74,400,2.8696255766031054e-09,11.632429128991589,1.2177055201127458,13.911957,240003483.8240993,239993483.7153209
2023-05-19 19:52:21.325910,24.84,400,2.8695481912605677e-09,10.764337402947149,1.2178155004874267,13.908433,240003482.3928139,239993482.31779855
2023-05-19 19:52:36.863982,24.74,400,2.8696499401661517e-09,11.111574093365107,1.2224297301602194,14.082707,240003480.09358343,239993479.8710016
2023-05-19 19:52:52.194261,24.75,400,2.869615032475654e-09,10.243482367320667,1.2218194195437144,13.85115,240003479.3265782,239993479.2485226
2023-05-19 19:53:11.882676,24.67,380,2.851928285001938e-09,10.417100712529646,1.1579501787765547,13.760955,240003479.8671212,239993479.69303274
2023-05-19 19:53:27.227989,24.68,380,2.8520909126108388e-09,10.937955748156128,1.1653213730043896,13.898633,240003481.5879047,239993481.53575182
2023-05-19 19:53:42.539394,24.58,380,2.8521536337675696e-09,10.937955748156128,1.1542910145925445,13.826234,240003481.56194875,239993481.48755193
2023-05-19 19:53:57.882896,24.72,380,2.8521493269097637e-09,10.59071905773817,1.1648065123598128,13.883684,240003483.50864524,239993483.31969726
2023-05-19 19:54:13.416690,24.67,380,2.8520538491159618e-09,11.806047474200568,1.1727789361542007,14.082383,240003483.20005774,239993483.06702542
2023-05-19 19:54:33.433302,24.71,360,2.832699778063826e-09,10.59071905773817,1.1857068674604365,13.82833,240003480.8522114,239993480.63602045
2023-05-19 19:54:48.838159,24.73,360,2.8325740090135463e-09,10.937955748156128,1.1958905338605283,13.954443,240003482.1093584,239993482.09259108
2023-05-19 19:55:04.251905,24.67,360,2.8326792417827604e-09,10.590719057738625,1.190356162508088,13.962581,240003482.97345814,239993482.79924822
2023-05-19 19:55:19.539094,24.61,360,2.8325311763415417e-09,10.069864022111688,1.1885228526670475,13.833772,240003481.8341429,239993481.6325636
2023-05-19 19:55:34.912973,24.7,360,2.832805730218402e-09,10.243482367320667,1.1817139367905043,13.922541,240003480.59471184,239993480.41355938
2023-05-19 19:55:54.970039,24.73,340,2.811589417665027e-09,10.069864022111688,1.1733891965567156,13.833702,240003476.73826164,239993476.5522122
2023-05-19 19:56:10.266411,24.8,340,2.8114648525974936e-09,11.111574093365107,1.169364003685443,13.842751,240003472.8319595,239993472.66889364
2023-05-19 19:56:25.507453,24.83,340,2.8113840499870884e-09,11.111574093365107,1.1656314376602168,13.789488,240003474.0719399,239993473.901218
2023-05-19 19:56:40.987687,24.67,340,2.811299753540166e-09,10.59071905773817,1.1690250847115184,14.008832,240003478.29300943,239993478.08609492
2023-05-19 19:56:56.477352,24.81,340,2.8112070024208174e-09,9.722627331694639,1.1621293069762764,14.032406,240003475.40942675,239993475.31563085
2023-05-19 19:57:16.844067,24.82,320,2.789233641804581e-09,10.764337402947604,1.157208001775949,14.007729,240003475.41368407,239993475.31590548
2023-05-19 19:57:32.322428,24.86,320,2.7891013338522196e-09,9.722627331694639,1.1656407418856398,14.028121,240003478.2434322,239993478.10422137
2023-05-19 19:57:47.665683,24.96,320,2.789087468289422e-09,10.937955748156128,1.1635665681056406,13.895327,240003477.58519474,239993477.4265391
2023-05-19 19:58:02.889980,24.9,320,2.7892052647965777e-09,11.111574093365107,1.156427823447737,13.771565,240003478.52963433,239993478.52593613
2023-05-19 19:58:18.235073,24.99,320,2.7889656919600303e-09,9.54900898648566,1.1503541724283526,13.892357,240003475.61872235,239993475.48810682
2023-05-19 19:58:38.663899,24.8,300,2.768126717697652e-09,10.590719057738625,1.141694040689472,13.910603,240003473.37346384,239993473.29823866
2023-05-19 19:58:54.115474,24.78,300,2.768226705575934e-09,10.069864022112142,1.1428130308050368,13.995122,240003477.5909627,239993477.4927281
2023-05-19 19:59:09.368964,24.8,300,2.7685534174685108e-09,10.243482367320667,1.1319427796129824,13.800579,240003478.6595514,239993478.5853964
2023-05-19 19:59:24.719168,24.7,300,2.768429386936236e-09,10.069864022112142,1.1266098033833722,13.899174,240003478.50958368,239993478.41374436
2023-05-19 19:59:40.154647,24.67,300,2.7682264267850927e-09,9.54900898648566,1.1344602275188929,13.95168,240003478.5734436,239993478.5193447
2023-05-19 20:00:00.607918,24.64,280,2.7485359318395425e-09,10.069864022112142,1.1356384554566943,13.805306,240003477.85546625,239993477.71683705
2023-05-19 20:00:16.114500,24.61,280,2.7488977118966472e-09,10.764337402947604,1.1638609777872568,14.053729,240003476.22271323,239993476.0312139
2023-05-19 20:00:31.560417,24.64,280,2.7489380277574757e-09,10.4171007125301,1.1445506635681475,13.969979,240003473.36398783,239993473.14663556
2023-05-19 20:00:46.996340,24.65,280,2.7489851124108017e-09,10.243482367321121,1.1463364846051967,13.9712,240003475.52327585,239993475.38223183
2023-05-19 20:01:02.368784,24.67,280,2.7490297772027484e-09,10.417100712529646,1.1425322328654013,13.886776,240003479.59451503,239993479.4242943
2023-05-19 20:01:22.936895,24.7,260,2.73052996376458e-09,9.896245676903163,1.1263895999660494,13.788863,240003480.41439354,239993480.20277068
2023-05-19 20:01:38.321637,24.68,260,2.730324373615864e-09,9.896245676903163,1.122556851666958,13.910207,240003481.00286576,239993480.8697419
2023-05-19 20:01:53.669233,24.68,260,2.7303414967712473e-09,9.722627331694184,1.1142272084801486,13.884073,240003478.1011551,239993478.0740106
2023-05-19 20:02:09.029004,24.64,260,2.7305205094292146e-09,9.54900898648566,1.1304805182799145,13.908856,240003477.3550245,239993477.19158176
2023-05-19 20:02:24.311102,24.78,260,2.7305892140557246e-09,10.59071905773817,1.128879058940729,13.834282,240003477.61018935,239993477.44082054
2023-05-19 20:02:45.124110,24.7,240,2.71218526117534e-09,10.069864022112142,1.1467337351377325,13.90478,240003473.91332015,239993473.7071825
2023-05-19 20:03:00.521217,24.74,240,2.7120264193286424e-09,11.111574093364652,1.1432752176093486,13.913911,240003474.63404417,239993474.37360442
2023-05-19 20:03:15.887052,24.77,240,2.711975186122701e-09,9.722627331694184,1.1408252248935988,13.912954,240003473.51326892,239993473.38488862
2023-05-19 20:03:31.193310,24.79,240,2.7119894116042336e-09,11.285192438573631,1.1454287483479069,13.854481,240003469.9058036,239993469.82194164
2023-05-19 20:03:46.587889,24.8,240,2.712158910290697e-09,11.285192438574086,1.14296944376987,13.940757,240003467.99975795,239993467.76664892
2023-05-19 20:04:07.486240,24.9,220,2.6937505367400614e-09,10.590719057738625,1.1459286540280191,13.854203,240003465.9963432,239993465.8926207
2023-05-19 20:04:22.922805,24.8,220,2.693835455810517e-09,10.590719057738625,1.1440579803181643,13.984515,240003466.88406414,239993466.60229886
2023-05-19 20:04:38.380722,24.76,220,2.693719943144556e-09,9.375390641276681,1.1340373845952618,14.003573,240003463.6690971,239993463.5371429
2023-05-19 20:04:53.728894,24.65,220,2.69384846260869e-09,10.243482367320667,1.1402975163552704,13.894642,240003465.20118475,239993465.04575825
2023-05-19 20:05:09.076868,24.7,220,2.6938668563615716e-09,9.896245676903163,1.1339868473757324,13.889341,240003465.61208528,239993465.40773806
2023-05-19 20:05:30.074998,24.87,200,2.6752908154872505e-09,10.764337402947604,1.1193178488622997,13.802672,240003464.34930775,239993464.15454093
2023-05-19 20:05:45.402697,24.7,200,2.67512324461594e-09,10.937955748156128,1.1334672187460686,13.876671,240003460.77645075,239993460.55328134
2023-05-19 20:06:00.841354,24.77,200,2.6751344853679912e-09,10.937955748156128,1.1200232790977447,13.987093,240003459.45462,239993459.42642012
2023-05-19 20:06:16.154103,24.72,200,2.6752177197164106e-09,10.59071905773817,1.1294935789517053,13.857855,240003460.11340672,239993459.97543198
2023-05-19 20:06:31.509243,24.83,200,2.6751548308178686e-09,10.764337402947604,1.1286095742777507,13.877787,240003459.13078862,239993459.02901137
2023-05-19 20:06:52.871447,24.84,180,2.6564394030603865e-09,10.937955748156128,1.1192836413319205,14.063233,240003456.71015605,239993456.66831553
2023-05-19 20:07:08.421278,24.81,180,2.6565237960883127e-09,9.896245676903163,1.1224100186518966,14.082258,240003456.71784675,239993456.58290148
2023-05-19 20:07:23.748309,24.7,180,2.6567137230751403e-09,10.069864022111688,1.1266132126357813,13.876208,240003455.87242442,239993455.73686305
2023-05-19 20:07:39.074189,24.74,180,2.6564726932508436e-09,10.417100712529646,1.120373873385502,13.863545,240003456.46254456,239993456.25168177
2023-05-19 20:07:54.467562,24.81,180,2.656376998822327e-09,10.590719057738625,1.1236352253236686,13.943341,240003454.1363973,239993453.93973517
2023-05-19 20:08:15.666882,24.71,160,2.638250846738705e-09,10.069864022111688,1.1246681711323878,13.787772,240003454.07803077,239993454.0365469
2023-05-19 20:08:31.109001,24.66,160,2.6383039254517377e-09,9.54900898648566,1.1298799538003839,13.987851,240003454.09245074,239993453.94220695
2023-05-19 20:08:46.640943,24.68,160,2.6382749398128826e-09,10.243482367320667,1.128778401882581,14.073832,240003453.8750525,239993453.70271808
2023-05-19 20:09:02.368564,24.8,160,2.6382076665264286e-09,10.59071905773817,1.143450743555183,14.255838,240003456.56746703,239993456.4381645
2023-05-19 20:09:17.996150,24.68,160,2.6381659973975464e-09,10.937955748156128,1.1303710227490704,14.169555,240003454.53576183,239993454.4058047
2023-05-19 20:09:39.609692,24.61,140,2.620283893592898e-09,11.45881078378261,1.1163620428465542,14.104306,240003455.89041504,239993455.73617643
2023-05-19 20:09:55.079311,24.72,140,2.6202770487835696e-09,11.979665819409092,1.1211234393536664,13.975107,240003454.3761808,239993454.2844124
2023-05-19 20:10:10.425445,24.65,140,2.620385154540565e-09,10.590719057738625,1.113644198578915,13.894386,240003456.8557291,239993456.68918842
2023-05-19 20:10:25.752814,24.72,140,2.6201546104944666e-09,10.069864022111688,1.1127979388031726,13.868506,240003461.0362849,239993460.9225392
2023-05-19 20:10:41.276452,24.55,140,2.6201683908173216e-09,10.069864022112142,1.1168095524259234,14.065003,240003459.4018841,239993459.28841195
2023-05-19 20:11:02.839903,24.55,120,2.6015002981727856e-09,9.896245676903163,1.1185991016579582,13.914992,240003462.45617145,239993462.31896278
2023-05-19 20:11:18.259551,24.55,120,2.6013050060884973e-09,10.069864022112142,1.121942419374665,13.960607,240003461.79683542,239993461.75251108
2023-05-19 20:11:33.655196,24.59,120,2.6014056654351285e-09,9.722627331694184,1.1235518481730933,13.945065,240003460.60066444,239993460.39975578
2023-05-19 20:11:49.237920,24.55,120,2.6013767474378856e-09,10.417100712529646,1.124272460937084,14.106936,240003461.4782227,239993461.34260604
2023-05-19 20:12:04.688103,24.49,120,2.6014055810102536e-09,9.549008986485205,1.1288813179970751,13.994774,240003461.78626078,239993461.6313934
2023-05-19 20:12:26.391448,24.64,100,2.5820796772502784e-09,10.069864022111688,1.091456054058284,13.898432,240003464.7964642,239993464.58765334
2023-05-19 20:12:41.954076,24.68,100,2.5821546415933685e-09,10.764337402947149,1.0893881546497213,14.098022,240003465.40594837,239993465.24405068
2023-05-19 20:12:57.404022,24.68,100,2.581906710169011e-09,11.45881078378261,1.082848332055379,13.993668,240003466.2123681,239993466.14254606
2023-05-19 20:13:12.868156,24.74,100,2.582032694392745e-09,10.069864022112142,1.0948221472911448,14.010781,240003464.16418278,239993464.07654223
2023-05-19 20:13:28.280439,24.67,100,2.5820239940370917e-09,9.54900898648566,1.086669276801516,13.957467,240003463.75026092,239993463.65496486
2023-05-19 20:13:50.155712,24.68,80,2.5623476955805113e-09,10.243482367320667,1.121945871212581,13.911788,240003465.19788876,239993465.15314376
2023-05-19 20:14:05.496205,24.73,80,2.562454301272982e-09,10.764337402947149,1.1298041595632935,13.889175,240003464.65913114,239993464.44003257
2023-05-19 20:14:20.933009,24.61,80,2.562454026369156e-09,11.806047474200568,1.1399741477154004,13.980689,240003465.5121068,239993465.4195477
2023-05-19 20:14:36.447046,24.61,80,2.562384525488813e-09,10.417100712529646,1.1270250690412367,14.025654,240003463.50004008,239993463.3218226
2023-05-19 20:14:51.906900,24.81,80,2.562395629434335e-09,10.764337402947149,1.1411784035478956,14.003847,240003463.04464364,239993463.00447232
2023-05-19 20:15:13.954307,24.68,60,2.5417388508619677e-09,10.417100712529646,1.1070977848162766,13.987998,240003462.37184897,239993462.18370098
2023-05-19 20:15:29.396443,24.6,60,2.5422231639111924e-09,10.417100712529646,1.1008824084948179,13.989201,240003460.54586855,239993460.41815686
2023-05-19 20:15:44.869383,24.48,60,2.5418468121713635e-09,10.069864022112142,1.0970558774712271,14.0162,240003461.87744993,239993461.80826366
2023-05-19 20:16:00.253967,24.52,60,2.542053947946223e-09,10.243482367321121,1.1088122452962115,13.930075,240003460.85280794,239993460.66327596
2023-05-19 20:16:15.553455,24.46,60,2.5420475128108675e-09,10.937955748156128,1.1087857886904462,13.813377,240003461.7585195,239993461.68000528
2023-05-19 20:16:37.574032,24.52,40,2.52180275379389e-09,10.937955748156128,1.0757854037527006,13.819781,240003464.1924734,239993464.04097593
2023-05-19 20:16:53.089116,24.67,40,2.5218016611926514e-09,10.243482367321121,1.0697490357715613,14.056152,240003462.9095079,239993462.81153545
2023-05-19 20:17:08.624373,24.71,40,2.521788640183772e-09,9.54900898648566,1.077592133699875,14.081318,240003460.83783862,239993460.479265
2023-05-19 20:17:24.046949,24.71,40,2.52162075607483e-09,9.54900898648566,1.0760638685955164,13.965561,240003460.31075433,239993460.2054457
2023-05-19 20:17:39.329827,24.68,40,2.521774726576641e-09,10.069864022112142,1.0705722955064996,13.833144,240003459.77515537,239993459.62855753
2023-05-19 20:18:01.461385,24.81,20,2.5012796796885637e-09,9.375390641276681,1.0860613464247513,13.850221,240003457.96126026,239993457.91656896
2023-05-19 20:18:16.843736,24.74,20,2.501214800123116e-09,10.937955748156128,1.0906705777719687,13.927631,240003456.9169797,239993456.83420002
2023-05-19 20:18:32.274891,24.79,20,2.501431904229162e-09,10.069864022112142,1.086187202171591,13.963809,240003455.35234413,239993455.2827405
2023-05-19 20:18:47.733819,24.74,20,2.501434096049484e-09,10.4171007125301,1.0826321312887275,13.972579,240003454.81056523,239993454.53639755
2023-05-19 20:19:03.173371,24.73,20,2.501658217536838e-09,10.4171007125301,1.0823986993712258,13.943464,240003452.55624324,239993452.4344157
2023-05-19 20:19:25.535067,24.65,0,2.481433183869525e-09,10.069864022111688,1.02453761868863,13.923834,240003453.52911055,239993453.3190415
2023-05-19 20:19:40.892383,24.67,0,2.4813216936741094e-09,9.201772296068157,1.036746132163328,13.900037,240003452.89394522,239993452.8283914
2023-05-19 20:19:56.294866,24.64,0,2.4813397907917886e-09,9.375390641276681,1.0385818644348552,13.945833,240003451.48463348,239993451.4691821
2023-05-19 20:20:11.723889,24.67,0,2.48154223601271e-09,9.54900898648566,1.031694442609619,13.977361,240003450.37978908,239993450.2076085
2023-05-19 20:20:27.181436,24.72,0,2.4815478440529706e-09,9.201772296068157,1.0283092901635238,14.00903,240003450.75896564,239993450.59677795
