Time,ambient T,step,ddmtd,range,stdDev,timeTook
2023-05-18 20:03:13.392226,24.93,0,2.54865362098223e-09,15.625651068794468,1.409313078028318,4.684218
2023-05-18 20:03:20.365225,24.93,0,2.5488403388315436e-09,14.931177687959462,1.4161121423726906,4.679501
2023-05-18 20:03:27.326306,24.94,0,2.5487454564058745e-09,15.27841437837651,1.418355317316296,4.677459
2023-05-18 20:03:34.322021,24.93,0,2.5488041776026095e-09,15.45203272358549,1.4152830831038419,4.70782
2023-05-18 20:03:41.274574,24.93,0,2.548843854603076e-09,14.757559342750028,1.4145889394096105,4.666841
2023-05-18 20:03:58.441978,24.93,20,2.568303349444812e-09,11.979665819409092,1.6787157357018672,4.714173
2023-05-18 20:04:05.369982,24.96,20,2.568249638873554e-09,13.54223092628854,1.683638943021759,4.643643
2023-05-18 20:04:12.334377,24.96,20,2.568359212883571e-09,12.674139200244554,1.677216069763914,4.675203
2023-05-18 20:04:19.308438,25.01,20,2.568191853479754e-09,12.500520855035575,1.66964107260918,4.693457
2023-05-18 20:04:26.267936,25.0,20,2.568366558675792e-09,12.326902509826596,1.6898809911289,4.67522
2023-05-18 20:04:43.339068,24.98,40,2.588576669861528e-09,14.757559342750028,1.547156866572374,4.727365
2023-05-18 20:04:50.352168,25.0,40,2.5885687059878706e-09,14.757559342750028,1.5518740514105644,4.724148
2023-05-18 20:04:57.240610,25.06,40,2.588578683834325e-09,14.410322652332525,1.5593074279086543,4.604236
2023-05-18 20:05:04.198026,25.03,40,2.5885494742839494e-09,14.063085961915021,1.5469460346785575,4.672292
2023-05-18 20:05:11.142880,24.99,40,2.5885637266138033e-09,13.36861258107956,1.5521981636921218,4.665251
2023-05-18 20:05:27.964884,25.0,60,2.6085198150615527e-09,15.625651068794923,1.6491385765975133,4.673216
2023-05-18 20:05:34.958132,25.0,60,2.608404188716087e-09,14.063085961915021,1.6482945249648189,4.709991
2023-05-18 20:05:41.953213,24.96,60,2.6085720394599356e-09,14.757559342750483,1.6410086663484007,4.71163
2023-05-18 20:05:48.915126,24.96,60,2.6086031692293143e-09,14.41032265233298,1.6587971915637343,4.656398
2023-05-18 20:05:55.853354,24.99,60,2.608626585135491e-09,15.972887759211972,1.6527506213020033,4.651938
2023-05-18 20:06:12.611203,24.98,80,2.6285813645012864e-09,14.931177687959462,1.6659636580535802,4.68141
2023-05-18 20:06:19.643319,25.0,80,2.628541871536276e-09,15.452032723585944,1.6673614204692244,4.743489
2023-05-18 20:06:26.651804,25.0,80,2.6287211880358296e-09,15.104796033167986,1.6720976111266443,4.723531
2023-05-18 20:06:33.620837,25.02,80,2.628854657138712e-09,14.063085961915021,1.660565083466752,4.680849
2023-05-18 20:06:40.554395,25.03,80,2.6287321416172104e-09,14.236704307124,1.6621238254152961,4.644471
2023-05-18 20:06:57.081225,24.98,100,2.6481686094550577e-09,14.757559342750483,1.6263956015241465,4.645611
2023-05-18 20:07:03.999133,24.98,100,2.648208562508673e-09,15.10479603316844,1.6329955084352341,4.635311
2023-05-18 20:07:10.962179,24.96,100,2.6482458991336794e-09,15.972887759212426,1.646030126968287,4.681882
2023-05-18 20:07:17.948981,24.98,100,2.648482790948728e-09,15.278414378376965,1.634697639707268,4.705211
2023-05-18 20:07:24.939535,24.97,100,2.648293489658321e-09,15.10479603316844,1.6377363480522296,4.703865
2023-05-18 20:07:41.419022,24.98,120,2.6674216825007596e-09,14.063085961915021,1.6030797042106402,4.691323
2023-05-18 20:07:48.309033,25.0,120,2.6674313183188735e-09,14.583940997541504,1.6120234306029717,4.606099
2023-05-18 20:07:55.259717,25.06,120,2.6674563992250553e-09,14.931177687959462,1.6086472584759637,4.669061
2023-05-18 20:08:02.261365,25.03,120,2.6673705848855766e-09,14.410322652332525,1.595067905351005,4.714158
2023-05-18 20:08:09.275219,25.0,120,2.6674262295651393e-09,14.757559342750028,1.60438340756364,4.72556
2023-05-18 20:08:25.655759,25.0,140,2.6857813849870754e-09,15.278414378376965,1.5995032283732005,4.670836
2023-05-18 20:08:32.629951,25.0,140,2.685644690055452e-09,14.41032265233298,1.5979011665891243,4.685649
2023-05-18 20:08:39.511578,25.0,140,2.685720851214773e-09,14.236704307124,1.591801388389274,4.596016
2023-05-18 20:08:46.450872,25.01,140,2.68572486006249e-09,14.931177687959462,1.5915179844571943,4.646725
2023-05-18 20:08:53.390273,25.02,140,2.685698806893556e-09,14.583940997541504,1.5882243236607354,4.657459
2023-05-18 20:09:09.587950,25.03,160,2.70337649658939e-09,14.757559342750483,1.6100938302481513,4.659013
2023-05-18 20:09:16.518353,25.09,160,2.703367951094448e-09,15.104796033167986,1.6007200415651692,4.644517
2023-05-18 20:09:23.515353,25.1,160,2.703323015194264e-09,13.889467616706497,1.607335435790831,4.715981
2023-05-18 20:09:30.429769,25.09,160,2.70329146179611e-09,14.236704307123546,1.602759929381629,4.631962
2023-05-18 20:09:37.424935,25.0,160,2.703415260357276e-09,13.54223092628854,1.5961781055190913,4.712564
2023-05-18 20:09:53.459023,25.11,180,2.720886531730678e-09,14.410322652332525,1.647081521059648,4.623452
2023-05-18 20:10:00.439256,25.06,180,2.720960432379551e-09,14.063085961915021,1.6266531279988217,4.694027
2023-05-18 20:10:07.434267,25.07,180,2.7210643759465923e-09,14.236704307124,1.6347163560349436,4.700848
2023-05-18 20:10:14.348660,25.03,180,2.720998928775266e-09,15.104796033167986,1.6328965502353545,4.621186
2023-05-18 20:10:21.329821,25.03,180,2.7209057599624497e-09,14.757559342750483,1.6299051383822938,4.693701
2023-05-18 20:10:37.245597,25.03,200,2.739756831882388e-09,15.104796033167986,1.6794942754074849,4.627123
2023-05-18 20:10:44.193704,25.03,200,2.739558830576882e-09,15.452032723585944,1.6787040544456358,4.662831
2023-05-18 20:10:51.181606,25.02,200,2.739713606123075e-09,14.063085961915021,1.6800427211452647,4.70145
2023-05-18 20:10:58.134825,25.03,200,2.7396889783606613e-09,16.493742794838454,1.6916854954259704,4.658988
2023-05-18 20:11:05.201228,25.03,200,2.739918829951574e-09,14.410322652332525,1.7011451241179913,4.781666
2023-05-18 20:11:20.972043,24.98,220,2.7583688313400452e-09,14.757559342750483,1.6658737473765846,4.615238
2023-05-18 20:11:27.918052,24.94,220,2.758491874661354e-09,14.583940997541958,1.662243066335428,4.661613
2023-05-18 20:11:34.858070,24.87,220,2.75850452796629e-09,14.236704307124,1.6725166784601941,4.657358
2023-05-18 20:11:41.883485,24.93,220,2.7583587857825946e-09,14.063085961915021,1.6836810632132155,4.723654
2023-05-18 20:11:48.855773,24.9,220,2.7585107070430955e-09,14.063085961915476,1.6649180604625922,4.688034
2023-05-18 20:12:04.555687,24.84,240,2.7767397408907682e-09,15.104796033167986,1.5091499637512866,4.670176
2023-05-18 20:12:11.476058,24.93,240,2.776828423405254e-09,15.278414378376965,1.5041726825454018,4.633745
2023-05-18 20:12:18.432292,24.92,240,2.776615046459187e-09,15.104796033167986,1.5031793445442858,4.675971
2023-05-18 20:12:25.447058,24.93,240,2.7765628081715996e-09,15.799269414002993,1.5208706827546905,4.715897
2023-05-18 20:12:32.420868,24.84,240,2.776611728612769e-09,15.625651068794468,1.501342783014366,4.687059
2023-05-18 20:12:47.873627,24.84,260,2.794948608968691e-09,15.625651068794468,1.5009494737159716,4.601598
2023-05-18 20:12:54.775054,24.81,260,2.7948047001946366e-09,14.583940997541504,1.4950090796761717,4.605329
2023-05-18 20:13:01.724515,24.87,260,2.7950122366200167e-09,15.799269414003447,1.5052241486406206,4.666744
2023-05-18 20:13:08.708447,24.9,260,2.795015703778306e-09,14.931177687959462,1.5054866665154587,4.696694
2023-05-18 20:13:15.688980,24.87,260,2.7951344656712285e-09,14.41032265233298,1.5195238690041946,4.695028
2023-05-18 20:13:31.059234,24.9,280,2.813482561773779e-09,13.021375890662057,1.667337126632634,4.600213
2023-05-18 20:13:38.068215,24.96,280,2.813357961095945e-09,13.194994235871036,1.661329109908163,4.724869
2023-05-18 20:13:45.048672,24.93,280,2.8133883113188494e-09,14.063085961915021,1.6597760067970684,4.674507
2023-05-18 20:13:52.017855,24.9,280,2.813237905746376e-09,13.889467616706042,1.6568734591238545,4.684672
2023-05-18 20:13:58.971018,24.99,280,2.8134050116674435e-09,13.194994235871036,1.6621353797098766,4.666779
2023-05-18 20:14:14.285788,25.03,300,2.8321278525495278e-09,13.021375890662057,1.6993616055856726,4.676532
2023-05-18 20:14:21.324790,25.22,300,2.832273070405875e-09,12.847757545453078,1.6914241045303324,4.734265
2023-05-18 20:14:28.314518,25.17,300,2.8322370046670134e-09,13.889467616706042,1.7008323419668818,4.700109
2023-05-18 20:14:35.332824,25.07,300,2.832188915857717e-09,16.32012444962993,1.696804294543901,4.729178
2023-05-18 20:14:42.300938,25.0,300,2.8322704973820022e-09,12.500520855035575,1.6930723010512265,4.68464
2023-05-18 20:14:57.418260,25.26,320,2.852522419335314e-09,14.931177687959007,1.4394339483729022,4.640125
2023-05-18 20:15:04.314044,25.18,320,2.8527127432378157e-09,14.931177687959462,1.4636630975511349,4.610168
2023-05-18 20:15:11.343286,25.18,320,2.8527969654970846e-09,15.452032723585944,1.462535129851404,4.746169
2023-05-18 20:15:18.324344,25.24,320,2.852584519145083e-09,14.236704307123546,1.44145882655054,4.692199
2023-05-18 20:15:25.256002,25.24,320,2.852697725250835e-09,15.972887759211972,1.4702499689479211,4.646994
2023-05-18 20:15:40.406373,25.15,340,2.874872767268155e-09,14.063085961915021,1.6547345172853751,4.750447
2023-05-18 20:15:47.386872,25.13,340,2.8750731818687865e-09,14.063085961915021,1.6504140787492252,4.695109
2023-05-18 20:15:54.463801,25.06,340,2.8749300075003867e-09,14.063085961915021,1.646915699546059,4.792566
2023-05-18 20:16:01.444256,25.02,340,2.8750193792797503e-09,14.757559342750028,1.6491273465206813,4.695884
2023-05-18 20:16:08.405825,25.01,340,2.8751679392892513e-09,14.063085961915021,1.6452673714960535,4.676721
2023-05-18 20:16:23.337959,24.95,360,2.8969319086210976e-09,14.757559342750483,1.64300399476537,4.66233
2023-05-18 20:16:30.331049,24.93,360,2.8967868261872425e-09,17.709071211300397,1.6467367899106173,4.710335
2023-05-18 20:16:37.335753,24.99,360,2.896856910704571e-09,14.236704307124,1.6584500918752763,4.719395
2023-05-18 20:16:44.276370,25.02,360,2.896868218467418e-09,14.757559342750483,1.647028752730156,4.653215
2023-05-18 20:16:51.213740,25.03,360,2.89685000763929e-09,14.583940997541504,1.6381053591524029,4.652785
2023-05-18 20:17:05.979198,25.02,380,2.9169964911736932e-09,14.236704307124,1.6896204547987828,4.672786
2023-05-18 20:17:12.972510,25.03,380,2.9170029445676215e-09,14.583940997541504,1.6969955067735172,4.708196
2023-05-18 20:17:19.976936,25.12,380,2.9169557047521143e-09,14.236704307123546,1.6992527623505802,4.715877
2023-05-18 20:17:26.951088,25.16,380,2.916904838049257e-09,14.410322652332525,1.7020110413557825,4.686539
2023-05-18 20:17:33.895284,25.12,380,2.916800514257999e-09,13.889467616706042,1.7023540398999604,4.657954
2023-05-18 20:17:48.638454,25.16,400,2.934804031765547e-09,14.931177687959007,1.6756332024607674,4.752661
2023-05-18 20:17:55.541557,25.12,400,2.9348208727450216e-09,14.757559342750483,1.6752616642075615,4.616847
2023-05-18 20:18:02.493971,25.05,400,2.93473515563187e-09,14.236704307124,1.6937349503923007,4.662221
2023-05-18 20:18:09.428399,25.12,400,2.9349143644877453e-09,14.931177687959007,1.6878172524091433,4.640561
2023-05-18 20:18:16.371334,25.15,400,2.934711961957081e-09,13.715849271497518,1.6964799192074598,4.656311
2023-05-18 20:18:31.044089,25.15,420,2.951539574564616e-09,13.194994235871036,1.6931273597496082,4.668066
2023-05-18 20:18:37.956735,25.12,420,2.9515609105231585e-09,13.194994235871036,1.6796432803862782,4.626404
2023-05-18 20:18:44.899646,25.15,420,2.9516962060909813e-09,13.889467616706497,1.6851227923282932,4.641922
2023-05-18 20:18:51.779894,25.21,420,2.9514290144025364e-09,14.063085961915021,1.7002718554635379,4.582972
2023-05-18 20:18:58.752198,25.19,420,2.9516355004366146e-09,15.972887759212426,1.6893795190986918,4.672654
2023-05-18 20:19:13.568544,25.12,440,2.9672839093988787e-09,13.54223092628854,1.6752330160435647,4.656208
2023-05-18 20:19:20.537763,25.12,440,2.9672157398918656e-09,14.063085961915021,1.6812592269711237,4.686086
2023-05-18 20:19:27.521299,25.22,440,2.9674537237661336e-09,13.715849271497518,1.6873716480352494,4.678183
2023-05-18 20:19:34.458391,25.22,440,2.96760994555305e-09,16.32012444962993,1.6859874982046634,4.653984
2023-05-18 20:19:41.461218,25.18,440,2.967757689556085e-09,15.278414378376965,1.6814367073501535,4.722183
2023-05-18 20:19:56.418469,25.15,460,2.98344178229673e-09,14.757559342750483,1.6519549584263964,4.668731
2023-05-18 20:20:03.363292,25.18,460,2.9832710581693173e-09,16.14650610442095,1.6536350227945322,4.657775
2023-05-18 20:20:10.346653,25.18,460,2.9835152315376002e-09,15.278414378376965,1.6487611426553808,4.699082
2023-05-18 20:20:17.272465,25.18,460,2.9833099139549266e-09,14.41032265233298,1.6423042914819403,4.635483
2023-05-18 20:20:24.283392,25.14,460,2.9833260778227673e-09,14.583940997541504,1.6522825640823893,4.717143
2023-05-18 20:20:39.346728,25.03,480,3.000070308485204e-09,14.41032265233298,1.654256308131935,4.713003
2023-05-18 20:20:46.307380,25.07,480,2.9999716984736996e-09,14.410322652332525,1.6326664085695797,4.675492
2023-05-18 20:20:53.243030,25.06,480,2.9998094156702055e-09,14.931177687959462,1.635357645562989,4.644687
2023-05-18 20:21:00.242475,25.15,480,2.999954860966627e-09,15.452032723585944,1.6501909332913909,4.707815
2023-05-18 20:21:07.263190,25.06,480,2.999932873939364e-09,14.063085961915476,1.6342491672921398,4.732158
2023-05-18 20:21:22.488230,25.08,500,3.017403133116887e-09,17.188216175673915,1.6457220499945426,4.673597
2023-05-18 20:21:29.452202,25.15,500,3.0174632189537757e-09,14.236704307123546,1.6415413407776236,4.661624
2023-05-18 20:21:36.338799,25.21,500,3.0175149086075357e-09,15.45203272358549,1.6537228956617465,4.599988
2023-05-18 20:21:43.304507,25.25,500,3.0175586552220454e-09,14.410322652332525,1.6578833310028938,4.674617
2023-05-18 20:21:50.265257,25.25,500,3.017654379696502e-09,13.36861258107956,1.6544772744716647,4.660073
2023-05-18 20:22:05.520258,25.31,520,3.035514778393461e-09,15.625651068794923,1.6818780982317183,4.656441
2023-05-18 20:22:12.429728,25.31,520,3.035668178882292e-09,13.715849271497518,1.6830503076530396,4.625332
2023-05-18 20:22:19.395324,25.23,520,3.035647452324325e-09,15.452032723585944,1.6837303198482243,4.683956
2023-05-18 20:22:26.369509,25.21,520,3.035570876216966e-09,14.757559342750483,1.6993761568351486,4.692151
2023-05-18 20:22:33.352526,25.15,520,3.0355756385681615e-09,13.021375890662512,1.686719893298165,4.694997
2023-05-18 20:22:48.773930,25.18,540,3.0534457529475596e-09,13.194994235870581,1.663484920209766,4.643928
2023-05-18 20:22:55.759521,25.15,540,3.0535909204545543e-09,13.889467616706042,1.6513850893148088,4.700771
2023-05-18 20:23:02.662641,25.12,540,3.0534343861544503e-09,13.715849271497063,1.6645767353340652,4.62051
2023-05-18 20:23:09.669295,25.21,540,3.0536043915019422e-09,14.410322652332525,1.6535098809924031,4.717925
2023-05-18 20:23:16.632454,25.31,540,3.0535177038622623e-09,13.194994235870581,1.6478535249309292,4.677527
2023-05-18 20:23:32.227439,25.39,560,3.071693412572093e-09,15.625651068794468,1.4989847523298363,4.707647
2023-05-18 20:23:39.257009,25.21,560,3.071865754822265e-09,14.583940997541504,1.4687115139760936,4.738675
2023-05-18 20:23:46.278294,25.21,560,3.071849948608093e-09,14.931177687959007,1.4823533521154237,4.734277
2023-05-18 20:23:53.249108,25.37,560,3.071866510062124e-09,14.931177687959462,1.4748953517031533,4.683187
2023-05-18 20:24:00.240699,25.4,560,3.071968488269313e-09,14.583940997541504,1.4528632386963536,4.703771
2023-05-18 20:24:15.936373,25.24,580,3.0907797165153403e-09,14.931177687959007,1.5054596532767484,4.628551
2023-05-18 20:24:22.906507,25.29,580,3.090572294678243e-09,14.410322652332525,1.4982018916248567,4.682759
2023-05-18 20:24:29.853535,25.31,580,3.0906166107608823e-09,14.410322652332525,1.4916935966634737,4.66174
2023-05-18 20:24:36.832963,25.22,580,3.090621301928566e-09,14.236704307124,1.4904582488454843,4.696786
2023-05-18 20:24:43.773314,25.18,580,3.0906331461720127e-09,14.757559342750483,1.4865128737401494,4.658811
2023-05-18 20:24:59.562525,25.13,600,3.110069155659168e-09,15.104796033167986,1.7107173966412927,4.595121
2023-05-18 20:25:06.498262,25.12,600,3.1102648027000063e-09,14.41032265233298,1.7140174709815252,4.647857
2023-05-18 20:25:13.465630,25.16,600,3.1100754944650432e-09,13.715849271497518,1.7001611986652723,4.67787
2023-05-18 20:25:20.417432,25.16,600,3.1102969446642232e-09,17.01459783046539,1.7023980768869358,4.663188
2023-05-18 20:25:27.402216,25.18,600,3.1103754427267042e-09,15.625651068794468,1.7057560840196295,4.681465
2023-05-18 20:25:43.409030,25.4,620,3.130464677347563e-09,14.757559342750028,1.6342398655182657,4.768669
2023-05-18 20:25:50.387332,25.28,620,3.1304996892229047e-09,15.972887759212426,1.6313546665761403,4.693825
2023-05-18 20:25:57.327663,25.28,620,3.130432031890013e-09,15.799269414003447,1.64826180975894,4.632584
2023-05-18 20:26:04.259227,25.24,620,3.1305337739764892e-09,15.799269414003447,1.633240371836549,4.645077
2023-05-18 20:26:11.206759,25.21,620,3.130555195007882e-09,16.32012444962993,1.6258258188032344,4.661878
2023-05-18 20:26:27.032826,25.32,600,3.1102099705541935e-09,17.361834520882894,1.7055425207559196,4.653974
2023-05-18 20:26:34.025933,25.28,600,3.110209803880555e-09,14.063085961915476,1.7026673775187027,4.706604
2023-05-18 20:26:41.109798,25.22,600,3.1102740530854605e-09,15.104796033167986,1.7108314902631456,4.786079
2023-05-18 20:26:48.066414,25.24,600,3.1103173344027205e-09,15.45203272358549,1.7088269858412526,4.670966
2023-05-18 20:26:55.066599,25.21,600,3.1102091267690985e-09,15.10479603316844,1.7137178713832009,4.699831
2023-05-18 20:27:10.791333,25.24,580,3.090865681902965e-09,14.583940997541504,1.5007236852804682,4.7131
2023-05-18 20:27:17.861582,25.31,580,3.0908509000368594e-09,14.410322652332525,1.5099889063460208,4.785096
2023-05-18 20:27:24.840628,25.25,580,3.0907690685021697e-09,14.583940997541504,1.4928494087620017,4.689356
2023-05-18 20:27:31.762800,25.16,580,3.0906736426510792e-09,14.410322652332525,1.487920344189649,4.634885
2023-05-18 20:27:38.705699,25.15,580,3.0905583218738376e-09,14.236704307124,1.4780124636262109,4.657275
2023-05-18 20:27:54.301103,25.21,560,3.0717094306005316e-09,14.757559342750483,1.4801440767056637,4.656681
2023-05-18 20:28:01.384019,25.22,560,3.0717838555765683e-09,14.757559342750483,1.4812847035546934,4.799136
2023-05-18 20:28:08.331188,25.21,560,3.071839059265457e-09,15.278414378376965,1.481370906055464,4.658977
2023-05-18 20:28:15.267417,25.22,560,3.0716539039814075e-09,15.104796033167986,1.492449534196474,4.653639
2023-05-18 20:28:22.187705,25.31,560,3.071709689291994e-09,14.236704307124,1.48046893569526,4.633639
2023-05-18 20:28:37.554960,25.16,540,3.0533550703496543e-09,13.021375890662057,1.667367210586504,4.643788
2023-05-18 20:28:44.570222,25.12,540,3.053342706987343e-09,13.889467616706042,1.6745420653232335,4.731258
2023-05-18 20:28:51.588461,25.25,540,3.0535378123387896e-09,13.194994235870581,1.6562817010565483,4.732274
2023-05-18 20:28:58.534430,25.32,540,3.0536838253672873e-09,13.889467616706042,1.6372669482690418,4.662034
2023-05-18 20:29:05.457050,25.26,540,3.053712543577804e-09,14.063085961915021,1.6337675921143178,4.638019
2023-05-18 20:29:20.821352,25.31,520,3.0355548269371183e-09,16.14650610442095,1.6841214465608267,4.68362
2023-05-18 20:29:27.826358,25.48,520,3.0356158468408006e-09,15.799269414003447,1.6924494525078915,4.719804
2023-05-18 20:29:34.848964,25.31,520,3.035593507368288e-09,14.063085961915021,1.6902652585094347,4.716604
2023-05-18 20:29:41.800543,25.37,520,3.035538734252685e-09,14.236704307124,1.685183840160168,4.666535
2023-05-18 20:29:48.677616,25.44,520,3.0357361331026023e-09,14.063085961915021,1.683228616904157,4.591835
2023-05-18 20:30:03.862499,25.35,500,3.0177519792491892e-09,13.715849271497063,1.6580035230159322,4.719343
2023-05-18 20:30:10.812555,25.35,500,3.0177060519883647e-09,13.715849271497063,1.6614359600836532,4.663366
2023-05-18 20:30:17.822037,25.34,500,3.0177055866912435e-09,14.236704307123546,1.655121953548601,4.715319
2023-05-18 20:30:24.736791,25.34,500,3.0175181379088056e-09,14.063085961915021,1.6521689790907284,4.628927
2023-05-18 20:30:31.634262,25.35,500,3.0174939806521732e-09,14.757559342750028,1.6459612227965315,4.615849
2023-05-18 20:30:46.691007,25.31,480,2.999910600441798e-09,14.583940997541504,1.6274449819222043,4.668512
2023-05-18 20:30:53.702657,25.33,480,2.999939683250845e-09,14.41032265233298,1.6182972821091601,4.731246
2023-05-18 20:31:00.606727,25.37,480,2.999909688945603e-09,15.10479603316844,1.6302484348381243,4.61594
2023-05-18 20:31:07.562058,25.34,480,2.9999306672501322e-09,14.236704307124,1.6338706140664356,4.671377
2023-05-18 20:31:14.514050,25.38,480,2.999761929316532e-09,15.278414378376965,1.6190876198428266,4.665368
2023-05-18 20:31:29.476036,25.51,460,2.9835286296653097e-09,15.45203272358549,1.6379227151596487,4.69883
2023-05-18 20:31:36.530100,25.48,460,2.9833280570718728e-09,15.104796033167986,1.6412656115247501,4.77186
2023-05-18 20:31:43.480450,25.5,460,2.983537173424112e-09,14.757559342750483,1.6458013690050008,4.668062
2023-05-18 20:31:50.420085,25.44,460,2.9833353976556257e-09,14.931177687959462,1.6407730246503005,4.65289
2023-05-18 20:31:57.374592,25.41,460,2.983382779838187e-09,14.583940997541504,1.639923921605886,4.669873
2023-05-18 20:32:12.182583,25.43,440,2.967396388043808e-09,15.45203272358549,1.6992588744637829,4.690849
2023-05-18 20:32:19.130306,25.48,440,2.967617041334859e-09,14.236704307124,1.68011136599687,4.663423
2023-05-18 20:32:26.014769,25.57,440,2.967750989624201e-09,14.757559342750483,1.6765464674357335,4.601228
2023-05-18 20:32:32.917528,25.45,440,2.96768448164473e-09,16.667361140047433,1.694582569730776,4.621137
2023-05-18 20:32:39.862527,25.39,440,2.9677886648051993e-09,13.715849271497518,1.688246838999898,4.660707
2023-05-18 20:32:54.568288,25.24,420,2.951752342110458e-09,14.236704307124,1.6907039624336042,4.663784
2023-05-18 20:33:01.535326,25.24,420,2.9518715224235145e-09,15.799269414002993,1.6916207844293196,4.678628
2023-05-18 20:33:08.535349,25.18,420,2.951954043222856e-09,15.972887759211972,1.6854481427630816,4.713374
2023-05-18 20:33:15.560078,25.21,420,2.9517762111605623e-09,14.583940997541504,1.6888283802517,4.737124
2023-05-18 20:33:22.510541,25.18,420,2.951810259454226e-09,14.931177687959462,1.692007981183645,4.6655
2023-05-18 20:33:37.070024,25.18,400,2.9350311488675334e-09,15.104796033167986,1.6801703100196916,4.763787
2023-05-18 20:33:44.019680,25.12,400,2.9350564311709594e-09,14.931177687959462,1.6776458348150003,4.66232
2023-05-18 20:33:50.997101,25.06,400,2.9349715508981907e-09,16.14650610442095,1.6907965414522135,4.682872
2023-05-18 20:33:57.943504,25.04,400,2.9350315030490428e-09,15.452032723585944,1.6830064212000215,4.661761
2023-05-18 20:34:04.881135,25.03,400,2.9349806658613937e-09,15.452032723585944,1.6890912386577022,4.653412
2023-05-18 20:34:19.330744,25.06,380,2.916991836465982e-09,15.799269414003447,1.7032799246140247,4.622405
2023-05-18 20:34:26.252491,25.1,380,2.9169792404549674e-09,14.236704307123546,1.7072631493475516,4.632553
2023-05-18 20:34:33.285756,25.1,380,2.916982158979322e-09,13.889467616706042,1.695030015230531,4.741636
2023-05-18 20:34:40.309187,25.09,380,2.9169110362242833e-09,13.889467616706042,1.7051100387002591,4.735606
2023-05-18 20:34:47.323222,25.12,380,2.916909780963602e-09,15.27841437837651,1.6968082755430085,4.728505
2023-05-18 20:35:01.977997,25.09,360,2.8967257767684605e-09,14.757559342750483,1.6532730715696653,4.660856
2023-05-18 20:35:08.938851,25.12,360,2.8967341087128765e-09,14.931177687959462,1.6339067415953663,4.662445
2023-05-18 20:35:15.862629,25.04,360,2.8968337378641096e-09,14.063085961915476,1.6420066717192743,4.636324
2023-05-18 20:35:22.926507,25.01,360,2.896702371279407e-09,14.236704307124,1.6425160388074704,4.76588
2023-05-18 20:35:29.968386,25.11,360,2.896934179549093e-09,14.063085961915021,1.634444650634797,4.753088
2023-05-18 20:35:44.766241,25.16,340,2.875003767518115e-09,14.41032265233298,1.6510954880082305,4.672988
2023-05-18 20:35:51.698350,25.16,340,2.8750656121089356e-09,14.063085961915021,1.6510908756347797,4.649662
2023-05-18 20:35:58.689861,25.21,340,2.8751486936956508e-09,14.410322652332525,1.646015058714463,4.706395
2023-05-18 20:36:05.713444,25.22,340,2.875181476311616e-09,15.104796033167986,1.6564613287674868,4.73564
2023-05-18 20:36:12.712712,25.07,340,2.875188285623119e-09,14.757559342750483,1.6491906708675388,4.714137
2023-05-18 20:36:27.569978,25.08,320,2.8530985492438874e-09,15.972887759212426,1.5013093772200576,4.634169
2023-05-18 20:36:34.479855,25.06,320,2.8531065270068283e-09,14.583940997541504,1.5017338521335506,4.627248
2023-05-18 20:36:41.384720,25.0,320,2.8532642158689847e-09,15.27841437837651,1.508538645666729,4.601993
2023-05-18 20:36:48.277595,25.01,320,2.853001539993536e-09,15.104796033167986,1.5046053066878797,4.610541
2023-05-18 20:36:55.336044,25.02,320,2.8530570162633117e-09,16.320124449629475,1.5078595808035185,4.774284
2023-05-18 20:37:10.393456,25.08,300,2.8326106539163966e-09,16.14650610442095,1.6846946130693154,4.66478
2023-05-18 20:37:17.340267,25.12,300,2.832602943525742e-09,13.368612581080015,1.6779164011146743,4.660187
2023-05-18 20:37:24.290045,25.17,300,2.8325326037893226e-09,12.847757545453078,1.6781602442002412,4.664026
2023-05-18 20:37:31.376173,25.15,300,2.83244922010655e-09,13.194994235871036,1.6892446719660306,4.802363
2023-05-18 20:37:38.392422,25.22,300,2.8326011778271895e-09,14.41032265233298,1.6801749363987664,4.702819
2023-05-18 20:37:53.590737,25.12,280,2.8138419361224898e-09,13.021375890662057,1.68451592733847,4.680687
2023-05-18 20:38:00.570648,25.1,280,2.813645709196444e-09,13.021375890662057,1.6840340159224978,4.696287
2023-05-18 20:38:07.474544,25.03,280,2.813616640276969e-09,14.583940997541504,1.6750659574247755,4.618775
2023-05-18 20:38:14.469998,25.0,280,2.8135643481675816e-09,14.063085961915021,1.660077428083653,4.708803
2023-05-18 20:38:21.412557,25.0,280,2.813525738919998e-09,12.326902509826596,1.6614170036087814,4.64868
2023-05-18 20:38:36.726552,24.99,260,2.7950913232486714e-09,14.931177687959462,1.4959802867639227,4.67035
2023-05-18 20:38:43.663612,25.08,260,2.7951178052549137e-09,15.452032723585944,1.5035788573280104,4.652453
2023-05-18 20:38:50.659835,25.0,260,2.7950687858511083e-09,15.104796033167986,1.4880591055635104,4.712797
2023-05-18 20:38:57.660196,25.03,260,2.7950600684741638e-09,16.667361140047433,1.5018748380341347,4.714361
2023-05-18 20:39:04.736084,25.06,260,2.79511301512475e-09,14.583940997541504,1.493011868705939,4.789354
2023-05-18 20:39:20.143237,24.98,240,2.7768926048987604e-09,15.104796033167986,1.469017685219246,4.632885
2023-05-18 20:39:27.029651,24.98,240,2.776911735904231e-09,14.410322652332525,1.4565292196607453,4.60296
2023-05-18 20:39:34.048899,24.92,240,2.7769832892327904e-09,14.757559342750028,1.462451761670759,4.726428
2023-05-18 20:39:41.041602,24.9,240,2.77683623102224e-09,15.104796033167986,1.481229089611727,4.70401
2023-05-18 20:39:48.162801,24.95,240,2.777036932092994e-09,15.972887759211972,1.4814514757674062,4.830602
2023-05-18 20:40:03.729497,25.05,220,2.7584006659997957e-09,14.063085961915021,1.6712028977444262,4.659746
2023-05-18 20:40:10.609146,25.0,220,2.75831866431914e-09,14.236704307124,1.6849306141386546,4.595989
2023-05-18 20:40:17.519344,25.04,220,2.758446119282554e-09,14.063085961915021,1.670181699341852,4.625074
2023-05-18 20:40:24.549404,25.08,220,2.7584501125044895e-09,15.104796033167986,1.6675877996446495,4.744683
2023-05-18 20:40:31.548572,25.0,220,2.758362982137904e-09,14.236704307124,1.666634694068109,4.715518
2023-05-18 20:40:47.236414,24.86,200,2.7399347403368243e-09,14.757559342750483,1.6922685569724851,4.642895
2023-05-18 20:40:54.171950,24.88,200,2.7400359893471677e-09,15.972887759211972,1.6888129177860511,4.65103
2023-05-18 20:41:01.168552,24.86,200,2.739895639749336e-09,13.889467616706042,1.6939424514818913,4.71351
2023-05-18 20:41:08.230064,24.88,200,2.7400520125842135e-09,15.27841437837651,1.7007043509788002,4.772384
2023-05-18 20:41:15.240235,24.83,200,2.7398595583847696e-09,15.27841437837651,1.698763939058153,4.722381
2023-05-18 20:41:31.111425,24.76,180,2.7212541338534497e-09,14.236704307124,1.638995132269319,4.68766
2023-05-18 20:41:38.073798,24.87,180,2.7211729985282395e-09,14.063085961915476,1.6366292706601824,4.675284
2023-05-18 20:41:45.087795,24.9,180,2.7210482172873027e-09,14.236704307124,1.6251363915964618,4.729504
2023-05-18 20:41:52.080846,24.97,180,2.7211756462079875e-09,13.889467616706497,1.6347825864213006,4.704487
2023-05-18 20:41:59.046922,24.93,180,2.7211257135718095e-09,14.757559342750483,1.6388270289323805,4.679872
2023-05-18 20:42:14.915412,24.96,160,2.7035060471261664e-09,14.410322652332525,1.6123219537496212,4.625806
2023-05-18 20:42:21.852382,24.99,160,2.703613938774851e-09,14.757559342750483,1.6147916980709238,4.652292
2023-05-18 20:42:28.852186,24.97,160,2.703580293275516e-09,14.410322652332525,1.606797509171575,4.712577
2023-05-18 20:42:35.819934,25.0,160,2.7036189789152968e-09,14.236704307124,1.5962065278019526,4.678097
2023-05-18 20:42:42.819426,24.92,160,2.7035937573780996e-09,14.063085961915021,1.6105566253927188,4.715419
2023-05-18 20:42:58.821424,24.93,140,2.6859405114089185e-09,14.931177687959007,1.5941191990734889,4.619812
2023-05-18 20:43:05.783192,24.89,140,2.6859214047099993e-09,14.063085961915021,1.580235254582763,4.677143
2023-05-18 20:43:12.801753,24.91,140,2.685829334901597e-09,16.840979485256412,1.6016133328430935,4.733386
2023-05-18 20:43:19.810892,24.8,140,2.685823647164593e-09,14.063085961915021,1.572012594003782,4.722685
2023-05-18 20:43:26.816920,24.81,140,2.6859417614610006e-09,15.104796033167986,1.5963085331431561,4.71676
2023-05-18 20:43:42.952421,24.92,120,2.667640866980554e-09,14.757559342750028,1.5968478205818626,4.629156
2023-05-18 20:43:49.867737,24.86,120,2.667706918343781e-09,15.45203272358549,1.6097090866805404,4.631308
2023-05-18 20:43:56.828047,24.83,120,2.667550307651761e-09,14.236704307124,1.6027048644102946,4.660637
2023-05-18 20:44:03.787822,24.84,120,2.6674914371433053e-09,15.27841437837651,1.6087265703792577,4.676369
2023-05-18 20:44:10.703362,24.9,120,2.6676406187063317e-09,14.583940997541504,1.6028158080625705,4.629814
2023-05-18 20:44:27.070344,24.83,100,2.6484011139343906e-09,14.583940997541958,1.6353582258013688,4.671925
2023-05-18 20:44:33.992023,24.86,100,2.6482703567500892e-09,15.452032723585944,1.6341640524398593,4.637641
2023-05-18 20:44:40.931583,24.89,100,2.6483816009685148e-09,14.931177687959007,1.6351686780865688,4.650934
2023-05-18 20:44:47.898196,25.0,100,2.648500538215853e-09,14.063085961915476,1.6454027767076533,4.679307
2023-05-18 20:44:54.874910,24.93,100,2.648518655290176e-09,14.931177687959462,1.631508737152824,4.690479
2023-05-18 20:45:11.482647,24.9,80,2.6290011997031885e-09,14.583940997541504,1.6564044171879788,4.78774
2023-05-18 20:45:18.357974,24.87,80,2.6286594441435047e-09,15.104796033167986,1.6544614376099551,4.586392
2023-05-18 20:45:25.304665,24.84,80,2.6285873352361995e-09,14.757559342750483,1.6647520054736387,4.660682
2023-05-18 20:45:32.233908,24.83,80,2.6288193709462126e-09,14.236704307124,1.6559710078789545,4.643617
2023-05-18 20:45:39.271330,24.86,80,2.6287861751186524e-09,14.236704307124,1.6553860254473156,4.744868
2023-05-18 20:45:55.877485,24.93,60,2.608681528397063e-09,14.41032265233298,1.6612967836613095,4.673516
2023-05-18 20:46:03.035419,24.89,60,2.6087111806742743e-09,14.236704307124,1.6588687474658665,4.87574
2023-05-18 20:46:09.977731,24.93,60,2.608789848882786e-09,15.104796033167986,1.6596442891349095,4.658413
2023-05-18 20:46:16.875902,24.92,60,2.6085358764948077e-09,15.104796033167986,1.6570055416739506,4.615792
2023-05-18 20:46:23.835611,25.06,60,2.6086104334208466e-09,15.10479603316844,1.6676218239578497,4.680088
2023-05-18 20:46:40.568350,24.96,40,2.5886313075547514e-09,14.757559342750028,1.5699638454319902,4.643469
2023-05-18 20:46:47.464128,24.89,40,2.588547831854491e-09,14.757559342750483,1.5645521661987707,4.613364
2023-05-18 20:46:54.431344,24.84,40,2.5886237673099844e-09,14.410322652332525,1.5475423341659371,4.682326
2023-05-18 20:47:01.379512,24.86,40,2.5885866147203273e-09,15.625651068794468,1.5542292212769777,4.664894
2023-05-18 20:47:08.401845,24.74,40,2.5884208213540086e-09,14.236704307123546,1.5679308540219186,4.73437
2023-05-18 20:47:25.269434,24.69,20,2.568395849826842e-09,12.674139200244554,1.6707569500136557,4.665714
2023-05-18 20:47:32.255450,24.86,20,2.5684182865254797e-09,12.500520855035575,1.6727047194997273,4.699177
2023-05-18 20:47:39.289677,24.93,20,2.568388788768699e-09,11.979665819409092,1.6712531267790014,4.749073
2023-05-18 20:47:46.253816,24.9,20,2.5683366442348903e-09,12.32690250982705,1.6761523182508746,4.676182
2023-05-18 20:47:53.261280,24.8,20,2.568222047446178e-09,14.583940997541504,1.672800816783849,4.701765
2023-05-18 20:48:10.214300,24.84,0,2.548772450586202e-09,14.931177687959007,1.4063301376476873,4.635463
2023-05-18 20:48:17.223791,24.84,0,2.5487423937782865e-09,15.972887759212426,1.4041434167854336,4.724388
2023-05-18 20:48:24.154575,24.84,0,2.54855367410952e-09,15.799269414003447,1.4073670520862172,4.635085
2023-05-18 20:48:31.138556,24.75,0,2.5485684507667695e-09,15.972887759211972,1.405221610575793,4.699218
2023-05-18 20:48:38.082835,24.7,0,2.5486661701162414e-09,15.972887759211972,1.4314632617769385,4.658638
