Time,ambient T,step,ddmtd,range,stdDev,timeTook,avgFi,avgFd
2023-05-19 23:32:43.754193,24.58,0,2.2766905878022372e-09,12.500520855035575,1.4798705370488618,6.986579,240000000.0,239990000.0542962
2023-05-19 23:32:50.973576,24.52,0,2.276728377571248e-09,11.806047474200113,1.4810959825266994,6.994223,240000000.0,239989999.91011265
2023-05-19 23:32:58.161741,24.48,0,2.2767971200188376e-09,12.32690250982705,1.4882891940203804,6.969009,240000000.0,239989999.86891738
2023-05-19 23:33:05.415395,24.5,0,2.276900422934289e-09,12.326902509826596,1.5184657479331807,7.035499,240000000.0,239989999.98334873
2023-05-19 23:33:12.735542,24.45,0,2.276937334194478e-09,12.500520855035575,1.5247600407754864,7.082976,240000000.0,239989999.9215558
2023-05-19 23:33:29.182780,24.58,20,2.297299606233611e-09,11.632429128991134,1.3265772282940227,7.039365,240000000.0,239989999.9970805
2023-05-19 23:33:36.409601,24.64,20,2.297179163715185e-09,12.153284164618071,1.3324975970317539,7.006664,240000000.0,239989999.9970805
2023-05-19 23:33:43.701518,24.61,20,2.2973319200800134e-09,11.45881078378261,1.3360159435934045,7.07378,240000000.0,239990000.02912128
2023-05-19 23:33:50.951647,24.68,20,2.297244961595648e-09,11.979665819409092,1.3349333791608458,7.031954,240000000.0,239989999.99250326
2023-05-19 23:33:58.126339,24.67,20,2.2972677194883318e-09,11.285192438573631,1.3203046036107458,6.956557,240000000.0,239990000.08175972
2023-05-19 23:34:14.280610,24.71,40,2.316297533230783e-09,11.979665819409092,1.542784881210784,6.894894,240000000.0,239989999.99250326
2023-05-19 23:34:21.507771,24.69,40,2.316178274789415e-09,12.153284164618071,1.5296179869586828,7.000997,240000000.0,239990000.02912128
2023-05-19 23:34:28.788928,24.7,40,2.3166482561775475e-09,11.806047474200113,1.5488715778369138,7.059021,240000000.0,239990000.0565848
2023-05-19 23:34:36.008840,24.8,40,2.3166017021544343e-09,11.632429128991589,1.5500058101062049,7.002758,240000000.0,239989999.9032468
2023-05-19 23:34:43.138218,24.8,40,2.3166296304014654e-09,11.806047474200113,1.5538357763860964,6.911209,240000000.0,239990000.08862558
2023-05-19 23:34:59.198118,24.87,60,2.3359794019199274e-09,11.111574093364652,1.2964612713281374,6.9552,240000000.0,239989999.9490193
2023-05-19 23:35:06.373834,24.82,60,2.336157440588163e-09,12.153284164618071,1.2990923453366663,6.957558,240000000.0,239990000.06802794
2023-05-19 23:35:13.568176,24.84,60,2.336251725766702e-09,11.45881078378261,1.2991725076661835,6.975187,240000000.0,239990000.03140992
2023-05-19 23:35:20.886375,24.82,60,2.336053193188982e-09,10.937955748156128,1.29851199489058,7.090036,240000000.0,239990000.03827578
2023-05-19 23:35:28.115809,24.84,60,2.3360946671392755e-09,12.153284164618071,1.2854174349279004,7.005274,240000000.0,239989999.82085618
2023-05-19 23:35:44.102607,24.87,80,2.3566388564798495e-09,11.632429128991589,1.5684431812158734,6.95715,240000000.0,239990000.05200756
2023-05-19 23:35:51.311309,24.88,80,2.3566771809934187e-09,11.632429128991589,1.5604128998543558,6.989544,240000000.0,239989999.9535966
2023-05-19 23:35:58.532752,24.93,80,2.356646651943579e-09,13.368612581080015,1.5698276752684772,7.002287,240000000.0,239989999.98563737
2023-05-19 23:36:05.839016,24.84,80,2.356722054390905e-09,12.500520855035575,1.5556537787864468,7.083105,240000000.0,239990000.0474303
2023-05-19 23:36:13.048670,24.87,80,2.3567073558618032e-09,12.153284164618071,1.557802656962143,6.983494,240000000.0,239990000.04971892
2023-05-19 23:36:28.868454,24.77,100,2.377152367459773e-09,12.847757545453533,1.5674444845843571,6.954257,240000000.0,239989999.9535966
2023-05-19 23:36:36.076469,24.9,100,2.377078180340898e-09,11.632429128991589,1.5725057834768688,6.983832,240000000.0,239989999.9490193
2023-05-19 23:36:43.245048,24.93,100,2.3770913718627522e-09,12.500520855035575,1.5622826021167746,6.952447,240000000.0,239989999.90782404
2023-05-19 23:36:50.380850,24.84,100,2.377116393738655e-09,11.45881078378261,1.5709808423362823,6.919649,240000000.0,239989999.97877148
2023-05-19 23:36:57.635367,24.84,100,2.3769966456936143e-09,11.632429128991589,1.541931349840043,7.036362,240000000.0,239990000.06573933
2023-05-19 23:37:13.343832,24.8,120,2.3974964026278533e-09,11.806047474200113,1.3268712385088863,6.958594,240000000.0,239989999.80712444
2023-05-19 23:37:20.560747,24.82,120,2.397532001333361e-09,12.153284164618071,1.3276861970768532,6.99776,240000000.0,239990000.09549147
2023-05-19 23:37:27.815598,24.97,120,2.397590715585359e-09,12.847757545453533,1.3338472965122563,7.022685,240000000.0,239990000.13668677
2023-05-19 23:37:34.973867,25.03,120,2.3976280817255987e-09,12.32690250982705,1.3267267809875056,6.939113,240000000.0,239990000.06116205
2023-05-19 23:37:42.294322,25.12,120,2.3976369952914682e-09,11.45881078378261,1.3365807641060783,7.099296,240000000.0,239990000.02683264
2023-05-19 23:37:57.891366,25.03,140,2.4143431011015617e-09,13.194994235870581,1.306255744405431,6.983269,240000000.0,239989999.97877148
2023-05-19 23:38:05.106152,25.0,140,2.414415600650133e-09,11.111574093365107,1.3091829191748312,6.984622,240000000.0,239989999.9146899
2023-05-19 23:38:12.349853,25.1,140,2.414423979471497e-09,10.590719057738625,1.3157175938354377,7.021544,240000000.0,239990000.04514167
2023-05-19 23:38:19.586425,25.1,140,2.414307839215648e-09,11.979665819409092,1.3092311593570154,7.012412,240000000.0,239989999.80941305
2023-05-19 23:38:26.796499,25.0,140,2.4142260858092313e-09,11.979665819409092,1.301981460523393,6.990918,240000000.0,239989999.9970805
2023-05-19 23:38:42.266663,24.84,160,2.432998211731441e-09,12.674139200244554,1.6297357183689494,6.972231,240000000.0,239990000.07489383
2023-05-19 23:38:49.529675,24.77,160,2.4330778886624075e-09,12.847757545453078,1.6363344224134881,7.039845,240000000.0,239990000.16643894
2023-05-19 23:38:56.685888,24.82,160,2.433028872731191e-09,13.021375890662057,1.6328260476608836,6.933061,240000000.0,239989999.93071032
2023-05-19 23:39:03.968647,24.92,160,2.4330338555776998e-09,11.632429128991589,1.6326430471769118,7.061586,240000000.0,239989999.96046245
2023-05-19 23:39:11.226563,24.93,160,2.432941771879765e-09,11.979665819409547,1.626846247476497,7.036757,240000000.0,239989999.83687657
2023-05-19 23:39:26.531717,24.77,180,2.45146143589286e-09,12.153284164617617,1.4480399478814643,6.976246,240000000.0,239990000.12524363
2023-05-19 23:39:33.767938,24.84,180,2.4517922482878335e-09,11.806047474200113,1.3985531611801068,7.017066,240000000.0,239990000.02454403
2023-05-19 23:39:40.920153,24.74,180,2.451623237773512e-09,11.806047474200113,1.4176918875475724,6.937058,240000000.0,239990000.1549958
2023-05-19 23:39:48.169852,24.7,180,2.451589368306751e-09,11.979665819409092,1.41965854448689,7.021539,240000000.0,239989999.80712444
2023-05-19 23:39:55.419203,24.74,180,2.4516075114238176e-09,12.326902509826596,1.412486596805162,7.031195,240000000.0,239990000.00852364
2023-05-19 23:40:10.661665,24.93,200,2.4687816367347406e-09,11.111574093365107,1.3690164194275067,6.969971,240000000.0,239989999.80254716
2023-05-19 23:40:17.949877,24.8,200,2.468697285997902e-09,10.764337402947604,1.3807878450238458,7.061049,240000000.0,239990000.03369853
2023-05-19 23:40:25.107629,24.8,200,2.4687645526895677e-09,12.32690250982705,1.3655014066470885,6.938598,240000000.0,239990000.00165775
2023-05-19 23:40:32.377483,24.84,200,2.4687270164033087e-09,11.632429128991589,1.3672546575810076,7.049695,240000000.0,239989999.90095815
2023-05-19 23:40:39.549962,24.88,200,2.4686770698777946e-09,11.285192438573631,1.3905644334111231,6.954323,240000000.0,239989999.9215558
2023-05-19 23:40:54.674982,24.67,220,2.488413763767991e-09,12.153284164617617,1.6744353443266558,6.97715,240000000.0,239989999.98334873
2023-05-19 23:41:01.911018,24.74,220,2.4883347882551385e-09,13.021375890662057,1.6868094997399414,7.008891,240000000.0,239990000.05200756
2023-05-19 23:41:09.153350,24.74,220,2.488282737475221e-09,12.500520855035575,1.6720261657707853,7.020174,240000000.0,239989999.95817384
2023-05-19 23:41:16.379242,24.68,220,2.4883391495479332e-09,244.97548508965656,1.982921800646782,7.003712,240000000.0,239990000.0222554
2023-05-19 23:41:23.645146,24.74,220,2.488364549911866e-09,12.326902509826596,1.672981854510423,7.046768,240000000.0,239989999.97877148
2023-05-19 23:41:38.623569,24.68,240,2.507332100643319e-09,11.285192438574086,1.3498177203528512,6.952557,240000000.0,239990000.02454403
2023-05-19 23:41:45.871815,24.67,240,2.5073458720504604e-09,12.153284164618071,1.3511764243795885,7.025065,240000000.0,239990000.08633697
2023-05-19 23:41:53.118693,24.64,240,2.507314579079932e-09,11.979665819409092,1.358311097923101,7.027723,240000000.0,239989999.92613304
2023-05-19 23:42:00.290547,24.69,240,2.507139113435509e-09,11.632429128991589,1.3884763472725539,6.953717,240000000.0,239989999.9993691
2023-05-19 23:42:07.593669,24.72,240,2.507106775282535e-09,11.45881078378261,1.3744178170549084,7.081964,240000000.0,239990000.09091422
2023-05-19 23:42:22.363755,24.65,260,2.523742121199905e-09,14.236704307123546,1.3836409758852597,6.955607,240000000.0,239989999.86891738
2023-05-19 23:42:29.613938,24.68,260,2.523742211481438e-09,13.021375890662057,1.3875691238268446,7.031042,240000000.0,239990000.05200756
2023-05-19 23:42:36.833358,24.73,260,2.5237096094285872e-09,12.847757545453533,1.3919167518951772,7.000264,240000000.0,239989999.90095815
2023-05-19 23:42:44.034858,24.77,260,2.523698789533275e-09,12.847757545453078,1.3969093213056196,6.983345,240000000.0,239989999.9627511
2023-05-19 23:42:51.276715,24.71,260,2.523792012167606e-09,12.847757545453078,1.3798777484889069,7.022701,240000000.0,239990000.0131009
2023-05-19 23:43:05.955655,24.73,280,2.5437649763181767e-09,12.847757545453533,1.633653081815343,6.923436,240000000.0,239989999.871206
2023-05-19 23:43:13.128130,24.77,280,2.5437393884464706e-09,12.847757545453533,1.640667939985544,6.951319,240000000.0,239990000.01538953
2023-05-19 23:43:20.325332,24.82,280,2.5437766643051497e-09,11.806047474200568,1.6466392877730864,6.978045,240000000.0,239990000.04514167
2023-05-19 23:43:27.480060,25.03,280,2.5436999874992034e-09,12.153284164618071,1.6336277795477119,6.93557,240000000.0,239989999.9627511
2023-05-19 23:43:34.740886,25.06,280,2.5437682577049166e-09,12.153284164618071,1.6313741554619139,7.038669,240000000.0,239989999.91011265
2023-05-19 23:43:49.308561,24.96,300,2.5641847299191786e-09,11.632429128991589,1.307452855629995,6.964013,240000000.0,239989999.9650397
2023-05-19 23:43:56.556464,24.9,300,2.5641733093044618e-09,13.021375890662057,1.314503049928252,7.006733,240000000.0,239989999.98334873
2023-05-19 23:44:03.866385,24.87,300,2.564273244023997e-09,12.500520855035575,1.3250147912685428,7.079758,240000000.0,239990000.00852364
2023-05-19 23:44:11.125042,24.79,300,2.5641664236009186e-09,11.632429128991589,1.3135053708469446,7.037499,240000000.0,239990000.14355266
2023-05-19 23:44:19.117553,24.84,300,2.5642518229925363e-09,11.632429128991589,1.310100125053077,7.659273,240000000.0,239990000.00852364
2023-05-19 23:44:33.569803,24.96,320,2.585059537202984e-09,11.979665819409092,1.4187654823284348,6.976875,240000000.0,239990000.13439813
2023-05-19 23:44:40.917490,24.9,320,2.5849501159770708e-09,11.806047474200113,1.4323316670322326,7.124743,240000000.0,239989999.9467307
2023-05-19 23:44:48.234695,25.12,320,2.584774407266994e-09,13.021375890662057,1.4524072028174961,7.088041,240000000.0,239989999.93299893
2023-05-19 23:44:55.503864,25.09,320,2.585023362084563e-09,12.153284164618071,1.416497365882075,7.037006,240000000.0,239990000.04514167
2023-05-19 23:45:02.819471,25.03,320,2.5848829013709096e-09,11.806047474200568,1.4389683208447457,7.092448,240000000.0,239990000.0977801
2023-05-19 23:45:17.174230,24.82,340,2.607181847854968e-09,13.368612581080015,1.4169778426406114,6.995955,240000000.0,239990000.006235
2023-05-19 23:45:24.396367,24.84,340,2.6070108546191303e-09,12.500520855035575,1.4436318527076317,6.995975,240000000.0,239989999.97648284
2023-05-19 23:45:31.644542,24.86,340,2.6071064662418487e-09,12.674139200244554,1.4299213212705966,7.026015,240000000.0,239990000.20076832
2023-05-19 23:45:38.885672,24.98,340,2.6070218377156343e-09,13.889467616706497,1.435929562004482,7.019993,240000000.0,239989999.85747424
2023-05-19 23:45:46.156229,24.96,340,2.60747869008447e-09,12.32690250982705,1.3746860878148865,7.039375,240000000.0,239990000.13897538
2023-05-19 23:46:00.438201,24.85,360,2.628056870425481e-09,11.632429128991589,1.6543009667232713,7.054015,240000000.0,239990000.03140992
2023-05-19 23:46:07.896505,24.96,360,2.6279288789813825e-09,13.368612581080015,1.6554367731475483,7.235145,240000000.0,239989999.93071032
2023-05-19 23:46:15.248735,25.01,360,2.6279462095646285e-09,13.36861258107956,1.6688214372602068,7.131089,240000000.0,239989999.93071032
2023-05-19 23:46:22.571944,25.09,360,2.628086191091614e-09,11.806047474200568,1.6736850287221015,7.08704,240000000.0,239989999.8643401
2023-05-19 23:46:30.040255,25.04,360,2.628356959318108e-09,12.153284164618071,1.6473929336980013,7.226156,240000000.0,239990000.02454403
2023-05-19 23:46:44.174307,24.9,380,2.646790546827968e-09,12.153284164618071,1.4188365836299108,7.008985,240000000.0,239989999.96046245
2023-05-19 23:46:51.449481,24.93,380,2.6467758795501776e-09,12.326902509826596,1.4422763232011893,7.04501,240000000.0,239990000.05200756
2023-05-19 23:46:58.777740,25.0,380,2.646988200896876e-09,12.326902509826596,1.414782723836309,7.105101,240000000.0,239990000.0634507
2023-05-19 23:47:06.011721,25.0,380,2.6468053321662437e-09,11.979665819409092,1.4280690889562964,7.014825,240000000.0,239989999.97877148
2023-05-19 23:47:13.308697,24.9,380,2.646914288094954e-09,12.153284164618071,1.4169197680200736,7.064809,240000000.0,239990000.03140992
2023-05-19 23:47:27.419112,24.9,400,2.6657069322330767e-09,13.194994235871036,1.6874895695500158,7.146613,240000000.0,239989999.90782404
2023-05-19 23:47:34.880418,25.02,400,2.6657724037110572e-09,13.021375890662057,1.686024514576761,7.229141,240000000.0,239989999.9535966
2023-05-19 23:47:42.259688,25.06,400,2.6657363049847405e-09,12.500520855035575,1.6827770097474255,7.155089,240000000.0,239989999.77050638
2023-05-19 23:47:49.490810,25.03,400,2.6657285963301996e-09,13.368612581080015,1.687833008768818,7.009985,240000000.0,239990000.0542962
2023-05-19 23:47:56.734511,24.99,400,2.6656402141754086e-09,12.500520855035575,1.6638493823347822,7.022543,240000000.0,239989999.90095815
2023-05-19 23:48:10.706683,25.12,420,2.6808347882550544e-09,12.32690250982705,1.348424289539276,6.985659,240000000.0,239989999.95817384
2023-05-19 23:48:17.871720,25.03,420,2.6808005437726583e-09,12.847757545453533,1.3466163708978485,6.946862,240000000.0,239990000.11608914
2023-05-19 23:48:25.131427,24.99,420,2.6806276962928955e-09,11.979665819409092,1.3631257245837856,7.041571,240000000.0,239989999.94215345
2023-05-19 23:48:32.357140,24.96,420,2.6807266309707314e-09,12.326902509826596,1.3481708582674499,7.005554,240000000.0,239990000.04514167
2023-05-19 23:48:39.700362,24.93,420,2.680774764920755e-09,11.806047474200113,1.3540355887015294,7.121065,240000000.0,239990000.0542962
2023-05-19 23:48:53.732575,25.14,440,2.6983248815923447e-09,12.674139200244554,1.5171691066223278,6.940191,240000000.0,239990000.00165775
2023-05-19 23:49:00.976144,25.11,440,2.698223287081443e-09,11.806047474200113,1.4976748750635733,7.020429,240000000.0,239990000.02912128
2023-05-19 23:49:08.245422,25.2,440,2.6983805714126998e-09,12.847757545453078,1.530815265366101,7.047119,240000000.0,239989999.81856757
2023-05-19 23:49:15.710731,25.15,440,2.6983702307040916e-09,13.54223092628854,1.5415962496133324,7.241149,240000000.0,239989999.88493776
2023-05-19 23:49:23.015926,25.03,440,2.698519195244265e-09,12.500520855035575,1.5649995362121374,7.084039,240000000.0,239990000.08404833
2023-05-19 23:49:37.301086,25.03,460,2.71325283345159e-09,12.153284164618071,1.4871664510957339,7.034002,240000000.0,239989999.9535966
2023-05-19 23:49:44.634302,24.93,460,2.7132982693725083e-09,12.674139200244554,1.4840129513627478,7.10205,240000000.0,239990000.104646
2023-05-19 23:49:51.959533,24.93,460,2.7133463859606957e-09,13.715849271497518,1.4693644326191242,7.103052,240000000.0,239989999.8300107
2023-05-19 23:49:59.289725,24.92,460,2.7133150547941105e-09,13.715849271497518,1.4592862968278757,7.106054,240000000.0,239989999.8483197
2023-05-19 23:50:06.672976,24.93,460,2.7133528272012935e-09,11.632429128991589,1.4648979437606857,7.160092,240000000.0,239989999.9032468
2023-05-19 23:50:21.059207,24.92,480,2.7318869327892468e-09,12.153284164618071,1.575621790510061,7.030983,240000000.0,239990000.08404833
2023-05-19 23:50:28.473481,24.93,480,2.7318059433035704e-09,13.194994235871036,1.5430638301396615,7.191115,240000000.0,239990000.12066638
2023-05-19 23:50:35.725639,24.86,480,2.731841778129968e-09,11.632429128991589,1.565803954353815,7.030999,240000000.0,239990000.11151186
2023-05-19 23:50:43.055346,24.84,480,2.7317353848080783e-09,13.36861258107956,1.5313372278388278,7.10755,240000000.0,239990000.1984797
2023-05-19 23:50:50.354573,24.87,480,2.731802033418427e-09,11.806047474200113,1.5556303115862413,7.067062,240000000.0,239989999.92384443
2023-05-19 23:51:04.900919,24.79,500,2.74803803283437e-09,12.674139200244554,1.4578250443855818,7.07303,240000000.0,239989999.9467307
2023-05-19 23:51:12.243141,24.8,500,2.7481702570936934e-09,11.632429128991134,1.475621644410448,7.121064,240000000.0,239989999.90095815
2023-05-19 23:51:19.650409,24.84,500,2.7480859862212833e-09,11.806047474200568,1.470865311881324,7.187094,240000000.0,239989999.96732834
2023-05-19 23:51:26.883603,24.8,500,2.748063072072102e-09,12.32690250982705,1.4586260262374402,7.012034,240000000.0,239990000.05200756
2023-05-19 23:51:34.252084,24.9,500,2.748055255774193e-09,11.806047474200568,1.4504509983188276,7.147326,240000000.0,239989999.92613304
2023-05-19 23:51:48.883743,25.0,520,2.7669091107961033e-09,13.715849271497518,1.7984960639701029,7.04325,240000000.0,239989999.85060835
2023-05-19 23:51:56.126942,25.08,520,2.766981738822297e-09,12.847757545453078,1.7916284942662108,7.023036,240000000.0,239990000.01081225
2023-05-19 23:52:03.337570,25.06,520,2.767062908870994e-09,12.153284164618071,1.782519543121291,6.988488,240000000.0,239990000.13210952
2023-05-19 23:52:10.592729,25.03,520,2.766902482047674e-09,12.32690250982705,1.7876568982450227,7.033002,240000000.0,239990000.09091422
2023-05-19 23:52:17.933950,24.99,520,2.7670257892688346e-09,12.326902509826596,1.7864424139342931,7.120064,240000000.0,239989999.8139903
2023-05-19 23:52:32.578367,24.89,540,2.786296224148203e-09,11.806047474200568,1.4266477556263966,6.944938,240000000.0,239989999.98792598
2023-05-19 23:52:39.920610,24.84,540,2.7863159680264066e-09,13.715849271497518,1.4251194144740171,7.118063,240000000.0,239990000.02912128
2023-05-19 23:52:47.178423,24.83,540,2.7861533501395534e-09,12.847757545453533,1.410508090027446,7.03968,240000000.0,239989999.91697854
2023-05-19 23:52:54.466323,24.8,540,2.786169003569552e-09,13.021375890662057,1.4178476162716087,7.064741,240000000.0,239990000.10922325
2023-05-19 23:53:01.912619,24.74,540,2.7860939830825843e-09,12.153284164618071,1.4055741793807812,7.223136,240000000.0,239990000.0977801
2023-05-19 23:53:16.863252,24.88,560,2.8025255184244506e-09,12.674139200244554,1.3866739245181041,7.10105,240000000.0,239990000.0222554
2023-05-19 23:53:24.300542,24.84,560,2.8025316784033175e-09,11.806047474200113,1.3829980532762716,7.198118,240000000.0,239989999.89409226
2023-05-19 23:53:31.599733,24.79,560,2.8026605830799222e-09,12.847757545453533,1.3813159406813187,7.061022,240000000.0,239990000.16186166
2023-05-19 23:53:38.974978,24.8,560,2.802642408711537e-09,12.674139200244554,1.3769323693599809,7.137075,240000000.0,239989999.9535966
2023-05-19 23:53:46.336214,24.76,560,2.802671201577888e-09,12.847757545453533,1.3838436080257879,7.139077,240000000.0,239990000.08175972
2023-05-19 23:54:01.352894,24.96,580,2.8221597740185535e-09,11.979665819409547,1.8177537436419753,7.038004,240000000.0,239989999.84374246
2023-05-19 23:54:08.669098,24.85,580,2.8222799318029016e-09,12.847757545453533,1.8208745424261523,7.089042,240000000.0,239990000.03369853
2023-05-19 23:54:16.112391,24.9,580,2.8221314707559047e-09,12.674139200244554,1.8096828771374067,7.222136,240000000.0,239990000.06573933
2023-05-19 23:54:23.512655,24.82,580,2.822089920413553e-09,12.326902509826596,1.815468099170973,7.1711,240000000.0,239989999.83687657
2023-05-19 23:54:30.928929,24.8,580,2.82214331152706e-09,14.41032265233298,1.8103583118460689,7.193115,240000000.0,239990000.14126402
2023-05-19 23:54:46.028229,24.8,600,2.8424724259348886e-09,12.500520855035575,1.460678213449504,7.00894,240000000.0,239990000.0634507
2023-05-19 23:54:53.348408,24.84,600,2.8424945831081526e-09,11.806047474200568,1.4577250024856918,7.074004,240000000.0,239989999.871206
2023-05-19 23:55:00.830730,24.9,600,2.842492589969504e-09,12.847757545453533,1.470305193348946,7.24215,240000000.0,239990000.2145001
2023-05-19 23:55:08.360085,24.86,600,2.8424971943279477e-09,11.979665819409092,1.4680412007727088,7.288184,240000000.0,239989999.89180365
2023-05-19 23:55:15.801377,24.86,600,2.842648058252934e-09,12.32690250982705,1.4939270477136197,7.220135,240000000.0,239990000.104646
2023-05-19 23:55:31.316412,24.83,620,2.8630690167643316e-09,12.326902509826596,1.475415931742051,7.26917,240000000.0,239990000.122955
2023-05-19 23:55:38.917818,24.91,620,2.863148794393952e-09,11.632429128991589,1.4447870992997138,7.350227,240000000.0,239990000.00852364
2023-05-19 23:55:46.494207,24.9,620,2.86314263788744e-09,12.32690250982705,1.4675824344300998,7.320206,240000000.0,239990000.07718244
2023-05-19 23:55:53.966521,24.9,620,2.863128043529335e-09,12.847757545453533,1.4603917001735371,7.251157,240000000.0,239990000.09320286
2023-05-19 23:56:01.515891,24.93,620,2.8633365626343024e-09,11.806047474200568,1.4408167053639875,7.32621,240000000.0,239989999.85976285
2023-05-19 23:56:16.824778,24.96,600,2.8427422705117022e-09,12.500520855035575,1.5127288161388206,7.199103,240000000.0,239990000.0039464
2023-05-19 23:56:24.442195,25.03,600,2.8427080121398393e-09,11.979665819409092,1.5077812753013302,7.383251,240000000.0,239990000.0542962
2023-05-19 23:56:31.807434,24.96,600,2.842726058030669e-09,13.194994235871036,1.5074132449711346,7.146082,240000000.0,239990000.12982088
2023-05-19 23:56:39.275745,24.84,600,2.842632991652904e-09,12.153284164618071,1.4888844473979437,7.234145,240000000.0,239989999.90782404
2023-05-19 23:56:46.859138,24.94,600,2.842976953901274e-09,13.194994235871036,1.5742692848406707,7.347225,240000000.0,239989999.9055354
2023-05-19 23:57:02.018920,24.84,580,2.8225966498606332e-09,12.847757545453533,1.8302110519528152,7.122064,240000000.0,239989999.8117017
2023-05-19 23:57:09.336124,24.84,580,2.8225708258679287e-09,13.194994235871036,1.8245043952526083,7.094045,240000000.0,239990000.03369853
2023-05-19 23:57:16.669313,24.85,580,2.822452352181542e-09,12.847757545453078,1.8193257944599435,7.100021,240000000.0,239990000.12753227
2023-05-19 23:57:23.904459,24.91,580,2.8224036730699263e-09,12.50052085503603,1.8311337036165038,6.98797,240000000.0,239989999.9719056
2023-05-19 23:57:31.497859,24.9,580,2.8224830930457285e-09,13.194994235871036,1.8233758500407486,7.365238,240000000.0,239989999.9970805
2023-05-19 23:57:46.405715,24.78,560,2.802777858799711e-09,12.847757545453533,1.3935798064094647,7.038243,240000000.0,239990000.05200756
2023-05-19 23:57:53.922022,24.82,560,2.802937073766997e-09,12.153284164617617,1.4253522791897872,7.294149,240000000.0,239990000.122955
2023-05-19 23:58:01.475395,24.86,560,2.802894828951239e-09,13.194994235871036,1.393818268825559,7.328211,240000000.0,239989999.97419423
2023-05-19 23:58:08.765580,24.88,560,2.8027790012084155e-09,11.632429128991134,1.386000856465937,7.068027,240000000.0,239989999.9993691
2023-05-19 23:58:16.322954,24.94,560,2.8027276587913793e-09,12.32690250982705,1.3962725718182665,7.334215,240000000.0,239990000.05887344
2023-05-19 23:58:31.265582,25.02,540,2.786383800713865e-09,12.674139200244554,1.4244017090592394,7.209127,240000000.0,239989999.9719056
2023-05-19 23:58:38.645831,24.96,540,2.7865512764420244e-09,11.979665819409092,1.467069953758055,7.142079,240000000.0,239990000.06573933
2023-05-19 23:58:46.139160,25.01,540,2.786598851340981e-09,14.063085961915021,1.4718731018357412,7.275174,240000000.0,239990000.0222554
2023-05-19 23:58:53.725555,24.89,540,2.786526261510889e-09,13.194994235871036,1.4590626483650535,7.361235,240000000.0,239990000.1710162
2023-05-19 23:59:01.339971,24.92,540,2.7866937580731893e-09,13.021375890662057,1.4830946174706978,7.374245,240000000.0,239990000.06573933
2023-05-19 23:59:16.183528,24.94,520,2.767187292525915e-09,16.840979485256412,1.777109792763738,7.232144,240000000.0,239989999.8643401
2023-05-19 23:59:23.578788,24.84,520,2.767158548272669e-09,13.021375890662057,1.7921959157694556,7.173102,240000000.0,239990000.10006872
2023-05-19 23:59:30.977050,24.8,520,2.767248322846583e-09,12.153284164618071,1.7802323619786462,7.176103,240000000.0,239989999.871206
2023-05-19 23:59:38.309264,24.87,520,2.7671539196075805e-09,12.500520855035575,1.7866061915470064,7.111057,240000000.0,239990000.02912128
2023-05-19 23:59:45.674525,25.0,520,2.7671679167185632e-09,13.021375890662057,1.7932084769886014,7.142079,240000000.0,239990000.08404833
2023-05-20 00:00:00.414986,24.92,500,2.748947035987273e-09,11.979665819409092,1.5653917752486264,7.299192,240000000.0,239990000.0634507
2023-05-20 00:00:07.937336,24.86,500,2.7487786817502683e-09,11.45881078378261,1.5456206296679562,7.292186,240000000.0,239990000.02454403
2023-05-20 00:00:15.381630,24.81,500,2.7489155971772858e-09,12.674139200244554,1.5544690322197117,7.215131,240000000.0,239990000.09091422
2023-05-20 00:00:22.827926,24.8,500,2.748617550036432e-09,11.979665819409092,1.5286458344084466,7.211128,240000000.0,239990000.14126402
2023-05-20 00:00:30.114108,24.86,500,2.7487843417083265e-09,12.153284164618071,1.5289062483747509,7.06002,240000000.0,239989999.94215345
2023-05-20 00:00:44.747516,24.87,480,2.7320036911263704e-09,14.410322652332525,1.6062404388735276,7.241148,240000000.0,239990000.06116205
2023-05-20 00:00:52.528050,24.89,480,2.7319570502941235e-09,13.194994235871036,1.5910180973149104,7.544364,240000000.0,239990000.03140992
2023-05-20 00:00:59.978347,24.93,480,2.731969387613737e-09,12.326902509826596,1.5889876034092836,7.211127,240000000.0,239990000.08404833
2023-05-20 00:01:07.270534,25.05,480,2.731940219731748e-09,11.806047474200568,1.589939107817777,7.060021,240000000.0,239990000.0634507
2023-05-20 00:01:14.855929,25.03,480,2.732054141145113e-09,11.806047474200113,1.6125546003626767,7.303193,240000000.0,239989999.9558852
2023-05-20 00:01:29.247164,24.83,460,2.713578267150191e-09,11.979665819409092,1.4267748490839698,7.150084,240000000.0,239990000.0474303
2023-05-20 00:01:36.644425,24.78,460,2.713569607067134e-09,12.32690250982705,1.4383254491697994,7.178104,240000000.0,239989999.95817384
2023-05-20 00:01:43.961629,24.77,460,2.713674028084648e-09,12.847757545453533,1.4202204624761467,7.100049,240000000.0,239990000.1641503
2023-05-20 00:01:51.490984,24.74,460,2.713493214995237e-09,13.368612581080015,1.4263468730652606,7.307197,240000000.0,239989999.97419423
2023-05-20 00:01:58.795179,24.71,460,2.713546363043064e-09,11.979665819409547,1.4361096503360793,7.08704,240000000.0,239990000.0131009
2023-05-20 00:02:12.839842,24.82,440,2.698814471436307e-09,13.889467616706042,1.619739706522377,6.972066,240000000.0,239990000.09091422
2023-05-20 00:02:20.232689,24.78,440,2.6988444275456023e-09,13.54223092628854,1.6344229055062003,7.173692,240000000.0,239990000.00852364
2023-05-20 00:02:27.508502,24.65,440,2.698811683125723e-09,13.715849271497518,1.621293497265027,7.053655,240000000.0,239990000.00852364
2023-05-20 00:02:34.787976,24.71,440,2.698779185243839e-09,11.979665819409092,1.6113476114001006,7.057316,240000000.0,239990000.09549147
2023-05-20 00:02:41.986855,24.78,440,2.6987258601053187e-09,14.063085961915021,1.6113781070888242,6.97772,240000000.0,239989999.91697854
2023-05-20 00:02:55.979900,24.81,420,2.6816520445296056e-09,14.236704307124,1.435738705959752,6.998079,240000000.0,239990000.122955
2023-05-20 00:03:03.219552,24.83,420,2.6815582420101064e-09,11.979665819409547,1.4139061549004162,7.017495,240000000.0,239990000.08862558
2023-05-20 00:03:10.490630,24.74,420,2.681563311665769e-09,12.674139200244554,1.415966733307884,7.052904,240000000.0,239989999.8117017
2023-05-20 00:03:17.664963,24.74,420,2.6815617143770055e-09,11.45881078378261,1.4247977976905093,6.952192,240000000.0,239989999.87578323
2023-05-20 00:03:25.022068,24.68,420,2.6815485541064423e-09,13.54223092628854,1.4087138913638442,7.125939,240000000.0,239990000.07031658
2023-05-20 00:03:38.767525,24.72,400,2.666062700529003e-09,12.500520855035575,1.7196345586394366,6.939452,240000000.0,239990000.14584127
2023-05-20 00:03:45.901132,24.78,400,2.6660110594883927e-09,13.021375890662057,1.7189447943293732,6.912432,240000000.0,239989999.9055354
2023-05-20 00:03:53.050046,24.89,400,2.665956772504225e-09,13.36861258107956,1.7114509272861633,6.928775,240000000.0,239989999.82314482
2023-05-20 00:04:00.202087,24.74,400,2.665964422128491e-09,13.54223092628854,1.7025028289669772,6.931884,240000000.0,239989999.96961698
2023-05-20 00:04:07.402111,24.78,400,2.6659208161449286e-09,63.02345931080481,1.7217284120140852,6.979866,240000000.0,239989999.88493776
2023-05-20 00:04:21.105918,24.71,380,2.6470865661065887e-09,12.153284164618071,1.393254343081406,6.957459,240000000.0,239990000.08633697
2023-05-20 00:04:28.251475,24.65,380,2.6471056432903214e-09,13.368612581080015,1.3919704990104558,6.918396,240000000.0,239989999.9627511
2023-05-20 00:04:35.395119,24.68,380,2.647087163353666e-09,11.632429128991589,1.3887044589112063,6.921471,240000000.0,239990000.03140992
2023-05-20 00:04:42.571473,24.62,380,2.646955352305965e-09,13.021375890662057,1.399769248503843,6.958215,240000000.0,239989999.93757617
2023-05-20 00:04:49.762951,24.61,380,2.646967991721508e-09,12.847757545453533,1.410482017355574,6.973323,240000000.0,239990000.07718244
2023-05-20 00:05:03.755845,24.82,360,2.628479860272292e-09,11.806047474200113,1.6372848577422434,7.010532,240000000.0,239989999.8643401
2023-05-20 00:05:10.897443,24.7,360,2.6283182493718417e-09,11.979665819409092,1.6402002891429424,6.923427,240000000.0,239990000.09549147
2023-05-20 00:05:18.109039,24.7,360,2.628110799755862e-09,12.847757545453533,1.6538300833314665,6.988452,240000000.0,239989999.9970805
2023-05-20 00:05:25.274135,24.84,360,2.628101813270347e-09,14.063085961915021,1.6546121788450772,6.943939,240000000.0,239990000.03140992
2023-05-20 00:05:32.405207,24.84,360,2.627988801617042e-09,12.326902509826596,1.6655088753078178,6.910915,240000000.0,239990000.1138005
2023-05-20 00:05:46.300073,24.69,340,2.6073448268679696e-09,11.979665819409547,1.3860712273519273,6.763823,240000000.0,239989999.98334873
2023-05-20 00:05:53.403142,24.74,340,2.60717999708341e-09,11.979665819409547,1.3966935545034078,6.880895,240000000.0,239990000.01538953
2023-05-20 00:06:00.559047,24.76,340,2.6075091809382717e-09,12.326902509826596,1.3711182542176974,6.934745,240000000.0,239990000.0039464
2023-05-20 00:06:07.742834,24.84,340,2.6074905447451096e-09,11.632429128991589,1.3639729991221083,6.961646,240000000.0,239989999.96732834
2023-05-20 00:06:15.024874,24.74,340,2.6076380821424673e-09,11.979665819409092,1.3561306072220665,7.05986,240000000.0,239989999.9719056
2023-05-20 00:06:29.218102,24.68,320,2.5854510049030596e-09,11.979665819409092,1.361495289102675,7.018218,240000000.0,239989999.8551856
2023-05-20 00:06:36.424652,24.71,320,2.5854718842452583e-09,10.764337402947149,1.3785370827285222,6.986393,240000000.0,239989999.88493776
2023-05-20 00:06:43.649707,24.74,320,2.585616779171444e-09,10.937955748156128,1.366125609550226,7.0059,240000000.0,239989999.93528756
2023-05-20 00:06:50.811611,24.86,320,2.585409239273918e-09,11.285192438573631,1.3723709213271569,6.943749,240000000.0,239989999.9993691
2023-05-20 00:06:58.035409,24.82,320,2.5855689750962428e-09,10.764337402947604,1.3565126435598416,6.996636,240000000.0,239990000.03369853
2023-05-20 00:07:12.321046,24.87,300,2.5644826208035794e-09,11.806047474200113,1.3332422553516403,6.964035,240000000.0,239990000.05200756
2023-05-20 00:07:19.528446,24.84,300,2.564522480103269e-09,12.326902509826596,1.3383674222280917,6.990245,240000000.0,239990000.006235
2023-05-20 00:07:26.738387,24.8,300,2.564567075711445e-09,12.153284164617617,1.346309048384769,6.989785,240000000.0,239990000.14584127
2023-05-20 00:07:34.026574,24.78,300,2.5647337805741498e-09,13.021375890662057,1.3772796270900616,7.069029,240000000.0,239990000.05887344
2023-05-20 00:07:41.213916,24.73,300,2.5647441872577588e-09,13.021375890662057,1.3771226095603764,6.968187,240000000.0,239989999.9398648
2023-05-20 00:07:55.722887,24.62,280,2.544169520951937e-09,12.153284164618071,1.6968897187364218,7.017666,240000000.0,239989999.87807187
2023-05-20 00:08:02.899920,24.55,280,2.544145502590049e-09,11.806047474200568,1.6853896429390427,6.954857,240000000.0,239989999.9719056
2023-05-20 00:08:10.311744,24.55,280,2.5440221849518202e-09,11.806047474200568,1.6769635516658703,7.194672,240000000.0,239990000.04514167
2023-05-20 00:08:17.559385,24.55,280,2.544075919829668e-09,13.194994235871036,1.6857093746640746,7.029464,240000000.0,239989999.99021462
2023-05-20 00:08:24.935023,24.56,280,2.544097660318866e-09,11.806047474200568,1.6879144213355568,7.158506,240000000.0,239989999.9558852
2023-05-20 00:08:39.491968,24.52,260,2.5241176993490025e-09,12.326902509826596,1.3245916953828458,6.937153,240000000.0,239989999.92842168
2023-05-20 00:08:46.733920,24.52,260,2.5240893405285106e-09,12.153284164618071,1.3240599414796734,7.019793,240000000.0,239989999.88722637
2023-05-20 00:08:53.974712,24.48,260,2.5240491305197633e-09,11.979665819409092,1.3328035477761504,7.021602,240000000.0,239989999.99250326
2023-05-20 00:09:01.253067,24.52,260,2.5241306651670467e-09,11.45881078378261,1.313087135549372,7.059216,240000000.0,239990000.03369853
2023-05-20 00:09:08.503600,24.46,260,2.5242127519206616e-09,11.806047474200113,1.317162303369344,7.032377,240000000.0,239990000.01996678
2023-05-20 00:09:23.220404,24.48,240,2.507802637610123e-09,11.111574093365107,1.3037245169457263,6.957164,240000000.0,239989999.95817384
2023-05-20 00:09:30.435724,24.48,240,2.507799772907425e-09,10.937955748156128,1.3058209976541597,6.997165,240000000.0,239990000.0565848
2023-05-20 00:09:37.645335,24.48,240,2.507643071933781e-09,11.632429128991589,1.297985824528744,6.991456,240000000.0,239990000.04514167
2023-05-20 00:09:44.803462,24.48,240,2.507656534300245e-09,12.153284164618071,1.3046391017781878,6.93997,240000000.0,239990000.05200756
2023-05-20 00:09:52.019952,24.52,240,2.507698730502886e-09,11.111574093365107,1.3087889954000012,6.996317,240000000.0,239989999.99250326
2023-05-20 00:10:06.900267,24.68,220,2.4885101045877386e-09,12.847757545453533,1.67951937147484,7.061129,240000000.0,239990000.0039464
2023-05-20 00:10:14.107584,24.67,220,2.4886030633221586e-09,11.979665819409092,1.6856375664733043,6.986157,240000000.0,239989999.97648284
2023-05-20 00:10:21.316986,24.61,220,2.488487746017264e-09,12.847757545453533,1.6848027114360857,6.989247,240000000.0,239989999.96046245
2023-05-20 00:10:28.579961,24.59,220,2.4885649784019216e-09,12.674139200244554,1.6765953738224704,7.038818,240000000.0,239990000.15957305
2023-05-20 00:10:35.787244,24.54,220,2.4885621623123595e-09,12.500520855035575,1.6809369367663547,6.991106,240000000.0,239990000.0565848
2023-05-20 00:10:50.693910,24.46,200,2.4689095969275214e-09,11.632429128991589,1.3540035742598273,6.895036,240000000.0,239990000.04056442
2023-05-20 00:10:57.901175,24.47,200,2.468913920024329e-09,12.32690250982705,1.3609452293001534,6.990093,240000000.0,239990000.0634507
2023-05-20 00:11:05.114690,24.62,200,2.4690013229717023e-09,12.674139200244554,1.3516620774822876,6.994359,240000000.0,239990000.0977801
2023-05-20 00:11:12.260988,24.7,200,2.4689846104697517e-09,11.806047474200568,1.347841470675115,6.925156,240000000.0,239990000.04285306
2023-05-20 00:11:19.481872,24.81,200,2.4689044092113664e-09,11.806047474200568,1.3603570927977608,7.00273,240000000.0,239990000.0222554
2023-05-20 00:11:34.564137,24.61,180,2.45210901148632e-09,11.285192438573631,1.3342392232821771,6.937885,240000000.0,239989999.81627893
2023-05-20 00:11:41.951143,24.56,180,2.451911235884544e-09,12.153284164617617,1.3602559050430454,7.163846,240000000.0,239989999.97419423
2023-05-20 00:11:49.178008,24.6,180,2.4518723974607545e-09,11.979665819409092,1.3719581892717483,6.997703,240000000.0,239990000.1069346
2023-05-20 00:11:56.342984,24.65,180,2.451938417572688e-09,11.45881078378261,1.3699689283993342,6.936811,240000000.0,239989999.98106012
2023-05-20 00:12:03.590582,24.61,180,2.4519889717624552e-09,11.45881078378261,1.3589253421865832,7.027426,240000000.0,239989999.9215558
2023-05-20 00:12:18.876273,24.65,160,2.4334213613070946e-09,11.806047474200568,1.6419023914125457,7.027324,240000000.0,239990000.02683264
2023-05-20 00:12:26.088963,24.69,160,2.4334999652767317e-09,11.632429128991589,1.6350473733789155,6.991533,240000000.0,239989999.9124013
2023-05-20 00:12:33.300074,24.77,160,2.4335823575986123e-09,12.500520855035575,1.6382071427022307,6.991955,240000000.0,239989999.99021462
2023-05-20 00:12:40.610667,24.86,160,2.4334850827121698e-09,11.979665819409547,1.6394001770466038,7.077426,240000000.0,239989999.98563737
2023-05-20 00:12:47.853265,24.75,160,2.4334335041741778e-09,11.458810783783065,1.6442728326671239,7.023441,240000000.0,239989999.93299893
2023-05-20 00:13:03.222920,24.71,140,2.4149675611485277e-09,12.326902509826596,1.3690535358638711,7.022846,240000000.0,239990000.00165775
2023-05-20 00:13:10.425713,24.62,140,2.4149460845592302e-09,11.632429128991589,1.3692043630191502,6.969628,240000000.0,239990000.10922325
2023-05-20 00:13:17.687955,24.61,140,2.414864056835863e-09,11.45881078378261,1.3669535968101238,7.042085,240000000.0,239989999.8963809
2023-05-20 00:13:24.936798,24.61,140,2.4147986443881254e-09,11.979665819409092,1.344499772302001,7.026685,240000000.0,239990000.07031658
2023-05-20 00:13:32.149906,24.48,140,2.4148335625097067e-09,11.806047474200113,1.3812126185486646,6.991929,240000000.0,239989999.92384443
2023-05-20 00:13:47.671734,24.66,120,2.3978484589635697e-09,12.32690250982705,1.3579336908205917,6.99465,240000000.0,239989999.88722637
2023-05-20 00:13:54.878464,24.71,120,2.398001864661057e-09,12.153284164618071,1.3671700313927597,6.985568,240000000.0,239990000.0542962
2023-05-20 00:14:02.041757,24.71,120,2.398042828173433e-09,11.632429128991589,1.386235513701521,6.945141,240000000.0,239989999.9719056
2023-05-20 00:14:09.195083,24.71,120,2.397977443504598e-09,11.632429128991589,1.3634151501889356,6.933169,240000000.0,239989999.9993691
2023-05-20 00:14:16.447109,24.71,120,2.398092305929435e-09,11.979665819409092,1.3815459677613158,7.028884,240000000.0,239989999.97877148
2023-05-20 00:14:32.055241,24.72,100,2.3774358306596524e-09,12.153284164618071,1.5950463174737766,6.94192,240000000.0,239989999.87807187
2023-05-20 00:14:39.372086,24.68,100,2.377427552536951e-09,13.021375890662057,1.600835121274524,7.098688,240000000.0,239989999.99250326
2023-05-20 00:14:46.562927,24.74,100,2.377487002930712e-09,12.500520855035575,1.6125895352360655,6.970685,240000000.0,239990000.09320286
2023-05-20 00:14:53.779246,24.67,100,2.3773824326013964e-09,11.45881078378261,1.616814325411766,6.986155,240000000.0,239989999.99250326
2023-05-20 00:15:00.954593,24.67,100,2.377421159909492e-09,13.194994235870581,1.5963232100867348,6.954189,240000000.0,239989999.94215345
2023-05-20 00:15:16.727040,24.71,80,2.3567600281953913e-09,11.632429128991589,1.5328823661240318,7.038029,240000000.0,239990000.07031658
2023-05-20 00:15:23.950098,24.7,80,2.3567842132308766e-09,11.632429128991589,1.5285138566585281,6.999889,240000000.0,239990000.06802794
2023-05-20 00:15:31.180330,24.76,80,2.356834413239215e-09,11.806047474200568,1.537629978079085,7.00905,240000000.0,239989999.9558852
2023-05-20 00:15:38.390736,24.81,80,2.356803495284315e-09,11.806047474200568,1.5336064712371114,6.991268,240000000.0,239989999.77279502
2023-05-20 00:15:45.686165,24.74,80,2.356815290914684e-09,11.285192438574086,1.5400272747155843,7.078273,240000000.0,239989999.97648284
2023-05-20 00:16:01.572595,24.78,60,2.336235982055198e-09,12.326902509826596,1.2901803777848975,7.039655,240000000.0,239989999.88493776
2023-05-20 00:16:08.832325,24.78,60,2.3362954984239307e-09,12.153284164618071,1.2919611237757969,7.040572,240000000.0,239989999.99479187
2023-05-20 00:16:16.050058,24.74,60,2.3361886675837695e-09,13.021375890662057,1.2865158190647812,7.00058,240000000.0,239990000.1138005
2023-05-20 00:16:23.229643,24.68,60,2.3363115060353528e-09,11.632429128991134,1.2962592775933237,6.958427,240000000.0,239989999.93757617
2023-05-20 00:16:30.439707,24.71,60,2.336308127422321e-09,11.285192438573631,1.2825472908935058,6.988908,240000000.0,239990000.06802794
2023-05-20 00:16:46.358349,24.71,40,2.3170287755047293e-09,11.806047474200113,1.5409397981342,6.924098,240000000.0,239989999.98792598
2023-05-20 00:16:53.595508,24.69,40,2.316894551162065e-09,12.326902509826596,1.553432503713358,7.018009,240000000.0,239990000.05887344
2023-05-20 00:17:00.807662,24.68,40,2.316548130477844e-09,11.458810783783065,1.5516614556002624,6.991017,240000000.0,239990000.1138005
2023-05-20 00:17:08.023948,24.66,40,2.3165274073921786e-09,12.500520855035575,1.5451756544403654,6.983119,240000000.0,239989999.87807187
2023-05-20 00:17:15.270770,24.73,40,2.3164991423255653e-09,11.806047474200568,1.5488651568826999,6.995643,240000000.0,239989999.89409226
2023-05-20 00:17:31.381735,24.74,20,2.2973685570232215e-09,11.111574093365107,1.3225645297045134,7.009876,240000000.0,239990000.3815699
2023-05-20 00:17:38.647551,24.71,20,2.297464140866988e-09,11.806047474200113,1.3148788203134918,7.049661,240000000.0,239989999.97877148
2023-05-20 00:17:45.823671,24.69,20,2.297416708335087e-09,11.806047474200113,1.3223024205616787,6.955962,240000000.0,239989999.8048358
2023-05-20 00:17:53.189039,24.71,20,2.297522865536061e-09,11.979665819409092,1.3211084092688095,7.130195,240000000.0,239989999.83229932
2023-05-20 00:18:00.442514,24.84,20,2.2974499666653085e-09,11.806047474200113,1.3294580806881406,7.033323,240000000.0,239990000.07947108
2023-05-20 00:18:16.690599,24.76,0,2.276936677917129e-09,11.45881078378261,1.518105662832861,7.00122,240000000.0,239990000.09091422
2023-05-20 00:18:24.001596,24.74,0,2.2769202779282348e-09,12.153284164618071,1.5199637864726727,7.091841,240000000.0,239990000.09320286
2023-05-20 00:18:31.416490,24.71,0,2.2769169583454664e-09,12.674139200244554,1.5200385789373427,7.193719,240000000.0,239989999.96046245
2023-05-20 00:18:38.727115,24.72,0,2.276941990638501e-09,12.674139200244554,1.5259366889268917,7.078476,240000000.0,239989999.99250326
2023-05-20 00:18:45.958129,24.68,0,2.2769666722224425e-09,12.500520855035575,1.5289635772845558,7.013861,240000000.0,239990000.1481299
