Time,ambient T,step,ddmtd,range,stdDev,timeTook,avgFi,avgFd
2023-05-21 18:06:11.437714,26.2,0,2.423531032077238e-09,17.43375174337507,2.029477666838695,6.940857,240003581.99092978,239003567.02312982
2023-05-21 18:06:20.727806,26.26,0,2.423510460250175e-09,52.30125523012566,1.9509059034075504,7.04361,240003581.06557867,239003566.24640617
2023-05-21 18:06:29.965168,26.23,0,2.423486052997731e-09,52.30125523012566,1.8413605438310334,7.013548,240003579.5001175,239003564.52978632
2023-05-21 18:06:39.251168,26.22,0,2.4235495118540845e-09,87.1687587168758,2.131004917325282,7.060947,240003580.86617088,239003566.01151216
2023-05-21 18:06:48.440146,26.2,0,2.423569735006112e-09,52.30125523012521,2.1931628450903013,6.960871,240003580.05796498,239003565.07587552
2023-05-21 18:07:02.793815,26.12,20,2.441053347282067e-09,34.86750348675014,2.3869717436188203,6.933977,240003582.74557573,239003567.9063518
2023-05-21 18:07:11.932809,26.04,20,2.441056834032411e-09,34.86750348675014,2.389035693454786,6.917792,240003584.6895272,239003569.68409646
2023-05-21 18:07:21.140003,26.09,20,2.4410453277562565e-09,17.43375174337507,2.3404947007118206,6.976948,240003585.57189304,239003570.59747145
2023-05-21 18:07:30.378992,26.13,20,2.4410404463057715e-09,34.86750348675014,2.3385591614643806,7.01351,240003586.85788116,239003571.98683977
2023-05-21 18:07:39.592951,26.13,20,2.4410048814522115e-09,34.86750348675014,2.206801651682406,6.99076,240003583.5867416,239003568.59569436
2023-05-21 18:07:53.811879,26.26,40,2.467276847977781e-09,34.86750348675059,8.91743188923748,6.975163,240003582.85379428,239003568.01007634
2023-05-21 18:08:03.001387,26.16,40,2.4680868200836836e-09,34.86750348675059,8.845296303454013,6.961478,240003580.13143826,239003565.14556697
2023-05-21 18:08:12.172624,26.2,40,2.467405857740613e-09,52.30125523012566,8.843587173397355,6.947678,240003581.7287607,239003566.76035073
2023-05-21 18:08:21.397196,26.09,40,2.467047768479965e-09,52.30125523012566,8.876296127918497,6.97672,240003582.5410866,239003567.61341155
2023-05-21 18:08:30.622805,26.1,40,2.4673737796377456e-09,52.30125523012566,8.820676361909593,6.996205,240003580.85408553,239003565.88548973
2023-05-21 18:08:44.721245,26.02,60,2.4928434449081463e-09,34.86750348675059,3.0311852441263722,6.944504,240003582.47956133,239003567.62307444
2023-05-21 18:08:53.921162,26.03,60,2.492760460249826e-09,34.86750348675059,3.166412432924808,6.977097,240003578.67103702,239003563.69529387
2023-05-21 18:09:03.070728,25.95,60,2.492782426777029e-09,34.86750348675059,2.9935629946194524,6.922478,240003585.35792792,239003570.42674413
2023-05-21 18:09:12.271090,25.86,60,2.4928385634576406e-09,34.86750348675059,2.7021905835205273,6.974229,240003587.43248332,239003572.57287943
2023-05-21 18:09:21.570041,25.88,60,2.492905509064337e-09,34.86750348675059,2.626213456109377,7.072892,240003586.5803308,239003571.58908147
2023-05-21 18:09:35.646419,25.82,80,2.510550906556519e-09,34.86750348675014,1.2683657504480532,7.049322,240003583.90659064,239003569.07494223
2023-05-21 18:09:44.905704,25.84,80,2.5106147140879005e-09,17.43375174337507,1.6337272878607545,7.028456,240003582.23922822,239003567.27762872
2023-05-21 18:09:54.303406,25.81,80,2.5106115760125886e-09,34.86750348675014,1.628431131292757,7.1711,240003586.685116,239003571.8416776
2023-05-21 18:10:03.557362,25.82,80,2.5106213389135635e-09,17.43375174337507,1.668074403450709,7.013987,240003583.27307257,239003568.28815565
2023-05-21 18:10:12.797096,25.76,80,2.510618200838248e-09,34.86750348675014,1.6592405557356373,7.011989,240003584.45056742,239003569.51990145
2023-05-21 18:10:26.722002,25.82,100,2.52799895397698e-09,17.43375174337507,1.348597247531183,6.989971,240003586.64309204,239003571.775641
2023-05-21 18:10:35.950892,25.78,100,2.528021269179192e-09,17.43375174337507,1.4841084620120848,7.005308,240003586.21035513,239003571.21156812
2023-05-21 18:10:45.148886,25.89,100,2.528026499304712e-09,17.43375174337507,1.5140679776254153,6.974122,240003584.39110216,239003569.5211888
2023-05-21 18:10:54.409320,25.86,100,2.5280561366826722e-09,17.43375174337507,1.6734307925139722,7.014088,240003578.69040105,239003563.72642282
2023-05-21 18:11:03.545560,25.8,100,2.52800383542747e-09,17.43375174337507,1.3794092056097016,6.913926,240003575.6785467,239003560.80727082
2023-05-21 18:11:17.200820,25.75,120,2.5454679218945428e-09,17.43375174337507,1.5569343652665666,6.902515,240003579.17793387,239003564.22646528
2023-05-21 18:11:26.460563,25.72,120,2.5454599023687367e-09,17.43375174337507,1.5120897070018762,7.032525,240003575.30802172,239003560.51326466
2023-05-21 18:11:35.945661,25.74,120,2.54545502091825e-09,17.43375174337507,1.4841084620120848,7.259922,240003576.0596463,239003561.0986852
2023-05-21 18:11:45.194735,25.73,120,2.545478730820623e-09,17.43375174337507,1.6153456309274272,7.025866,240003573.69119805,239003558.8398356
2023-05-21 18:11:54.448246,25.75,120,2.5454797768457287e-09,17.43375174337507,1.6208828037802818,6.983054,240003574.54019186,239003559.58435595
2023-05-21 18:12:08.039003,25.81,140,2.5629400278924693e-09,17.433751743375524,1.7551333876044914,6.961321,240003567.44569668,239003552.52637252
2023-05-21 18:12:17.200650,25.84,140,2.5629100418394677e-09,17.433751743375524,1.6023484948994793,6.937267,240003567.06597042,239003552.27306846
2023-05-21 18:12:26.426471,25.87,140,2.5629246861909347e-09,17.433751743375524,1.678769439452537,6.9993,240003567.9385855,239003553.020967
2023-05-21 18:12:35.611655,25.84,140,2.5629550209189713e-09,17.433751743375524,1.8265555225216032,6.960305,240003568.69899935,239003553.8014781
2023-05-21 18:12:44.880764,25.87,140,2.5628598326344353e-09,17.433751743375524,1.3055892789776544,7.034292,240003570.36677355,239003555.4474785
2023-05-21 18:12:58.286687,25.68,160,2.58033472803507e-09,17.43375174337507,1.5530878776314632,6.903133,240003573.1613666,239003558.34938008
2023-05-21 18:13:07.461478,25.68,160,2.5803176429583518e-09,17.43375174337507,1.4555730534534619,6.950156,240003573.74214867,239003558.78928328
2023-05-21 18:13:16.613741,25.75,160,2.580328103209403e-09,17.43375174337507,1.5160435866316602,6.926194,240003571.17346868,239003556.2983367
2023-05-21 18:13:25.819731,25.73,160,2.580337517435345e-09,17.43375174337507,1.5684153685718802,6.980674,240003571.835964,239003556.91054732
2023-05-21 18:13:35.057324,25.68,160,2.580342747560865e-09,17.43375174337507,1.5967447661631788,7.007553,240003573.15463728,239003558.21975392
2023-05-21 18:13:48.394520,25.52,180,2.5977873082310265e-09,17.43375174337507,1.6537026470921208,6.919461,240003575.3206564,239003560.35795105
2023-05-21 18:13:57.581866,25.49,180,2.597838214786117e-09,17.43375174337507,1.898297586810828,6.960906,240003576.0115797,239003561.0894767
2023-05-21 18:14:06.711507,25.52,180,2.597858786613166e-09,34.86750348675014,1.991309081579944,6.905358,240003574.38418135,239003559.56412062
2023-05-21 18:14:15.879444,25.57,180,2.5978525104625353e-09,17.43375174337507,1.9612700074077436,6.946699,240003575.32793504,239003560.36824945
2023-05-21 18:14:25.073378,25.61,180,2.5978650627637963e-09,17.43375174337507,2.0148572035765953,6.967846,240003574.25220415,239003559.44517732
2023-05-21 18:14:38.209597,25.62,200,2.6153096234287618e-09,34.86750348675059,2.0715946133526755,6.863263,240003567.43965402,239003552.50517562
2023-05-21 18:14:47.401105,25.49,200,2.6152824267760424e-09,34.86750348675059,1.9508275056868463,6.969218,240003566.03198886,239003551.1965092
2023-05-21 18:14:56.577726,25.58,200,2.6153322873060336e-09,34.86750348675059,2.164967122932805,6.951375,240003567.08849308,239003552.30429283
2023-05-21 18:15:05.725325,25.59,200,2.615340306831831e-09,34.86750348675059,2.187700964333551,6.919839,240003566.838272,239003551.92126596
2023-05-21 18:15:14.893852,25.58,200,2.615339260806727e-09,34.86750348675059,2.1836617317726743,6.942873,240003567.99090943,239003553.21153185
2023-05-21 18:15:27.935994,25.54,220,2.6335843793571735e-09,34.86750348675059,4.225569390824032,6.931679,240003571.2260673,239003556.28382745
2023-05-21 18:15:37.079134,25.53,220,2.6336753835412727e-09,34.86750348675059,4.38862637748569,6.913948,240003570.33862025,239003555.5123632
2023-05-21 18:15:46.324965,25.59,220,2.6335603207797665e-09,34.86750348675059,4.184743672741157,7.018162,240003570.7079092,239003555.8832344
2023-05-21 18:15:55.598945,25.5,220,2.6333908647127774e-09,34.86750348675059,3.8523970968208157,7.046108,240003571.53177097,239003556.6467052
2023-05-21 18:16:04.786533,25.53,220,2.63333124128181e-09,34.86750348675059,3.7272537546199858,6.957568,240003568.87272584,239003554.09038332
2023-05-21 18:16:17.730571,25.48,240,2.6516631799176476e-09,34.86750348675014,5.232491376478619,6.931205,240003567.68808976,239003552.7554135
2023-05-21 18:16:26.926248,25.56,240,2.65163563458986e-09,34.86750348675014,5.192010742415128,6.967459,240003568.17109057,239003553.38918895
2023-05-21 18:16:36.116847,25.62,240,2.65186192468756e-09,34.86750348675014,5.482224395331666,6.961636,240003562.44937822,239003547.61166063
2023-05-21 18:16:45.331391,25.6,240,2.651929916319336e-09,34.86750348675014,5.574057501457669,6.98848,240003559.4465883,239003544.62712783
2023-05-21 18:16:54.520589,25.56,240,2.651922245468556e-09,34.86750348675014,5.556054454556828,6.963867,240003560.72790685,239003545.96496007
2023-05-21 18:17:07.281248,25.58,260,2.6721328451891714e-09,52.30125523012521,7.798946915105321,6.906942,240003561.2878142,239003546.38301158
2023-05-21 18:17:16.498017,25.56,260,2.672507322176506e-09,52.30125523012521,7.985103557543747,6.990778,240003561.93918547,239003547.11600676
2023-05-21 18:17:25.658587,25.52,260,2.6727984658305698e-09,52.30125523012521,8.10688138646098,6.933392,240003558.88585696,239003544.1357634
2023-05-21 18:17:34.867814,25.67,260,2.672513947002223e-09,52.30125523012521,7.998711886346,6.977315,240003558.5953973,239003543.71259472
2023-05-21 18:17:44.142820,25.56,260,2.6728364714091334e-09,52.30125523012521,8.135626926744363,7.050807,240003556.47881845,239003541.74833
2023-05-21 18:17:56.885707,25.52,280,2.6942956764274085e-09,34.86750348675059,8.802198502210178,6.974259,240003560.78833345,239003545.89596805
2023-05-21 18:18:06.113915,25.43,280,2.694556834028643e-09,34.86750348675059,8.74805072881742,6.999737,240003560.54182038,239003545.67545012
2023-05-21 18:18:15.372286,25.49,280,2.6951422594121827e-09,34.86750348675059,8.627308461992355,7.032032,240003563.13370946,239003548.36215714
2023-05-21 18:18:24.551186,25.5,280,2.6947346582964008e-09,34.86750348675059,8.733384272930484,6.951643,240003561.93300548,239003547.04601386
2023-05-21 18:18:33.806847,25.52,280,2.695464435144355e-09,34.86750348675059,8.618283119581728,7.026558,240003557.54397452,239003542.76556674
2023-05-21 18:18:46.377233,25.59,300,2.7194431659702223e-09,34.86750348675059,2.717551075141427,6.963421,240003551.8820026,239003537.08682615
2023-05-21 18:18:55.586906,25.59,300,2.719448047420701e-09,34.86750348675059,2.812473700949272,6.985614,240003553.97399876,239003539.12307787
2023-05-21 18:19:04.763099,25.62,300,2.719466527197552e-09,34.86750348675059,2.9478310009702944,6.937199,240003553.82499227,239003539.0938577
2023-05-21 18:19:13.946947,25.5,300,2.7195251046034285e-09,34.86750348675059,2.439214884034743,6.958871,240003555.80616057,239003540.9712969
2023-05-21 18:19:23.181516,25.55,300,2.719393305440223e-09,34.86750348675059,3.11265845542173,7.010227,240003553.9142588,239003539.04847836
2023-05-21 18:19:35.621960,25.52,320,2.7372193165984713e-09,17.43375174337507,1.4431658272162369,6.935281,240003553.12225845,239003538.28141218
2023-05-21 18:19:44.923625,25.59,320,2.7372510460266228e-09,34.86750348675014,1.6283661768427409,7.073261,240003550.11644745,239003535.3148667
2023-05-21 18:19:54.065325,25.59,320,2.7371854951200885e-09,17.43375174337507,1.2247749867694573,6.915892,240003552.85871607,239003537.99960354
2023-05-21 18:20:03.293911,25.5,320,2.7371684100433824e-09,17.43375174337507,1.0976673994503248,7.005655,240003554.93038696,239003540.21025157
2023-05-21 18:20:12.490877,25.49,320,2.7371847977700225e-09,17.43375174337507,1.2198508986182093,6.974718,240003558.0998992,239003543.21525994
2023-05-21 18:20:24.886861,25.59,340,2.7546154114338777e-09,17.43375174337507,1.1974369247108982,7.049102,240003555.27811453,239003540.42942047
2023-05-21 18:20:34.011257,25.57,340,2.7546548117128225e-09,17.43375174337507,1.4535127462946011,6.89794,240003553.474518,239003538.64539734
2023-05-21 18:20:43.207109,25.62,340,2.7546255230098914e-09,17.43375174337507,1.2682144853329191,6.973079,240003555.61183414,239003540.79175374
2023-05-21 18:20:52.449772,25.5,340,2.7546443514617754e-09,17.43375174337507,1.390243837724296,7.017456,240003555.3139585,239003540.4379482
2023-05-21 18:21:01.678712,25.59,340,2.7546216875845057e-09,17.43375174337507,1.2418524653238616,7.00523,240003555.8770245,239003541.13989332
2023-05-21 18:21:13.928868,25.68,360,2.7726227336103396e-09,34.86750348675059,3.3308942906571644,6.978704,240003552.1481543,239003537.43861848
2023-05-21 18:21:23.179164,25.68,360,2.7725638075294406e-09,34.86750348675059,3.1959887561442595,7.025113,240003552.642279,239003537.79740345
2023-05-21 18:21:32.402003,25.68,360,2.77259867503293e-09,34.86750348675059,3.277634318355693,6.987249,240003551.36576724,239003536.52103245
2023-05-21 18:21:41.602017,25.73,360,2.772509762899024e-09,34.86750348675059,3.041161113463968,6.970719,240003553.6625271,239003538.8539026
2023-05-21 18:21:50.787746,25.62,360,2.772405857738616e-09,34.86750348675059,2.7391222406408913,6.955743,240003553.68134177,239003538.82014933
2023-05-21 18:22:02.886512,25.68,380,2.795513598327075e-09,34.86750348675014,8.423627922175353,6.950431,240003554.40261558,239003539.62984896
2023-05-21 18:22:12.090775,25.59,380,2.7951921199448362e-09,34.86750348675014,8.309417238157804,6.972066,240003557.2279709,239003542.37952238
2023-05-21 18:22:21.321975,25.59,380,2.7950456764301908e-09,34.86750348675014,8.258614884590827,7.006949,240003556.33516794,239003541.60229892
2023-05-21 18:22:30.455426,25.68,380,2.795918061367492e-09,34.86750348675014,8.527465951131097,6.907483,240003550.3821871,239003535.5181431
2023-05-21 18:22:39.616070,25.74,380,2.7957311715487276e-09,34.86750348675014,8.472768628238459,6.930929,240003550.18744868,239003535.40465277
2023-05-21 18:22:51.556941,25.69,400,2.815769177126028e-09,52.30125523012521,8.871851593524612,6.944668,240003551.7338201,239003536.87740853
2023-05-21 18:23:00.725959,25.72,400,2.8158943514634583e-09,52.30125523012521,8.871314743810972,6.939914,240003547.58841857,239003532.8304255
2023-05-21 18:23:09.982972,25.75,400,2.816318688980924e-09,34.86750348675014,8.85156805968409,7.026225,240003547.3469869,239003532.6051792
2023-05-21 18:23:19.200764,25.7,400,2.817070781030937e-09,34.86750348675014,8.726714442347856,6.99159,240003549.56066012,239003534.75799045
2023-05-21 18:23:28.393561,25.66,400,2.8171192468607822e-09,34.86750348675014,8.737636057003632,6.965441,240003551.46080178,239003536.741575
2023-05-21 18:23:40.277735,25.63,420,2.827669107388814e-09,34.86750348675014,6.972611283583301,6.909739,240003554.56837672,239003539.6856844
2023-05-21 18:23:49.470776,25.64,420,2.8282859135256904e-09,34.86750348675014,7.3982107515279205,6.964835,240003553.94062677,239003539.21092555
2023-05-21 18:23:58.727965,25.66,420,2.82859797768196e-09,34.86750348675014,7.616199235659987,7.019006,240003556.29080933,239003541.4269722
2023-05-21 18:24:07.955402,25.68,420,2.828463737793405e-09,34.86750348675014,7.542931472564807,6.99671,240003554.05488798,239003539.31371623
2023-05-21 18:24:17.150430,25.69,420,2.8282252440696258e-09,34.86750348675014,7.374179789396856,6.967917,240003548.29774436,239003533.53516433
2023-05-21 18:24:29.194731,25.73,440,2.842376917711211e-09,34.86750348675059,3.3841227572760584,6.931703,240003551.10469687,239003536.38553524
2023-05-21 18:24:38.451177,25.72,440,2.842176429566141e-09,17.43375174337507,2.8379295097351007,7.028956,240003554.11723727,239003539.26664165
2023-05-21 18:24:47.712070,25.72,440,2.8421994421184306e-09,52.30125523012566,2.9289165177942253,7.029291,240003558.09591654,239003543.27158594
2023-05-21 18:24:56.916011,25.81,440,2.8421739888408856e-09,34.86750348675059,2.852223874831531,6.977815,240003557.26697353,239003542.3891386
2023-05-21 18:25:06.149230,25.71,440,2.8422468619231993e-09,34.86750348675059,3.0527576991910195,7.008184,240003558.85495698,239003544.0140576
2023-05-21 18:25:18.309374,25.65,460,2.8592513947005413e-09,34.86750348675059,1.4222968738038981,6.938307,240003560.26591802,239003545.37104785
2023-05-21 18:25:27.491751,25.62,460,2.8592845188288536e-09,17.433751743375524,1.60607307344057,6.958518,240003560.012813,239003545.25710168
2023-05-21 18:25:36.615650,25.59,460,2.859315550906955e-09,17.433751743375524,1.763593454844967,6.895237,240003562.43344757,239003547.58558217
2023-05-21 18:25:45.816166,25.59,460,2.859315899581993e-09,17.433751743375524,1.765280396324996,6.977022,240003565.48911083,239003550.58361363
2023-05-21 18:25:55.072290,25.66,460,2.8593152022319245e-09,17.433751743375524,1.7619048291951682,7.030111,240003566.5866776,239003551.76768368
2023-05-21 18:26:07.473716,25.7,480,2.876729079498315e-09,17.43375174337507,1.662700100793925,7.040769,240003561.95676413,239003547.21323952
2023-05-21 18:26:16.687258,25.78,480,2.8767297768483832e-09,17.43375174337507,1.6662849681787402,6.988973,240003565.47372952,239003550.56985694
2023-05-21 18:26:25.834508,25.7,480,2.8767151324969237e-09,17.43375174337507,1.5892413209890224,6.916839,240003565.76363987,239003550.98212254
2023-05-21 18:26:35.048730,25.81,480,2.876763947001801e-09,17.43375174337507,1.8330517377647801,6.988578,240003566.85722402,239003552.00291368
2023-05-21 18:26:44.251148,25.88,480,2.8767308228734825e-09,17.43375174337507,1.6716473092507274,6.976737,240003560.93939993,239003546.04207826
2023-05-21 18:26:56.647642,25.8,500,2.894151324962445e-09,17.43375174337507,1.6023484948994375,6.933678,240003561.11216506,239003546.21213746
2023-05-21 18:27:05.829731,25.85,500,2.8941283124101453e-09,34.86750348675014,1.4781008544324223,6.949889,240003558.59237596,239003543.84478205
2023-05-21 18:27:15.042667,25.84,500,2.894145746161883e-09,17.43375174337507,1.5722231203044637,6.984792,240003561.38614476,239003546.5033469
2023-05-21 18:27:24.234103,25.72,500,2.8941405160363655e-09,17.43375174337507,1.5434283414546304,6.963921,240003559.46045893,239003544.716554
2023-05-21 18:27:33.397073,25.75,500,2.8941645746137712e-09,17.43375174337507,1.6716473092507274,6.935769,240003559.4535923,239003544.63573405
2023-05-21 18:27:46.007668,25.81,520,2.9116412133864236e-09,34.86750348675059,1.887553424226886,6.97191,240003561.64323246,239003546.74794337
2023-05-21 18:27:55.248095,25.85,520,2.9116433054366337e-09,34.86750348675059,1.903361637191012,7.016161,240003564.71001968,239003549.8442986
2023-05-21 18:28:04.406203,25.97,520,2.911629358435234e-09,34.86750348675059,1.8266292702260687,6.928965,240003559.30595914,239003544.56447122
2023-05-21 18:28:13.562945,25.98,520,2.911635634585864e-09,34.86750348675059,1.858949020897066,6.929594,240003555.23073462,239003540.34819067
2023-05-21 18:28:22.757620,25.97,520,2.9116112273334186e-09,34.86750348675059,1.7503175228679804,6.964497,240003556.09291223,239003541.3550234
2023-05-21 18:28:35.340940,25.86,540,2.9293277545316978e-09,34.86750348675059,2.795494162836729,6.862427,240003557.52721986,239003542.7627136
2023-05-21 18:28:44.559128,25.84,540,2.929300557878975e-09,34.86750348675059,2.724989994737694,6.99321,240003558.60789463,239003543.7268133
2023-05-21 18:28:53.818130,25.87,540,2.929363319385254e-09,34.86750348675059,2.904737029170715,7.03009,240003558.32073095,239003543.54589614
2023-05-21 18:29:03.003685,25.95,540,2.929321478381068e-09,34.86750348675059,2.7834411270856076,6.957425,240003553.69905773,239003538.8924799
2023-05-21 18:29:12.252607,25.91,540,2.929449442118886e-09,34.86750348675059,3.141805911550389,7.024408,240003554.7334512,239003539.94859537
2023-05-21 18:29:25.068938,26.0,560,2.9479714086499668e-09,34.86750348675014,5.197912428545043,6.925792,240003556.91608727,239003542.15696466
2023-05-21 18:29:34.368738,26.08,560,2.948250697352863e-09,34.86750348675014,5.562270672211086,7.075411,240003559.18689126,239003544.3258119
2023-05-21 18:29:43.522544,26.12,560,2.9482405857768568e-09,34.86750348675014,5.542267685388825,6.929641,240003557.5327132,239003542.79152063
2023-05-21 18:29:52.719483,26.14,560,2.9476928172971207e-09,34.86750348675014,4.770474104145,6.970468,240003559.42420298,239003544.58383995
2023-05-21 18:30:01.868229,26.23,560,2.9479776848005894e-09,34.86750348675014,5.194724908865474,6.910994,240003553.68079242,239003538.88649097
2023-05-21 18:30:14.726098,26.26,580,2.9714522315216135e-09,34.86750348675014,8.75547233356751,6.874151,240003558.88517025,239003544.13280976
2023-05-21 18:30:24.020981,26.11,580,2.9717311715494256e-09,34.86750348675014,8.799518377095493,7.064632,240003557.2921055,239003542.42764288
2023-05-21 18:30:33.233894,26.1,580,2.9710997210614537e-09,34.86750348675014,8.750365237861372,6.9789,240003561.6536698,239003546.90601727
2023-05-21 18:30:42.478484,26.13,580,2.971053695956869e-09,34.86750348675014,8.717351293614923,7.017005,240003560.2624847,239003545.39146194
2023-05-21 18:30:51.653599,26.04,580,2.97141283124255e-09,34.86750348675014,8.722343973125188,6.94236,240003561.7550217,239003546.87047404
2023-05-21 18:31:04.677614,25.98,600,2.9980428870290315e-09,34.86750348675059,3.632758863633697,6.904237,240003561.6200232,239003546.73632175
2023-05-21 18:31:13.839517,25.98,600,2.9981426080890027e-09,34.86750348675059,3.486594676117184,6.939351,240003562.46022755,239003547.5611087
2023-05-21 18:31:23.031846,26.0,600,2.9980868200834404e-09,34.86750348675059,3.5769527523238085,6.968006,240003559.45551497,239003544.73071125
2023-05-21 18:31:32.254866,25.97,600,2.9981666666663857e-09,34.86750348675059,3.324671846142937,6.998126,240003561.53844726,239003546.640261
2023-05-21 18:31:41.491295,25.94,600,2.998055788005318e-09,34.86750348675059,3.5697635528212404,7.00514,240003567.14850765,239003552.2456012
2023-05-21 18:31:54.669943,25.96,620,3.016146094840518e-09,34.86750348675059,1.4315260305024102,6.944729,240003565.49680147,239003550.57275906
2023-05-21 18:32:03.862817,25.98,620,3.016156903766595e-09,34.86750348675059,1.4787322502249207,6.95399,240003561.71395907,239003546.9415129
2023-05-21 18:32:13.058139,25.93,620,3.016169456067856e-09,34.86750348675059,1.5733139931763633,6.973083,240003563.53733167,239003548.69529372
2023-05-21 18:32:22.215561,25.96,620,3.016161785217087e-09,34.86750348675059,1.5028042665985704,6.933221,240003564.00453916,239003549.10004967
2023-05-21 18:32:31.403268,26.07,620,3.016153417016257e-09,34.86750348675059,1.4457514999384946,6.963119,240003559.66000405,239003544.90448603
2023-05-21 18:32:44.554903,26.1,600,2.9981506276147996e-09,34.86750348675059,3.4763018488922923,7.005845,240003558.2740377,239003543.3923613
2023-05-21 18:32:53.740635,26.22,600,2.998196304044381e-09,34.86750348675059,3.3620651100979595,6.964483,240003560.54127106,239003545.79740232
2023-05-21 18:33:02.977755,26.07,600,2.998099372384672e-09,34.86750348675059,3.530868891059058,7.009964,240003558.94861823,239003544.07718256
2023-05-21 18:33:12.169120,25.98,600,2.998041143653864e-09,34.86750348675059,3.825657710839176,6.959796,240003561.0722011,239003546.21014667
2023-05-21 18:33:21.422805,26.12,600,2.998019177126661e-09,34.86750348675059,3.9421378241123626,7.029083,240003554.21158513,239003539.3596743
2023-05-21 18:33:34.392436,25.95,580,2.971304393306798e-09,34.86750348675014,8.785153071835545,6.958101,240003557.10258573,239003542.2694844
2023-05-21 18:33:43.546818,25.98,580,2.9705258019542787e-09,34.86750348675014,8.614525932156955,6.926734,240003558.04098326,239003543.2994462
2023-05-21 18:33:52.740541,26.07,580,2.9700962343113405e-09,34.86750348675014,8.507672359816905,6.965127,240003554.81324175,239003539.9461272
2023-05-21 18:34:01.943408,26.13,580,2.9703811018147753e-09,34.86750348675014,8.587925735170813,6.974674,240003553.16084906,239003538.35232878
2023-05-21 18:34:11.105635,26.0,580,2.97084588563607e-09,34.86750348675014,8.697492035598962,6.930923,240003555.13350272,239003540.28434724
2023-05-21 18:34:23.964949,26.02,560,2.9479170153445393e-09,34.86750348675014,5.142270881733597,6.95785,240003556.38488257,239003541.50930437
2023-05-21 18:34:33.151741,26.01,560,2.9476380753166524e-09,52.30125523012566,4.706019906499494,6.962651,240003551.1776208,239003536.47610107
2023-05-21 18:34:42.419225,26.04,560,2.9476314504909757e-09,34.86750348675014,4.693020567599215,7.037198,240003553.80205762,239003538.94447625
2023-05-21 18:34:51.581892,26.07,560,2.947672942820131e-09,34.86750348675014,4.753890227515583,6.935042,240003557.7840329,239003542.9409281
2023-05-21 18:35:00.727238,26.01,560,2.9474096931687754e-09,34.86750348675014,4.317067602601568,6.918624,240003558.1917751,239003543.3597391
2023-05-21 18:35:13.376773,25.95,540,2.9293734309612918e-09,34.86750348675059,2.9414862110142233,6.923484,240003560.5658537,239003545.7223652
2023-05-21 18:35:22.559868,25.95,540,2.9293260111565264e-09,34.86750348675059,2.80120935300443,6.955164,240003559.14212063,239003544.33393016
2023-05-21 18:35:31.648846,26.01,540,2.929406206414548e-09,34.86750348675059,3.0314510725223505,6.866967,240003558.3218296,239003543.578413
2023-05-21 18:35:40.848313,26.06,540,2.9294034170142765e-09,34.86750348675059,3.0198893376730696,6.973285,240003558.03851128,239003543.1656897
2023-05-21 18:35:50.020740,26.09,540,2.929332287307142e-09,34.86750348675059,2.815336164494138,6.94226,240003556.57165566,239003541.73963165
2023-05-21 18:36:02.510918,26.13,520,2.911690725241376e-09,34.86750348675059,2.0955132131300527,6.91605,240003562.5622661,239003547.79607394
2023-05-21 18:36:11.680709,26.02,520,2.9116443514617355e-09,34.86750348675059,1.901650078807065,6.939841,240003562.41353428,239003547.6242706
2023-05-21 18:36:20.901901,25.97,520,2.911650627612362e-09,34.86750348675059,1.9232079397410116,6.996764,240003556.9725312,239003542.1306797
2023-05-21 18:36:30.041926,26.05,520,2.9116997907922884e-09,34.86750348675059,2.1317913677195124,6.912573,240003553.96740675,239003539.24454528
2023-05-21 18:36:39.211774,26.04,520,2.911682357040541e-09,34.86750348675059,2.067313014284641,6.945013,240003550.82220256,239003535.99037245
2023-05-21 18:36:51.663887,26.07,500,2.8942067642929885e-09,17.43375174337507,1.8747032353235815,6.947752,240003553.1225331,239003538.24763843
2023-05-21 18:37:00.875613,26.0,500,2.894181311015448e-09,17.43375174337507,1.7551333876044457,6.979815,240003555.53025824,239003540.7525094
2023-05-21 18:37:10.082518,25.98,500,2.8941600418383225e-09,17.43375174337507,1.6482797150514312,6.979768,240003557.2320909,239003542.4488825
2023-05-21 18:37:19.334665,26.03,500,2.8941732914896424e-09,17.43375174337507,1.715657031786053,7.023991,240003561.5683859,239003546.69986624
2023-05-21 18:37:28.528250,25.99,500,2.894164225938733e-09,17.43375174337507,1.6698618483464518,6.966454,240003560.03162768,239003545.28810918
2023-05-21 18:37:40.769129,25.94,480,2.8767510460255104e-09,17.43375174337507,1.7720114166743557,6.916277,240003559.4511203,239003544.68611655
2023-05-21 18:37:50.043976,26.08,480,2.8767611576015213e-09,34.86750348675014,1.8233719480890742,7.047193,240003558.06954858,239003543.1995768
2023-05-21 18:37:59.204712,26.01,480,2.8767684797772577e-09,17.43375174337507,1.8539999982178617,6.929307,240003559.17219663,239003544.36480293
2023-05-21 18:38:08.331782,26.06,480,2.8767775453281605e-09,17.43375174337507,1.8951694791614542,6.900396,240003559.4441163,239003544.69453394
2023-05-21 18:38:17.531889,25.97,480,2.876744769874883e-09,17.43375174337507,1.7415081679983835,6.974037,240003561.94028413,239003547.0419131
2023-05-21 18:38:29.715931,25.92,460,2.859359135286318e-09,17.433751743375524,1.962779380014538,6.933741,240003563.53087702,239003548.63439032
2023-05-21 18:38:38.891452,25.9,460,2.8593619246865942e-09,17.433751743375524,1.9748106142894042,6.952162,240003564.2022989,239003549.29350978
2023-05-21 18:38:48.061160,25.98,460,2.859359483961356e-09,17.433751743375524,1.964287530915399,6.944056,240003562.69753927,239003547.9065248
2023-05-21 18:38:57.374131,26.07,460,2.85938005578841e-09,17.433751743375524,2.0512018630596187,7.086839,240003566.19527805,239003551.30159232
2023-05-21 18:39:06.563077,26.04,460,2.8594124825666534e-09,17.433751743375524,2.180787646706032,6.962406,240003568.6773007,239003553.888963
2023-05-21 18:39:18.613977,26.13,440,2.8420965829831375e-09,34.86750348675059,2.6014855431605923,6.933809,240003567.4191914,239003552.53948668
2023-05-21 18:39:27.743802,26.12,440,2.842086122732104e-09,34.86750348675059,2.5748767627423157,6.905651,240003562.38455698,239003547.6125086
2023-05-21 18:39:36.938964,26.1,440,2.842120990235586e-09,34.86750348675059,2.687377156664514,6.968778,240003566.31324723,239003551.4075081
2023-05-21 18:39:46.068724,26.23,440,2.842120641560556e-09,34.86750348675059,2.6726884426912134,6.901924,240003566.8656013,239003551.96834233
2023-05-21 18:39:55.387676,26.2,440,2.842091004182585e-09,34.86750348675059,2.5859234510817934,7.09453,240003565.2067538,239003550.32768485
2023-05-21 18:40:07.236000,26.18,420,2.826107391907512e-09,34.86750348675014,5.421517377572346,6.880943,240003568.26159313,239003553.41795838
2023-05-21 18:40:16.424614,26.13,420,2.8262419804710468e-09,34.86750348675014,5.576041757473421,6.964093,240003569.08971226,239003554.17091492
2023-05-21 18:40:25.648210,26.18,420,2.8270777545296276e-09,34.86750348675014,6.471745000736488,7.000359,240003568.74788994,239003553.81129435
2023-05-21 18:40:34.808950,26.14,420,2.826463389118171e-09,34.86750348675014,5.839691687540069,6.93791,240003570.39945886,239003555.6072793
2023-05-21 18:40:43.952501,26.23,420,2.826473500694146e-09,34.86750348675014,5.845766986408693,6.919401,240003569.9171447,239003555.01745605
2023-05-21 18:40:55.686508,26.13,400,2.812167015341985e-09,34.86750348675014,8.236588035125319,6.918657,240003569.6486583,239003554.732781
2023-05-21 18:41:04.809869,26.2,400,2.8126098326360357e-09,52.30125523012521,8.37954198830747,6.89755,240003566.7182428,239003551.9121068
2023-05-21 18:41:13.997107,26.2,400,2.8125910041841285e-09,52.30125523012521,8.408408966607272,6.959033,240003560.81731075,239003545.92475367
2023-05-21 18:41:23.221693,26.2,400,2.8134815202230334e-09,52.30125523012521,8.679054397427535,6.997431,240003560.26784068,239003545.5144715
2023-05-21 18:41:32.467927,26.23,400,2.812562761506309e-09,52.30125523012521,8.396965753212456,7.015121,240003562.4831622,239003547.58451524
2023-05-21 18:41:44.286949,26.26,380,2.7931656206420643e-09,34.86750348675014,7.265004621705701,7.012905,240003567.14109167,239003552.3474511
2023-05-21 18:41:53.508948,26.16,380,2.7935135983268135e-09,34.86750348675014,7.536464969310265,6.993391,240003566.0461342,239003551.18307406
2023-05-21 18:42:02.790389,26.24,380,2.7926785216183023e-09,34.86750348675014,6.945641108689445,7.05373,240003570.44162014,239003555.51293394
2023-05-21 18:42:12.000526,26.29,380,2.793103556485799e-09,34.86750348675014,7.28349588024093,6.980969,240003570.0156126,239003555.1637473
2023-05-21 18:42:21.202644,26.39,380,2.79326115760154e-09,34.86750348675014,7.340810583193311,6.975443,240003565.1849178,239003550.26983553
2023-05-21 18:42:33.201500,26.47,360,2.7722758019506e-09,34.86750348675059,2.304003480317142,6.991395,240003566.78951874,239003551.86250165
2023-05-21 18:42:42.504928,26.36,360,2.772286262201647e-09,34.86750348675059,2.349614944271057,7.076893,240003567.55858457,239003552.6507775
2023-05-21 18:42:51.706709,26.29,360,2.772308926078917e-09,34.86750348675059,2.4266541175257057,6.977555,240003570.7004932,239003555.91975614
2023-05-21 18:43:00.864587,26.26,360,2.7722649930245166e-09,34.86750348675059,2.266873388640652,6.922026,240003569.3775626,239003554.4385562
2023-05-21 18:43:10.074112,26.21,360,2.7722953277525525e-09,34.86750348675059,2.3843276479206295,6.98447,240003571.00372487,239003556.1369608
2023-05-21 18:43:22.123537,26.23,340,2.754736401670983e-09,17.43375174337507,1.8731191921857808,6.930175,240003573.4744863,239003558.5219559
2023-05-21 18:43:31.263692,26.19,340,2.7548068340280384e-09,17.43375174337507,2.168606731265402,6.91679,240003574.3102961,239003559.50203416
2023-05-21 18:43:40.416135,26.25,340,2.754793235701664e-09,17.43375174337507,2.1149584568884685,6.929179,240003575.12179795,239003560.16665968
2023-05-21 18:43:49.600816,26.19,340,2.7548901673613513e-09,17.43375174337507,2.470440230111687,6.95949,240003573.37025037,239003558.46787754
2023-05-21 18:43:58.759504,26.12,340,2.754949093442261e-09,17.43375174337507,2.661729801907714,6.933871,240003572.07643437,239003557.27478483
2023-05-21 18:44:10.908328,25.99,320,2.7374961645760864e-09,34.86750348675014,2.6081684590886707,6.958093,240003575.38946033,239003560.57138202
2023-05-21 18:44:20.072842,26.04,320,2.7374633891227995e-09,34.86750348675014,2.503647149812244,6.933501,240003574.00239506,239003559.09831038
2023-05-21 18:44:29.249581,26.2,320,2.737493723850837e-09,34.86750348675014,2.621324590217324,6.9524,240003577.13180655,239003562.17538646
2023-05-21 18:44:38.422975,26.27,320,2.7375080195272744e-09,34.86750348675014,2.6594383326634605,6.945832,240003579.15802053,239003564.32955977
2023-05-21 18:44:47.682687,26.2,320,2.7375031380767708e-09,34.86750348675014,2.639538300799846,7.032955,240003578.0608656,239003563.09589294
2023-05-21 18:44:59.936815,26.18,300,2.7192622036270727e-09,34.86750348675059,4.892242520343771,6.923619,240003575.33809772,239003560.44859225
2023-05-21 18:45:09.067530,26.14,300,2.71869072524486e-09,34.86750348675059,5.565088075499642,6.904633,240003580.02596632,239003565.1417542
2023-05-21 18:45:18.309133,26.28,300,2.7190882147846472e-09,34.86750348675059,5.188296273804273,7.015408,240003579.78453457,239003564.94594458
2023-05-21 18:45:27.498971,26.33,300,2.7190543933062433e-09,34.86750348675059,5.127240254180679,6.964187,240003574.45353463,239003559.50529483
2023-05-21 18:45:36.724634,26.2,300,2.7189525801960636e-09,34.86750348675059,4.959601919486064,6.998742,240003580.04038635,239003565.17008772
2023-05-21 18:45:49.181511,26.26,280,2.69035181310785e-09,34.86750348675059,8.369860391357586,6.974332,240003580.5871098,239003565.76191565
2023-05-21 18:45:58.398746,26.2,280,2.691019525799645e-09,34.86750348675059,8.568498269576292,6.988307,240003581.38968503,239003566.4299229
2023-05-21 18:46:07.525853,26.09,280,2.690230822870723e-09,34.86750348675059,8.316558560455745,6.895305,240003581.64883277,239003566.77190325
2023-05-21 18:46:16.719045,26.01,280,2.690329846580677e-09,34.86750348675059,8.314137128541645,6.965657,240003580.35680202,239003565.5158985
2023-05-21 18:46:25.930967,25.92,280,2.6905746164551692e-09,34.86750348675059,8.389334035661093,6.984842,240003581.12916395,239003566.14927873
2023-05-21 18:46:38.487717,26.08,260,2.6693434449109446e-09,52.30125523012521,5.583449069425562,6.963411,240003583.86072132,239003568.87122792
2023-05-21 18:46:47.639206,26.04,260,2.669807182707121e-09,34.86750348675014,6.092920978051108,6.911153,240003584.13209173,239003569.2736136
2023-05-21 18:46:56.829969,26.07,260,2.6694609483976485e-09,34.86750348675014,5.728649147276054,6.96656,240003586.69816265,239003571.7049328
2023-05-21 18:47:06.007438,26.1,260,2.6696907252456664e-09,52.30125523012521,5.976771668214622,6.951097,240003584.4077195,239003569.54745454
2023-05-21 18:47:15.213620,25.97,260,2.669999651326307e-09,34.86750348675014,6.345676266746964,6.975992,240003584.16615036,239003569.26560962
2023-05-21 18:47:27.859183,26.02,240,2.6509560669468877e-09,34.86750348675014,4.120380518820478,6.882301,240003586.63279203,239003571.62174696
2023-05-21 18:47:37.140400,26.13,240,2.650876569038963e-09,34.86750348675014,3.971480566240731,7.053641,240003587.29061812,239003572.32790303
2023-05-21 18:47:46.345586,26.13,240,2.650875871688889e-09,34.86750348675014,3.957847672431828,6.978602,240003588.0035148,239003573.09109908
2023-05-21 18:47:55.550354,26.1,240,2.651007670852056e-09,34.86750348675014,4.226810706297156,6.97768,240003583.6157189,239003568.65533537
2023-05-21 18:48:04.690625,26.1,240,2.6508751743388146e-09,34.86750348675014,3.9610846896182466,6.917138,240003583.6426362,239003568.78875104
2023-05-21 18:48:17.502992,26.07,220,2.6330380055774477e-09,34.86750348675059,3.028452935301162,6.94697,240003585.48757046,239003570.48917055
2023-05-21 18:48:26.750916,26.1,220,2.63317573221624e-09,34.86750348675059,3.3770607644123793,7.025761,240003583.3216885,239003568.36919767
2023-05-21 18:48:35.929238,26.0,220,2.6331596931646376e-09,34.86750348675059,3.3459041962278024,6.948087,240003584.05175182,239003569.20715642
2023-05-21 18:48:45.077763,25.98,220,2.633237796372452e-09,34.86750348675059,3.526312681127704,6.921134,240003584.82548708,239003569.82289454
2023-05-21 18:48:54.332838,26.05,220,2.6332008368187506e-09,34.86750348675059,3.4432705778472563,7.030708,240003587.5357579,239003572.6063524
2023-05-21 18:49:07.272472,26.13,200,2.615611924684008e-09,17.43375174337507,3.0450910985853317,6.920607,240003588.7677741,239003573.75677067
2023-05-21 18:49:16.477906,26.19,200,2.615697698742585e-09,17.43375174337507,3.2659464508503517,6.979694,240003588.04924676,239003573.10301882
2023-05-21 18:49:25.741784,26.07,200,2.615614714084276e-09,34.86750348675059,3.0585310171186433,7.037753,240003588.27557188,239003573.3957152
2023-05-21 18:49:34.978140,26.16,200,2.61552510460032e-09,17.43375174337507,2.8012087670839323,7.011057,240003588.53595564,239003573.5311671
2023-05-21 18:49:44.117044,26.07,200,2.6156631799141367e-09,34.86750348675059,3.1830112665378096,6.912213,240003590.3288407,239003575.4498627
2023-05-21 18:49:57.205950,26.14,180,2.5982158298487785e-09,17.43375174337507,3.1442511942651077,6.933639,240003593.23604742,239003578.2100437
2023-05-21 18:50:06.426793,26.1,180,2.5981990934471067e-09,17.43375174337507,3.1006280425868504,6.995174,240003593.21860608,239003578.3419156
2023-05-21 18:50:15.583609,26.07,180,2.5982458159017487e-09,17.43375174337507,3.2207146272973914,6.931697,240003593.21379945,239003578.20441553
2023-05-21 18:50:24.808964,26.15,180,2.598190725246279e-09,34.86750348675014,3.080524498845148,7.000176,240003594.88047537,239003579.8548549
2023-05-21 18:50:33.983486,26.1,180,2.598197698746976e-09,17.43375174337507,3.096960961061641,6.946266,240003593.2235501,239003578.28910053
2023-05-21 18:50:47.196312,26.26,160,2.5807639470030065e-09,17.43375174337507,3.096960961061641,6.956912,240003597.10335082,239003582.13259077
2023-05-21 18:50:56.444987,26.2,160,2.580634937240107e-09,17.43375174337507,2.7335123881949097,7.014989,240003594.85726604,239003579.92452115
2023-05-21 18:51:05.527445,26.08,160,2.5806440027910074e-09,17.43375174337507,2.7608124687036626,6.849855,240003598.7965321,239003583.7331733
2023-05-21 18:51:14.802043,26.07,160,2.580672245468814e-09,17.43375174337507,2.8439981520974285,7.042991,240003598.71152282,239003583.7534974
2023-05-21 18:51:24.093139,26.04,160,2.5807280334743986e-09,17.43375174337507,3.000767467815129,7.063123,240003598.12717,239003583.07177827
2023-05-21 18:51:37.446609,26.12,140,2.563166317990141e-09,17.433751743375524,2.6255765649784446,6.954178,240003598.15353796,239003583.2052853
2023-05-21 18:51:46.624811,26.11,140,2.563241980472722e-09,17.433751743375524,2.854080473352841,6.952766,240003600.07867503,239003585.00798792
2023-05-21 18:51:55.814414,26.24,140,2.5632308228716005e-09,17.433751743375524,2.8216750714427072,6.959593,240003599.26964504,239003584.35951382
2023-05-21 18:52:05.048699,26.2,140,2.5633148535550186e-09,17.433751743375524,3.056290679701194,7.003903,240003598.91202933,239003583.87188056
2023-05-21 18:52:14.331058,26.17,140,2.5632398884225096e-09,17.433751743375524,2.848035875945223,7.056317,240003596.66676852,239003581.7101697
2023-05-21 18:52:27.844611,26.22,120,2.5457702231497898e-09,17.43375174337507,2.74194455603399,6.958814,240003593.48310986,239003578.4816831
2023-05-21 18:52:37.026495,26.2,120,2.545801255227896e-09,17.43375174337507,2.833875670270545,6.94288,240003594.33965713,239003579.38126364
2023-05-21 18:52:46.308444,26.17,120,2.5457175732195213e-09,17.43375174337507,2.5776300203653544,7.055199,240003594.91906598,239003579.88945442
2023-05-21 18:52:55.457494,26.07,120,2.5459773361205073e-09,17.43375174337507,3.301954874389506,6.924358,240003591.09035334,239003576.20224407
2023-05-21 18:53:04.598297,26.2,120,2.5458755230103193e-09,17.43375174337507,3.0413474608676325,6.917486,240003589.69010392,239003574.7199445
2023-05-21 18:53:18.140755,26.2,100,2.5285805439349907e-09,17.43375174337507,3.3908522639198213,6.91012,240003592.13284972,239003577.09952614
2023-05-21 18:53:27.287963,26.23,100,2.5285320781051558e-09,17.43375174337507,3.2737013991540245,6.92105,240003592.10387242,239003577.07350683
2023-05-21 18:53:36.429919,26.33,100,2.528612622038191e-09,34.86750348675014,3.467594820349148,6.912906,240003586.90883178,239003572.03864208
2023-05-21 18:53:45.703691,26.11,100,2.528417364018721e-09,17.43375174337507,2.9749655029263944,7.045378,240003588.5535343,239003573.55122602
2023-05-21 18:53:54.991018,26.11,100,2.528371338914143e-09,17.43375174337507,2.8450081843903345,7.061724,240003591.41226238,239003576.40513593
2023-05-21 18:54:08.732558,26.39,80,2.510979079499348e-09,34.86750348675014,2.9829005512916065,6.939789,240003585.87800878,239003571.0117595
2023-05-21 18:54:17.954443,26.33,80,2.510825313808967e-09,34.86750348675014,2.5156567193357695,6.997689,240003584.68609387,239003569.70174417
2023-05-21 18:54:27.059640,26.26,80,2.510935843795015e-09,34.86750348675014,2.865524522824863,6.881015,240003586.63334137,239003571.62335798
2023-05-21 18:54:36.171565,26.22,80,2.5109016736416083e-09,34.86750348675014,2.754278804073027,6.88502,240003587.4779406,239003572.620559
2023-05-21 18:54:45.398318,26.33,80,2.5109267782441196e-09,34.86750348675014,2.8199828071820146,7.002209,240003585.55115572,239003570.54908615
2023-05-21 18:54:59.227620,26.2,60,2.4924923291480182e-09,34.86750348675059,4.444153304203045,6.919184,240003586.91542378,239003571.90383944
2023-05-21 18:55:08.383119,26.1,60,2.4925212691759396e-09,34.86750348675059,4.731638186406587,6.929339,240003586.9034758,239003572.02146277
2023-05-21 18:55:17.569832,26.06,60,2.4925777545315835e-09,34.86750348675059,4.6960878547280185,6.961983,240003588.850998,239003573.84113738
2023-05-21 18:55:26.797852,26.13,60,2.4925801952568282e-09,34.86750348675059,4.528280322590231,6.996617,240003588.55916494,239003573.5776872
2023-05-21 18:55:36.087941,26.23,60,2.492520920500903e-09,34.86750348675059,4.861502727427378,7.065007,240003588.5874556,239003573.68409777
2023-05-21 18:55:50.032941,26.06,40,2.4634442119955123e-09,52.30125523012566,8.269894785656886,6.893383,240003590.4248366,239003575.39933905
2023-05-21 18:55:59.315758,25.97,40,2.4641415620650883e-09,52.30125523012566,8.464367972777008,7.055513,240003590.79275227,239003575.89949915
2023-05-21 18:56:08.503577,26.03,40,2.4631105299873643e-09,34.86750348675059,8.04368626398613,6.960019,240003588.22585726,239003573.25754297
2023-05-21 18:56:17.750887,26.06,40,2.463294630405646e-09,52.30125523012566,8.176541509785714,7.020035,240003585.01638025,239003570.02292278
2023-05-21 18:56:27.002854,26.19,40,2.463147489540873e-09,34.86750348675059,8.060884501209358,7.008772,240003587.72088304,239003572.796097
2023-05-21 18:56:41.153455,26.39,20,2.4409944212011677e-09,34.86750348675014,2.1551609291148637,6.989952,240003586.36526698,239003571.36909738
2023-05-21 18:56:50.374173,26.24,20,2.4410543933071672e-09,34.86750348675014,2.377897125511395,6.996225,240003584.9814976,239003570.11536625
2023-05-21 18:56:59.517111,26.36,20,2.4410920502109287e-09,34.86750348675014,2.506930579999446,6.917913,240003584.68938988,239003569.69991934
2023-05-21 18:57:08.788929,26.41,20,2.4411011157618374e-09,34.86750348675014,2.5345335011445047,7.047612,240003587.7339297,239003572.77468735
2023-05-21 18:57:17.952754,26.32,20,2.4411732914940567e-09,34.86750348675014,2.7631265894093313,6.937685,240003588.33036783,239003573.47049844
2023-05-21 18:57:32.212725,26.2,0,2.4236820083673516e-09,52.30125523012566,2.586940863088635,6.990749,240003588.8385007,239003573.8315294
2023-05-21 18:57:41.446875,26.14,0,2.4236875871679095e-09,17.43375174337507,2.597818883578577,7.009769,240003589.6432733,239003574.76169008
2023-05-21 18:57:50.613986,26.07,0,2.4237897489531457e-09,69.73500697350073,2.919502543821434,6.941808,240003589.74448788,239003574.72572637
2023-05-21 18:57:59.790705,26.02,0,2.423908298465021e-09,17.43375174337507,3.2207146272973914,6.954109,240003590.72271234,239003575.84868985
2023-05-21 18:58:08.962767,26.01,0,2.423858786610054e-09,87.1687587168758,3.1050575303258725,6.9489,240003591.25213185,239003576.2844014
